1.954648494720458984e-01
2.000012099742889404e-01
1.000000000000000000e+00
8.657039403915405273e-01
9.775478839874267578e-01
4.313336014747619629e-01
8.790974617004394531e-01
9.700242280960083008e-01
3.133490085601806641e-01
4.854255914688110352e-01
2.943016886711120605e-01
1.000000000000000000e+00
1.917529106140136719e-01
2.757185697555541992e-01
1.000000000000000000e+00
9.881083965301513672e-01
9.999990463256835938e-01
1.999484896659851074e-01
9.999641776084899902e-01
9.999996423721313477e-01
9.992238283157348633e-01
9.985327720642089844e-01
1.000000000000000000e+00
2.126606702804565430e-01
1.000000000000000000e+00
1.873413920402526855e-01
2.055656611919403076e-01
1.931350529193878174e-01
1.954072117805480957e-01
2.467058897018432617e-01
1.810826063156127930e-01
9.998089075088500977e-01
1.846792995929718018e-01
8.179509639739990234e-01
2.226203680038452148e-01
2.097352445125579834e-01
9.999988675117492676e-01
3.349983096122741699e-01
1.833131015300750732e-01
1.925749778747558594e-01
2.434481084346771240e-01
1.815469264984130859e-01
5.707235336303710938e-01
1.000000000000000000e+00
4.757786095142364502e-01
4.376963973045349121e-01
9.999905824661254883e-01
1.887129545211791992e-01
6.442369818687438965e-01
3.544445335865020752e-01
2.301825284957885742e-01
4.473055005073547363e-01
9.992161989212036133e-01
9.998486042022705078e-01
1.790989935398101807e-01
9.917018413543701172e-01
7.084029912948608398e-01
1.853845119476318359e-01
1.000000000000000000e+00
2.386457026004791260e-01
9.990090131759643555e-01
2.482078075408935547e-01
9.998066425323486328e-01
3.338392078876495361e-01
9.999955892562866211e-01
2.767064869403839111e-01
8.421034812927246094e-01
1.000000000000000000e+00
9.998097419738769531e-01
2.247551381587982178e-01
1.868636608123779297e-01
3.321959674358367920e-01
9.999998807907104492e-01
3.399664163589477539e-01
5.150735974311828613e-01
1.786420643329620361e-01
9.999953508377075195e-01
1.949456632137298584e-01
1.000000000000000000e+00
2.020550668239593506e-01
2.493959069252014160e-01
9.838986396789550781e-01
9.999994039535522461e-01
7.040906548500061035e-01
2.383027672767639160e-01
9.999996423721313477e-01
3.664043545722961426e-01
1.859949529170989990e-01
1.000000000000000000e+00
8.934055566787719727e-01
1.832061409950256348e-01
8.088101744651794434e-01
9.890511035919189453e-01
5.095103979110717773e-01
3.009041547775268555e-01
8.633737564086914062e-01
1.000000000000000000e+00
3.712877929210662842e-01
1.914451122283935547e-01
1.824848651885986328e-01
2.114391624927520752e-01
2.309879958629608154e-01
2.080050110816955566e-01
1.806367039680480957e-01
3.950641751289367676e-01
9.554045200347900391e-01
2.982644438743591309e-01
2.428683638572692871e-01
2.030394375324249268e-01
5.713562369346618652e-01
6.098182201385498047e-01
1.853486299514770508e-01
9.999997615814208984e-01
2.007099092006683350e-01
2.159527242183685303e-01
1.868033707141876221e-01
1.908086240291595459e-01
1.922217011451721191e-01
2.099724113941192627e-01
2.287871539592742920e-01
1.927235126495361328e-01
2.759160101413726807e-01
1.940148770809173584e-01
9.999930262565612793e-01
7.087774276733398438e-01
1.827193200588226318e-01
6.060478687286376953e-01
9.999997615814208984e-01
4.148687720298767090e-01
9.995073080062866211e-01
3.686691522598266602e-01
1.926118433475494385e-01
1.790139079093933105e-01
1.787268519401550293e-01
1.000000000000000000e+00
1.000000000000000000e+00
1.787987053394317627e-01
2.021594941616058350e-01
9.999431967735290527e-01
3.819784522056579590e-01
2.686479389667510986e-01
3.014485836029052734e-01
3.921068012714385986e-01
1.846456229686737061e-01
1.841829419136047363e-01
1.909658014774322510e-01
9.998422265052795410e-01
1.884399950504302979e-01
1.906771361827850342e-01
1.884798109531402588e-01
9.844049215316772461e-01
5.344418883323669434e-01
1.888997554779052734e-01
1.856551766395568848e-01
1.943386495113372803e-01
2.497728765010833740e-01
1.833416521549224854e-01
2.133081853389739990e-01
8.445432782173156738e-01
1.930678188800811768e-01
2.197857201099395752e-01
1.803371310234069824e-01
2.141935825347900391e-01
1.828517913818359375e-01
3.255163431167602539e-01
9.252649545669555664e-01
5.934621691703796387e-01
2.061574757099151611e-01
1.000000000000000000e+00
9.952406287193298340e-01
1.000000000000000000e+00
9.999876022338867188e-01
2.027421593666076660e-01
4.044890403747558594e-01
1.972343623638153076e-01
2.099271118640899658e-01
2.811273336410522461e-01
2.056688666343688965e-01
9.552547931671142578e-01
9.999933242797851562e-01
1.842799782752990723e-01
2.225561738014221191e-01
9.998754262924194336e-01
3.439202904701232910e-01
9.255774021148681641e-01
9.999976158142089844e-01
2.334843575954437256e-01
1.809592545032501221e-01
1.981386244297027588e-01
2.734550237655639648e-01
1.809720993041992188e-01
9.628460407257080078e-01
1.809180378913879395e-01
6.363564729690551758e-01
2.307967543601989746e-01
9.980657100677490234e-01
8.616279363632202148e-01
1.000000000000000000e+00
4.195254743099212646e-01
9.999551773071289062e-01
9.994272589683532715e-01
1.000000000000000000e+00
2.919231653213500977e-01
2.759798467159271240e-01
2.274164557456970215e-01
2.934675812721252441e-01
2.297458052635192871e-01
3.633556962013244629e-01
9.784616231918334961e-01
3.718103468418121338e-01
1.906276941299438477e-01
1.000000000000000000e+00
1.000000000000000000e+00
9.818700551986694336e-01
5.356650948524475098e-01
2.140565514564514160e-01
2.888023853302001953e-01
9.999976158142089844e-01
7.685675621032714844e-01
2.902925312519073486e-01
3.079514503479003906e-01
9.676156044006347656e-01
9.997465610504150391e-01
1.000000000000000000e+00
2.146692574024200439e-01
1.000000000000000000e+00
9.728307723999023438e-01
9.999939799308776855e-01
2.335630953311920166e-01
6.143985390663146973e-01
1.000000000000000000e+00
3.453461527824401855e-01
2.342608571052551270e-01
3.130946159362792969e-01
9.020048379898071289e-01
1.000000000000000000e+00
2.221690714359283447e-01
9.181301593780517578e-01
9.921187162399291992e-01
3.518598973751068115e-01
3.706927001476287842e-01
1.000000000000000000e+00
2.917008697986602783e-01
7.413177490234375000e-01
8.347494602203369141e-01
2.133810222148895264e-01
9.999961853027343750e-01
9.156343340873718262e-01
3.214249610900878906e-01
5.671123862266540527e-01
3.242723941802978516e-01
9.999259710311889648e-01
2.284193634986877441e-01
5.632790327072143555e-01
9.999575614929199219e-01
7.473958730697631836e-01
1.000000000000000000e+00
3.160204589366912842e-01
3.863241970539093018e-01
2.285459935665130615e-01
4.897115230560302734e-01
4.452993869781494141e-01
9.995521306991577148e-01
3.820610046386718750e-01
4.547674059867858887e-01
2.937261164188385010e-01
1.000000000000000000e+00
1.996321678161621094e-01
9.992324113845825195e-01
4.649164676666259766e-01
9.999986886978149414e-01
3.512212634086608887e-01
8.050174713134765625e-01
7.247289419174194336e-01
9.993342757225036621e-01
4.181466400623321533e-01
9.999986290931701660e-01
2.116234004497528076e-01
8.251305818557739258e-01
1.870333850383758545e-01
3.014415204524993896e-01
9.996394515037536621e-01
1.000000000000000000e+00
1.000000000000000000e+00
4.974555075168609619e-01
6.624279618263244629e-01
1.829990148544311523e-01
1.985969841480255127e-01
9.994901418685913086e-01
2.808930873870849609e-01
5.639899969100952148e-01
2.470490932464599609e-01
9.990579485893249512e-01
2.021114230155944824e-01
2.042629420757293701e-01
9.896794557571411133e-01
9.997547864913940430e-01
1.000000000000000000e+00
1.780586540699005127e-01
2.027088403701782227e-01
9.985953569412231445e-01
6.712385416030883789e-01
1.000000000000000000e+00
3.383725881576538086e-01
1.000000000000000000e+00
6.815099120140075684e-01
3.782138228416442871e-01
1.000000000000000000e+00
9.999994635581970215e-01
3.039500713348388672e-01
9.999998211860656738e-01
3.844587802886962891e-01
2.908498048782348633e-01
9.303705692291259766e-01
3.015694618225097656e-01
1.850506067276000977e-01
7.852523922920227051e-01
1.000000000000000000e+00
1.874584555625915527e-01
9.998857975006103516e-01
1.000000000000000000e+00
2.045715153217315674e-01
9.684852361679077148e-01
2.326573431491851807e-01
2.138131260871887207e-01
2.671751379966735840e-01
6.570703387260437012e-01
2.719146013259887695e-01
1.000000000000000000e+00
2.710969448089599609e-01
9.999879598617553711e-01
5.207057595252990723e-01
3.933425545692443848e-01
1.782510578632354736e-01
2.378436625003814697e-01
4.842237234115600586e-01
1.792468130588531494e-01
2.930541038513183594e-01
4.903535544872283936e-01
9.003218412399291992e-01
2.063087224960327148e-01
4.093616008758544922e-01
1.925975382328033447e-01
8.391051292419433594e-01
5.351204872131347656e-01
5.170100331306457520e-01
9.937695264816284180e-01
1.000000000000000000e+00
9.995912313461303711e-01
2.310368418693542480e-01
9.952052831649780273e-01
9.910193681716918945e-01
3.628807067871093750e-01
6.919471621513366699e-01
9.970659017562866211e-01
1.982436478137969971e-01
2.347623109817504883e-01
9.992455244064331055e-01
2.390526831150054932e-01
3.404129445552825928e-01
3.637169301509857178e-01
1.000000000000000000e+00
9.999958276748657227e-01
5.019791126251220703e-01
1.000000000000000000e+00
9.992386102676391602e-01
1.948439180850982666e-01
9.789415001869201660e-01
1.786052882671356201e-01
4.598511159420013428e-01
3.508164882659912109e-01
4.567789435386657715e-01
1.000000000000000000e+00
4.236201345920562744e-01
9.045633673667907715e-01
1.000000000000000000e+00
9.999998807907104492e-01
7.543209791183471680e-01
9.762620925903320312e-01
9.999989271163940430e-01
2.095997035503387451e-01
4.705606698989868164e-01
2.093711793422698975e-01
2.221140265464782715e-01
1.913260817527770996e-01
1.869925856590270996e-01
1.913917958736419678e-01
2.452641129493713379e-01
2.144421637058258057e-01
4.232000708580017090e-01
2.911471426486968994e-01
2.130567133426666260e-01
6.666551828384399414e-01
1.918689608573913574e-01
2.576476931571960449e-01
2.123956680297851562e-01
1.977111697196960449e-01
1.796529293060302734e-01
1.889148354530334473e-01
2.811108827590942383e-01
2.108187973499298096e-01
1.892435848712921143e-01
1.854619085788726807e-01
3.004647493362426758e-01
7.970228195190429688e-01
5.418960452079772949e-01
2.769793272018432617e-01
1.900199949741363525e-01
2.002635896205902100e-01
2.353438436985015869e-01
5.758835673332214355e-01
3.650807738304138184e-01
3.034632205963134766e-01
3.046903908252716064e-01
1.786080896854400635e-01
2.058047056198120117e-01
3.482106924057006836e-01
4.460562467575073242e-01
1.984624564647674561e-01
2.079333066940307617e-01
1.889040470123291016e-01
4.445200264453887939e-01
2.198945879936218262e-01
2.926077842712402344e-01
2.047099471092224121e-01
4.709594249725341797e-01
9.972245693206787109e-01
3.044532537460327148e-01
2.478508353233337402e-01
2.459445595741271973e-01
2.048920691013336182e-01
2.277957201004028320e-01
1.947119832038879395e-01
1.869729757308959961e-01
3.329339921474456787e-01
1.932418942451477051e-01
8.389120101928710938e-01
2.113409042358398438e-01
1.965428590774536133e-01
2.447995841503143311e-01
1.780426502227783203e-01
1.983405649662017822e-01
2.231780290603637695e-01
1.879442334175109863e-01
2.166117429733276367e-01
1.880079805850982666e-01
2.103050947189331055e-01
2.579138875007629395e-01
4.422720670700073242e-01
3.085106611251831055e-01
2.260408103466033936e-01
2.589974105358123779e-01
2.037722468376159668e-01
2.787176966667175293e-01
1.899591088294982910e-01
1.917414963245391846e-01
2.197142243385314941e-01
1.859018504619598389e-01
2.077754437923431396e-01
2.210170328617095947e-01
2.861394286155700684e-01
8.737192153930664062e-01
4.564810991287231445e-01
2.329023182392120361e-01
1.990619003772735596e-01
1.862785220146179199e-01
8.167396783828735352e-01
3.571796417236328125e-01
2.754476368427276611e-01
2.500924468040466309e-01
2.554184496402740479e-01
1.853627562522888184e-01
2.979090213775634766e-01
3.800393939018249512e-01
5.995924472808837891e-01
2.513732314109802246e-01
4.893636703491210938e-01
1.905900239944458008e-01
4.555546939373016357e-01
5.415647029876708984e-01
4.836556315422058105e-01
6.352412700653076172e-01
2.965678572654724121e-01
2.053523063659667969e-01
4.617066085338592529e-01
4.038420319557189941e-01
4.498940408229827881e-01
6.004862189292907715e-01
5.978787541389465332e-01
2.876631021499633789e-01
2.747710943222045898e-01
1.845968365669250488e-01
2.900882661342620850e-01
7.233463525772094727e-01
2.244055569171905518e-01
3.726822137832641602e-01
2.067439556121826172e-01
1.904821395874023438e-01
5.974293351173400879e-01
8.951824903488159180e-01
3.377203345298767090e-01
4.587917625904083252e-01
2.398771643638610840e-01
2.350713014602661133e-01
3.753035962581634521e-01
3.564032614231109619e-01
2.468333244323730469e-01
3.417472839355468750e-01
5.163906812667846680e-01
4.164389073848724365e-01
2.278291583061218262e-01
2.751751542091369629e-01
6.186838150024414062e-01
7.725360393524169922e-01
2.612517178058624268e-01
2.497249245643615723e-01
2.067452073097229004e-01
5.848722457885742188e-01
2.837142348289489746e-01
2.135642170906066895e-01
2.397674024105072021e-01
2.834362089633941650e-01
2.304057180881500244e-01
2.305181622505187988e-01
2.329361140727996826e-01
2.212668657302856445e-01
2.345562279224395752e-01
2.339758276939392090e-01
1.908312141895294189e-01
4.441683888435363770e-01
4.004427790641784668e-01
4.552066326141357422e-01
7.099783420562744141e-01
1.956990659236907959e-01
5.479382276535034180e-01
1.891311407089233398e-01
3.080865740776062012e-01
2.997873127460479736e-01
1.979742646217346191e-01
9.970597028732299805e-01
6.615349054336547852e-01
2.825529575347900391e-01
3.965678215026855469e-01
7.962441444396972656e-01
1.800387799739837646e-01
2.377196252346038818e-01
4.684940576553344727e-01
2.467336952686309814e-01
2.566277384757995605e-01
5.116595029830932617e-01
2.596520185470581055e-01
4.198719859123229980e-01
1.970226466655731201e-01
3.662454187870025635e-01
5.900740623474121094e-01
2.429133653640747070e-01
3.033314943313598633e-01
4.916663467884063721e-01
4.411986768245697021e-01
1.855635941028594971e-01
1.807331442832946777e-01
9.988449811935424805e-01
2.471288442611694336e-01
2.887114286422729492e-01
3.331130146980285645e-01
2.051940858364105225e-01
2.918888032436370850e-01
1.996736228466033936e-01
3.264968991279602051e-01
2.289933264255523682e-01
7.057121992111206055e-01
2.312848269939422607e-01
2.743771970272064209e-01
1.827496588230133057e-01
1.865954101085662842e-01
1.845299005508422852e-01
2.333951592445373535e-01
2.214388251304626465e-01
2.382567524909973145e-01
1.850555241107940674e-01
1.837647259235382080e-01
2.035764455795288086e-01
2.252888679504394531e-01
2.616038918495178223e-01
1.917893886566162109e-01
9.997515082359313965e-01
7.255334258079528809e-01
1.862367391586303711e-01
1.983766853809356689e-01
2.026241123676300049e-01
1.835345625877380371e-01
3.612396419048309326e-01
2.917743325233459473e-01
2.001763582229614258e-01
2.163461446762084961e-01
2.391405105590820312e-01
7.417892813682556152e-01
2.002619206905364990e-01
2.497101426124572754e-01
2.040186524391174316e-01
1.999973952770233154e-01
2.663262486457824707e-01
1.865186095237731934e-01
6.316165924072265625e-01
2.126257717609405518e-01
2.588204741477966309e-01
2.944997549057006836e-01
2.056023776531219482e-01
1.814322173595428467e-01
2.056871652603149414e-01
2.077616453170776367e-01
2.613433003425598145e-01
1.905192434787750244e-01
2.017526924610137939e-01
2.040929794311523438e-01
1.845939457416534424e-01
1.802637875080108643e-01
1.885414421558380127e-01
1.804096698760986328e-01
2.065033018589019775e-01
2.164225876331329346e-01
2.003227472305297852e-01
1.802775263786315918e-01
7.497439384460449219e-01
5.080845952033996582e-01
2.279399633407592773e-01
1.815040409564971924e-01
2.155626416206359863e-01
2.313019335269927979e-01
2.009688913822174072e-01
1.839089691638946533e-01
1.845940053462982178e-01
2.740377187728881836e-01
1.862746477127075195e-01
1.803666353225708008e-01
1.890645027160644531e-01
1.779939532279968262e-01
1.867449581623077393e-01
1.864176094532012939e-01
1.855272650718688965e-01
2.526526451110839844e-01
1.939787268638610840e-01
4.732408523559570312e-01
1.781148314476013184e-01
1.850363016128540039e-01
1.922824978828430176e-01
1.901266276836395264e-01
1.993154585361480713e-01
3.494184613227844238e-01
2.213657200336456299e-01
6.947666406631469727e-01
1.811966001987457275e-01
2.353661060333251953e-01
1.936942040920257568e-01
2.117348909378051758e-01
2.804194390773773193e-01
5.589219927787780762e-01
1.956697702407836914e-01
1.846546232700347900e-01
2.139005661010742188e-01
1.959977149963378906e-01
2.433345317840576172e-01
1.868070662021636963e-01
1.907563209533691406e-01
1.912630200386047363e-01
1.876110732555389404e-01
9.299499988555908203e-01
2.135283648967742920e-01
1.845041811466217041e-01
3.193151950836181641e-01
5.104154944419860840e-01
2.066040933132171631e-01
2.416670620441436768e-01
2.215270400047302246e-01
1.795310378074645996e-01
2.255809307098388672e-01
2.059396803379058838e-01
2.981598377227783203e-01
3.138908147811889648e-01
1.966635584831237793e-01
2.142138481140136719e-01
7.106257677078247070e-01
2.087824046611785889e-01
7.188529968261718750e-01
2.095957100391387939e-01
1.934758424758911133e-01
1.794937252998352051e-01
2.133420705795288086e-01
6.287493109703063965e-01
2.026749253273010254e-01
2.111812233924865723e-01
1.000000000000000000e+00
1.842943131923675537e-01
3.929883241653442383e-01
2.577547132968902588e-01
2.023317813873291016e-01
7.737527489662170410e-01
1.840550303459167480e-01
3.040806055068969727e-01
2.955228090286254883e-01
3.540349006652832031e-01
2.656016945838928223e-01
2.057066261768341064e-01
9.832530021667480469e-01
5.545510649681091309e-01
4.580920040607452393e-01
2.304172217845916748e-01
2.428051531314849854e-01
3.779996931552886963e-01
6.455304026603698730e-01
1.807307004928588867e-01
9.424663186073303223e-01
1.880098283290863037e-01
1.965453028678894043e-01
1.927701234817504883e-01
2.053516805171966553e-01
6.979742050170898438e-01
2.176748514175415039e-01
1.820052862167358398e-01
1.781971454620361328e-01
2.020441889762878418e-01
1.871562004089355469e-01
1.982457339763641357e-01
2.739645540714263916e-01
1.958222985267639160e-01
2.769088447093963623e-01
1.878933012485504150e-01
1.802648007869720459e-01
1.864087283611297607e-01
2.015827000141143799e-01
5.155163407325744629e-01
1.818139851093292236e-01
1.806171536445617676e-01
4.346449971199035645e-01
1.833205223083496094e-01
2.546218633651733398e-01
1.832104623317718506e-01
9.715891480445861816e-01
2.287512719631195068e-01
2.233976423740386963e-01
3.532069921493530273e-01
1.850107014179229736e-01
2.114865183830261230e-01
2.229282557964324951e-01
3.367855548858642578e-01
2.886427640914916992e-01
1.830048859119415283e-01
1.828376352787017822e-01
2.475230693817138672e-01
1.806853413581848145e-01
2.382766604423522949e-01
9.343631267547607422e-01
2.128640413284301758e-01
1.840656697750091553e-01
7.055725455284118652e-01
7.218602895736694336e-01
2.154104113578796387e-01
2.029372155666351318e-01
1.916655898094177246e-01
5.613605380058288574e-01
1.788192093372344971e-01
1.917861998081207275e-01
1.889460384845733643e-01
2.205883264541625977e-01
2.277486920356750488e-01
1.845980882644653320e-01
1.797548830509185791e-01
1.849142611026763916e-01
