0.000000000000000000e+00
2.000000000000000042e-03
2.000000000000000042e-03
4.000000000000000083e-03
4.000000000000000083e-03
6.000000000000000125e-03
6.000000000000000125e-03
8.000000000000000167e-03
8.000000000000000167e-03
1.000000000000000021e-02
1.000000000000000021e-02
1.400000000000000029e-02
1.400000000000000029e-02
1.600000000000000033e-02
1.600000000000000033e-02
2.000000000000000042e-02
2.000000000000000042e-02
2.400000000000000050e-02
2.400000000000000050e-02
2.599999999999999881e-02
2.599999999999999881e-02
2.800000000000000058e-02
2.800000000000000058e-02
3.200000000000000067e-02
3.200000000000000067e-02
3.400000000000000244e-02
3.400000000000000244e-02
3.599999999999999728e-02
3.599999999999999728e-02
3.799999999999999906e-02
3.799999999999999906e-02
4.000000000000000083e-02
4.000000000000000083e-02
4.200000000000000261e-02
4.200000000000000261e-02
4.399999999999999745e-02
4.399999999999999745e-02
5.000000000000000278e-02
5.000000000000000278e-02
5.399999999999999939e-02
5.399999999999999939e-02
5.800000000000000294e-02
5.800000000000000294e-02
5.999999999999999778e-02
5.999999999999999778e-02
6.199999999999999956e-02
6.199999999999999956e-02
6.600000000000000311e-02
6.600000000000000311e-02
6.800000000000000488e-02
6.800000000000000488e-02
7.000000000000000666e-02
7.000000000000000666e-02
7.399999999999999634e-02
7.399999999999999634e-02
7.599999999999999811e-02
7.599999999999999811e-02
7.799999999999999989e-02
7.799999999999999989e-02
8.000000000000000167e-02
8.000000000000000167e-02
8.200000000000000344e-02
8.200000000000000344e-02
8.599999999999999312e-02
8.599999999999999312e-02
8.799999999999999489e-02
8.799999999999999489e-02
8.999999999999999667e-02
8.999999999999999667e-02
9.199999999999999845e-02
9.199999999999999845e-02
9.400000000000000022e-02
9.400000000000000022e-02
9.600000000000000200e-02
9.600000000000000200e-02
9.800000000000000377e-02
9.800000000000000377e-02
1.019999999999999934e-01
1.019999999999999934e-01
1.039999999999999952e-01
1.039999999999999952e-01
1.100000000000000006e-01
1.100000000000000006e-01
1.140000000000000041e-01
1.140000000000000041e-01
1.160000000000000059e-01
1.160000000000000059e-01
1.179999999999999938e-01
1.179999999999999938e-01
1.199999999999999956e-01
1.199999999999999956e-01
1.219999999999999973e-01
1.219999999999999973e-01
1.239999999999999991e-01
1.239999999999999991e-01
1.260000000000000009e-01
1.260000000000000009e-01
1.280000000000000027e-01
1.280000000000000027e-01
1.340000000000000080e-01
1.340000000000000080e-01
1.360000000000000098e-01
1.380000000000000115e-01
1.380000000000000115e-01
1.400000000000000133e-01
1.400000000000000133e-01
1.419999999999999873e-01
1.419999999999999873e-01
1.459999999999999909e-01
1.459999999999999909e-01
1.499999999999999944e-01
1.499999999999999944e-01
1.539999999999999980e-01
1.539999999999999980e-01
1.559999999999999998e-01
1.559999999999999998e-01
1.600000000000000033e-01
1.600000000000000033e-01
1.620000000000000051e-01
1.620000000000000051e-01
1.640000000000000069e-01
1.640000000000000069e-01
1.660000000000000087e-01
1.660000000000000087e-01
1.680000000000000104e-01
1.680000000000000104e-01
1.719999999999999862e-01
1.739999999999999880e-01
1.739999999999999880e-01
1.799999999999999933e-01
1.799999999999999933e-01
1.819999999999999951e-01
1.819999999999999951e-01
1.920000000000000040e-01
1.920000000000000040e-01
1.940000000000000058e-01
1.940000000000000058e-01
1.960000000000000075e-01
1.960000000000000075e-01
1.980000000000000093e-01
1.980000000000000093e-01
2.000000000000000111e-01
2.000000000000000111e-01
2.039999999999999869e-01
2.039999999999999869e-01
2.079999999999999905e-01
2.079999999999999905e-01
2.119999999999999940e-01
2.119999999999999940e-01
2.159999999999999976e-01
2.159999999999999976e-01
2.179999999999999993e-01
2.179999999999999993e-01
2.220000000000000029e-01
2.220000000000000029e-01
2.240000000000000047e-01
2.240000000000000047e-01
2.260000000000000064e-01
2.260000000000000064e-01
2.280000000000000082e-01
2.280000000000000082e-01
2.340000000000000135e-01
2.340000000000000135e-01
2.359999999999999876e-01
2.359999999999999876e-01
2.379999999999999893e-01
2.379999999999999893e-01
2.399999999999999911e-01
2.399999999999999911e-01
2.439999999999999947e-01
2.439999999999999947e-01
2.459999999999999964e-01
2.459999999999999964e-01
2.479999999999999982e-01
2.479999999999999982e-01
2.540000000000000036e-01
2.540000000000000036e-01
2.580000000000000071e-01
2.580000000000000071e-01
2.600000000000000089e-01
2.600000000000000089e-01
2.700000000000000178e-01
2.700000000000000178e-01
2.819999999999999729e-01
2.819999999999999729e-01
2.839999999999999747e-01
2.839999999999999747e-01
2.879999999999999782e-01
2.879999999999999782e-01
2.939999999999999836e-01
2.939999999999999836e-01
2.959999999999999853e-01
2.959999999999999853e-01
2.979999999999999871e-01
2.979999999999999871e-01
2.999999999999999889e-01
2.999999999999999889e-01
3.019999999999999907e-01
3.019999999999999907e-01
3.039999999999999925e-01
3.039999999999999925e-01
3.059999999999999942e-01
3.059999999999999942e-01
3.119999999999999996e-01
3.119999999999999996e-01
3.160000000000000031e-01
3.160000000000000031e-01
3.240000000000000102e-01
3.240000000000000102e-01
3.300000000000000155e-01
3.300000000000000155e-01
3.320000000000000173e-01
3.320000000000000173e-01
3.360000000000000209e-01
3.360000000000000209e-01
3.479999999999999760e-01
3.479999999999999760e-01
3.599999999999999867e-01
3.599999999999999867e-01
3.619999999999999885e-01
3.619999999999999885e-01
3.659999999999999920e-01
3.659999999999999920e-01
3.679999999999999938e-01
3.679999999999999938e-01
3.719999999999999973e-01
3.719999999999999973e-01
3.739999999999999991e-01
3.739999999999999991e-01
3.760000000000000009e-01
3.760000000000000009e-01
3.780000000000000027e-01
3.780000000000000027e-01
3.840000000000000080e-01
3.840000000000000080e-01
3.880000000000000115e-01
3.880000000000000115e-01
3.900000000000000133e-01
3.900000000000000133e-01
3.920000000000000151e-01
3.920000000000000151e-01
3.940000000000000169e-01
3.960000000000000187e-01
3.960000000000000187e-01
4.000000000000000222e-01
4.000000000000000222e-01
4.079999999999999738e-01
4.079999999999999738e-01
4.099999999999999756e-01
4.099999999999999756e-01
4.119999999999999774e-01
4.119999999999999774e-01
4.179999999999999827e-01
4.179999999999999827e-01
4.219999999999999862e-01
4.219999999999999862e-01
4.239999999999999880e-01
4.239999999999999880e-01
4.259999999999999898e-01
4.259999999999999898e-01
4.319999999999999951e-01
4.319999999999999951e-01
4.339999999999999969e-01
4.339999999999999969e-01
4.359999999999999987e-01
4.359999999999999987e-01
4.400000000000000022e-01
4.400000000000000022e-01
4.420000000000000040e-01
4.420000000000000040e-01
4.520000000000000129e-01
4.520000000000000129e-01
4.540000000000000147e-01
4.540000000000000147e-01
4.560000000000000164e-01
4.560000000000000164e-01
4.620000000000000218e-01
4.620000000000000218e-01
4.660000000000000253e-01
4.660000000000000253e-01
4.719999999999999751e-01
4.719999999999999751e-01
4.739999999999999769e-01
4.739999999999999769e-01
4.759999999999999787e-01
4.759999999999999787e-01
4.799999999999999822e-01
4.799999999999999822e-01
4.819999999999999840e-01
4.819999999999999840e-01
4.859999999999999876e-01
4.859999999999999876e-01
4.879999999999999893e-01
4.879999999999999893e-01
4.899999999999999911e-01
4.919999999999999929e-01
4.919999999999999929e-01
4.959999999999999964e-01
4.959999999999999964e-01
5.040000000000000036e-01
5.040000000000000036e-01
5.100000000000000089e-01
5.100000000000000089e-01
5.120000000000000107e-01
5.120000000000000107e-01
5.140000000000000124e-01
5.140000000000000124e-01
5.220000000000000195e-01
5.220000000000000195e-01
5.260000000000000231e-01
5.260000000000000231e-01
5.340000000000000302e-01
5.340000000000000302e-01
5.440000000000000391e-01
5.440000000000000391e-01
5.460000000000000409e-01
5.460000000000000409e-01
5.540000000000000480e-01
5.540000000000000480e-01
5.580000000000000515e-01
5.580000000000000515e-01
5.600000000000000533e-01
5.600000000000000533e-01
5.620000000000000551e-01
5.620000000000000551e-01
5.659999999999999476e-01
5.659999999999999476e-01
5.699999999999999512e-01
5.699999999999999512e-01
5.719999999999999529e-01
5.719999999999999529e-01
5.759999999999999565e-01
5.759999999999999565e-01
5.779999999999999583e-01
5.779999999999999583e-01
5.899999999999999689e-01
5.899999999999999689e-01
5.959999999999999742e-01
5.959999999999999742e-01
6.019999999999999796e-01
6.019999999999999796e-01
6.079999999999999849e-01
6.079999999999999849e-01
6.159999999999999920e-01
6.159999999999999920e-01
6.239999999999999991e-01
6.239999999999999991e-01
6.340000000000000080e-01
6.340000000000000080e-01
6.380000000000000115e-01
6.380000000000000115e-01
6.500000000000000222e-01
6.500000000000000222e-01
6.540000000000000258e-01
6.540000000000000258e-01
6.660000000000000364e-01
6.660000000000000364e-01
6.700000000000000400e-01
6.700000000000000400e-01
6.879999999999999449e-01
6.879999999999999449e-01
6.939999999999999503e-01
6.939999999999999503e-01
7.059999999999999609e-01
7.059999999999999609e-01
7.079999999999999627e-01
7.079999999999999627e-01
7.119999999999999662e-01
7.119999999999999662e-01
7.179999999999999716e-01
7.179999999999999716e-01
7.239999999999999769e-01
7.239999999999999769e-01
7.259999999999999787e-01
7.259999999999999787e-01
7.339999999999999858e-01
7.339999999999999858e-01
7.379999999999999893e-01
7.379999999999999893e-01
7.399999999999999911e-01
7.399999999999999911e-01
7.479999999999999982e-01
7.479999999999999982e-01
7.520000000000000018e-01
7.520000000000000018e-01
7.620000000000000107e-01
7.620000000000000107e-01
7.700000000000000178e-01
7.700000000000000178e-01
7.780000000000000249e-01
7.780000000000000249e-01
7.800000000000000266e-01
7.800000000000000266e-01
7.960000000000000409e-01
7.960000000000000409e-01
8.080000000000000515e-01
8.080000000000000515e-01
8.139999999999999458e-01
8.139999999999999458e-01
8.219999999999999529e-01
8.219999999999999529e-01
8.419999999999999707e-01
8.419999999999999707e-01
8.539999999999999813e-01
8.539999999999999813e-01
8.719999999999999973e-01
8.719999999999999973e-01
8.739999999999999991e-01
8.739999999999999991e-01
8.980000000000000204e-01
8.980000000000000204e-01
9.000000000000000222e-01
9.000000000000000222e-01
9.040000000000000258e-01
9.040000000000000258e-01
9.060000000000000275e-01
9.060000000000000275e-01
9.120000000000000329e-01
9.120000000000000329e-01
9.160000000000000364e-01
9.160000000000000364e-01
9.280000000000000471e-01
9.280000000000000471e-01
9.340000000000000524e-01
9.340000000000000524e-01
9.379999999999999449e-01
9.379999999999999449e-01
9.399999999999999467e-01
9.399999999999999467e-01
9.559999999999999609e-01
9.559999999999999609e-01
9.579999999999999627e-01
9.599999999999999645e-01
9.619999999999999662e-01
9.619999999999999662e-01
9.799999999999999822e-01
9.799999999999999822e-01
9.879999999999999893e-01
9.879999999999999893e-01
9.899999999999999911e-01
9.899999999999999911e-01
1.000000000000000000e+00
1.000000000000000000e+00
