5.642441511154174805e-01
5.847096443176269531e-02
1.481194496154785156e-01
9.116299152374267578e-01
5.582818388938903809e-01
1.513682007789611816e-01
1.000000000000000000e+00
6.495833396911621094e-03
9.986371397972106934e-01
2.215580642223358154e-01
7.761275768280029297e-02
3.681576848030090332e-01
2.106409072875976562e-01
2.704712748527526855e-02
1.000000000000000000e+00
9.591814279556274414e-01
3.713767528533935547e-01
9.914729595184326172e-01
2.939541935920715332e-01
1.000000000000000000e+00
5.944430828094482422e-03
3.690841495990753174e-01
4.506558775901794434e-01
9.995895028114318848e-01
9.999882578849792480e-01
4.495084285736083984e-04
9.886011866910848767e-07
3.026163578033447266e-02
9.999908208847045898e-01
1.000000000000000000e+00
9.999892711639404297e-01
4.591244757175445557e-01
5.290096998214721680e-02
7.514819502830505371e-02
9.999481439590454102e-01
4.083428382873535156e-01
4.070209860801696777e-01
9.999998211860656738e-01
1.000000000000000000e+00
9.886971116065979004e-01
3.015998005867004395e-01
9.999589920043945312e-01
9.016072750091552734e-02
1.744067668914794922e-02
2.509858608245849609e-01
3.584831953048706055e-01
9.904816746711730957e-01
9.985551834106445312e-01
2.371311485767364502e-01
1.541149318218231201e-01
8.805705308914184570e-01
4.074126482009887695e-03
4.594841003417968750e-01
9.934833049774169922e-01
1.800403594970703125e-01
9.999810457229614258e-01
1.074689030647277832e-01
3.764743506908416748e-01
3.260098993778228760e-01
1.000000000000000000e+00
9.999997019767761230e-01
1.796201765537261963e-01
9.999871253967285156e-01
9.999990463256835938e-01
4.186562299728393555e-01
9.994075298309326172e-01
8.382074236869812012e-01
2.160466015338897705e-01
1.000000000000000000e+00
9.535095691680908203e-01
2.829449176788330078e-01
9.986033439636230469e-01
2.726436853408813477e-01
1.108187735080718994e-01
9.999483823776245117e-01
3.506176769733428955e-01
1.496725380420684814e-01
1.160375177860260010e-01
8.561182022094726562e-01
1.057276427745819092e-01
1.512997150421142578e-01
1.248883306980133057e-01
4.614874720573425293e-02
1.808467209339141846e-01
2.358553111553192139e-01
2.501790523529052734e-01
6.307908892631530762e-02
9.999989271163940430e-01
3.396718502044677734e-01
1.041035652160644531e-01
6.854635477066040039e-01
7.747552394866943359e-01
4.846168458461761475e-01
9.999985694885253906e-01
7.213397026062011719e-01
1.000000000000000000e+00
9.999694824218750000e-01
1.000000000000000000e+00
1.000000000000000000e+00
1.843431591987609863e-01
3.040611743927001953e-01
4.517377614974975586e-01
5.428438186645507812e-01
1.549002230167388916e-01
9.949193000793457031e-01
3.384342789649963379e-01
9.999970197677612305e-01
1.561753451824188232e-01
3.028964996337890625e-02
4.103246629238128662e-01
7.491884827613830566e-01
9.826800227165222168e-02
3.679744005203247070e-01
7.665333151817321777e-01
3.276230096817016602e-01
9.999795556068420410e-01
1.475203633308410645e-01
9.272888898849487305e-01
1.185368299484252930e-01
3.562647998332977295e-01
9.999989271163940430e-01
7.726049423217773438e-01
1.000000000000000000e+00
4.506427049636840820e-02
1.216254234313964844e-01
9.919885396957397461e-01
2.930819988250732422e-01
2.338063716888427734e-01
9.847372770309448242e-01
2.508944272994995117e-01
2.696466445922851562e-02
4.723567962646484375e-01
9.999950528144836426e-01
8.659604191780090332e-02
9.191685914993286133e-02
5.787363648414611816e-02
3.810085654258728027e-01
4.678108990192413330e-01
9.988287687301635742e-01
7.932645082473754883e-02
1.614751219749450684e-01
8.231055736541748047e-02
9.999314546585083008e-01
2.256673574447631836e-02
4.551938176155090332e-01
1.199507713317871094e-02
3.004828095436096191e-02
1.197781264781951904e-01
1.000000000000000000e+00
1.295208930969238281e-04
1.000000000000000000e+00
3.462567925453186035e-02
9.999969005584716797e-01
7.847070693969726562e-03
9.999813437461853027e-01
6.203409433364868164e-01
1.391422748565673828e-02
9.999977946281433105e-01
9.096223115921020508e-01
9.999966025352478027e-01
4.348503947257995605e-01
9.999984502792358398e-01
1.000000000000000000e+00
4.522437453269958496e-01
1.601340770721435547e-01
9.449899196624755859e-03
1.000000000000000000e+00
4.195129871368408203e-02
9.990725517272949219e-01
9.970451593399047852e-01
1.197701394557952881e-01
9.988413453102111816e-01
7.838447093963623047e-01
9.996966123580932617e-01
9.831786155700683594e-03
6.711730957031250000e-01
2.333817780017852783e-01
1.432716548442840576e-01
1.000000000000000000e+00
9.998857975006103516e-01
1.688719093799591064e-01
9.926067590713500977e-01
6.402343511581420898e-03
9.999783635139465332e-01
1.000000000000000000e+00
1.000000000000000000e+00
4.195761680603027344e-02
9.972769618034362793e-01
1.000000000000000000e+00
1.482549309730529785e-02
9.937543869018554688e-01
2.648800015449523926e-01
9.867794513702392578e-01
1.742283999919891357e-01
9.552404284477233887e-02
9.981036186218261719e-02
3.714537620544433594e-02
2.238551974296569824e-01
1.196279227733612061e-01
1.265506744384765625e-01
9.999995231628417969e-01
1.980435848236083984e-02
9.999790787696838379e-01
9.999969005584716797e-01
9.999990463256835938e-01
5.328178405761718750e-03
1.197781562805175781e-01
9.999932646751403809e-01
9.989383220672607422e-01
9.719505310058593750e-01
4.056870639324188232e-01
9.989104270935058594e-01
2.635295093059539795e-01
9.999997615814208984e-01
1.792753934860229492e-01
9.994838237762451172e-01
5.360429286956787109e-01
7.217854261398315430e-02
9.769327640533447266e-01
6.692707538604736328e-04
2.280818521976470947e-01
9.999995231628417969e-01
7.383376359939575195e-03
9.998720884323120117e-01
9.999997019767761230e-01
1.587935686111450195e-01
3.079151213169097900e-01
1.000000000000000000e+00
1.569664478302001953e-01
7.205135226249694824e-01
9.999893903732299805e-01
9.969038963317871094e-01
4.237704277038574219e-01
7.533749938011169434e-02
2.593886256217956543e-01
6.486463546752929688e-01
1.922792196273803711e-02
1.402479410171508789e-02
1.000000000000000000e+00
9.999994039535522461e-01
2.822637557983398438e-02
4.316237568855285645e-01
4.287748932838439941e-01
9.579235315322875977e-01
7.958352565765380859e-03
9.999973773956298828e-01
1.006883680820465088e-01
9.999899864196777344e-01
9.804362654685974121e-01
5.699785947799682617e-01
9.942862987518310547e-01
9.999915361404418945e-01
1.078720986843109131e-01
3.545044064521789551e-01
4.131868481636047363e-02
1.000000000000000000e+00
9.999765753746032715e-01
1.000000000000000000e+00
6.171791553497314453e-01
4.129840135574340820e-01
2.199267148971557617e-01
3.677791357040405273e-01
7.289571658475324512e-05
8.755042552947998047e-01
9.998304843902587891e-01
2.581295371055603027e-02
9.999747872352600098e-01
1.000000000000000000e+00
8.002397418022155762e-02
4.216210246086120605e-01
9.999972581863403320e-01
9.979843497276306152e-01
2.241324186325073242e-01
1.618253290653228760e-01
1.000000000000000000e+00
1.634469628334045410e-01
9.846669435501098633e-01
9.942263960838317871e-01
9.844946861267089844e-01
9.999996423721313477e-01
1.636475920677185059e-01
6.529626250267028809e-02
1.000000000000000000e+00
9.999544620513916016e-01
9.999985694885253906e-01
4.623661041259765625e-01
9.767637848854064941e-01
1.224274039268493652e-01
9.999822378158569336e-01
0.000000000000000000e+00
2.242545187473297119e-01
9.994944334030151367e-01
6.801787018775939941e-01
1.000000000000000000e+00
9.994271993637084961e-01
9.992491602897644043e-01
9.999998807907104492e-01
9.999627470970153809e-01
9.999618530273437500e-01
3.884434700012207031e-04
9.991633892059326172e-01
2.725884318351745605e-02
9.997453689575195312e-01
9.999940395355224609e-01
1.294220685958862305e-01
9.985238909721374512e-01
1.471787095069885254e-01
9.999868273735046387e-01
3.518080711364746094e-01
8.898732662200927734e-01
6.573081016540527344e-01
1.943457722663879395e-01
9.998549222946166992e-01
1.378020644187927246e-01
9.999499320983886719e-01
1.020167171955108643e-01
1.000000000000000000e+00
9.999986886978149414e-01
5.535680055618286133e-02
9.990577101707458496e-01
9.971074461936950684e-01
9.044438004493713379e-01
3.980335295200347900e-01
6.502038240432739258e-01
6.591548919677734375e-01
9.653196334838867188e-01
7.559680938720703125e-02
4.315754175186157227e-01
1.307964324951171875e-03
9.999998807907104492e-01
2.031154930591583252e-01
3.208002448081970215e-02
9.999944567680358887e-01
9.999756813049316406e-01
4.027622342109680176e-01
8.446742140222340822e-05
7.991992235183715820e-01
9.997438192367553711e-01
7.580914497375488281e-01
4.946077764034271240e-01
1.265474855899810791e-01
2.491176128387451172e-04
1.530838310718536377e-01
9.999992847442626953e-01
9.979623556137084961e-01
1.000000000000000000e+00
1.751048862934112549e-01
5.176435708999633789e-01
9.990589618682861328e-01
1.000000000000000000e+00
4.780044555664062500e-01
1.964816749095916748e-01
6.558701395988464355e-02
2.513963580131530762e-01
2.839226126670837402e-01
7.958159446716308594e-01
1.977664232254028320e-01
1.269923448562622070e-01
9.763939380645751953e-01
1.964598298072814941e-01
5.616054534912109375e-01
1.000000000000000000e+00
9.999316334724426270e-01
7.014008760452270508e-01
8.317199945449829102e-01
9.861263036727905273e-01
9.103875160217285156e-01
1.000000000000000000e+00
6.002682447433471680e-01
9.741297960281372070e-01
5.789614915847778320e-01
9.994507431983947754e-01
9.999973773956298828e-01
7.794151306152343750e-01
1.000000000000000000e+00
9.762746095657348633e-01
4.072448611259460449e-01
9.998675584793090820e-01
8.858938217163085938e-01
3.658871948719024658e-01
3.683990240097045898e-01
4.819470643997192383e-01
8.246569037437438965e-01
1.093227267265319824e-01
5.490010380744934082e-01
6.384046673774719238e-01
1.000000000000000000e+00
6.847938895225524902e-01
9.971975088119506836e-01
6.893899440765380859e-01
7.283727469820270427e-35
3.120157122611999512e-01
5.113792419433593750e-02
3.883126378059387207e-01
7.779350280761718750e-01
9.054893255233764648e-01
2.650345563888549805e-01
9.680148959159851074e-02
9.625741839408874512e-01
1.000000000000000000e+00
5.210980176925659180e-01
9.999532103538513184e-01
2.460737526416778564e-01
3.350069522857666016e-01
4.533857107162475586e-02
1.624773740768432617e-01
9.999849796295166016e-01
1.595288217067718506e-01
9.999969005584716797e-01
4.471763074398040771e-01
9.999646544456481934e-01
1.000000000000000000e+00
1.000000000000000000e+00
9.999995231628417969e-01
5.774671435356140137e-01
1.000000000000000000e+00
5.463836789131164551e-01
9.999986886978149414e-01
7.953104376792907715e-02
1.480889916419982910e-01
4.565079808235168457e-01
8.543182015419006348e-01
9.934833645820617676e-01
4.576473236083984375e-01
9.999849796295166016e-01
6.969549655914306641e-01
1.035685837268829346e-01
5.882123112678527832e-02
9.240045547485351562e-01
9.621157050132751465e-01
9.999891519546508789e-01
9.999942779541015625e-01
1.520231068134307861e-01
5.956274867057800293e-01
3.736376762390136719e-02
3.993814587593078613e-01
1.000000000000000000e+00
1.000000000000000000e+00
8.849003911018371582e-02
1.000000000000000000e+00
5.518990159034729004e-01
8.412500619888305664e-01
9.990265965461730957e-01
1.562975645065307617e-01
5.299829244613647461e-01
3.627609312534332275e-01
3.553706407546997070e-01
9.996610283851623535e-01
1.000000000000000000e+00
3.128882348537445068e-01
9.634132385253906250e-01
3.662911653518676758e-01
9.999678134918212891e-01
9.999953508377075195e-01
9.559535980224609375e-01
1.506229043006896973e-01
9.535377025604248047e-01
7.049661874771118164e-01
7.792300581932067871e-01
3.483903110027313232e-01
9.999828338623046875e-01
9.999164938926696777e-01
1.816464960575103760e-01
9.605786800384521484e-01
3.453978896141052246e-01
4.899471998214721680e-01
1.587861180305480957e-01
4.991846680641174316e-01
9.999989867210388184e-01
9.232929348945617676e-01
6.474970579147338867e-01
2.638215720653533936e-01
9.561028480529785156e-01
2.802729606628417969e-03
9.999575614929199219e-01
1.000000000000000000e+00
5.180646181106567383e-01
1.587843596935272217e-01
4.903905689716339111e-01
9.999980926513671875e-01
1.000000000000000000e+00
1.000000000000000000e+00
4.605438113212585449e-01
3.287791609764099121e-01
9.999634027481079102e-01
2.755812108516693115e-01
7.172970771789550781e-01
6.206080317497253418e-01
7.728032469749450684e-01
3.353363871574401855e-01
4.691962897777557373e-01
6.799317598342895508e-01
1.518547534942626953e-01
9.979172945022583008e-01
7.220616936683654785e-02
9.953149557113647461e-01
2.780613899230957031e-01
1.000000000000000000e+00
9.098730683326721191e-01
1.000000000000000000e+00
1.000000000000000000e+00
9.998791217803955078e-01
9.999939799308776855e-01
5.498731136322021484e-01
9.997566938400268555e-01
6.622347831726074219e-01
9.849598407745361328e-01
5.640126466751098633e-01
1.000000000000000000e+00
9.999966025352478027e-01
9.997766613960266113e-01
8.675764799118041992e-01
1.179488003253936768e-01
2.166292369365692139e-01
3.729633986949920654e-01
8.469906449317932129e-01
3.785633444786071777e-01
9.914677143096923828e-01
1.180943250656127930e-01
6.487108469009399414e-01
8.584362268447875977e-01
3.520407080650329590e-01
6.769312620162963867e-01
9.998176097869873047e-01
3.084775805473327637e-02
8.225356936454772949e-01
2.631263732910156250e-01
8.012266159057617188e-01
3.707143068313598633e-01
4.157135486602783203e-01
8.390332460403442383e-01
6.599798798561096191e-02
4.320101737976074219e-01
9.999503493309020996e-01
9.993904232978820801e-01
9.513071775436401367e-01
3.926016390323638916e-01
2.192379832267761230e-01
9.999924898147583008e-01
1.000000000000000000e+00
9.969821572303771973e-01
6.246507763862609863e-01
1.000000000000000000e+00
8.876684904098510742e-01
2.209707796573638916e-01
4.548234343528747559e-01
2.163133323192596436e-01
1.000000000000000000e+00
9.996833205223083496e-01
1.000000000000000000e+00
7.442891597747802734e-01
6.647704243659973145e-01
1.789807379245758057e-01
4.128968119621276855e-01
3.327414095401763916e-01
3.866132795810699463e-01
7.556211948394775391e-02
9.999471306800842285e-01
2.442816793918609619e-01
4.476626515388488770e-01
6.748023033142089844e-01
1.217184960842132568e-01
9.671924114227294922e-01
1.954840123653411865e-01
3.525182604789733887e-01
2.731983065605163574e-01
8.212990164756774902e-01
4.598155319690704346e-01
3.028514087200164795e-01
2.559507489204406738e-01
5.890655517578125000e-01
1.928004622459411621e-01
9.712822437286376953e-01
5.530075430870056152e-01
5.655137300491333008e-01
5.350579619407653809e-01
5.014412403106689453e-01
7.740007638931274414e-01
3.644984066486358643e-01
3.051009774208068848e-01
5.890686511993408203e-01
5.911036729812622070e-01
8.467391729354858398e-01
2.197445034980773926e-01
4.652205109596252441e-01
2.962443828582763672e-01
2.274814546108245850e-01
5.707001686096191406e-01
5.391490459442138672e-01
4.157141149044036865e-01
3.841512203216552734e-01
5.764220356941223145e-01
5.192281603813171387e-01
3.845580220222473145e-01
8.952814340591430664e-02
4.511207938194274902e-01
7.740397453308105469e-01
2.953001260757446289e-01
2.144172489643096924e-01
7.166385650634765625e-03
1.664218902587890625e-01
8.673098683357238770e-02
1.203722059726715088e-01
6.743693351745605469e-02
1.333339512348175049e-01
1.917201280593872070e-01
1.478952765464782715e-01
3.715006411075592041e-01
4.765384793281555176e-01
3.522518277168273926e-01
1.339381337165832520e-01
5.925817489624023438e-01
6.801804304122924805e-01
1.343297064304351807e-01
2.783116542559582740e-05
9.325293302536010742e-01
3.330063223838806152e-01
2.795402705669403076e-01
9.997169971466064453e-01
5.905303359031677246e-02
4.489059150218963623e-01
3.173175752162933350e-01
4.726348519325256348e-01
9.837791323661804199e-02
1.050358116626739502e-01
3.410783112049102783e-01
3.023524880409240723e-01
1.322746276855468750e-01
4.255426824092864990e-01
6.273119449615478516e-01
2.803951501846313477e-01
9.581882357597351074e-01
6.231820583343505859e-02
1.014430522918701172e-01
2.101553082466125488e-01
1.764443218708038330e-01
4.825333356857299805e-01
4.250040650367736816e-02
2.606853246688842773e-01
1.824232041835784912e-01
7.143191099166870117e-01
6.942558288574218750e-01
1.597109138965606689e-01
4.029273986816406250e-04
9.735025167465209961e-01
6.481746435165405273e-01
4.590788185596466064e-01
5.562533140182495117e-01
3.384076952934265137e-01
5.853444337844848633e-01
1.160835623741149902e-01
1.551830172538757324e-01
3.074279427528381348e-01
2.519911527633666992e-01
4.692957699298858643e-01
3.838155567646026611e-01
1.221151251229457557e-07
9.869642257690429688e-01
6.539701223373413086e-01
8.124694824218750000e-01
6.237788796424865723e-01
6.417137384414672852e-02
9.859560132026672363e-01
4.402340650558471680e-01
5.161693692207336426e-01
1.191886067390441895e-01
3.870239555835723877e-01
4.578796142595820129e-05
9.828448295593261719e-03
7.721719145774841309e-02
3.116969466209411621e-01
3.186744451522827148e-01
2.461615204811096191e-02
7.553890347480773926e-02
2.819339036941528320e-01
4.457185864448547363e-01
3.863166570663452148e-01
3.015343546867370605e-01
4.358715713024139404e-01
5.617952346801757812e-01
3.020708858966827393e-01
7.785468101501464844e-01
2.015216946601867676e-01
1.194730103015899658e-01
2.724212110042572021e-01
9.993474483489990234e-01
9.204859137535095215e-01
2.120584249496459961e-03
3.286993503570556641e-01
7.960292696952819824e-02
8.201694488525390625e-02
2.513684630393981934e-01
1.483142673969268799e-01
3.094083070755004883e-02
2.535572648048400879e-02
1.542735397815704346e-01
1.893919706344604492e-02
1.626113057136535645e-02
3.757808208465576172e-01
1.107853651046752930e-01
3.963670730590820312e-01
1.162692904472351074e-01
7.525082826614379883e-01
4.005625545978546143e-01
9.997681379318237305e-01
5.643618106842041016e-01
4.366796016693115234e-01
6.422154903411865234e-01
2.402017414569854736e-01
6.476258039474487305e-01
2.847055792808532715e-01
4.118680953979492188e-04
4.832759499549865723e-02
4.233894944190979004e-01
3.730433881282806396e-01
6.052609682083129883e-01
3.180348277091979980e-01
9.928183555603027344e-01
2.541413903236389160e-02
9.363118410110473633e-01
2.569629848003387451e-01
3.584953546524047852e-01
9.282882213592529297e-01
1.678707003593444824e-01
6.066935062408447266e-01
4.426496326923370361e-01
3.952711224555969238e-01
8.126091957092285156e-01
6.574356120836455375e-06
3.635652661323547363e-01
7.818539142608642578e-01
4.923695027828216553e-01
7.588452696800231934e-01
6.186527609825134277e-01
5.212720036506652832e-01
3.451675176620483398e-01
5.969551801681518555e-01
9.868350625038146973e-01
4.859502017498016357e-01
4.752981960773468018e-01
8.322082757949829102e-01
4.439834356307983398e-01
3.415305018424987793e-01
3.885240256786346436e-01
7.795881032943725586e-01
8.515440225601196289e-01
7.627847194671630859e-01
5.134602189064025879e-01
6.558562517166137695e-01
6.758728027343750000e-01
1.937353909015655518e-01
3.091810345649719238e-01
5.131353735923767090e-01
2.760165929794311523e-02
2.491283416748046875e-02
4.639857411384582520e-01
4.485166370868682861e-01
2.911048531532287598e-01
7.301402091979980469e-01
9.017702937126159668e-02
4.878094792366027832e-02
1.932488679885864258e-01
3.313352763652801514e-01
3.236674070358276367e-01
7.810395956039428711e-01
4.417146444320678711e-01
9.999745488166809082e-01
5.287736654281616211e-01
4.693727493286132812e-01
8.735771179199218750e-01
6.534464359283447266e-01
4.664859175682067871e-01
4.020419716835021973e-01
9.287947416305541992e-02
1.359528601169586182e-01
3.012377619743347168e-01
3.481159806251525879e-01
7.312268018722534180e-03
4.558090269565582275e-01
1.502429842948913574e-01
2.947411132936395006e-07
9.999672770500183105e-01
4.355835914611816406e-01
1.353639254375593737e-05
5.112978816032409668e-02
5.757405161857604980e-01
3.413394093513488770e-01
4.979372024536132812e-04
2.667323052883148193e-01
5.416954755783081055e-01
3.963083326816558838e-01
4.787147045135498047e-02
9.737198352813720703e-01
1.888542473316192627e-01
2.711043655872344971e-01
4.252258539199829102e-01
5.121408700942993164e-01
7.555636763572692871e-01
1.081675291061401367e-03
9.158810377120971680e-01
9.229984879493713379e-01
1.790967881679534912e-01
5.570017099380493164e-01
9.186515808105468750e-01
6.519923210144042969e-01
2.575912475585937500e-01
3.978129625320434570e-01
7.843402624130249023e-01
6.532758474349975586e-03
5.367040634155273438e-01
1.962760090827941895e-01
8.450983762741088867e-01
7.753883600234985352e-01
4.814476668834686279e-01
4.208101332187652588e-01
1.252783536911010742e-01
4.181810617446899414e-01
6.378073692321777344e-01
6.181474328041076660e-01
6.164899468421936035e-01
1.697566509246826172e-01
9.566426277160644531e-03
2.859272956848144531e-01
8.977854251861572266e-02
3.123307228088378906e-02
2.458022832870483398e-01
2.174264192581176758e-02
1.993525326251983643e-01
6.404960155487060547e-02
5.713766217231750488e-01
5.337868332862854004e-01
1.689791679382324219e-04
3.718250989913940430e-01
3.288280963897705078e-02
8.415949344635009766e-02
1.979333460330963135e-01
8.584538102149963379e-02
6.872231960296630859e-01
7.168143987655639648e-03
1.040745377540588379e-01
3.955528140068054199e-02
1.030621230602264404e-01
7.661312818527221680e-03
5.352348089218139648e-03
5.350649356842041016e-03
6.716251373291015625e-04
1.190188527107238770e-02
6.725555658340454102e-02
4.630625247955322266e-03
1.061143577098846436e-01
6.404969096183776855e-02
9.197404980659484863e-02
4.479587078094482422e-04
1.587662100791931152e-02
1.332201659679412842e-01
2.848899364471435547e-02
5.921608209609985352e-02
3.750613331794738770e-02
4.292464256286621094e-02
3.639161586761474609e-04
2.035647630691528320e-02
5.897316336631774902e-02
1.377984881401062012e-02
6.756359338760375977e-02
1.102141141891479492e-01
1.285062134265899658e-01
2.787726521492004395e-01
3.648379445075988770e-02
2.024946808815002441e-01
5.268117785453796387e-02
9.413093328475952148e-03
3.112435936927795410e-01
1.082026064395904541e-01
1.501652598381042480e-02
1.641922295093536377e-01
4.545259475708007812e-02
2.158105373382568359e-03
6.998270750045776367e-02
4.847115874290466309e-01
1.059156656265258789e-02
4.433035850524902344e-03
8.160531520843505859e-03
1.818987727165222168e-02
1.266881823539733887e-02
1.994895935058593750e-02
3.533330559730529785e-02
9.722641698317602277e-05
3.801694512367248535e-02
3.338667750358581543e-02
1.569497585296630859e-02
1.463782787322998047e-01
9.616166353225708008e-03
1.066020727157592773e-01
1.797750592231750488e-02
7.683932781219482422e-04
6.841361522674560547e-03
9.707003831863403320e-03
3.845393657684326172e-04
4.535675048828125000e-03
5.412995815277099609e-04
6.477097969082024065e-08
1.171824932098388672e-01
3.776961565017700195e-02
7.851064205169677734e-03
7.581144571304321289e-03
4.512637853622436523e-03
3.062039613723754883e-03
1.919907930414410657e-07
3.898352384567260742e-03
5.426675081253051758e-03
4.102474451065063477e-02
3.956079483032226562e-03
1.134983003139495850e-01
2.373573184013366699e-02
2.910202741622924805e-02
3.047096729278564453e-02
1.535943150520324707e-02
1.823896169662475586e-02
1.879918575286865234e-02
2.395355701446533203e-02
2.407902479171752930e-02
3.759562969207763672e-04
4.523068666458129883e-03
2.202510833740234375e-03
1.340585947036743164e-02
7.340082526206970215e-02
2.246499061584472656e-04
6.347391009330749512e-02
1.772102713584899902e-02
1.405757963657379150e-01
2.875772118568420410e-02
1.366946995258331299e-01
1.592983603477478027e-01
2.133396267890930176e-02
1.201599836349487305e-03
3.307324051856994629e-01
4.198450148105621338e-01
3.651226758956909180e-01
5.096358060836791992e-02
1.086412966251373291e-01
4.837721586227416992e-03
4.991762042045593262e-01
4.854334592819213867e-01
2.665638923645019531e-03
2.290895283222198486e-01
6.946431398391723633e-01
1.046465337276458740e-01
2.270358800888061523e-02
1.324914395809173584e-01
9.945541620254516602e-03
4.338368773460388184e-02
9.827154874801635742e-01
2.589991688728332520e-02
9.944780468940734863e-01
2.764314413070678711e-03
8.156895637512207031e-04
6.257796287536621094e-02
3.850650787353515625e-02
3.298535943031311035e-02
4.841182529926300049e-01
1.399637758731842041e-01
2.642490565776824951e-01
1.333153843879699707e-01
2.819773554801940918e-02
7.407995462417602539e-01
8.400857448577880859e-03
1.058411598205566406e-02
8.402245044708251953e-01
4.740669131278991699e-01
9.250060319900512695e-01
3.016540408134460449e-01
4.993975162506103516e-04
2.775530815124511719e-01
4.860156774520874023e-02
2.289630174636840820e-01
1.294392347335815430e-02
2.110600471496582031e-04
4.651958942413330078e-01
1.477507948875427246e-01
6.852141022682189941e-01
1.137156784534454346e-01
4.905927181243896484e-02
9.998224973678588867e-01
1.080896258354187012e-01
9.993740320205688477e-01
8.778622746467590332e-02
7.881250977516174316e-02
4.615044593811035156e-02
2.832490205764770508e-02
1.870802044868469238e-02
2.406064569950103760e-01
7.783579826354980469e-01
1.079010963439941406e-01
3.166142702102661133e-01
2.795819044113159180e-01
5.564719438552856445e-03
5.345022678375244141e-01
9.991171956062316895e-01
8.747395277023315430e-01
4.788427948951721191e-01
6.776604056358337402e-02
3.966040611267089844e-01
2.218231558799743652e-02
3.256981968879699707e-01
6.104618310928344727e-03
6.245607137680053711e-02
4.240714907646179199e-01
9.786796569824218750e-01
6.791880130767822266e-01
1.000000000000000000e+00
2.972278594970703125e-01
8.923264741897583008e-01
2.317427694797515869e-01
1.695943772792816162e-01
2.862846851348876953e-01
7.579869031906127930e-02
5.344736576080322266e-02
6.113503575325012207e-01
4.824972152709960938e-02
2.485010027885437012e-02
4.530166685581207275e-01
5.014747381210327148e-03
1.000000000000000000e+00
9.051632285118103027e-01
8.240640163421630859e-04
2.810675501823425293e-01
6.107611656188964844e-01
7.829315662384033203e-01
9.999195337295532227e-01
9.677016735076904297e-01
1.497492194175720215e-01
1.427215337753295898e-02
7.601693868637084961e-01
1.651735007762908936e-01
1.955624818801879883e-01
2.917141616344451904e-01
3.067028522491455078e-02
3.961065411567687988e-02
6.818944215774536133e-02
1.674431562423706055e-02
9.999968409538269043e-01
1.989262998104095459e-01
7.729107737541198730e-01
3.148655891418457031e-01
2.675968408584594727e-02
1.000000000000000000e+00
5.275141000747680664e-01
5.775859355926513672e-01
8.131961822509765625e-01
4.614023864269256592e-01
1.517625451087951660e-01
2.437912225723266602e-01
2.036710977554321289e-01
9.838773012161254883e-01
2.441793680191040039e-01
1.864765286445617676e-01
5.980038642883300781e-01
9.971368312835693359e-02
4.929152429103851318e-01
5.464804416988044977e-05
5.371642112731933594e-01
4.896214008331298828e-01
1.632148027420043945e-01
5.965104699134826660e-02
6.599527597427368164e-02
5.498698949813842773e-01
4.408460855484008789e-01
7.317268848419189453e-02
3.192355930805206299e-01
8.016586303710937500e-03
3.370395302772521973e-02
9.898236393928527832e-02
2.942991852760314941e-01
3.484835028648376465e-01
3.631715774536132812e-01
2.219716608524322510e-01
3.208972811698913574e-01
9.909405112266540527e-01
1.983371376991271973e-01
1.431573331356048584e-01
7.660153508186340332e-02
3.882351517677307129e-01
3.627420663833618164e-01
1.525754332542419434e-01
1.417219936847686768e-01
4.002560377120971680e-01
3.056096434593200684e-01
1.531571149826049805e-03
2.586580514907836914e-01
1.417104899883270264e-01
1.683732867240905762e-01
2.371728420257568359e-03
6.606604456901550293e-01
2.198821604251861572e-01
9.776615500450134277e-01
2.622065842151641846e-01
2.775074243545532227e-01
6.587374210357666016e-01
7.991972565650939941e-01
1.099455356597900391e-01
3.304518461227416992e-01
