0.000000000000000000e+00
9.068425391591096105e-03
9.068425391591096105e-03
9.068425391591096105e-03
9.068425391591096105e-03
9.068425391591096105e-03
9.892827699917559545e-03
9.892827699917559545e-03
1.071723000824402298e-02
1.071723000824402298e-02
1.071723000824402298e-02
1.071723000824402298e-02
1.071723000824402298e-02
1.071723000824402298e-02
1.071723000824402298e-02
1.154163231657048642e-02
1.154163231657048642e-02
1.236603462489694986e-02
1.236603462489694986e-02
1.319043693322341330e-02
1.319043693322341330e-02
1.401483924154987674e-02
1.401483924154987674e-02
1.566364385820280189e-02
1.566364385820280189e-02
1.648804616652926533e-02
1.648804616652926533e-02
1.731244847485572877e-02
1.731244847485572877e-02
1.813685078318219221e-02
1.813685078318219221e-02
1.978565539983511909e-02
1.978565539983511909e-02
2.061005770816158253e-02
2.061005770816158253e-02
2.143446001648804597e-02
2.143446001648804597e-02
2.225886232481450941e-02
2.225886232481450941e-02
2.308326463314097285e-02
2.308326463314097285e-02
2.390766694146743629e-02
2.390766694146743629e-02
2.555647155812036317e-02
2.555647155812036317e-02
2.720527617477329005e-02
2.720527617477329005e-02
2.802967848309975349e-02
2.802967848309975349e-02
2.885408079142621693e-02
2.885408079142621693e-02
2.967848309975268037e-02
2.967848309975268037e-02
3.132728771640560378e-02
3.132728771640560378e-02
3.215169002473206722e-02
3.215169002473206722e-02
3.380049464138499410e-02
3.380049464138499410e-02
3.544929925803792098e-02
3.544929925803792098e-02
3.709810387469084786e-02
3.709810387469084786e-02
3.792250618301731130e-02
3.792250618301731130e-02
3.874690849134377474e-02
3.874690849134377474e-02
3.957131079967023818e-02
3.957131079967023818e-02
4.039571310799670162e-02
4.039571310799670162e-02
4.122011541632316506e-02
4.122011541632316506e-02
4.369332234130255538e-02
4.369332234130255538e-02
4.451772464962901882e-02
4.451772464962901882e-02
4.616652926628194570e-02
4.616652926628194570e-02
4.699093157460840914e-02
4.699093157460840914e-02
4.781533388293487258e-02
4.781533388293487258e-02
4.863973619126133602e-02
4.863973619126133602e-02
5.028854080791426290e-02
5.028854080791426290e-02
5.276174773289365322e-02
5.276174773289365322e-02
5.358615004122011666e-02
5.358615004122011666e-02
5.441055234954658010e-02
5.441055234954658010e-02
5.523495465787304354e-02
5.523495465787304354e-02
5.688375927452597042e-02
5.688375927452597042e-02
5.770816158285243386e-02
5.770816158285243386e-02
5.853256389117889730e-02
5.853256389117889730e-02
5.935696619950536074e-02
5.935696619950536074e-02
6.018136850783182418e-02
6.018136850783182418e-02
6.100577081615828762e-02
6.100577081615828762e-02
6.347897774113767100e-02
6.347897774113767100e-02
6.512778235779059788e-02
6.512778235779059788e-02
6.595218466611706132e-02
6.595218466611706132e-02
6.677658697444352476e-02
6.677658697444352476e-02
6.842539159109645164e-02
6.842539159109645164e-02
7.337180544105523228e-02
7.337180544105523228e-02
7.419620774938169572e-02
7.419620774938169572e-02
7.502061005770815916e-02
7.502061005770815916e-02
7.749381698268754948e-02
7.749381698268754948e-02
7.831821929101401292e-02
7.831821929101401292e-02
7.914262159934047636e-02
7.914262159934047636e-02
8.408903544929925700e-02
8.408903544929925700e-02
8.573784006595218388e-02
8.573784006595218388e-02
8.656224237427864732e-02
8.656224237427864732e-02
8.738664468260511076e-02
8.738664468260511076e-02
8.821104699093157420e-02
8.821104699093157420e-02
8.903544929925803764e-02
8.903544929925803764e-02
8.985985160758450108e-02
8.985985160758450108e-02
9.068425391591096452e-02
9.068425391591096452e-02
9.233305853256389140e-02
9.233305853256389140e-02
9.315746084089035484e-02
9.315746084089035484e-02
9.398186314921681828e-02
9.398186314921681828e-02
9.480626545754328172e-02
9.480626545754328172e-02
9.563066776586974516e-02
9.563066776586974516e-02
1.022258862324814527e-01
1.022258862324814527e-01
1.030502885408079161e-01
1.030502885408079161e-01
1.046990931574608430e-01
1.046990931574608430e-01
1.055234954657873064e-01
1.055234954657873064e-01
1.079967023907666968e-01
1.079967023907666968e-01
1.112943116240725505e-01
1.112943116240725505e-01
1.121187139323990140e-01
1.121187139323990140e-01
1.129431162407254774e-01
1.129431162407254774e-01
1.137675185490519408e-01
1.137675185490519408e-01
1.170651277823577946e-01
1.170651277823577946e-01
1.178895300906842580e-01
1.178895300906842580e-01
1.187139323990107215e-01
1.187139323990107215e-01
1.211871393239901118e-01
1.211871393239901118e-01
1.220115416323165752e-01
1.220115416323165752e-01
1.236603462489695021e-01
1.236603462489695021e-01
1.244847485572959656e-01
1.244847485572959656e-01
1.253091508656224151e-01
1.253091508656224151e-01
1.269579554822753420e-01
1.269579554822753420e-01
1.277823577906018193e-01
1.277823577906018193e-01
1.286067600989282689e-01
1.286067600989282689e-01
1.294311624072547462e-01
1.294311624072547462e-01
1.302555647155811958e-01
1.302555647155811958e-01
1.310799670239076731e-01
1.310799670239076731e-01
1.327287716405606000e-01
1.327287716405606000e-01
1.335531739488870495e-01
1.335531739488870495e-01
1.368507831821929033e-01
1.368507831821929033e-01
1.376751854905193806e-01
1.376751854905193806e-01
1.417971970321516839e-01
1.417971970321516839e-01
1.426215993404781612e-01
1.426215993404781612e-01
1.434460016488046108e-01
1.434460016488046108e-01
1.442704039571310881e-01
1.442704039571310881e-01
1.475680131904369419e-01
1.475680131904369419e-01
1.492168178070898688e-01
1.492168178070898688e-01
1.508656224237427956e-01
1.508656224237427956e-01
1.516900247320692452e-01
1.516900247320692452e-01
1.533388293487221721e-01
1.533388293487221721e-01
1.541632316570486494e-01
1.541632316570486494e-01
1.549876339653750990e-01
1.549876339653750990e-01
1.558120362737015763e-01
1.558120362737015763e-01
1.566364385820280258e-01
1.566364385820280258e-01
1.582852431986809527e-01
1.582852431986809527e-01
1.591096455070074300e-01
1.591096455070074300e-01
1.624072547403132838e-01
1.624072547403132838e-01
1.632316570486397334e-01
1.632316570486397334e-01
1.690024732069249913e-01
1.690024732069249913e-01
1.706512778235779182e-01
1.706512778235779182e-01
1.714756801319043678e-01
1.714756801319043678e-01
1.731244847485572946e-01
1.731244847485572946e-01
1.739488870568837720e-01
1.739488870568837720e-01
1.747732893652102215e-01
1.747732893652102215e-01
1.772464962901896257e-01
1.772464962901896257e-01
1.780708985985160753e-01
1.780708985985160753e-01
1.797197032151690022e-01
1.797197032151690022e-01
1.805441055234954795e-01
1.805441055234954795e-01
1.813685078318219290e-01
1.813685078318219290e-01
1.821929101401483786e-01
1.821929101401483786e-01
1.838417147568013055e-01
1.838417147568013055e-01
1.854905193734542324e-01
1.854905193734542324e-01
1.871393239901071592e-01
1.871393239901071592e-01
1.879637262984336366e-01
1.879637262984336366e-01
1.904369332234130130e-01
1.904369332234130130e-01
1.929101401483924172e-01
1.929101401483924172e-01
1.937345424567188668e-01
1.937345424567188668e-01
1.953833470733717936e-01
1.953833470733717936e-01
1.970321516900247205e-01
1.970321516900247205e-01
1.986809563066776474e-01
1.986809563066776474e-01
1.995053586150041247e-01
1.995053586150041247e-01
2.003297609233305743e-01
2.003297609233305743e-01
2.011541632316570516e-01
2.011541632316570516e-01
2.036273701566364280e-01
2.036273701566364280e-01
2.052761747732893549e-01
2.052761747732893549e-01
2.061005770816158322e-01
2.061005770816158322e-01
2.069249793899422818e-01
2.069249793899422818e-01
2.085737840065952087e-01
2.085737840065952087e-01
2.093981863149216860e-01
2.093981863149216860e-01
2.118713932399010624e-01
2.118713932399010624e-01
2.126957955482275398e-01
2.126957955482275398e-01
2.159934047815333935e-01
2.159934047815333935e-01
2.168178070898598431e-01
2.168178070898598431e-01
2.176422093981863204e-01
2.176422093981863204e-01
2.184666117065127700e-01
2.184666117065127700e-01
2.192910140148392473e-01
2.192910140148392473e-01
2.201154163231656968e-01
2.201154163231656968e-01
2.225886232481451010e-01
2.225886232481451010e-01
2.258862324814509548e-01
2.258862324814509548e-01
2.300082440230832581e-01
2.300082440230832581e-01
2.349546578730420388e-01
2.349546578730420388e-01
2.415498763396537463e-01
2.415498763396537463e-01
2.423742786479802236e-01
2.423742786479802236e-01
2.431986809563066732e-01
2.431986809563066732e-01
2.448474855729596000e-01
2.448474855729596000e-01
2.456718878812860773e-01
2.456718878812860773e-01
2.464962901896125269e-01
2.464962901896125269e-01
2.473206924979390042e-01
2.473206924979390042e-01
2.489694971145919311e-01
2.489694971145919311e-01
2.522671063478977849e-01
2.522671063478977849e-01
2.539159109645506840e-01
2.539159109645506840e-01
2.547403132728771613e-01
2.547403132728771613e-01
2.563891178895301159e-01
2.563891178895301159e-01
2.580379225061830151e-01
2.580379225061830151e-01
2.588623248145094924e-01
2.588623248145094924e-01
2.596867271228359697e-01
2.596867271228359697e-01
2.613355317394888688e-01
2.613355317394888688e-01
2.638087386644682453e-01
2.638087386644682453e-01
2.646331409727947226e-01
2.646331409727947226e-01
2.671063478977740990e-01
2.671063478977740990e-01
2.695795548227535310e-01
2.695795548227535310e-01
2.704039571310799528e-01
2.704039571310799528e-01
2.720527617477329074e-01
2.720527617477329074e-01
2.728771640560593292e-01
2.728771640560593292e-01
2.737015663643858066e-01
2.737015663643858066e-01
2.753503709810387612e-01
2.753503709810387612e-01
2.769991755976916603e-01
2.769991755976916603e-01
2.794723825226710368e-01
2.794723825226710368e-01
2.827699917559768905e-01
2.827699917559768905e-01
2.852431986809563225e-01
2.852431986809563225e-01
2.860676009892827443e-01
2.860676009892827443e-01
2.868920032976092216e-01
2.868920032976092216e-01
2.877164056059356989e-01
2.877164056059356989e-01
2.918384171475680300e-01
2.918384171475680300e-01
2.943116240725474064e-01
2.943116240725474064e-01
2.984336356141797375e-01
2.984336356141797375e-01
2.992580379225061593e-01
2.992580379225061593e-01
3.042044517724649677e-01
3.042044517724649677e-01
3.066776586974443441e-01
3.066776586974443441e-01
3.075020610057708215e-01
3.075020610057708215e-01
3.083264633140972988e-01
3.083264633140972988e-01
3.149216817807090063e-01
3.149216817807090063e-01
3.165704863973619054e-01
3.165704863973619054e-01
3.173948887056883827e-01
3.173948887056883827e-01
3.190436933223412819e-01
3.190436933223412819e-01
3.198680956306677592e-01
3.198680956306677592e-01
3.206924979389942365e-01
3.206924979389942365e-01
3.264633140972794667e-01
3.264633140972794667e-01
3.305853256389117978e-01
3.305853256389117978e-01
3.314097279472382751e-01
3.314097279472382751e-01
3.338829348722176515e-01
3.338829348722176515e-01
3.380049464138499826e-01
3.380049464138499826e-01
3.396537510305028817e-01
3.396537510305028817e-01
3.462489694971145893e-01
3.462489694971145893e-01
3.470733718054410666e-01
3.470733718054410666e-01
3.487221764220939657e-01
3.487221764220939657e-01
3.528441879637262968e-01
3.528441879637262968e-01
3.569661995053586279e-01
3.569661995053586279e-01
3.586150041220115270e-01
3.586150041220115270e-01
3.594394064303380043e-01
3.594394064303380043e-01
3.602638087386644816e-01
3.602638087386644816e-01
3.610882110469909589e-01
3.610882110469909589e-01
3.627370156636438581e-01
3.627370156636438581e-01
3.652102225886232345e-01
3.652102225886232345e-01
3.660346248969497118e-01
3.660346248969497118e-01
3.668590272052761891e-01
3.668590272052761891e-01
3.676834295136026109e-01
3.676834295136026109e-01
3.701566364385820429e-01
3.701566364385820429e-01
3.718054410552349420e-01
3.718054410552349420e-01
3.726298433635614193e-01
3.726298433635614193e-01
3.734542456718878967e-01
3.734542456718878967e-01
3.751030502885407958e-01
3.751030502885407958e-01
3.800494641384996042e-01
3.800494641384996042e-01
3.808738664468260260e-01
3.808738664468260260e-01
3.833470733718054579e-01
3.833470733718054579e-01
3.849958779884583571e-01
3.849958779884583571e-01
3.858202802967848344e-01
3.858202802967848344e-01
3.891178895300906881e-01
3.891178895300906881e-01
3.899422918384171655e-01
3.899422918384171655e-01
3.932399010717230192e-01
3.932399010717230192e-01
3.940643033800494410e-01
3.940643033800494410e-01
3.948887056883759183e-01
3.948887056883759183e-01
3.957131079967023957e-01
3.957131079967023957e-01
3.998351195383347267e-01
3.998351195383347267e-01
4.006595218466611485e-01
4.006595218466611485e-01
4.072547403132728561e-01
4.072547403132728561e-01
4.080791426215993334e-01
4.080791426215993334e-01
4.097279472382522880e-01
4.097279472382522880e-01
4.105523495465787098e-01
4.105523495465787098e-01
4.113767518549051871e-01
4.113767518549051871e-01
4.130255564715581418e-01
4.130255564715581418e-01
4.146743610882110409e-01
4.146743610882110409e-01
4.154987633965375182e-01
4.154987633965375182e-01
4.187963726298433720e-01
4.187963726298433720e-01
4.196207749381698493e-01
4.196207749381698493e-01
4.204451772464962711e-01
4.204451772464962711e-01
4.220939818631492257e-01
4.220939818631492257e-01
4.229183841714757031e-01
4.229183841714757031e-01
4.319868095630667870e-01
4.319868095630667870e-01
4.328112118713932643e-01
4.328112118713932643e-01
4.344600164880461635e-01
4.344600164880461635e-01
4.361088211046991181e-01
4.361088211046991181e-01
4.402308326463313937e-01
4.402308326463313937e-01
4.410552349546578710e-01
4.410552349546578710e-01
4.427040395713108256e-01
4.427040395713108256e-01
4.460016488046166794e-01
4.460016488046166794e-01
4.468260511129431012e-01
4.468260511129431012e-01
4.476504534212695785e-01
4.476504534212695785e-01
4.509480626545754323e-01
4.509480626545754323e-01
4.525968672712283869e-01
4.525968672712283869e-01
4.534212695795548087e-01
4.534212695795548087e-01
4.550700741962077633e-01
4.550700741962077633e-01
4.558944765045341851e-01
4.558944765045341851e-01
4.575432811211871398e-01
4.575432811211871398e-01
4.583676834295136171e-01
4.583676834295136171e-01
4.616652926628194709e-01
4.616652926628194709e-01
4.641384995877988473e-01
4.641384995877988473e-01
4.657873042044517464e-01
4.657873042044517464e-01
4.666117065127782237e-01
4.666117065127782237e-01
4.674361088211047011e-01
4.674361088211047011e-01
4.682605111294311784e-01
4.682605111294311784e-01
4.690849134377576002e-01
4.690849134377576002e-01
4.699093157460840775e-01
4.699093157460840775e-01
4.732069249793899313e-01
4.732069249793899313e-01
4.740313272877164086e-01
4.740313272877164086e-01
4.765045342126957850e-01
4.765045342126957850e-01
4.773289365210222623e-01
4.773289365210222623e-01
4.798021434460016388e-01
4.798021434460016388e-01
4.806265457543281161e-01
4.806265457543281161e-01
4.822753503709810152e-01
4.822753503709810152e-01
4.839241549876339699e-01
4.839241549876339699e-01
4.847485572959604472e-01
4.847485572959604472e-01
4.855729596042868690e-01
4.855729596042868690e-01
4.863973619126133463e-01
4.863973619126133463e-01
4.921681780708985765e-01
4.921681780708985765e-01
4.938169826875515311e-01
4.938169826875515311e-01
4.962901896125309076e-01
4.962901896125309076e-01
4.995877988458367613e-01
4.995877988458367613e-01
5.028854080791426151e-01
5.028854080791426151e-01
5.061830173124485244e-01
5.061830173124485244e-01
5.078318219291013680e-01
5.078318219291013680e-01
5.094806265457543226e-01
5.094806265457543226e-01
5.111294311624072773e-01
5.111294311624072773e-01
5.127782357790602319e-01
5.127782357790602319e-01
5.144270403957130755e-01
5.144270403957130755e-01
5.177246496290189848e-01
5.177246496290189848e-01
5.185490519373454621e-01
5.185490519373454621e-01
5.201978565539983057e-01
5.201978565539983057e-01
5.234954657873042150e-01
5.234954657873042150e-01
5.267930750206100132e-01
5.267930750206100132e-01
5.333882934872217207e-01
5.333882934872217207e-01
5.375103050288541073e-01
5.375103050288541073e-01
5.383347073371805847e-01
5.383347073371805847e-01
5.391591096455070620e-01
5.391591096455070620e-01
5.408079142621599056e-01
5.408079142621599056e-01
5.416323165704863829e-01
5.416323165704863829e-01
5.424567188788128602e-01
5.424567188788128602e-01
5.474031327287716131e-01
5.474031327287716131e-01
5.482275350370980904e-01
5.482275350370980904e-01
5.498763396537510451e-01
5.498763396537510451e-01
5.539983511953833206e-01
5.539983511953833206e-01
5.548227535037097979e-01
5.548227535037097979e-01
5.572959604286892299e-01
5.572959604286892299e-01
5.605935696619950281e-01
5.605935696619950281e-01
5.630667765869744601e-01
5.630667765869744601e-01
5.696619950535861676e-01
5.696619950535861676e-01
5.713107996702391222e-01
5.713107996702391222e-01
5.737840065952184432e-01
5.737840065952184432e-01
5.746084089035449205e-01
5.746084089035449205e-01
5.762572135201978751e-01
5.762572135201978751e-01
5.770816158285243525e-01
5.770816158285243525e-01
5.795548227535036734e-01
5.795548227535036734e-01
5.836768342951360600e-01
5.836768342951360600e-01
5.845012366034625373e-01
5.845012366034625373e-01
5.861500412201153809e-01
5.861500412201153809e-01
5.877988458367683355e-01
5.877988458367683355e-01
5.894476504534212902e-01
5.894476504534212902e-01
5.902720527617477675e-01
5.902720527617477675e-01
5.919208573784006111e-01
5.919208573784006111e-01
5.927452596867270884e-01
5.927452596867270884e-01
5.943940643033800431e-01
5.943940643033800431e-01
5.960428689200329977e-01
5.960428689200329977e-01
5.985160758450123186e-01
5.985160758450123186e-01
6.001648804616652733e-01
6.001648804616652733e-01
6.009892827699917506e-01
6.009892827699917506e-01
6.042868920032976598e-01
6.042868920032976598e-01
6.092333058532564127e-01
6.092333058532564127e-01
6.100577081615828900e-01
6.100577081615828900e-01
6.125309150865622110e-01
6.125309150865622110e-01
6.150041220115416429e-01
6.150041220115416429e-01
6.166529266281945976e-01
6.166529266281945976e-01
6.174773289365210749e-01
6.174773289365210749e-01
6.183017312448474412e-01
6.183017312448474412e-01
6.232481450948063051e-01
6.232481450948063051e-01
6.240725474031327824e-01
6.240725474031327824e-01
6.248969497114591487e-01
6.248969497114591487e-01
6.273701566364385807e-01
6.273701566364385807e-01
6.281945589447650580e-01
6.281945589447650580e-01
6.314921681780708562e-01
6.314921681780708562e-01
6.331409727947238109e-01
6.331409727947238109e-01
6.372629843363560864e-01
6.372629843363560864e-01
6.380873866446825637e-01
6.380873866446825637e-01
6.405605935696619957e-01
6.405605935696619957e-01
6.422093981863149503e-01
6.422093981863149503e-01
6.438582028029677939e-01
6.438582028029677939e-01
6.455070074196207486e-01
6.455070074196207486e-01
6.512778235779059788e-01
6.512778235779059788e-01
6.529266281945589334e-01
6.529266281945589334e-01
6.545754328112118881e-01
6.545754328112118881e-01
6.570486397361912090e-01
6.570486397361912090e-01
6.578730420445176863e-01
6.578730420445176863e-01
6.619950535861500729e-01
6.619950535861500729e-01
6.636438582028029165e-01
6.636438582028029165e-01
6.644682605111293938e-01
6.644682605111293938e-01
6.661170651277823485e-01
6.661170651277823485e-01
6.677658697444353031e-01
6.677658697444353031e-01
6.694146743610882577e-01
6.694146743610882577e-01
6.702390766694146240e-01
6.702390766694146240e-01
6.776586974443528089e-01
6.776586974443528089e-01
6.784830997526792862e-01
6.784830997526792862e-01
6.801319043693322408e-01
6.801319043693322408e-01
6.900247320692497466e-01
6.900247320692497466e-01
6.966199505358614541e-01
6.966199505358614541e-01
6.974443528441879314e-01
6.974443528441879314e-01
6.982687551525144087e-01
6.982687551525144087e-01
6.990931574608408861e-01
6.990931574608408861e-01
7.023907666941467953e-01
7.023907666941467953e-01
7.056883759274525936e-01
7.056883759274525936e-01
7.073371805441055482e-01
7.073371805441055482e-01
7.081615828524320255e-01
7.081615828524320255e-01
7.114591920857378238e-01
7.114591920857378238e-01
7.122835943940643011e-01
7.122835943940643011e-01
7.188788128606760086e-01
7.188788128606760086e-01
7.230008244023082842e-01
7.230008244023082842e-01
7.238252267106347615e-01
7.238252267106347615e-01
7.254740313272877161e-01
7.254740313272877161e-01
7.262984336356141934e-01
7.262984336356141934e-01
7.271228359439406708e-01
7.271228359439406708e-01
7.279472382522671481e-01
7.279472382522671481e-01
7.287716405605935144e-01
7.287716405605935144e-01
7.320692497938994237e-01
7.320692497938994237e-01
7.328936521022259010e-01
7.328936521022259010e-01
7.353668590272052219e-01
7.353668590272052219e-01
7.361912613355316992e-01
7.361912613355316992e-01
7.386644682605111312e-01
7.386644682605111312e-01
7.394888705688376085e-01
7.394888705688376085e-01
7.403132728771640858e-01
7.403132728771640858e-01
7.436108821104698841e-01
7.436108821104698841e-01
7.444352844187963614e-01
7.444352844187963614e-01
7.452596867271228387e-01
7.452596867271228387e-01
7.477328936521022706e-01
7.477328936521022706e-01
7.493816982687551143e-01
7.493816982687551143e-01
7.502061005770815916e-01
7.502061005770815916e-01
7.510305028854080689e-01
7.510305028854080689e-01
7.551525144270403445e-01
7.551525144270403445e-01
7.559769167353668218e-01
7.559769167353668218e-01
7.584501236603462537e-01
7.584501236603462537e-01
7.592745259686727310e-01
7.592745259686727310e-01
7.617477328936520520e-01
7.617477328936520520e-01
7.642209398186314839e-01
7.642209398186314839e-01
7.683429513602637595e-01
7.683429513602637595e-01
7.691673536685902368e-01
7.691673536685902368e-01
7.708161582852431915e-01
7.708161582852431915e-01
7.732893652102226234e-01
7.732893652102226234e-01
7.757625721352019443e-01
7.757625721352019443e-01
7.774113767518548990e-01
7.774113767518548990e-01
7.798845836768343309e-01
7.798845836768343309e-01
7.831821929101401292e-01
7.831821929101401292e-01
7.848309975267930838e-01
7.848309975267930838e-01
7.856553998351195611e-01
7.856553998351195611e-01
7.873042044517725158e-01
7.873042044517725158e-01
7.922506183017312686e-01
7.922506183017312686e-01
7.938994229183842233e-01
7.938994229183842233e-01
7.955482275350370669e-01
7.955482275350370669e-01
7.963726298433635442e-01
7.963726298433635442e-01
7.971970321516900215e-01
7.971970321516900215e-01
7.996702390766694535e-01
7.996702390766694535e-01
8.037922506183017290e-01
8.037922506183017290e-01
8.046166529266282064e-01
8.046166529266282064e-01
8.062654575432811610e-01
8.062654575432811610e-01
8.112118713932399139e-01
8.112118713932399139e-01
8.120362737015663912e-01
8.120362737015663912e-01
8.153338829348721895e-01
8.153338829348721895e-01
8.178070898598516214e-01
8.178070898598516214e-01
8.219291014014838970e-01
8.219291014014838970e-01
8.227535037098103743e-01
8.227535037098103743e-01
8.244023083264633289e-01
8.244023083264633289e-01
8.260511129431162836e-01
8.260511129431162836e-01
8.293487221764220818e-01
8.293487221764220818e-01
8.301731244847485591e-01
8.301731244847485591e-01
8.326463314097279911e-01
8.326463314097279911e-01
8.334707337180543574e-01
8.334707337180543574e-01
8.351195383347073120e-01
8.351195383347073120e-01
8.375927452596867440e-01
8.375927452596867440e-01
8.384171475680132213e-01
8.384171475680132213e-01
8.392415498763396986e-01
8.392415498763396986e-01
8.400659521846660649e-01
8.400659521846660649e-01
8.425391591096454968e-01
8.425391591096454968e-01
8.433635614179719742e-01
8.433635614179719742e-01
8.483099752679307270e-01
8.483099752679307270e-01
8.491343775762572044e-01
8.491343775762572044e-01
8.507831821929101590e-01
8.507831821929101590e-01
8.516075845012366363e-01
8.516075845012366363e-01
8.549051937345424346e-01
8.549051937345424346e-01
8.590272052761748212e-01
8.590272052761748212e-01
8.615004122011541421e-01
8.615004122011541421e-01
8.623248145094806194e-01
8.623248145094806194e-01
8.631492168178070967e-01
8.631492168178070967e-01
8.639736191261335740e-01
8.639736191261335740e-01
8.664468260511128950e-01
8.664468260511128950e-01
8.722176422093982362e-01
8.722176422093982362e-01
8.746908491343775571e-01
8.746908491343775571e-01
8.755152514427040344e-01
8.755152514427040344e-01
8.771640560593569891e-01
8.771640560593569891e-01
8.804616652926627873e-01
8.804616652926627873e-01
8.812860676009892646e-01
8.812860676009892646e-01
8.845836768342951739e-01
8.845836768342951739e-01
8.862324814509480175e-01
8.862324814509480175e-01
8.870568837592744948e-01
8.870568837592744948e-01
8.903544929925804041e-01
8.903544929925804041e-01
8.911788953009068814e-01
8.911788953009068814e-01
8.920032976092333588e-01
8.920032976092333588e-01
8.928276999175597251e-01
8.928276999175597251e-01
8.936521022258862024e-01
8.936521022258862024e-01
8.953009068425391570e-01
8.953009068425391570e-01
8.969497114591921116e-01
8.969497114591921116e-01
8.977741137675185890e-01
8.977741137675185890e-01
8.985985160758450663e-01
8.985985160758450663e-01
8.994229183841714326e-01
8.994229183841714326e-01
9.002473206924979099e-01
9.002473206924979099e-01
9.010717230008243872e-01
9.010717230008243872e-01
9.035449299258038192e-01
9.035449299258038192e-01
9.068425391591096174e-01
9.068425391591096174e-01
9.134377576257213249e-01
9.134377576257213249e-01
9.142621599340478022e-01
9.142621599340478022e-01
9.159109645507007569e-01
9.159109645507007569e-01
9.167353668590272342e-01
9.167353668590272342e-01
9.183841714756800778e-01
9.183841714756800778e-01
9.200329760923330324e-01
9.200329760923330324e-01
9.216817807089859871e-01
9.216817807089859871e-01
9.249793899422917853e-01
9.249793899422917853e-01
9.274525968672712173e-01
9.274525968672712173e-01
9.282769991755976946e-01
9.282769991755976946e-01
9.332234130255564475e-01
9.332234130255564475e-01
9.381698268755152004e-01
9.381698268755152004e-01
9.389942291838416777e-01
9.389942291838416777e-01
9.422918384171475870e-01
9.422918384171475870e-01
9.447650453421269079e-01
9.447650453421269079e-01
9.455894476504533852e-01
9.455894476504533852e-01
9.472382522671063398e-01
9.472382522671063398e-01
9.480626545754328172e-01
9.480626545754328172e-01
9.488870568837592945e-01
9.488870568837592945e-01
9.513602638087386154e-01
9.513602638087386154e-01
9.521846661170650927e-01
9.521846661170650927e-01
9.530090684253915700e-01
9.530090684253915700e-01
9.538334707337180474e-01
9.538334707337180474e-01
9.546578730420445247e-01
9.546578730420445247e-01
9.563066776586974793e-01
9.563066776586974793e-01
9.579554822753503229e-01
9.579554822753503229e-01
9.587798845836768002e-01
9.587798845836768002e-01
9.620774938169827095e-01
9.620774938169827095e-01
9.629018961253091868e-01
9.629018961253091868e-01
9.653751030502885078e-01
9.653751030502885078e-01
9.661995053586149851e-01
9.661995053586149851e-01
9.686727122835944170e-01
9.686727122835944170e-01
9.703215169002473717e-01
9.703215169002473717e-01
9.711459192085737380e-01
9.711459192085737380e-01
9.719703215169002153e-01
9.719703215169002153e-01
9.760923330585326019e-01
9.760923330585326019e-01
9.777411376751854455e-01
9.777411376751854455e-01
9.818631492168178321e-01
9.818631492168178321e-01
9.826875515251443094e-01
9.826875515251443094e-01
9.835119538334707867e-01
9.835119538334707867e-01
9.851607584501236303e-01
9.851607584501236303e-01
9.868095630667765850e-01
9.868095630667765850e-01
9.884583676834295396e-01
9.884583676834295396e-01
9.909315746084088605e-01
9.909315746084088605e-01
9.917559769167353378e-01
9.917559769167353378e-01
9.925803792250618152e-01
9.925803792250618152e-01
9.942291838417147698e-01
9.942291838417147698e-01
9.958779884583677244e-01
9.958779884583677244e-01
9.975267930750205680e-01
1.000000000000000000e+00
