0.000000000000000000e+00
9.477341399358787596e-03
1.338954816265283676e-02
1.338954816265283676e-02
2.110687091920543379e-02
2.110687091920543379e-02
3.246659822032484100e-02
3.246659822032484100e-02
3.618701424544445294e-02
3.618701424544445294e-02
3.951809712018027054e-02
3.951809712018027054e-02
4.350724077667991740e-02
4.350724077667991740e-02
4.794559416672192209e-02
4.794559416672192209e-02
4.877376343896378669e-02
4.877376343896378669e-02
4.958447337624954931e-02
4.958447337624954931e-02
5.115681772745447192e-02
5.115681772745447192e-02
5.191993836668144791e-02
5.191993836668144791e-02
5.340337068013591149e-02
5.340337068013591149e-02
6.070831903454418366e-02
6.070831903454418366e-02
6.131166283832138741e-02
6.131166283832138741e-02
6.249223951819937728e-02
6.249223951819937728e-02
6.306996115426106997e-02
6.306996115426106997e-02
6.363961030678927377e-02
6.363961030678927377e-02
6.420140185385361797e-02
6.420140185385361797e-02
6.942780422856537070e-02
6.942780422856537070e-02
7.039588056129421345e-02
7.039588056129421345e-02
7.087115068912033800e-02
7.087115068912033800e-02
7.226326867780062668e-02
7.226326867780062668e-02
7.404471621932248726e-02
7.404471621932248726e-02
7.490514001054933424e-02
7.490514001054933424e-02
7.615983193258765716e-02
7.615983193258765716e-02
7.697324210399351940e-02
7.697324210399351940e-02
7.737325119186862221e-02
7.737325119186862221e-02
7.930901588091987531e-02
7.930901588091987531e-02
8.042126584430264735e-02
8.042126584430264735e-02
8.184998472815983861e-02
8.184998472815983861e-02
8.288256752779803171e-02
8.288256752779803171e-02
8.321958904008117108e-02
8.321958904008117108e-02
8.355309689054021827e-02
8.579265702844270092e-02
8.579265702844270092e-02
8.640312494348800776e-02
8.640312494348800776e-02
8.700103447660838263e-02
8.700103447660838263e-02
8.844252370890373638e-02
8.844252370890373638e-02
8.899842695239057466e-02
8.899842695239057466e-02
8.954283890965263060e-02
8.954283890965263060e-02
8.981080113215782201e-02
8.981080113215782201e-02
9.059801322324900763e-02
9.059801322324900763e-02
9.209951139935543263e-02
9.209951139935543263e-02
9.257904730553237482e-02
9.257904730553237482e-02
9.281497723966752877e-02
9.281497723966752877e-02
9.304837451562493478e-02
9.304837451562493478e-02
9.327925814456287934e-02
9.327925814456287934e-02
9.395701144672494176e-02
9.395701144672494176e-02
9.417802291405356907e-02
9.417802291405356907e-02
9.482657855263998403e-02
9.482657855263998403e-02
9.565814131583363911e-02
9.565814131583363911e-02
9.664564139163234202e-02
9.664564139163234202e-02
9.702484217972218161e-02
9.702484217972218161e-02
9.739517441844847134e-02
9.739517441844847134e-02
9.810963255460700139e-02
9.810963255460700139e-02
9.911720335037707552e-02
9.911720335037707552e-02
9.943631127510714485e-02
9.943631127510714485e-02
9.974718041127779433e-02
9.974718041127779433e-02
1.000498875561586926e-01
1.000498875561586926e-01
1.001982035767108870e-01
1.001982035767108870e-01
1.003445065760951299e-01
1.003445065760951299e-01
1.007714245210416804e-01
1.007714245210416804e-01
1.010461280801991102e-01
1.010461280801991102e-01
1.011805317242403107e-01
1.011805317242403107e-01
1.014434818014444961e-01
1.014434818014444961e-01
1.016986725577084250e-01
1.016986725577084250e-01
1.024182600906693719e-01
1.024182600906693719e-01
1.026429734565401375e-01
1.026429734565401375e-01
1.027525182173167073e-01
1.029660138103830891e-01
1.029660138103830891e-01
1.033707889106008637e-01
1.033707889106008637e-01
1.034673861658832045e-01
1.034673861658832045e-01
1.035621552498788012e-01
1.035621552498788012e-01
1.040087496319420379e-01
1.040087496319420379e-01
1.040926510374291514e-01
1.040926510374291514e-01
1.041747570191550731e-01
1.041747570191550731e-01
1.044853099722635736e-01
1.044853099722635736e-01
1.045585003718014494e-01
1.045585003718014494e-01
1.046299192391927646e-01
1.046299192391927646e-01
1.048335824056394749e-01
1.048335824056394749e-01
1.050805405391502662e-01
1.050805405391502662e-01
1.051935359230784656e-01
1.051935359230784656e-01
1.052474227712964089e-01
1.052474227712964089e-01
1.054456257983232004e-01
1.054456257983232004e-01
1.056911538398554867e-01
1.056911538398554867e-01
1.057260611202365808e-01
1.057260611202365808e-01
1.057592549141681548e-01
1.057592549141681548e-01
1.058995750699689986e-01
1.058995750699689986e-01
1.059437586646801988e-01
1.059437586646801988e-01
1.059811303959341672e-01
1.059811303959341672e-01
1.059972641156365081e-01
1.059972641156365081e-01
1.060660171779821276e-01
1.060660171779821276e-01
1.060583801498024004e-01
1.060583801498024004e-01
1.060524398587792960e-01
1.060524398587792960e-01
1.060354657649976995e-01
1.060354657649976995e-01
1.060116974677794699e-01
1.060116974677794699e-01
1.059632955319906866e-01
1.059632955319906866e-01
1.057592549141681548e-01
1.057592549141681548e-01
1.056911538398554867e-01
1.056911538398554867e-01
1.056545313746646564e-01
1.056161919404406402e-01
1.054456257983232004e-01
1.054456257983232004e-01
1.053986717183855171e-01
1.053986717183855171e-01
1.053499881347881306e-01
1.053499881347881306e-01
1.052474227712963950e-01
1.052474227712963950e-01
1.050805405391502662e-01
1.050805405391502662e-01
1.050214263852857766e-01
1.050214263852857766e-01
1.048335824056394749e-01
1.048335824056394749e-01
1.047674567792881012e-01
1.047674567792881012e-01
1.043335995736752037e-01
1.043335995736752037e-01
1.042550718190726755e-01
1.042550718190726755e-01
1.041747570191550731e-01
1.041747570191550731e-01
1.035621552498788012e-01
1.035621552498788012e-01
1.033707889106008637e-01
1.033707889106008637e-01
1.031720892489824543e-01
1.031720892489824543e-01
1.030699762297440369e-01
1.030699762297440369e-01
1.029660138103830891e-01
1.029660138103830891e-01
1.027525182173167073e-01
1.027525182173167073e-01
1.026429734565401375e-01
1.026429734565401375e-01
1.025315561181044388e-01
1.025315561181044388e-01
1.019461622622450658e-01
1.019461622622450658e-01
1.018233764908628436e-01
1.018233764908628436e-01
1.015720433977775339e-01
1.015720433977775339e-01
1.014434818014444961e-01
1.014434818014444961e-01
1.011805317242403107e-01
1.011805317242403107e-01
1.009097616685323412e-01
1.009097616685323412e-01
1.007714245210416804e-01
1.007714245210416804e-01
1.006311085102414987e-01
1.006311085102414987e-01
1.001982035767108870e-01
1.001982035767108870e-01
9.974718041127779433e-02
9.974718041127779433e-02
9.911720335037707552e-02
9.911720335037707552e-02
9.895453501482384673e-02
9.895453501482384673e-02
9.845394862574075034e-02
9.845394862574075034e-02
9.828285710132769748e-02
9.828285710132769748e-02
9.793426366701289687e-02
9.793426366701289687e-02
9.775673889814452677e-02
9.775673889814452677e-02
9.757704648122939028e-02
9.757704648122939028e-02
9.739517441844847134e-02
9.739517441844847134e-02
9.721111047611791234e-02
9.721111047611791234e-02
9.683635680879366936e-02
9.683635680879366936e-02
9.664564139163234202e-02
9.664564139163234202e-02
9.565814131583365298e-02
9.565814131583365298e-02
9.545375843831399587e-02
9.545375843831399587e-02
9.524704719832527422e-02
9.503799240303847928e-02
9.503799240303847928e-02
9.482657855263998403e-02
9.482657855263998403e-02
9.439661010862626656e-02
9.439661010862626656e-02
9.417802291405356907e-02
9.417802291405356907e-02
9.373355855828796601e-02
9.373355855828796601e-02
9.304837451562493478e-02
9.304837451562493478e-02
9.257904730553237482e-02
9.257904730553237482e-02
9.234056530041387378e-02
9.234056530041387378e-02
9.209951139935543263e-02
9.209951139935543263e-02
9.136071365745782047e-02
9.136071365745782047e-02
9.110916529087509375e-02
9.110916529087509375e-02
9.085493932637894732e-02
9.085493932637894732e-02
9.059801322324900763e-02
9.059801322324900763e-02
9.033836394356496713e-02
9.033836394356496713e-02
9.007596793817981840e-02
9.007596793817981840e-02
8.954283890965263060e-02
8.954283890965263060e-02
8.899842695239056078e-02
8.899842695239056078e-02
8.872192513691302962e-02
8.872192513691302962e-02
8.844252370890373638e-02
8.844252370890373638e-02
8.816019509960262845e-02
8.816019509960262845e-02
8.787491109526085475e-02
8.787491109526085475e-02
8.758664281726979972e-02
8.758664281726979972e-02
8.700103447660838263e-02
8.700103447660838263e-02
8.670363314187011505e-02
8.670363314187011505e-02
8.640312494348800776e-02
8.640312494348800776e-02
8.485281374238570762e-02
8.485281374238570762e-02
8.453295215476623603e-02
8.453295215476623603e-02
8.388313298870041235e-02
8.388313298870041235e-02
8.288256752779801784e-02
8.288256752779801784e-02
8.149846624323675570e-02
8.149846624323675570e-02
8.114320673968955511e-02
8.114320673968955511e-02
8.042126584430266123e-02
8.042126584430266123e-02
7.930901588091987531e-02
7.930901588091987531e-02
7.893022234860358477e-02
7.893022234860358477e-02
7.816022006110269482e-02
7.816022006110269482e-02
7.776888838089432432e-02
7.776888838089432432e-02
7.737325119186863609e-02
7.737325119186863609e-02
7.656879259855153830e-02
7.656879259855153830e-02
7.615983193258765716e-02
7.615983193258765716e-02
7.532808241286911843e-02
7.532808241286911843e-02
7.490514001054934812e-02
7.490514001054934812e-02
7.404471621932250114e-02
7.404471621932250114e-02
7.360706487831178424e-02
7.360706487831178424e-02
7.316433557410331745e-02
7.316433557410331745e-02
7.271643555620696531e-02
7.271643555620696531e-02
7.134073170356469706e-02
7.134073170356469706e-02
7.039588056129421345e-02
7.039588056129421345e-02
6.991480529902090180e-02
6.991480529902090180e-02
6.893475175845634184e-02
6.893475175845634184e-02
6.843551709456136001e-02
6.843551709456136001e-02
6.792996393345133999e-02
6.792996393345133999e-02
6.689932735087850135e-02
6.689932735087850135e-02
6.475554030351379775e-02
6.475554030351379775e-02
6.306996115426105609e-02
6.306996115426105609e-02
6.190621939676173302e-02
6.190621939676173302e-02
6.131166283832137354e-02
6.131166283832137354e-02
5.947419608536123892e-02
5.884284153573821757e-02
5.754997827975261854e-02
5.754997827975261854e-02
5.552999189627168264e-02
5.552999189627168264e-02
5.191993836668142015e-02
5.191993836668142015e-02
4.958447337624956319e-02
4.958447337624956319e-02
4.877376343896379363e-02
4.877376343896379363e-02
4.794559416672194985e-02
4.794559416672194985e-02
4.534666470645885850e-02
4.534666470645885850e-02
4.443849682426264519e-02
4.443849682426264519e-02
4.156921938165307473e-02
4.156921938165307473e-02
4.055884613743346301e-02
4.055884613743346301e-02
3.951809712018028442e-02
3.951809712018028442e-02
3.733523804664973245e-02
3.733523804664973245e-02
3.618701424544447376e-02
3.618701424544447376e-02
3.499599977140246260e-02
3.499599977140246260e-02
3.246659822032485487e-02
3.246659822032485487e-02
3.111623370525425092e-02
3.111623370525425092e-02
2.969848480983500530e-02
2.969848480983500530e-02
2.820319130878632535e-02
2.820319130878632535e-02
2.492348290267635408e-02
2.492348290267635408e-02
2.309805186590420042e-02
2.309805186590420042e-02
1.889761889762835503e-02
1.889761889762835503e-02
1.638230752977126378e-02
1.638230752977126378e-02
1.338954816265284370e-02
1.338954816265284370e-02
9.477341399358792801e-03
9.477341399358792801e-03
0.000000000000000000e+00
0.000000000000000000e+00
