0.000000000000000000e+00
8.196721311475409222e-02
8.378870673952641679e-02
9.107468123861565956e-02
1.020036429872495515e-01
1.038251366120218622e-01
1.074681238615664836e-01
1.129326047358834295e-01
1.147540983606557402e-01
1.202185792349726723e-01
1.238615664845173076e-01
1.275045537340619428e-01
1.384335154826958070e-01
1.420765027322404284e-01
1.438979963570127529e-01
1.475409836065573743e-01
1.803278688524590223e-01
1.803278688524590223e-01
1.930783242258652110e-01
1.930783242258652110e-01
2.131147540983606425e-01
2.131147540983606425e-01
2.914389799635701550e-01
2.914389799635701550e-01
2.932604735883424518e-01
2.932604735883424518e-01
2.969034608378870455e-01
2.969034608378870455e-01
3.151183970856101801e-01
3.151183970856101801e-01
3.187613843351548293e-01
3.187613843351548293e-01
3.387978142076502608e-01
3.387978142076502608e-01
3.406193078324226131e-01
3.406193078324226131e-01
3.460837887067395036e-01
3.460837887067395036e-01
3.497267759562841527e-01
3.497267759562841527e-01
3.570127504553733955e-01
3.570127504553733955e-01
3.588342440801456923e-01
3.588342440801456923e-01
3.770491803278688270e-01
3.770491803278688270e-01
3.843351548269581253e-01
3.843351548269581253e-01
3.879781420765027189e-01
3.879781420765027189e-01
3.897996357012750712e-01
3.897996357012750712e-01
3.934426229508196649e-01
3.934426229508196649e-01
3.989071038251366108e-01
3.989071038251366108e-01
4.007285974499089076e-01
4.007285974499089076e-01
4.025500910746812600e-01
4.025500910746812600e-01
4.134790528233150964e-01
4.134790528233150964e-01
4.153005464480874487e-01
4.153005464480874487e-01
4.171220400728597455e-01
4.171220400728597455e-01
4.225865209471766915e-01
4.225865209471766915e-01
4.244080145719489883e-01
4.244080145719489883e-01
4.262295081967212851e-01
4.262295081967212851e-01
4.316939890710382310e-01
4.316939890710382310e-01
4.371584699453551770e-01
4.371584699453551770e-01
4.499089253187613657e-01
4.499089253187613657e-01
4.517304189435337181e-01
4.517304189435337181e-01
4.535519125683060149e-01
4.535519125683060149e-01
4.590163934426229608e-01
4.590163934426229608e-01
4.608378870673952576e-01
4.608378870673952576e-01
4.663023679417122036e-01
4.663023679417122036e-01
4.699453551912568527e-01
4.699453551912568527e-01
4.754098360655737432e-01
4.754098360655737432e-01
4.772313296903460955e-01
4.772313296903460955e-01
4.808743169398906891e-01
4.808743169398906891e-01
4.826958105646630415e-01
4.826958105646630415e-01
4.881602914389799874e-01
4.881602914389799874e-01
4.899817850637522842e-01
4.899817850637522842e-01
4.918032786885245811e-01
4.918032786885245811e-01
4.972677595628415270e-01
4.972677595628415270e-01
5.063752276867030666e-01
5.063752276867030666e-01
5.081967213114754189e-01
5.081967213114754189e-01
5.118397085610200126e-01
5.118397085610200126e-01
5.136612021857923649e-01
5.136612021857923649e-01
5.209471766848815522e-01
5.209471766848815522e-01
5.245901639344262568e-01
5.245901639344262568e-01
5.300546448087432028e-01
5.300546448087432028e-01
5.318761384335154441e-01
5.318761384335154441e-01
5.336976320582877964e-01
5.336976320582877964e-01
5.355191256830601487e-01
5.355191256830601487e-01
5.373406193078323900e-01
5.373406193078323900e-01
5.391621129326047424e-01
5.391621129326047424e-01
5.409836065573770947e-01
5.409836065573770947e-01
5.464480874316940406e-01
5.464480874316940406e-01
5.573770491803278215e-01
5.573770491803278215e-01
5.610200364298725262e-01
5.610200364298725262e-01
5.646630236794171198e-01
5.646630236794171198e-01
5.683060109289617134e-01
5.683060109289617134e-01
5.701275045537340658e-01
5.701275045537340658e-01
5.719489981785064181e-01
5.719489981785064181e-01
5.737704918032786594e-01
5.737704918032786594e-01
5.810564663023679577e-01
5.810564663023679577e-01
5.828779599271403100e-01
5.828779599271403100e-01
5.865209471766849036e-01
5.865209471766849036e-01
5.901639344262294973e-01
5.901639344262294973e-01
5.938069216757740909e-01
5.938069216757740909e-01
5.956284153005464432e-01
5.956284153005464432e-01
5.974499089253187956e-01
5.974499089253187956e-01
5.992714025500910369e-01
5.992714025500910369e-01
6.029143897996357415e-01
6.029143897996357415e-01
6.083788706739526875e-01
6.083788706739526875e-01
6.102003642987249288e-01
6.102003642987249288e-01
6.211293260473588207e-01
6.211293260473588207e-01
6.229508196721311730e-01
6.229508196721311730e-01
6.284153005464481190e-01
6.284153005464481190e-01
6.320582877959927126e-01
6.320582877959927126e-01
6.375227686703096586e-01
6.375227686703096586e-01
6.393442622950820109e-01
6.393442622950820109e-01
6.448087431693989569e-01
6.448087431693989569e-01
6.466302367941711982e-01
6.466302367941711982e-01
6.484517304189435505e-01
6.484517304189435505e-01
6.539162112932604964e-01
6.539162112932604964e-01
6.575591985428050901e-01
6.575591985428050901e-01
6.648451730418943884e-01
6.648451730418943884e-01
6.757741347905282803e-01
6.757741347905282803e-01
6.794171220400728739e-01
6.794171220400728739e-01
6.812386156648452262e-01
6.812386156648452262e-01
6.885245901639344135e-01
6.885245901639344135e-01
6.903460837887067658e-01
6.903460837887067658e-01
6.921675774134790071e-01
6.921675774134790071e-01
6.939890710382513594e-01
6.939890710382513594e-01
6.958105646630237118e-01
6.958105646630237118e-01
6.994535519125683054e-01
6.994535519125683054e-01
7.030965391621128990e-01
7.030965391621128990e-01
7.067395264116576037e-01
7.067395264116576037e-01
7.085610200364298450e-01
7.085610200364298450e-01
7.103825136612021973e-01
7.103825136612021973e-01
7.122040072859745496e-01
7.122040072859745496e-01
7.140255009107467910e-01
7.140255009107467910e-01
7.158469945355191433e-01
7.158469945355191433e-01
7.176684881602913846e-01
7.176684881602913846e-01
7.194899817850637369e-01
7.194899817850637369e-01
7.231329690346083305e-01
7.231329690346083305e-01
7.249544626593806829e-01
7.249544626593806829e-01
7.285974499089252765e-01
7.285974499089252765e-01
7.304189435336976288e-01
7.304189435336976288e-01
7.322404371584699811e-01
7.322404371584699811e-01
7.340619307832422225e-01
7.340619307832422225e-01
7.358834244080145748e-01
7.358834244080145748e-01
7.377049180327869271e-01
7.377049180327869271e-01
7.413479052823315207e-01
7.413479052823315207e-01
7.431693989071038731e-01
7.431693989071038731e-01
7.449908925318761144e-01
7.449908925318761144e-01
7.468123861566484667e-01
7.468123861566484667e-01
7.504553734061930603e-01
7.504553734061930603e-01
7.540983606557376540e-01
7.540983606557376540e-01
7.559198542805100063e-01
7.559198542805100063e-01
7.577413479052823586e-01
7.577413479052823586e-01
7.668488160291438982e-01
7.668488160291438982e-01
7.686703096539162505e-01
7.686703096539162505e-01
7.741347905282331965e-01
7.741347905282331965e-01
7.777777777777777901e-01
7.777777777777777901e-01
7.795992714025501424e-01
7.795992714025501424e-01
7.814207650273223837e-01
7.814207650273223837e-01
7.850637522768669774e-01
7.850637522768669774e-01
7.868852459016393297e-01
7.868852459016393297e-01
7.905282331511839233e-01
7.905282331511839233e-01
7.923497267759562757e-01
7.923497267759562757e-01
7.996357012750455739e-01
7.996357012750455739e-01
8.014571948998178152e-01
8.014571948998178152e-01
8.032786885245901676e-01
8.032786885245901676e-01
8.051001821493625199e-01
8.051001821493625199e-01
8.069216757741347612e-01
8.069216757741347612e-01
8.087431693989071135e-01
8.087431693989071135e-01
8.105646630236794659e-01
8.105646630236794659e-01
8.123861566484517072e-01
8.123861566484517072e-01
8.142076502732240595e-01
8.142076502732240595e-01
8.160291438979964118e-01
8.160291438979964118e-01
8.178506375227686531e-01
8.178506375227686531e-01
8.233151183970855991e-01
8.233151183970855991e-01
8.251366120218579514e-01
8.251366120218579514e-01
8.269581056466301927e-01
8.269581056466301927e-01
8.287795992714025450e-01
8.287795992714025450e-01
8.324225865209471387e-01
8.324225865209471387e-01
8.342440801457194910e-01
8.342440801457194910e-01
8.415300546448087893e-01
8.415300546448087893e-01
8.433515482695810306e-01
8.433515482695810306e-01
8.469945355191257352e-01
8.469945355191257352e-01
8.488160291438979765e-01
8.488160291438979765e-01
8.506375227686703289e-01
8.506375227686703289e-01
8.524590163934425702e-01
8.524590163934425702e-01
8.561020036429872748e-01
8.561020036429872748e-01
8.579234972677595161e-01
8.579234972677595161e-01
8.597449908925318685e-01
8.597449908925318685e-01
8.633879781420764621e-01
8.633879781420764621e-01
8.670309653916211667e-01
8.670309653916211667e-01
8.688524590163934080e-01
8.688524590163934080e-01
8.743169398907103540e-01
8.743169398907103540e-01
8.761384335154827063e-01
8.761384335154827063e-01
8.797814207650273000e-01
8.797814207650273000e-01
8.816029143897996523e-01
8.816029143897996523e-01
8.834244080145718936e-01
8.834244080145718936e-01
8.870673952641165982e-01
8.870673952641165982e-01
8.888888888888888395e-01
8.888888888888888395e-01
8.907103825136611919e-01
8.907103825136611919e-01
8.961748633879781378e-01
8.961748633879781378e-01
8.998178506375227315e-01
8.998178506375227315e-01
9.016393442622950838e-01
9.016393442622950838e-01
9.034608378870674361e-01
9.034608378870674361e-01
9.071038251366120297e-01
9.071038251366120297e-01
9.089253187613843821e-01
9.089253187613843821e-01
9.107468123861566234e-01
9.107468123861566234e-01
9.125683060109289757e-01
9.125683060109289757e-01
9.143897996357013280e-01
9.143897996357013280e-01
9.180327868852459217e-01
9.180327868852459217e-01
9.216757741347905153e-01
9.216757741347905153e-01
9.234972677595628676e-01
9.234972677595628676e-01
9.253187613843351089e-01
9.253187613843351089e-01
9.271402550091074612e-01
9.271402550091074612e-01
9.289617486338798136e-01
9.289617486338798136e-01
9.307832422586520549e-01
9.307832422586520549e-01
9.326047358834244072e-01
9.326047358834244072e-01
9.344262295081967595e-01
9.344262295081967595e-01
9.380692167577413532e-01
9.380692167577413532e-01
9.417122040072859468e-01
9.417122040072859468e-01
9.435336976320582991e-01
9.435336976320582991e-01
9.453551912568306514e-01
9.453551912568306514e-01
9.471766848816028928e-01
9.471766848816028928e-01
9.508196721311474864e-01
9.508196721311474864e-01
9.526411657559198387e-01
9.526411657559198387e-01
9.544626593806921910e-01
9.544626593806921910e-01
9.562841530054644323e-01
9.562841530054644323e-01
9.581056466302367847e-01
9.581056466302367847e-01
9.635701275045537306e-01
9.635701275045537306e-01
9.653916211293260830e-01
9.653916211293260830e-01
9.672131147540983243e-01
9.672131147540983243e-01
9.690346083788706766e-01
9.690346083788706766e-01
9.708561020036430289e-01
9.708561020036430289e-01
9.726775956284152702e-01
9.726775956284152702e-01
9.763205828779599749e-01
9.763205828779599749e-01
9.781420765027322162e-01
9.781420765027322162e-01
9.799635701275045685e-01
9.799635701275045685e-01
9.817850637522769208e-01
9.817850637522769208e-01
9.854280510018215145e-01
9.854280510018215145e-01
9.872495446265937558e-01
9.872495446265937558e-01
9.890710382513661081e-01
9.890710382513661081e-01
9.908925318761384604e-01
9.908925318761384604e-01
9.927140255009107017e-01
9.927140255009107017e-01
9.945355191256830540e-01
9.945355191256830540e-01
9.963570127504554064e-01
9.963570127504554064e-01
9.981785063752276477e-01
9.981785063752276477e-01
1.000000000000000000e+00
