0.000000000000000000e+00
0.000000000000000000e+00
0.000000000000000000e+00
0.000000000000000000e+00
0.000000000000000000e+00
0.000000000000000000e+00
0.000000000000000000e+00
0.000000000000000000e+00
0.000000000000000000e+00
0.000000000000000000e+00
0.000000000000000000e+00
0.000000000000000000e+00
0.000000000000000000e+00
0.000000000000000000e+00
0.000000000000000000e+00
0.000000000000000000e+00
0.000000000000000000e+00
5.449584520863729256e-03
5.449584520863729256e-03
7.699854126458845031e-03
7.699854126458845031e-03
9.421748582727264634e-03
9.421748582727264634e-03
1.086934909790697977e-02
1.086934909790697977e-02
1.214116814548293552e-02
1.214116814548293552e-02
1.328777591360864527e-02
1.328777591360864527e-02
1.433924071184860920e-02
1.433924071184860920e-02
1.622919983001208655e-02
1.622919983001208655e-02
1.709126076655942406e-02
1.709126076655942406e-02
1.790886017387127715e-02
1.790886017387127715e-02
2.014761452751942170e-02
2.014761452751942170e-02
2.083529918097965991e-02
2.083529918097965991e-02
2.149848421263745452e-02
2.149848421263745452e-02
2.213937139102603591e-02
2.213937139102603591e-02
2.275984442844925654e-02
2.275984442844925654e-02
2.394584423335464896e-02
2.394584423335464896e-02
2.613218435863847583e-02
2.613218435863847583e-02
2.664568420686530548e-02
2.664568420686530548e-02
2.858874435037642159e-02
2.858874435037642159e-02
2.904955738686309380e-02
2.904955738686309380e-02
2.950134023875516931e-02
2.950134023875516931e-02
3.037941887049669734e-02
3.037941887049669734e-02
3.080644111911085697e-02
3.080644111911085697e-02
3.122589227884556978e-02
3.122589227884556978e-02
3.163807347901514272e-02
3.163807347901514272e-02
3.204326526722464652e-02
3.204326526722464652e-02
3.283371121326468522e-02
3.283371121326468522e-02
3.359913061019707131e-02
3.359913061019707131e-02
3.434119692382286981e-02
3.434119692382286981e-02
3.470394266309861919e-02
3.470394266309861919e-02
3.506139297339969096e-02
3.506139297339969096e-02
3.541370820424425553e-02
3.541370820424425553e-02
3.576104012727009812e-02
3.576104012727009812e-02
3.610353256762775798e-02
3.610353256762775798e-02
3.644132197667867418e-02
3.644132197667867418e-02
3.677453795254047308e-02
3.677453795254047308e-02
3.806404504475379563e-02
3.806404504475379563e-02
3.837612894400987962e-02
3.837612894400987962e-02
3.987960845530531817e-02
3.987960845530531817e-02
4.016951309287564165e-02
4.016951309287564165e-02
4.045600331666025784e-02
4.045600331666025784e-02
4.073915116034224071e-02
4.073915116034224071e-02
4.156921938165306085e-02
4.156921938165306085e-02
4.237154539018865573e-02
4.237154539018865573e-02
4.365123713459810595e-02
4.365123713459810595e-02
4.414415290741059705e-02
4.414415290741059705e-02
4.462677683991371491e-02
4.462677683991371491e-02
4.486433343677102142e-02
4.486433343677102142e-02
4.623950324566333120e-02
4.623950324566333120e-02
4.646066657606961331e-02
4.646066657606961331e-02
4.689640420408293375e-02
4.689640420408293375e-02
4.711103944476007638e-02
4.711103944476007638e-02
4.732355817695266254e-02
4.732355817695266254e-02
4.815302429817733265e-02
4.815302429817733265e-02
4.835537119458283017e-02
4.835537119458283017e-02
4.875421729432202755e-02
4.875421729432202755e-02
4.895076414411743404e-02
4.895076414411743404e-02
4.914542427604758068e-02
4.914542427604758068e-02
4.971830490095063143e-02
4.971830490095063143e-02
5.027497641166117637e-02
5.027497641166117637e-02
5.045702473247400816e-02
5.045702473247400816e-02
5.063735031755284277e-02
5.063735031755284277e-02
5.081597150680398911e-02
5.081597150680398911e-02
5.099290621102833126e-02
5.099290621102833126e-02
5.151376436310980272e-02
5.151376436310980272e-02
5.168412411175310472e-02
5.168412411175310472e-02
5.185288094415647919e-02
5.185288094415647919e-02
5.202005046025331980e-02
5.202005046025331980e-02
5.218564791429163019e-02
5.218564791429163019e-02
5.234968822495686402e-02
5.234968822495686402e-02
5.267315547114823082e-02
5.267315547114823082e-02
5.345555742000448335e-02
5.345555742000448335e-02
5.360764043910658250e-02
5.360764043910658250e-02
5.375828697496176645e-02
5.375828697496176645e-02
5.390750907048871832e-02
5.390750907048871832e-02
5.405531852238014412e-02
5.405531852238014412e-02
5.449038542423280396e-02
5.449038542423280396e-02
5.491314089382380581e-02
5.491314089382380581e-02
5.532386716405928578e-02
5.532386716405928578e-02
5.545814918516779601e-02
5.545814918516779601e-02
5.572283023291296766e-02
5.572283023291296766e-02
5.585324766054255985e-02
5.585324766054255985e-02
5.611028102196277678e-02
5.611028102196277678e-02
5.623691433065571010e-02
5.623691433065571010e-02
5.636230337000121271e-02
5.636230337000121271e-02
5.648645642611389850e-02
5.648645642611389850e-02
5.720586415800930913e-02
5.720586415800930913e-02
5.732158482764164453e-02
5.732158482764164453e-02
5.743613053565752025e-02
5.743613053565752025e-02
5.766172500392481581e-02
5.766172500392481581e-02
5.777278741925850891e-02
5.777278741925850891e-02
5.788270218832297642e-02
5.788270218832297642e-02
5.809911477372618760e-02
5.809911477372618760e-02
5.841528571194713748e-02
5.841528571194713748e-02
5.862050525510366372e-02
5.862050525510366372e-02
5.872146428814810359e-02
5.872146428814810359e-02
5.930445837262171560e-02
5.930445837262171560e-02
5.939788034375746706e-02
5.939788034375746706e-02
5.949024631367151594e-02
5.949024631367151594e-02
5.958156119354338781e-02
5.958156119354338781e-02
5.976105690048712921e-02
5.976105690048712921e-02
5.993640506521263900e-02
5.993640506521263900e-02
6.019172972737411864e-02
6.019172972737411864e-02
6.043792103492053730e-02
6.043792103492053730e-02
6.097746255087613254e-02
6.097746255087613254e-02
6.105060654062506587e-02
6.105060654062506587e-02
6.112277799218220065e-02
6.112277799218220065e-02
6.146916545739457283e-02
6.146916545739457283e-02
6.160102841453236888e-02
6.160102841453236888e-02
6.166553833042218158e-02
6.166553833042218158e-02
6.179172987781020310e-02
6.179172987781020310e-02
6.191416952264189311e-02
6.191416952264189311e-02
6.209084253956236032e-02
6.209084253956236032e-02
6.214788112618829796e-02
6.214788112618829796e-02
6.220399778427110338e-02
6.220399778427110338e-02
6.252147339604467724e-02
6.252147339604467724e-02
6.257120361766893568e-02
6.257120361766893568e-02
6.262003049651063136e-02
6.262003049651063136e-02
6.266795614405121229e-02
6.266795614405121229e-02
6.280634613596912386e-02
6.280634613596912386e-02
6.289413666429333194e-02
6.289413666429333194e-02
6.297836915336192665e-02
6.297836915336192665e-02
6.320985762265396435e-02
6.320985762265396435e-02
6.324536313380113572e-02
6.324536313380113572e-02
6.327999388310043272e-02
6.327999388310043272e-02
6.334663679856221419e-02
6.334663679856221419e-02
6.337865171817576304e-02
6.337865171817576304e-02
6.346948603384504339e-02
6.346948603384504339e-02
6.349803146555017819e-02
6.349803146555017819e-02
6.355253037609996658e-02
6.355253037609996658e-02
6.365119071658728589e-02
6.365119071658728589e-02
6.379083966090370872e-02
6.379083966090370872e-02
6.382305554604589259e-02
6.382305554604589259e-02
6.385186650755694804e-02
6.385186650755694804e-02
6.392595265610230559e-02
6.392595265610230559e-02
6.393949055389407110e-02
6.393949055389407110e-02
6.394498950617753807e-02
6.394498950617753807e-02
6.395344850950926419e-02
6.395344850950926419e-02
6.395979202783125261e-02
6.395979202783125261e-02
6.395344850950926419e-02
6.395344850950926419e-02
6.394964209647673037e-02
6.394964209647673037e-02
6.394498950617752420e-02
6.394498950617752420e-02
6.393949055389408498e-02
6.393949055389408498e-02
6.393314502123711995e-02
6.393314502123711995e-02
6.392595265610230559e-02
6.392595265610230559e-02
6.389929153796106154e-02
6.389929153796106154e-02
6.388870864567322561e-02
6.388870864567322561e-02
6.386499660326057370e-02
6.386499660326057370e-02
6.382305554604589259e-02
6.382305554604589259e-02
6.380737352848851740e-02
6.380737352848851740e-02
6.369536815867005153e-02
6.369536815867005153e-02
6.367370805065156181e-02
6.367370805065156181e-02
6.360358069389568381e-02
6.360358069389568381e-02
6.352571253648571503e-02
6.352571253648571503e-02
6.349803146555016431e-02
6.349803146555016431e-02
6.346948603384504339e-02
6.346948603384504339e-02
6.344007507458965245e-02
6.344007507458965245e-02
6.337865171817576304e-02
6.337865171817576304e-02
6.324536313380113572e-02
6.324536313380113572e-02
6.320985762265395047e-02
6.320985762265395047e-02
6.309807756927021671e-02
6.309807756927021671e-02
6.266795614405121229e-02
6.266795614405121229e-02
6.262003049651063136e-02
6.262003049651063136e-02
6.236684086892607670e-02
6.236684086892607670e-02
6.112277799218220758e-02
6.112277799218220758e-02
6.082824287680919928e-02
6.082824287680919928e-02
6.010764198580671736e-02
6.010764198580671736e-02
6.002253521206218911e-02
6.002253521206218911e-02
5.993640506521263900e-02
5.993640506521263900e-02
5.976105690048712921e-02
5.976105690048712921e-02
5.967182980877386300e-02
5.967182980877386300e-02
5.930445837262171560e-02
5.930445837262171560e-02
5.911442634377345878e-02
5.911442634377345878e-02
5.851844764902509877e-02
5.851844764902509877e-02
5.820562529453553180e-02
5.820562529453553180e-02
5.777278741925850891e-02
5.777278741925850891e-02
5.766172500392482969e-02
5.766172500392482969e-02
5.732158482764164453e-02
5.732158482764164453e-02
5.697086922186474223e-02
5.697086922186474223e-02
5.611028102196277678e-02
5.611028102196277678e-02
5.598239500023587112e-02
5.598239500023587112e-02
5.572283023291296766e-02
5.572283023291296766e-02
5.532386716405928578e-02
5.532386716405928578e-02
5.518827824454478753e-02
5.518827824454478753e-02
5.505137277013884972e-02
5.505137277013884972e-02
5.463265756603162548e-02
5.463265756603162548e-02
5.434674548953490059e-02
5.434674548953490059e-02
5.420172688757981388e-02
5.420172688757981388e-02
5.405531852238014412e-02
5.405531852238014412e-02
5.283261065203517792e-02
5.283261065203517792e-02
5.151376436310980272e-02
5.151376436310980272e-02
5.134178574207927392e-02
5.134178574207927392e-02
5.081597150680400299e-02
5.081597150680400299e-02
5.027497641166117637e-02
5.027497641166117637e-02
4.952917315318484948e-02
4.952917315318484948e-02
4.794869534642723363e-02
4.794869534642723363e-02
4.601610145142000230e-02
4.601610145142000230e-02
4.486433343677102142e-02
4.486433343677102142e-02
4.462677683991371491e-02
4.462677683991371491e-02
4.365123713459809901e-02
4.365123713459809901e-02
4.340081051222380304e-02
4.340081051222380304e-02
4.156921938165306085e-02
4.156921938165306085e-02
4.129569390489038622e-02
4.129569390489038622e-02
3.928925272150100845e-02
3.928925272150100845e-02
3.898864193389835198e-02
3.898864193389835198e-02
3.806404504475378869e-02
3.806404504475378869e-02
3.710330371417600026e-02
3.710330371417600026e-02
3.644132197667867418e-02
3.644132197667867418e-02
3.359913061019707825e-02
3.359913061019707825e-02
3.283371121326468522e-02
3.283371121326468522e-02
3.122589227884556631e-02
3.122589227884556631e-02
3.080644111911084310e-02
3.080644111911084310e-02
2.994450163321487821e-02
2.994450163321487821e-02
1.709126076655942406e-02
1.709126076655942406e-02
1.086934909790701620e-02
1.086934909790701620e-02
0.000000000000000000e+00
0.000000000000000000e+00
