2.000000000000000000e+00
1.000000000000000000e+00
9.999998807907104492e-01
9.999998211860656738e-01
9.999996423721313477e-01
9.999995827674865723e-01
9.999995231628417969e-01
9.999994039535522461e-01
9.999993443489074707e-01
9.999990463256835938e-01
9.999989271163940430e-01
9.999986886978149414e-01
9.999970197677612305e-01
9.999966621398925781e-01
9.999962449073791504e-01
9.999961853027343750e-01
9.999831914901733398e-01
9.999794960021972656e-01
9.999676942825317383e-01
9.999619722366333008e-01
9.999101161956787109e-01
9.999012947082519531e-01
9.972792267799377441e-01
9.971230030059814453e-01
9.970738291740417480e-01
9.969323873519897461e-01
9.959661364555358887e-01
9.959390759468078613e-01
9.940845966339111328e-01
9.940675497055053711e-01
9.933984279632568359e-01
9.923408627510070801e-01
9.844795465469360352e-01
9.828567504882812500e-01
9.825033545494079590e-01
9.800207614898681641e-01
9.625999927520751953e-01
9.572331905364990234e-01
9.549046754837036133e-01
9.540978074073791504e-01
9.454306364059448242e-01
9.380655884742736816e-01
9.317080974578857422e-01
9.283548593521118164e-01
9.086122512817382812e-01
9.075452089309692383e-01
9.025645852088928223e-01
8.956716060638427734e-01
8.849236965179443359e-01
8.760904073715209961e-01
8.758186697959899902e-01
8.707377910614013672e-01
8.693746328353881836e-01
8.595054745674133301e-01
8.454554080963134766e-01
8.337910175323486328e-01
8.315128087997436523e-01
8.271656632423400879e-01
8.264350891113281250e-01
8.247640728950500488e-01
8.070701360702514648e-01
8.024301528930664062e-01
7.985963225364685059e-01
7.952554225921630859e-01
7.941691875457763672e-01
7.938001155853271484e-01
7.864024043083190918e-01
7.857408523559570312e-01
7.835082411766052246e-01
7.775884866714477539e-01
7.774757742881774902e-01
7.761964201927185059e-01
7.624209523200988770e-01
7.558932304382324219e-01
7.457973361015319824e-01
7.434241175651550293e-01
7.181927561759948730e-01
7.132499217987060547e-01
7.097434997558593750e-01
7.072938680648803711e-01
7.052046656608581543e-01
6.997232437133789062e-01
6.927475333213806152e-01
6.909055709838867188e-01
6.872631311416625977e-01
6.808723211288452148e-01
6.782624721527099609e-01
6.742618680000305176e-01
6.674311757087707520e-01
6.620233654975891113e-01
6.578628420829772949e-01
6.535965800285339355e-01
6.512899398803710938e-01
6.350548863410949707e-01
6.323767900466918945e-01
6.300182342529296875e-01
6.256316900253295898e-01
6.235365867614746094e-01
6.162100434303283691e-01
6.073638200759887695e-01
5.995227098464965820e-01
5.879775285720825195e-01
5.866159796714782715e-01
5.711630582809448242e-01
5.701270699501037598e-01
5.540218353271484375e-01
5.443435907363891602e-01
5.368060469627380371e-01
5.356265902519226074e-01
5.346280336380004883e-01
5.305873155593872070e-01
5.289950966835021973e-01
5.287090539932250977e-01
5.218453407287597656e-01
5.160068869590759277e-01
5.145150423049926758e-01
5.123556256294250488e-01
5.082804560661315918e-01
5.047063231468200684e-01
5.013531446456909180e-01
5.006605982780456543e-01
4.997550547122955322e-01
4.896717965602874756e-01
4.764376282691955566e-01
4.729054868221282959e-01
4.701798260211944580e-01
4.665059149265289307e-01
4.649422168731689453e-01
4.629877209663391113e-01
4.628626704216003418e-01
4.604739546775817871e-01
4.593721926212310791e-01
4.531188011169433594e-01
4.490382075309753418e-01
4.407346248626708984e-01
4.355682134628295898e-01
4.329784810543060303e-01
4.324043989181518555e-01
4.295839965343475342e-01
4.288322329521179199e-01
4.265967607498168945e-01
4.264569282531738281e-01
4.250100851058959961e-01
4.236699044704437256e-01
4.233703017234802246e-01
4.169586896896362305e-01
4.161562323570251465e-01
4.161538779735565186e-01
4.141011238098144531e-01
4.118585586547851562e-01
4.078490138053894043e-01
4.068930149078369141e-01
4.031713008880615234e-01
4.022110402584075928e-01
3.909848630428314209e-01
3.890702426433563232e-01
3.861275911331176758e-01
3.855201303958892822e-01
3.852672278881072998e-01
3.817348480224609375e-01
3.813088536262512207e-01
3.800972700119018555e-01
3.781703412532806396e-01
3.758729100227355957e-01
3.748550713062286377e-01
3.748162984848022461e-01
3.704780340194702148e-01
3.698620796203613281e-01
3.684674501419067383e-01
3.668189048767089844e-01
3.601699769496917725e-01
3.580868840217590332e-01
3.580437898635864258e-01
3.545421361923217773e-01
3.514815270900726318e-01
3.508178591728210449e-01
3.499843180179595947e-01
3.485584855079650879e-01
3.449123501777648926e-01
3.445270061492919922e-01
3.445140719413757324e-01
3.428368270397186279e-01
3.383260965347290039e-01
3.377410471439361572e-01
3.366717100143432617e-01
3.364431262016296387e-01
3.353681564331054688e-01
3.340930342674255371e-01
3.311235010623931885e-01
3.246397972106933594e-01
3.230218291282653809e-01
3.213666081428527832e-01
3.191709816455841064e-01
3.190245628356933594e-01
3.132655620574951172e-01
3.118761777877807617e-01
3.104898929595947266e-01
3.094412088394165039e-01
3.093986511230468750e-01
3.087652325630187988e-01
3.076874017715454102e-01
3.066118657588958740e-01
3.063399791717529297e-01
3.034564852714538574e-01
3.028204441070556641e-01
3.009376227855682373e-01
2.995421290397644043e-01
2.989021539688110352e-01
2.982711195945739746e-01
2.915169596672058105e-01
2.909981012344360352e-01
2.896545827388763428e-01
2.892504036426544189e-01
2.883201539516448975e-01
2.875038981437683105e-01
2.867548465728759766e-01
2.867296338081359863e-01
2.849733233451843262e-01
2.847818136215209961e-01
2.827119827270507812e-01
2.824581861495971680e-01
2.791988253593444824e-01
2.791696786880493164e-01
2.776917815208435059e-01
2.773115038871765137e-01
2.707812190055847168e-01
2.705607116222381592e-01
2.702007591724395752e-01
2.694312930107116699e-01
2.693467140197753906e-01
2.683643698692321777e-01
2.661530971527099609e-01
2.660751938819885254e-01
2.654744386672973633e-01
2.646925449371337891e-01
2.640473246574401855e-01
2.625767588615417480e-01
2.613245844841003418e-01
2.606107592582702637e-01
2.589638829231262207e-01
2.586845159530639648e-01
2.573837935924530029e-01
2.567846179008483887e-01
2.555366456508636475e-01
2.553429603576660156e-01
2.547579407691955566e-01
2.531178593635559082e-01
2.516902089118957520e-01
2.509608864784240723e-01
2.500062584877014160e-01
2.497357428073883057e-01
2.496516108512878418e-01
2.495656907558441162e-01
2.494411766529083252e-01
2.483908236026763916e-01
2.475885152816772461e-01
2.471950650215148926e-01
2.467058897018432617e-01
2.465090751647949219e-01
2.458938658237457275e-01
2.454633116722106934e-01
2.439520955085754395e-01
2.407097518444061279e-01
2.406637966632843018e-01
2.404295802116394043e-01
2.399264574050903320e-01
2.387645542621612549e-01
2.386101484298706055e-01
2.363972663879394531e-01
2.360850274562835693e-01
2.358954548835754395e-01
2.353076934814453125e-01
2.349295914173126221e-01
2.345852553844451904e-01
2.342943251132965088e-01
2.338348329067230225e-01
2.333645522594451904e-01
2.317034602165222168e-01
2.310957312583923340e-01
2.298487424850463867e-01
2.297993898391723633e-01
2.283678352832794189e-01
2.277906537055969238e-01
2.276213467121124268e-01
2.275312244892120361e-01
2.242214381694793701e-01
2.241099476814270020e-01
2.236202061176300049e-01
2.226128578186035156e-01
2.225445806980133057e-01
2.225030064582824707e-01
2.222437560558319092e-01
2.219816148281097412e-01
2.212001681327819824e-01
2.208576202392578125e-01
2.205253243446350098e-01
2.205177843570709229e-01
2.203958332538604736e-01
2.203689515590667725e-01
2.201231420040130615e-01
2.200994491577148438e-01
2.200260460376739502e-01
2.196335792541503906e-01
2.189732193946838379e-01
2.175427675247192383e-01
2.170038819313049316e-01
2.166499495506286621e-01
2.157415151596069336e-01
2.151874005794525146e-01
2.150076925754547119e-01
2.149884998798370361e-01
2.148830294609069824e-01
2.144641876220703125e-01
2.137120068073272705e-01
2.133648693561553955e-01
2.133314311504364014e-01
2.130707800388336182e-01
2.117494344711303711e-01
2.115441262722015381e-01
2.115300297737121582e-01
2.108596861362457275e-01
2.096183001995086670e-01
2.090013623237609863e-01
2.081016302108764648e-01
2.080320119857788086e-01
2.079655528068542480e-01
2.074598371982574463e-01
2.074513137340545654e-01
2.073794305324554443e-01
2.073768079280853271e-01
2.072443664073944092e-01
2.069969177246093750e-01
2.067427933216094971e-01
2.064489722251892090e-01
2.062113583087921143e-01
2.059634923934936523e-01
2.056487798690795898e-01
2.055402100086212158e-01
2.055212259292602539e-01
2.041884362697601318e-01
2.036045491695404053e-01
2.035748064517974854e-01
2.032389640808105469e-01
2.029037773609161377e-01
2.027630805969238281e-01
2.000935375690460205e-01
1.999242901802062988e-01
1.995491981506347656e-01
1.993480920791625977e-01
1.982008218765258789e-01
1.979125738143920898e-01
1.979125142097473145e-01
1.978822350502014160e-01
1.977810561656951904e-01
1.977752745151519775e-01
1.975816786289215088e-01
1.971351504325866699e-01
1.971041560173034668e-01
1.968987584114074707e-01
1.961936652660369873e-01
1.960742771625518799e-01
1.959150135517120361e-01
1.958785653114318848e-01
1.952863335609436035e-01
1.951912343502044678e-01
1.947946846485137939e-01
1.947278678417205811e-01
1.944414079189300537e-01
1.944178640842437744e-01
1.942742466926574707e-01
1.942136585712432861e-01
1.939393877983093262e-01
1.939258277416229248e-01
1.934735774993896484e-01
1.932210028171539307e-01
1.927914917469024658e-01
1.925305724143981934e-01
1.924985051155090332e-01
1.923453211784362793e-01
1.919499635696411133e-01
1.919388473033905029e-01
1.916400492191314697e-01
1.915713250637054443e-01
1.915551126003265381e-01
1.915094256401062012e-01
1.914250552654266357e-01
1.911398470401763916e-01
1.907435953617095947e-01
1.906552910804748535e-01
1.905773282051086426e-01
1.904851198196411133e-01
1.904727816581726074e-01
1.902403831481933594e-01
1.900352835655212402e-01
1.897408962249755859e-01
1.891710162162780762e-01
1.891261339187622070e-01
1.877712607383728027e-01
1.875748634338378906e-01
1.875502169132232666e-01
1.873966753482818604e-01
1.872434616088867188e-01
1.871182918548583984e-01
1.867921054363250732e-01
1.866469979286193848e-01
1.863946616649627686e-01
1.858603656291961670e-01
1.850297451019287109e-01
1.850077211856842041e-01
1.842976510524749756e-01
1.840271949768066406e-01
1.838026046752929688e-01
1.837136149406433105e-01
1.836827695369720459e-01
1.834848523139953613e-01
1.833656728267669678e-01
1.832755208015441895e-01
1.832648515701293945e-01
1.830883622169494629e-01
1.828728020191192627e-01
1.828090846538543701e-01
1.827363371849060059e-01
1.826817393302917480e-01
1.823282837867736816e-01
1.822825372219085693e-01
1.820943057537078857e-01
1.820807158946990967e-01
1.817271113395690918e-01
1.814998984336853027e-01
1.813349127769470215e-01
1.813099980354309082e-01
1.809683144092559814e-01
1.809487938880920410e-01
1.804037094116210938e-01
1.803499460220336914e-01
1.803148686885833740e-01
1.802493929862976074e-01
1.800143718719482422e-01
1.798869073390960693e-01
1.798831224441528320e-01
1.798637807369232178e-01
1.798195540904998779e-01
1.798070371150970459e-01
1.787975132465362549e-01
1.786977350711822510e-01
1.783971786499023438e-01
1.782879233360290527e-01
1.779926717281341553e-01
1.779875457286834717e-01
