0.000000000000000000e+00
4.000000000000000083e-03
4.200000000000000261e-02
4.200000000000000261e-02
7.399999999999999634e-02
7.399999999999999634e-02
8.999999999999999667e-02
8.999999999999999667e-02
1.120000000000000023e-01
1.120000000000000023e-01
1.239999999999999991e-01
1.260000000000000009e-01
1.320000000000000062e-01
1.320000000000000062e-01
1.340000000000000080e-01
1.400000000000000133e-01
1.400000000000000133e-01
1.419999999999999873e-01
1.419999999999999873e-01
1.960000000000000075e-01
1.980000000000000093e-01
2.320000000000000118e-01
2.320000000000000118e-01
2.459999999999999964e-01
2.459999999999999964e-01
2.500000000000000000e-01
2.500000000000000000e-01
2.660000000000000142e-01
2.660000000000000142e-01
3.240000000000000102e-01
3.240000000000000102e-01
3.320000000000000173e-01
3.320000000000000173e-01
3.619999999999999885e-01
3.639999999999999902e-01
3.659999999999999920e-01
3.659999999999999920e-01
3.780000000000000027e-01
3.780000000000000027e-01
3.840000000000000080e-01
3.840000000000000080e-01
3.860000000000000098e-01
3.860000000000000098e-01
3.980000000000000204e-01
3.980000000000000204e-01
4.040000000000000258e-01
4.040000000000000258e-01
4.060000000000000275e-01
4.060000000000000275e-01
4.259999999999999898e-01
4.259999999999999898e-01
4.339999999999999969e-01
4.339999999999999969e-01
4.480000000000000093e-01
4.480000000000000093e-01
4.640000000000000235e-01
4.640000000000000235e-01
4.719999999999999751e-01
4.719999999999999751e-01
4.779999999999999805e-01
4.779999999999999805e-01
5.020000000000000018e-01
5.040000000000000036e-01
5.120000000000000107e-01
5.120000000000000107e-01
5.400000000000000355e-01
5.400000000000000355e-01
5.460000000000000409e-01
5.460000000000000409e-01
5.480000000000000426e-01
5.480000000000000426e-01
5.679999999999999494e-01
5.679999999999999494e-01
5.719999999999999529e-01
5.719999999999999529e-01
5.739999999999999547e-01
5.739999999999999547e-01
5.759999999999999565e-01
5.779999999999999583e-01
5.779999999999999583e-01
5.799999999999999600e-01
5.799999999999999600e-01
5.959999999999999742e-01
5.959999999999999742e-01
5.979999999999999760e-01
5.979999999999999760e-01
5.999999999999999778e-01
5.999999999999999778e-01
6.019999999999999796e-01
6.019999999999999796e-01
6.099999999999999867e-01
6.099999999999999867e-01
6.139999999999999902e-01
6.139999999999999902e-01
6.179999999999999938e-01
6.179999999999999938e-01
6.199999999999999956e-01
6.199999999999999956e-01
6.260000000000000009e-01
6.260000000000000009e-01
6.280000000000000027e-01
6.280000000000000027e-01
6.300000000000000044e-01
6.300000000000000044e-01
6.320000000000000062e-01
6.320000000000000062e-01
6.340000000000000080e-01
6.340000000000000080e-01
6.400000000000000133e-01
6.400000000000000133e-01
6.420000000000000151e-01
6.420000000000000151e-01
6.440000000000000169e-01
6.440000000000000169e-01
6.480000000000000204e-01
6.480000000000000204e-01
6.500000000000000222e-01
6.500000000000000222e-01
6.520000000000000240e-01
6.520000000000000240e-01
6.580000000000000293e-01
6.580000000000000293e-01
6.600000000000000311e-01
6.600000000000000311e-01
6.620000000000000329e-01
6.620000000000000329e-01
6.680000000000000382e-01
6.680000000000000382e-01
6.700000000000000400e-01
6.700000000000000400e-01
6.720000000000000417e-01
6.720000000000000417e-01
6.740000000000000435e-01
6.740000000000000435e-01
6.760000000000000453e-01
6.760000000000000453e-01
6.800000000000000488e-01
6.800000000000000488e-01
6.820000000000000506e-01
6.820000000000000506e-01
6.840000000000000524e-01
6.840000000000000524e-01
6.860000000000000542e-01
6.860000000000000542e-01
6.919999999999999485e-01
6.919999999999999485e-01
6.939999999999999503e-01
6.939999999999999503e-01
6.959999999999999520e-01
6.959999999999999520e-01
6.979999999999999538e-01
6.979999999999999538e-01
6.999999999999999556e-01
6.999999999999999556e-01
7.019999999999999574e-01
7.019999999999999574e-01
7.039999999999999591e-01
7.039999999999999591e-01
7.059999999999999609e-01
7.059999999999999609e-01
7.079999999999999627e-01
7.079999999999999627e-01
7.099999999999999645e-01
7.099999999999999645e-01
7.119999999999999662e-01
7.119999999999999662e-01
7.139999999999999680e-01
7.139999999999999680e-01
7.159999999999999698e-01
7.159999999999999698e-01
7.179999999999999716e-01
7.179999999999999716e-01
7.219999999999999751e-01
7.219999999999999751e-01
7.299999999999999822e-01
7.299999999999999822e-01
7.319999999999999840e-01
7.319999999999999840e-01
7.339999999999999858e-01
7.339999999999999858e-01
7.359999999999999876e-01
7.359999999999999876e-01
7.379999999999999893e-01
7.379999999999999893e-01
7.399999999999999911e-01
7.399999999999999911e-01
7.419999999999999929e-01
7.419999999999999929e-01
7.439999999999999947e-01
7.439999999999999947e-01
7.459999999999999964e-01
7.459999999999999964e-01
7.479999999999999982e-01
7.479999999999999982e-01
7.500000000000000000e-01
7.500000000000000000e-01
7.520000000000000018e-01
7.520000000000000018e-01
7.560000000000000053e-01
7.560000000000000053e-01
7.580000000000000071e-01
7.580000000000000071e-01
7.620000000000000107e-01
7.620000000000000107e-01
7.640000000000000124e-01
7.640000000000000124e-01
7.680000000000000160e-01
7.680000000000000160e-01
7.700000000000000178e-01
7.700000000000000178e-01
7.720000000000000195e-01
7.720000000000000195e-01
7.740000000000000213e-01
7.740000000000000213e-01
7.780000000000000249e-01
7.780000000000000249e-01
7.800000000000000266e-01
7.800000000000000266e-01
7.840000000000000302e-01
7.840000000000000302e-01
7.860000000000000320e-01
7.860000000000000320e-01
7.880000000000000338e-01
7.880000000000000338e-01
7.900000000000000355e-01
7.900000000000000355e-01
7.940000000000000391e-01
7.940000000000000391e-01
7.960000000000000409e-01
7.960000000000000409e-01
7.980000000000000426e-01
7.980000000000000426e-01
8.000000000000000444e-01
8.000000000000000444e-01
8.020000000000000462e-01
8.020000000000000462e-01
8.040000000000000480e-01
8.040000000000000480e-01
8.060000000000000497e-01
8.060000000000000497e-01
8.100000000000000533e-01
8.100000000000000533e-01
8.120000000000000551e-01
8.120000000000000551e-01
8.159999999999999476e-01
8.159999999999999476e-01
8.179999999999999494e-01
8.179999999999999494e-01
8.199999999999999512e-01
8.199999999999999512e-01
8.219999999999999529e-01
8.219999999999999529e-01
8.239999999999999547e-01
8.239999999999999547e-01
8.259999999999999565e-01
8.259999999999999565e-01
8.299999999999999600e-01
8.299999999999999600e-01
8.319999999999999618e-01
8.319999999999999618e-01
8.339999999999999636e-01
8.339999999999999636e-01
8.359999999999999654e-01
8.359999999999999654e-01
8.379999999999999671e-01
8.379999999999999671e-01
8.419999999999999707e-01
8.419999999999999707e-01
8.439999999999999725e-01
8.439999999999999725e-01
8.479999999999999760e-01
8.479999999999999760e-01
8.499999999999999778e-01
8.499999999999999778e-01
8.559999999999999831e-01
8.559999999999999831e-01
8.599999999999999867e-01
8.599999999999999867e-01
8.619999999999999885e-01
8.619999999999999885e-01
8.639999999999999902e-01
8.639999999999999902e-01
8.659999999999999920e-01
8.659999999999999920e-01
8.719999999999999973e-01
8.719999999999999973e-01
8.739999999999999991e-01
8.739999999999999991e-01
8.760000000000000009e-01
8.760000000000000009e-01
8.880000000000000115e-01
8.880000000000000115e-01
8.920000000000000151e-01
8.920000000000000151e-01
8.980000000000000204e-01
8.980000000000000204e-01
9.020000000000000240e-01
9.020000000000000240e-01
9.040000000000000258e-01
9.040000000000000258e-01
9.100000000000000311e-01
9.100000000000000311e-01
9.120000000000000329e-01
9.120000000000000329e-01
9.140000000000000346e-01
9.140000000000000346e-01
9.200000000000000400e-01
9.200000000000000400e-01
9.220000000000000417e-01
9.220000000000000417e-01
9.260000000000000453e-01
9.260000000000000453e-01
9.300000000000000488e-01
9.300000000000000488e-01
9.320000000000000506e-01
9.320000000000000506e-01
9.340000000000000524e-01
9.340000000000000524e-01
9.360000000000000542e-01
9.360000000000000542e-01
9.399999999999999467e-01
9.399999999999999467e-01
9.419999999999999485e-01
9.419999999999999485e-01
9.439999999999999503e-01
9.439999999999999503e-01
9.479999999999999538e-01
9.479999999999999538e-01
9.499999999999999556e-01
9.499999999999999556e-01
9.559999999999999609e-01
9.559999999999999609e-01
9.579999999999999627e-01
9.579999999999999627e-01
9.599999999999999645e-01
9.599999999999999645e-01
9.759999999999999787e-01
9.759999999999999787e-01
9.779999999999999805e-01
9.779999999999999805e-01
9.819999999999999840e-01
9.819999999999999840e-01
9.839999999999999858e-01
9.839999999999999858e-01
9.859999999999999876e-01
9.859999999999999876e-01
9.899999999999999911e-01
9.899999999999999911e-01
9.919999999999999929e-01
9.919999999999999929e-01
9.939999999999999947e-01
9.939999999999999947e-01
9.979999999999999982e-01
9.979999999999999982e-01
1.000000000000000000e+00
1.000000000000000000e+00
