0.000000000000000000e+00
0.000000000000000000e+00
0.000000000000000000e+00
2.000000000000000042e-03
2.000000000000000042e-03
4.000000000000000083e-03
4.000000000000000083e-03
8.000000000000000167e-03
8.000000000000000167e-03
1.000000000000000021e-02
1.000000000000000021e-02
1.200000000000000025e-02
1.200000000000000025e-02
1.400000000000000029e-02
1.600000000000000033e-02
1.600000000000000033e-02
2.000000000000000042e-02
2.000000000000000042e-02
2.199999999999999872e-02
2.199999999999999872e-02
2.400000000000000050e-02
2.400000000000000050e-02
2.599999999999999881e-02
2.599999999999999881e-02
2.800000000000000058e-02
2.800000000000000058e-02
2.999999999999999889e-02
2.999999999999999889e-02
3.200000000000000067e-02
3.200000000000000067e-02
3.400000000000000244e-02
3.400000000000000244e-02
3.599999999999999728e-02
3.599999999999999728e-02
3.799999999999999906e-02
3.799999999999999906e-02
4.000000000000000083e-02
4.000000000000000083e-02
4.399999999999999745e-02
4.399999999999999745e-02
4.599999999999999922e-02
4.599999999999999922e-02
5.000000000000000278e-02
5.000000000000000278e-02
5.199999999999999761e-02
5.199999999999999761e-02
5.399999999999999939e-02
5.399999999999999939e-02
5.600000000000000117e-02
5.600000000000000117e-02
5.800000000000000294e-02
5.800000000000000294e-02
5.999999999999999778e-02
5.999999999999999778e-02
6.199999999999999956e-02
6.199999999999999956e-02
6.600000000000000311e-02
6.600000000000000311e-02
6.800000000000000488e-02
6.800000000000000488e-02
7.000000000000000666e-02
7.000000000000000666e-02
7.199999999999999456e-02
7.199999999999999456e-02
7.399999999999999634e-02
7.399999999999999634e-02
7.599999999999999811e-02
7.599999999999999811e-02
7.799999999999999989e-02
7.799999999999999989e-02
8.000000000000000167e-02
8.000000000000000167e-02
8.200000000000000344e-02
8.200000000000000344e-02
8.400000000000000522e-02
8.400000000000000522e-02
8.599999999999999312e-02
8.799999999999999489e-02
8.799999999999999489e-02
8.999999999999999667e-02
8.999999999999999667e-02
9.199999999999999845e-02
9.199999999999999845e-02
9.600000000000000200e-02
9.600000000000000200e-02
9.800000000000000377e-02
9.800000000000000377e-02
1.000000000000000056e-01
1.000000000000000056e-01
1.039999999999999952e-01
1.039999999999999952e-01
1.079999999999999988e-01
1.079999999999999988e-01
1.100000000000000006e-01
1.100000000000000006e-01
1.120000000000000023e-01
1.120000000000000023e-01
1.160000000000000059e-01
1.160000000000000059e-01
1.219999999999999973e-01
1.219999999999999973e-01
1.239999999999999991e-01
1.239999999999999991e-01
1.260000000000000009e-01
1.260000000000000009e-01
1.280000000000000027e-01
1.280000000000000027e-01
1.300000000000000044e-01
1.300000000000000044e-01
1.380000000000000115e-01
1.380000000000000115e-01
1.439999999999999891e-01
1.439999999999999891e-01
1.499999999999999944e-01
1.499999999999999944e-01
1.539999999999999980e-01
1.539999999999999980e-01
1.580000000000000016e-01
1.580000000000000016e-01
1.600000000000000033e-01
1.600000000000000033e-01
1.620000000000000051e-01
1.620000000000000051e-01
1.640000000000000069e-01
1.640000000000000069e-01
1.660000000000000087e-01
1.660000000000000087e-01
1.700000000000000122e-01
1.700000000000000122e-01
1.719999999999999862e-01
1.719999999999999862e-01
1.779999999999999916e-01
1.779999999999999916e-01
1.819999999999999951e-01
1.819999999999999951e-01
1.880000000000000004e-01
1.880000000000000004e-01
1.960000000000000075e-01
1.960000000000000075e-01
2.039999999999999869e-01
2.039999999999999869e-01
2.139999999999999958e-01
2.139999999999999958e-01
2.260000000000000064e-01
2.260000000000000064e-01
2.280000000000000082e-01
2.280000000000000082e-01
2.320000000000000118e-01
2.320000000000000118e-01
2.359999999999999876e-01
2.359999999999999876e-01
2.419999999999999929e-01
2.419999999999999929e-01
2.520000000000000018e-01
2.520000000000000018e-01
2.560000000000000053e-01
2.560000000000000053e-01
2.600000000000000089e-01
2.600000000000000089e-01
2.620000000000000107e-01
2.620000000000000107e-01
2.740000000000000213e-01
2.740000000000000213e-01
2.780000000000000249e-01
2.780000000000000249e-01
2.800000000000000266e-01
2.800000000000000266e-01
2.839999999999999747e-01
2.839999999999999747e-01
2.879999999999999782e-01
2.879999999999999782e-01
2.899999999999999800e-01
2.899999999999999800e-01
2.919999999999999818e-01
2.919999999999999818e-01
3.079999999999999960e-01
3.079999999999999960e-01
3.119999999999999996e-01
3.119999999999999996e-01
3.300000000000000155e-01
3.300000000000000155e-01
3.340000000000000191e-01
3.340000000000000191e-01
3.420000000000000262e-01
3.420000000000000262e-01
3.539999999999999813e-01
3.539999999999999813e-01
3.679999999999999938e-01
3.679999999999999938e-01
4.060000000000000275e-01
4.060000000000000275e-01
4.199999999999999845e-01
4.199999999999999845e-01
4.279999999999999916e-01
4.279999999999999916e-01
4.359999999999999987e-01
4.359999999999999987e-01
4.380000000000000004e-01
4.380000000000000004e-01
4.440000000000000058e-01
4.440000000000000058e-01
4.520000000000000129e-01
4.520000000000000129e-01
4.600000000000000200e-01
4.600000000000000200e-01
4.640000000000000235e-01
4.640000000000000235e-01
4.660000000000000253e-01
4.660000000000000253e-01
5.200000000000000178e-01
5.200000000000000178e-01
5.240000000000000213e-01
5.240000000000000213e-01
5.260000000000000231e-01
5.260000000000000231e-01
5.380000000000000338e-01
5.380000000000000338e-01
5.440000000000000391e-01
5.440000000000000391e-01
5.460000000000000409e-01
5.460000000000000409e-01
5.580000000000000515e-01
5.580000000000000515e-01
5.620000000000000551e-01
5.620000000000000551e-01
5.639999999999999458e-01
5.639999999999999458e-01
5.679999999999999494e-01
5.679999999999999494e-01
5.919999999999999707e-01
5.919999999999999707e-01
5.999999999999999778e-01
5.999999999999999778e-01
6.039999999999999813e-01
6.039999999999999813e-01
6.159999999999999920e-01
6.159999999999999920e-01
6.199999999999999956e-01
6.199999999999999956e-01
6.239999999999999991e-01
6.239999999999999991e-01
6.300000000000000044e-01
6.300000000000000044e-01
6.400000000000000133e-01
6.400000000000000133e-01
6.420000000000000151e-01
6.420000000000000151e-01
6.480000000000000204e-01
6.480000000000000204e-01
6.540000000000000258e-01
6.540000000000000258e-01
6.560000000000000275e-01
6.560000000000000275e-01
6.620000000000000329e-01
6.620000000000000329e-01
6.640000000000000346e-01
6.640000000000000346e-01
6.700000000000000400e-01
6.700000000000000400e-01
6.820000000000000506e-01
6.820000000000000506e-01
6.840000000000000524e-01
6.840000000000000524e-01
6.860000000000000542e-01
6.860000000000000542e-01
6.959999999999999520e-01
6.959999999999999520e-01
6.979999999999999538e-01
6.979999999999999538e-01
7.019999999999999574e-01
7.019999999999999574e-01
7.059999999999999609e-01
7.059999999999999609e-01
7.079999999999999627e-01
7.079999999999999627e-01
7.099999999999999645e-01
7.099999999999999645e-01
7.119999999999999662e-01
7.119999999999999662e-01
7.199999999999999734e-01
7.199999999999999734e-01
7.299999999999999822e-01
7.299999999999999822e-01
7.399999999999999911e-01
7.399999999999999911e-01
7.620000000000000107e-01
7.620000000000000107e-01
7.640000000000000124e-01
7.640000000000000124e-01
7.660000000000000142e-01
7.660000000000000142e-01
7.700000000000000178e-01
7.700000000000000178e-01
7.740000000000000213e-01
7.740000000000000213e-01
7.800000000000000266e-01
7.800000000000000266e-01
7.820000000000000284e-01
7.820000000000000284e-01
8.020000000000000462e-01
8.020000000000000462e-01
8.040000000000000480e-01
8.040000000000000480e-01
8.080000000000000515e-01
8.080000000000000515e-01
8.159999999999999476e-01
8.159999999999999476e-01
8.239999999999999547e-01
8.239999999999999547e-01
8.359999999999999654e-01
8.359999999999999654e-01
8.459999999999999742e-01
8.459999999999999742e-01
8.579999999999999849e-01
8.579999999999999849e-01
8.699999999999999956e-01
8.699999999999999956e-01
8.860000000000000098e-01
8.860000000000000098e-01
8.900000000000000133e-01
8.900000000000000133e-01
8.940000000000000169e-01
8.940000000000000169e-01
8.980000000000000204e-01
8.980000000000000204e-01
9.060000000000000275e-01
9.060000000000000275e-01
9.100000000000000311e-01
9.100000000000000311e-01
9.320000000000000506e-01
9.320000000000000506e-01
9.379999999999999449e-01
9.379999999999999449e-01
9.519999999999999574e-01
9.519999999999999574e-01
9.539999999999999591e-01
9.539999999999999591e-01
9.719999999999999751e-01
9.719999999999999751e-01
9.779999999999999805e-01
9.779999999999999805e-01
9.799999999999999822e-01
9.799999999999999822e-01
9.819999999999999840e-01
9.819999999999999840e-01
9.839999999999999858e-01
9.839999999999999858e-01
9.859999999999999876e-01
9.859999999999999876e-01
9.899999999999999911e-01
9.899999999999999911e-01
9.939999999999999947e-01
9.939999999999999947e-01
9.979999999999999982e-01
9.979999999999999982e-01
1.000000000000000000e+00
