1.916165590286254883e+00
9.161655902862548828e-01
9.161503314971923828e-01
9.161500930786132812e-01
9.161301851272583008e-01
9.161292910575866699e-01
9.161152243614196777e-01
9.161115288734436035e-01
9.160919785499572754e-01
9.160910844802856445e-01
9.160610437393188477e-01
9.160557985305786133e-01
9.160510897636413574e-01
9.160369634628295898e-01
9.160357117652893066e-01
9.160222411155700684e-01
9.160127639770507812e-01
9.160077571868896484e-01
9.160061478614807129e-01
9.155180454254150391e-01
9.154716730117797852e-01
9.146309494972229004e-01
9.146217703819274902e-01
9.143068790435791016e-01
9.142931103706359863e-01
9.141133427619934082e-01
9.140707850456237793e-01
9.135836362838745117e-01
9.135320186614990234e-01
9.095016717910766602e-01
9.089953899383544922e-01
9.077987670898437500e-01
9.076799154281616211e-01
9.029736518859863281e-01
9.028506875038146973e-01
9.017145037651062012e-01
9.015448093414306641e-01
8.990375995635986328e-01
8.984285593032836914e-01
8.976233005523681641e-01
8.972518444061279297e-01
8.969277739524841309e-01
8.967200517654418945e-01
8.945587873458862305e-01
8.944586515426635742e-01
8.929989337921142578e-01
8.917276859283447266e-01
8.912851810455322266e-01
8.895990848541259766e-01
8.820008039474487305e-01
8.805604577064514160e-01
8.763022422790527344e-01
8.762952089309692383e-01
8.645260334014892578e-01
8.641194105148315430e-01
8.460118770599365234e-01
8.395662307739257812e-01
8.366013169288635254e-01
8.360552191734313965e-01
8.293278813362121582e-01
8.274879455566406250e-01
7.994064092636108398e-01
7.965105772018432617e-01
7.832268476486206055e-01
7.827636003494262695e-01
7.329260110855102539e-01
7.315942049026489258e-01
7.277861237525939941e-01
7.257117033004760742e-01
7.257056236267089844e-01
7.222402095794677734e-01
6.973388195037841797e-01
6.898337006568908691e-01
6.763198375701904297e-01
6.689663529396057129e-01
6.656485795974731445e-01
6.654750108718872070e-01
6.635071039199829102e-01
6.570292711257934570e-01
6.414102911949157715e-01
6.414000391960144043e-01
6.378030180931091309e-01
6.089111566543579102e-01
6.071768999099731445e-01
6.068695783615112305e-01
6.065586805343627930e-01
6.050645112991333008e-01
5.989086031913757324e-01
5.986822247505187988e-01
5.948010087013244629e-01
5.897466540336608887e-01
5.876622796058654785e-01
5.682501196861267090e-01
5.651290416717529297e-01
5.492759943008422852e-01
5.489024519920349121e-01
5.307294130325317383e-01
5.294919013977050781e-01
5.110350251197814941e-01
5.016806125640869141e-01
4.917999505996704102e-01
4.867168962955474854e-01
4.823895096778869629e-01
4.820394217967987061e-01
4.793262183666229248e-01
4.781517684459686279e-01
4.780912101268768311e-01
4.755851924419403076e-01
4.698374867439270020e-01
4.512456059455871582e-01
4.490231573581695557e-01
4.369927644729614258e-01
4.333043098449707031e-01
4.226501286029815674e-01
4.201893210411071777e-01
4.185055494308471680e-01
4.155127704143524170e-01
4.135824739933013916e-01
4.134444594383239746e-01
4.128810763359069824e-01
4.067713320255279541e-01
4.067421257495880127e-01
4.064889252185821533e-01
4.062408804893493652e-01
4.053751230239868164e-01
4.038723409175872803e-01
3.963785171508789062e-01
3.943148553371429443e-01
3.905485272407531738e-01
3.836582005023956299e-01
3.796467483043670654e-01
3.625147044658660889e-01
3.612282574176788330e-01
3.558201193809509277e-01
3.550599813461303711e-01
3.433557748794555664e-01
3.399013876914978027e-01
3.326783776283264160e-01
3.306193947792053223e-01
3.279985189437866211e-01
3.270438313484191895e-01
3.234269022941589355e-01
3.220963180065155029e-01
3.200630247592926025e-01
3.195035457611083984e-01
3.186287879943847656e-01
3.183598220348358154e-01
3.156035542488098145e-01
3.141779899597167969e-01
3.136304616928100586e-01
3.131749629974365234e-01
3.127388954162597656e-01
3.127268552780151367e-01
3.101863265037536621e-01
3.099426031112670898e-01
3.093839287757873535e-01
3.088228702545166016e-01
3.084478974342346191e-01
3.084257841110229492e-01
3.080398142337799072e-01
3.076508045196533203e-01
3.056051135063171387e-01
3.054209351539611816e-01
3.053151965141296387e-01
3.052943944931030273e-01
3.050363957881927490e-01
3.049603402614593506e-01
3.047937154769897461e-01
3.041605949401855469e-01
3.039521574974060059e-01
3.037104308605194092e-01
3.036312162876129150e-01
3.033439517021179199e-01
3.033367395401000977e-01
3.031202852725982666e-01
3.015989065170288086e-01
3.015369772911071777e-01
3.013933300971984863e-01
3.010653257369995117e-01
2.995342612266540527e-01
2.992716133594512939e-01
2.991600930690765381e-01
2.991021573543548584e-01
2.984806299209594727e-01
2.983693480491638184e-01
2.968114912509918213e-01
2.966218292713165283e-01
2.959526777267456055e-01
2.957417070865631104e-01
2.935844361782073975e-01
2.935197055339813232e-01
2.928789854049682617e-01
2.928320765495300293e-01
2.925144433975219727e-01
2.924797534942626953e-01
2.922686934471130371e-01
2.921103239059448242e-01
2.920892834663391113e-01
2.914965152740478516e-01
2.913452386856079102e-01
2.910682857036590576e-01
2.906213998794555664e-01
2.904837727546691895e-01
2.901167273521423340e-01
2.900706529617309570e-01
2.897632122039794922e-01
2.894941866397857666e-01
2.894579768180847168e-01
2.894355654716491699e-01
2.864679098129272461e-01
2.862070202827453613e-01
2.859548628330230713e-01
2.855900228023529053e-01
2.855112254619598389e-01
2.854537367820739746e-01
2.850092053413391113e-01
2.849079072475433350e-01
2.846867442131042480e-01
2.844575643539428711e-01
2.843111753463745117e-01
2.840830981731414795e-01
2.835590243339538574e-01
2.835567891597747803e-01
2.835094332695007324e-01
2.834988534450531006e-01
2.834966778755187988e-01
2.828969061374664307e-01
2.827464640140533447e-01
2.825083136558532715e-01
2.798582017421722412e-01
2.798024415969848633e-01
2.794795334339141846e-01
2.794275283813476562e-01
2.787495255470275879e-01
2.787423431873321533e-01
2.781403660774230957e-01
2.781160771846771240e-01
2.779018878936767578e-01
2.775955200195312500e-01
2.773057818412780762e-01
2.769727110862731934e-01
2.768350243568420410e-01
2.768095135688781738e-01
2.749497890472412109e-01
2.747788429260253906e-01
2.744787335395812988e-01
2.744622230529785156e-01
2.735104560852050781e-01
2.734808325767517090e-01
2.727814018726348877e-01
2.726885676383972168e-01
2.725105881690979004e-01
2.724348306655883789e-01
2.719857096672058105e-01
2.718046903610229492e-01
2.714944481849670410e-01
2.706792056560516357e-01
2.701039910316467285e-01
2.699136734008789062e-01
2.685773968696594238e-01
2.685195803642272949e-01
2.684568166732788086e-01
2.670889794826507568e-01
2.657231092453002930e-01
2.654449939727783203e-01
2.650797963142395020e-01
2.646523118019104004e-01
2.643449008464813232e-01
2.640691995620727539e-01
2.639488577842712402e-01
2.631910741329193115e-01
2.629171013832092285e-01
2.627630233764648438e-01
2.625579237937927246e-01
2.624603509902954102e-01
2.620159685611724854e-01
2.614471316337585449e-01
2.613154649734497070e-01
2.611361742019653320e-01
2.599338293075561523e-01
2.596942186355590820e-01
2.583241462707519531e-01
2.576675415039062500e-01
2.567206919193267822e-01
2.560738921165466309e-01
2.525935173034667969e-01
2.525274455547332764e-01
2.525112628936767578e-01
2.524375319480895996e-01
2.524122595787048340e-01
2.520809173583984375e-01
2.519055008888244629e-01
2.517516911029815674e-01
2.516429424285888672e-01
2.511887550354003906e-01
2.506705522537231445e-01
2.500142455101013184e-01
2.499757707118988037e-01
2.495231628417968750e-01
2.467886507511138916e-01
2.452434897422790527e-01
2.452310621738433838e-01
2.451750636100769043e-01
2.447742819786071777e-01
2.445870637893676758e-01
2.442391514778137207e-01
2.436126172542572021e-01
2.429781854152679443e-01
2.428887188434600830e-01
2.419779598712921143e-01
2.417652606964111328e-01
2.396200001239776611e-01
2.381005585193634033e-01
2.338946461677551270e-01
2.329229414463043213e-01
2.281764745712280273e-01
2.275744974613189697e-01
2.241671979427337646e-01
2.238815426826477051e-01
2.231880724430084229e-01
2.223474681377410889e-01
2.220254838466644287e-01
2.218139171600341797e-01
2.216256856918334961e-01
2.214552164077758789e-01
2.202799916267395020e-01
2.199456095695495605e-01
2.194883227348327637e-01
2.193806171417236328e-01
2.174655795097351074e-01
2.166869044303894043e-01
2.160618603229522705e-01
2.156063318252563477e-01
2.131239175796508789e-01
2.120090126991271973e-01
2.115072607994079590e-01
2.109310030937194824e-01
2.092868685722351074e-01
2.089648544788360596e-01
2.078508138656616211e-01
2.076758146286010742e-01
2.058792710304260254e-01
2.056323587894439697e-01
2.031432390213012695e-01
1.992900669574737549e-01
1.991809904575347900e-01
1.930687725543975830e-01
1.871326863765716553e-01
1.854192316532135010e-01
1.813879907131195068e-01
1.799773573875427246e-01
1.752579808235168457e-01
1.697652041912078857e-01
1.603541672229766846e-01
1.597940325736999512e-01
1.524483859539031982e-01
