0.000000000000000000e+00
8.000000000000000167e-03
8.000000000000000167e-03
8.000000000000000167e-03
1.000000000000000021e-02
1.000000000000000021e-02
1.000000000000000021e-02
1.000000000000000021e-02
1.000000000000000021e-02
1.000000000000000021e-02
1.200000000000000025e-02
1.200000000000000025e-02
1.200000000000000025e-02
1.200000000000000025e-02
1.400000000000000029e-02
1.400000000000000029e-02
1.600000000000000033e-02
1.600000000000000033e-02
1.600000000000000033e-02
1.600000000000000033e-02
1.799999999999999864e-02
1.799999999999999864e-02
2.000000000000000042e-02
2.000000000000000042e-02
2.199999999999999872e-02
2.199999999999999872e-02
2.800000000000000058e-02
2.800000000000000058e-02
2.999999999999999889e-02
2.999999999999999889e-02
3.200000000000000067e-02
3.200000000000000067e-02
3.400000000000000244e-02
3.400000000000000244e-02
3.599999999999999728e-02
3.599999999999999728e-02
3.799999999999999906e-02
3.799999999999999906e-02
4.000000000000000083e-02
4.000000000000000083e-02
4.200000000000000261e-02
4.200000000000000261e-02
4.399999999999999745e-02
4.399999999999999745e-02
4.800000000000000100e-02
4.800000000000000100e-02
5.000000000000000278e-02
5.000000000000000278e-02
5.199999999999999761e-02
5.199999999999999761e-02
5.399999999999999939e-02
5.600000000000000117e-02
5.600000000000000117e-02
5.999999999999999778e-02
5.999999999999999778e-02
6.199999999999999956e-02
6.199999999999999956e-02
6.400000000000000133e-02
6.400000000000000133e-02
6.800000000000000488e-02
6.800000000000000488e-02
7.000000000000000666e-02
7.000000000000000666e-02
7.199999999999999456e-02
7.199999999999999456e-02
7.399999999999999634e-02
7.399999999999999634e-02
7.799999999999999989e-02
7.799999999999999989e-02
8.000000000000000167e-02
8.000000000000000167e-02
8.200000000000000344e-02
8.400000000000000522e-02
8.400000000000000522e-02
8.599999999999999312e-02
8.599999999999999312e-02
8.799999999999999489e-02
8.799999999999999489e-02
8.999999999999999667e-02
8.999999999999999667e-02
9.199999999999999845e-02
9.199999999999999845e-02
9.600000000000000200e-02
9.600000000000000200e-02
9.800000000000000377e-02
9.800000000000000377e-02
1.019999999999999934e-01
1.039999999999999952e-01
1.039999999999999952e-01
1.059999999999999970e-01
1.059999999999999970e-01
1.079999999999999988e-01
1.079999999999999988e-01
1.100000000000000006e-01
1.100000000000000006e-01
1.140000000000000041e-01
1.140000000000000041e-01
1.179999999999999938e-01
1.179999999999999938e-01
1.219999999999999973e-01
1.219999999999999973e-01
1.260000000000000009e-01
1.260000000000000009e-01
1.320000000000000062e-01
1.320000000000000062e-01
1.360000000000000098e-01
1.360000000000000098e-01
1.380000000000000115e-01
1.380000000000000115e-01
1.400000000000000133e-01
1.400000000000000133e-01
1.459999999999999909e-01
1.459999999999999909e-01
1.499999999999999944e-01
1.499999999999999944e-01
1.559999999999999998e-01
1.559999999999999998e-01
1.600000000000000033e-01
1.600000000000000033e-01
1.620000000000000051e-01
1.620000000000000051e-01
1.640000000000000069e-01
1.640000000000000069e-01
1.739999999999999880e-01
1.739999999999999880e-01
1.759999999999999898e-01
1.759999999999999898e-01
1.779999999999999916e-01
1.779999999999999916e-01
1.819999999999999951e-01
1.819999999999999951e-01
1.859999999999999987e-01
1.859999999999999987e-01
1.920000000000000040e-01
1.920000000000000040e-01
1.940000000000000058e-01
1.940000000000000058e-01
2.039999999999999869e-01
2.039999999999999869e-01
2.059999999999999887e-01
2.059999999999999887e-01
2.119999999999999940e-01
2.119999999999999940e-01
2.179999999999999993e-01
2.179999999999999993e-01
2.220000000000000029e-01
2.220000000000000029e-01
2.320000000000000118e-01
2.320000000000000118e-01
2.379999999999999893e-01
2.379999999999999893e-01
2.459999999999999964e-01
2.459999999999999964e-01
2.500000000000000000e-01
2.500000000000000000e-01
2.520000000000000018e-01
2.520000000000000018e-01
2.540000000000000036e-01
2.540000000000000036e-01
2.600000000000000089e-01
2.600000000000000089e-01
2.640000000000000124e-01
2.640000000000000124e-01
2.760000000000000231e-01
2.760000000000000231e-01
2.839999999999999747e-01
2.839999999999999747e-01
2.879999999999999782e-01
2.879999999999999782e-01
2.919999999999999818e-01
2.919999999999999818e-01
2.959999999999999853e-01
2.959999999999999853e-01
2.979999999999999871e-01
2.979999999999999871e-01
3.079999999999999960e-01
3.079999999999999960e-01
3.140000000000000013e-01
3.140000000000000013e-01
3.160000000000000031e-01
3.160000000000000031e-01
3.220000000000000084e-01
3.220000000000000084e-01
3.320000000000000173e-01
3.320000000000000173e-01
3.420000000000000262e-01
3.420000000000000262e-01
3.519999999999999796e-01
3.519999999999999796e-01
3.699999999999999956e-01
3.699999999999999956e-01
3.719999999999999973e-01
3.719999999999999973e-01
3.739999999999999991e-01
3.739999999999999991e-01
3.760000000000000009e-01
3.760000000000000009e-01
3.860000000000000098e-01
3.860000000000000098e-01
3.880000000000000115e-01
3.880000000000000115e-01
4.179999999999999827e-01
4.179999999999999827e-01
4.199999999999999845e-01
4.199999999999999845e-01
4.219999999999999862e-01
4.219999999999999862e-01
4.259999999999999898e-01
4.259999999999999898e-01
4.279999999999999916e-01
4.279999999999999916e-01
4.440000000000000058e-01
4.440000000000000058e-01
4.480000000000000093e-01
4.480000000000000093e-01
4.580000000000000182e-01
4.580000000000000182e-01
4.620000000000000218e-01
4.620000000000000218e-01
4.640000000000000235e-01
4.640000000000000235e-01
4.680000000000000271e-01
4.680000000000000271e-01
4.819999999999999840e-01
4.819999999999999840e-01
4.899999999999999911e-01
4.899999999999999911e-01
4.919999999999999929e-01
4.919999999999999929e-01
4.959999999999999964e-01
4.959999999999999964e-01
4.979999999999999982e-01
4.979999999999999982e-01
5.060000000000000053e-01
5.060000000000000053e-01
5.100000000000000089e-01
5.100000000000000089e-01
5.400000000000000355e-01
5.400000000000000355e-01
5.620000000000000551e-01
5.620000000000000551e-01
5.639999999999999458e-01
5.639999999999999458e-01
5.659999999999999476e-01
5.659999999999999476e-01
5.719999999999999529e-01
5.719999999999999529e-01
5.879999999999999671e-01
5.879999999999999671e-01
5.899999999999999689e-01
5.899999999999999689e-01
6.079999999999999849e-01
6.079999999999999849e-01
6.280000000000000027e-01
6.280000000000000027e-01
6.720000000000000417e-01
6.720000000000000417e-01
6.740000000000000435e-01
6.740000000000000435e-01
6.760000000000000453e-01
6.760000000000000453e-01
6.800000000000000488e-01
6.800000000000000488e-01
6.840000000000000524e-01
6.840000000000000524e-01
6.939999999999999503e-01
6.939999999999999503e-01
6.959999999999999520e-01
6.959999999999999520e-01
7.139999999999999680e-01
7.139999999999999680e-01
7.279999999999999805e-01
7.279999999999999805e-01
7.339999999999999858e-01
7.339999999999999858e-01
7.399999999999999911e-01
7.399999999999999911e-01
7.479999999999999982e-01
7.479999999999999982e-01
7.500000000000000000e-01
7.500000000000000000e-01
7.740000000000000213e-01
7.740000000000000213e-01
7.760000000000000231e-01
7.760000000000000231e-01
7.820000000000000284e-01
7.820000000000000284e-01
7.880000000000000338e-01
7.880000000000000338e-01
7.960000000000000409e-01
7.960000000000000409e-01
7.980000000000000426e-01
7.980000000000000426e-01
8.199999999999999512e-01
8.199999999999999512e-01
8.239999999999999547e-01
8.239999999999999547e-01
8.259999999999999565e-01
8.259999999999999565e-01
8.279999999999999583e-01
8.279999999999999583e-01
8.299999999999999600e-01
8.299999999999999600e-01
8.619999999999999885e-01
8.619999999999999885e-01
8.639999999999999902e-01
8.639999999999999902e-01
8.659999999999999920e-01
8.659999999999999920e-01
8.719999999999999973e-01
8.719999999999999973e-01
8.780000000000000027e-01
8.780000000000000027e-01
8.900000000000000133e-01
8.900000000000000133e-01
8.940000000000000169e-01
8.940000000000000169e-01
9.100000000000000311e-01
9.100000000000000311e-01
9.280000000000000471e-01
9.280000000000000471e-01
9.300000000000000488e-01
9.300000000000000488e-01
9.379999999999999449e-01
9.379999999999999449e-01
9.459999999999999520e-01
9.459999999999999520e-01
1.000000000000000000e+00
1.000000000000000000e+00
