0.000000000000000000e+00
9.477341399358787596e-03
1.889761889762834463e-02
1.889761889762834463e-02
2.309805186590419002e-02
2.309805186590419002e-02
2.492348290267634714e-02
2.492348290267634714e-02
3.499599977140244872e-02
3.499599977140244872e-02
3.618701424544445294e-02
3.618701424544445294e-02
5.688778427747032129e-02
5.688778427747032129e-02
6.249223951819937728e-02
6.249223951819937728e-02
6.420140185385361797e-02
6.420140185385361797e-02
6.475554030351379775e-02
6.475554030351379775e-02
6.741795013199378128e-02
6.741795013199378128e-02
7.447737911607792138e-02
7.447737911607792138e-02
7.532808241286910456e-02
7.532808241286910456e-02
7.697324210399351940e-02
7.697324210399351940e-02
7.816022006110268094e-02
7.816022006110268094e-02
8.042126584430264735e-02
8.042126584430264735e-02
8.114320673968955511e-02
8.114320673968955511e-02
8.184998472815983861e-02
8.184998472815983861e-02
8.254198931453009258e-02
8.254198931453009258e-02
8.355309689054021827e-02
8.355309689054021827e-02
8.388313298870041235e-02
8.388313298870041235e-02
8.816019509960262845e-02
8.816019509960262845e-02
8.844252370890373638e-02
8.844252370890373638e-02
8.981080113215782201e-02
8.981080113215782201e-02
9.007596793817981840e-02
9.007596793817981840e-02
9.185586535436918165e-02
9.185586535436918165e-02
9.373355855828796601e-02
9.373355855828796601e-02
9.439661010862626656e-02
9.439661010862626656e-02
9.482657855263998403e-02
9.482657855263998403e-02
9.503799240303847928e-02
9.845394862574075034e-02
9.845394862574075034e-02
9.878977679901904119e-02
9.895453501482384673e-02
9.927779207859126209e-02
9.927779207859126209e-02
9.974718041127779433e-02
9.974718041127779433e-02
1.000498875561586926e-01
1.000498875561586926e-01
1.007714245210416804e-01
1.009097616685323412e-01
1.018233764908628436e-01
1.018233764908628436e-01
1.019461622622450658e-01
1.019461622622450658e-01
1.023030791325461597e-01
1.023030791325461597e-01
1.024182600906693719e-01
1.024182600906693719e-01
1.025315561181044388e-01
1.025315561181044388e-01
1.027525182173167073e-01
1.027525182173167073e-01
1.029660138103830891e-01
1.029660138103830891e-01
1.030699762297440369e-01
1.030699762297440369e-01
1.031720892489824543e-01
1.033707889106008637e-01
1.033707889106008637e-01
1.034673861658832045e-01
1.034673861658832045e-01
1.034673861658832045e-01
1.036551011769319408e-01
1.036551011769319408e-01
1.037462288471248661e-01
1.037462288471248661e-01
1.040087496319420379e-01
1.040087496319420379e-01
1.044853099722635736e-01
1.044853099722635736e-01
1.046995701996908945e-01
1.046995701996908945e-01
1.050805405391502662e-01
1.050805405391502662e-01
1.051379094332772213e-01
1.051379094332772213e-01
1.051935359230784656e-01
1.052474227712964089e-01
1.053499881347881306e-01
1.053499881347881306e-01
1.053986717183855171e-01
1.053986717183855171e-01
1.055761336666578287e-01
1.055761336666578287e-01
1.056545313746646841e-01
1.056545313746646841e-01
1.056911538398554867e-01
1.056911538398554867e-01
1.057592549141681548e-01
1.057592549141681548e-01
1.058205084092870979e-01
1.058205084092870979e-01
1.059811303959341672e-01
1.059811303959341672e-01
1.060244311467880562e-01
1.060244311467880562e-01
1.060524398587792960e-01
1.060524398587792960e-01
1.060583801498024004e-01
1.060583801498024004e-01
1.060651686464505750e-01
1.060651686464505750e-01
1.060626230111248874e-01
1.060626230111248874e-01
1.060244311467880562e-01
1.060244311467880562e-01
1.060116974677794699e-01
1.060116974677794699e-01
1.059972641156365081e-01
1.059972641156365081e-01
1.058995750699689986e-01
1.058995750699689986e-01
1.056911538398554867e-01
1.056911538398554867e-01
1.056545313746646564e-01
1.056545313746646564e-01
1.055761336666578287e-01
1.055761336666578287e-01
1.054908526840123706e-01
1.054908526840123706e-01
1.053986717183855171e-01
1.053986717183855171e-01
1.052995726487054584e-01
1.052995726487054584e-01
1.051379094332771935e-01
1.051379094332771935e-01
1.050805405391502662e-01
1.050805405391502662e-01
1.050214263852857766e-01
1.050214263852857766e-01
1.049605640228747916e-01
1.049605640228747916e-01
1.048335824056394749e-01
1.048335824056394749e-01
1.047674567792881012e-01
1.047674567792881012e-01
1.046299192391927646e-01
1.046299192391927646e-01
1.045585003718014216e-01
1.045585003718014216e-01
1.044853099722635736e-01
1.044853099722635736e-01
1.044103443151108424e-01
1.044103443151108424e-01
1.043335995736752037e-01
1.043335995736752037e-01
1.042550718190726755e-01
1.042550718190726755e-01
1.040926510374291514e-01
1.040926510374291514e-01
1.040087496319420379e-01
1.040087496319420379e-01
1.036551011769319408e-01
1.036551011769319408e-01
1.033707889106008637e-01
1.033707889106008637e-01
1.032723583540145484e-01
1.032723583540145484e-01
1.031720892489824543e-01
1.031720892489824543e-01
1.030699762297440369e-01
1.030699762297440369e-01
1.029660138103830891e-01
1.029660138103830891e-01
1.025315561181044388e-01
1.025315561181044388e-01
1.021860068698253743e-01
1.021860068698253743e-01
1.020670367944519069e-01
1.020670367944519069e-01
1.018233764908628436e-01
1.018233764908628436e-01
1.015720433977775339e-01
1.015720433977775339e-01
1.014434818014444961e-01
1.014434818014444961e-01
1.013129804121860739e-01
1.013129804121860739e-01
1.010461280801991102e-01
1.010461280801991102e-01
1.009097616685323412e-01
1.009097616685323412e-01
1.006311085102414987e-01
1.006311085102414987e-01
1.003445065760951299e-01
1.003445065760951299e-01
9.943631127510714485e-02
9.943631127510714485e-02
9.927779207859126209e-02
9.927779207859126209e-02
9.911720335037707552e-02
9.911720335037707552e-02
9.757704648122939028e-02
9.757704648122939028e-02
9.721111047611791234e-02
9.721111047611791234e-02
9.645268269986066734e-02
9.645268269986066734e-02
9.625746724280667688e-02
9.625746724280667688e-02
9.586021072374084628e-02
9.586021072374084628e-02
9.565814131583365298e-02
9.565814131583365298e-02
9.545375843831399587e-02
9.545375843831399587e-02
9.524704719832527422e-02
9.524704719832527422e-02
9.503799240303847928e-02
9.503799240303847928e-02
9.482657855263998403e-02
9.482657855263998403e-02
9.461278983308757384e-02
9.461278983308757384e-02
9.439661010862626656e-02
9.439661010862626656e-02
9.373355855828796601e-02
9.373355855828796601e-02
9.327925814456287934e-02
9.327925814456287934e-02
9.257904730553237482e-02
9.257904730553237482e-02
9.234056530041387378e-02
9.234056530041387378e-02
9.209951139935543263e-02
9.209951139935543263e-02
9.185586535436918165e-02
9.185586535436918165e-02
9.136071365745782047e-02
9.136071365745782047e-02
9.085493932637894732e-02
9.085493932637894732e-02
9.033836394356496713e-02
9.033836394356496713e-02
8.981080113215782201e-02
8.981080113215782201e-02
8.954283890965263060e-02
8.954283890965263060e-02
8.899842695239056078e-02
8.899842695239056078e-02
8.872192513691302962e-02
8.872192513691302962e-02
8.844252370890373638e-02
8.844252370890373638e-02
8.816019509960262845e-02
8.816019509960262845e-02
8.640312494348800776e-02
8.640312494348800776e-02
8.516936068798448833e-02
8.516936068798448833e-02
8.453295215476623603e-02
8.453295215476623603e-02
8.355309689054019051e-02
8.355309689054019051e-02
8.288256752779801784e-02
8.288256752779801784e-02
8.184998472815986637e-02
8.184998472815986637e-02
8.114320673968955511e-02
8.114320673968955511e-02
8.078415686259281248e-02
8.078415686259281248e-02
8.005448144857350845e-02
8.005448144857350845e-02
7.968374991176056799e-02
7.968374991176056799e-02
7.893022234860358477e-02
7.893022234860358477e-02
7.776888838089432432e-02
7.776888838089432432e-02
7.615983193258765716e-02
7.615983193258765716e-02
7.490514001054934812e-02
7.490514001054934812e-02
7.360706487831178424e-02
7.360706487831178424e-02
7.316433557410331745e-02
7.316433557410331745e-02
7.271643555620696531e-02
7.271643555620696531e-02
7.226326867780062668e-02
7.226326867780062668e-02
7.180473521990037022e-02
7.180473521990037022e-02
7.134073170356469706e-02
7.134073170356469706e-02
7.039588056129421345e-02
7.039588056129421345e-02
6.991480529902090180e-02
6.991480529902090180e-02
6.942780422856537070e-02
6.942780422856537070e-02
6.893475175845634184e-02
6.893475175845634184e-02
6.843551709456136001e-02
6.843551709456136001e-02
6.792996393345133999e-02
6.792996393345133999e-02
6.584162816941876994e-02
6.584162816941876994e-02
6.530222048292079473e-02
6.530222048292079473e-02
6.475554030351379775e-02
6.475554030351379775e-02
6.420140185385361797e-02
6.420140185385361797e-02
6.306996115426105609e-02
6.306996115426105609e-02
6.249223951819937034e-02
6.249223951819937034e-02
6.190621939676173302e-02
6.190621939676173302e-02
6.131166283832137354e-02
6.131166283832137354e-02
6.070831903454418366e-02
6.070831903454418366e-02
6.009592332263477554e-02
6.009592332263477554e-02
5.884284153573821757e-02
5.884284153573821757e-02
5.820154637120906332e-02
5.820154637120906332e-02
5.688778427747031435e-02
5.688778427747031435e-02
5.552999189627168264e-02
5.552999189627168264e-02
5.340337068013589067e-02
5.340337068013589067e-02
5.266858646290023538e-02
5.266858646290023538e-02
5.191993836668142015e-02
5.191993836668142015e-02
5.115681772745449274e-02
5.115681772745449274e-02
5.037856687124001032e-02
5.037856687124001032e-02
4.794559416672194985e-02
4.794559416672194985e-02
4.709904457629689178e-02
4.709904457629689178e-02
4.623310502226734425e-02
4.623310502226734425e-02
4.350724077667993822e-02
4.350724077667993822e-02
4.255138070615337165e-02
4.255138070615337165e-02
4.156921938165307473e-02
4.156921938165307473e-02
4.055884613743346301e-02
4.055884613743346301e-02
3.951809712018028442e-02
3.951809712018028442e-02
3.844450545916804074e-02
3.844450545916804074e-02
3.733523804664973245e-02
3.733523804664973245e-02
3.618701424544447376e-02
3.618701424544447376e-02
3.499599977140246260e-02
3.499599977140246260e-02
3.375766579608253937e-02
3.375766579608253937e-02
3.246659822032485487e-02
3.246659822032485487e-02
2.969848480983500530e-02
2.969848480983500530e-02
2.820319130878632535e-02
2.820319130878632535e-02
2.661728761538261281e-02
2.661728761538261281e-02
2.309805186590420042e-02
2.309805186590420042e-02
2.110687091920544073e-02
2.110687091920544073e-02
1.638230752977126378e-02
1.638230752977126378e-02
9.477341399358792801e-03
9.477341399358792801e-03
0.000000000000000000e+00
0.000000000000000000e+00
