1.998640060424804688e+00
9.986400008201599121e-01
9.974548816680908203e-01
7.863714694976806641e-01
7.859723567962646484e-01
7.858705520629882812e-01
7.858098745346069336e-01
7.854379415512084961e-01
7.845341563224792480e-01
7.843208312988281250e-01
7.842658162117004395e-01
7.838687896728515625e-01
7.807828187942504883e-01
7.807103395462036133e-01
7.738484144210815430e-01
7.730674743652343750e-01
7.706788778305053711e-01
7.701349854469299316e-01
7.699273824691772461e-01
7.691544294357299805e-01
7.626140117645263672e-01
7.590436935424804688e-01
7.410818934440612793e-01
7.402061820030212402e-01
7.369045019149780273e-01
7.368999719619750977e-01
7.243639230728149414e-01
7.220500707626342773e-01
7.164936065673828125e-01
7.143299579620361328e-01
7.077581882476806641e-01
7.054347991943359375e-01
7.025314569473266602e-01
6.993528604507446289e-01
6.937717795372009277e-01
6.930727958679199219e-01
6.904025077819824219e-01
6.898231506347656250e-01
6.850759983062744141e-01
6.850585341453552246e-01
6.850566267967224121e-01
6.850543022155761719e-01
6.849688291549682617e-01
6.849633455276489258e-01
6.849628686904907227e-01
6.849558353424072266e-01
6.849431991577148438e-01
6.849368810653686523e-01
6.849330663681030273e-01
6.849144697189331055e-01
6.848757863044738770e-01
6.848344802856445312e-01
6.847643852233886719e-01
6.846415996551513672e-01
6.846290826797485352e-01
6.846284270286560059e-01
6.846115589141845703e-01
6.842135787010192871e-01
6.841816902160644531e-01
6.840367317199707031e-01
6.840233802795410156e-01
6.839896440505981445e-01
6.839878559112548828e-01
6.839644908905029297e-01
6.839618682861328125e-01
6.839476227760314941e-01
6.839461326599121094e-01
6.839100122451782227e-01
6.838971376419067383e-01
6.838422417640686035e-01
6.838362216949462891e-01
6.837277412414550781e-01
6.837067008018493652e-01
6.836994886398315430e-01
6.834498047828674316e-01
6.832989454269409180e-01
6.828724145889282227e-01
6.820970773696899414e-01
6.810417771339416504e-01
6.808389425277709961e-01
6.750234365463256836e-01
6.728610992431640625e-01
6.543608307838439941e-01
6.509022712707519531e-01
6.346684098243713379e-01
6.324352622032165527e-01
6.324082016944885254e-01
6.268289685249328613e-01
6.228419542312622070e-01
6.211596727371215820e-01
6.210070848464965820e-01
6.209901571273803711e-01
6.206080913543701172e-01
6.205302476882934570e-01
6.204701066017150879e-01
6.204378008842468262e-01
6.204349398612976074e-01
6.203814148902893066e-01
6.202874183654785156e-01
6.201966404914855957e-01
6.201657056808471680e-01
6.201185584068298340e-01
6.201173067092895508e-01
6.200460195541381836e-01
6.200128793716430664e-01
6.199976801872253418e-01
6.199935078620910645e-01
6.199706792831420898e-01
6.199277639389038086e-01
6.199150681495666504e-01
6.198942065238952637e-01
6.198858022689819336e-01
6.198682785034179688e-01
6.196481585502624512e-01
6.196480393409729004e-01
6.196143627166748047e-01
6.195868849754333496e-01
6.195611357688903809e-01
6.195534467697143555e-01
6.195408105850219727e-01
6.195306181907653809e-01
6.194889545440673828e-01
6.194880604743957520e-01
6.194491982460021973e-01
6.194409728050231934e-01
6.194053292274475098e-01
6.193907856941223145e-01
6.193315982818603516e-01
6.193292737007141113e-01
6.193212270736694336e-01
5.979101061820983887e-01
5.907876491546630859e-01
5.907537937164306641e-01
5.907216668128967285e-01
5.906786322593688965e-01
5.904065966606140137e-01
5.894677042961120605e-01
5.893852710723876953e-01
5.892481803894042969e-01
5.892436504364013672e-01
5.889585614204406738e-01
5.887328386306762695e-01
5.886716246604919434e-01
5.884990096092224121e-01
5.884057283401489258e-01
5.882800817489624023e-01
5.882745981216430664e-01
5.881249308586120605e-01
5.881062150001525879e-01
5.880576372146606445e-01
5.880054831504821777e-01
5.879207849502563477e-01
5.879158973693847656e-01
5.878328680992126465e-01
5.878043174743652344e-01
5.877347588539123535e-01
5.877214670181274414e-01
5.877056121826171875e-01
5.876311659812927246e-01
5.876239538192749023e-01
5.876202583312988281e-01
5.874882936477661133e-01
5.873624086380004883e-01
5.871899724006652832e-01
5.871427059173583984e-01
5.871278047561645508e-01
5.871273279190063477e-01
5.869247317314147949e-01
5.866637229919433594e-01
5.866278409957885742e-01
5.865215063095092773e-01
5.864799022674560547e-01
5.864409208297729492e-01
5.864045023918151855e-01
5.861910581588745117e-01
5.860989689826965332e-01
5.860486030578613281e-01
5.859726667404174805e-01
5.857974290847778320e-01
5.854927301406860352e-01
5.854716897010803223e-01
5.854494571685791016e-01
5.853931307792663574e-01
5.852065086364746094e-01
5.851691961288452148e-01
5.784814357757568359e-01
5.777041316032409668e-01
5.754446387290954590e-01
5.711233019828796387e-01
5.606545805931091309e-01
5.471263527870178223e-01
5.471025705337524414e-01
5.470384359359741211e-01
5.470277070999145508e-01
5.469884276390075684e-01
5.468508005142211914e-01
5.468239784240722656e-01
5.467055439949035645e-01
5.466982722282409668e-01
5.466533303260803223e-01
5.466261506080627441e-01
5.465703010559082031e-01
5.464035272598266602e-01
5.461975336074829102e-01
5.461765527725219727e-01
5.461542010307312012e-01
5.461528897285461426e-01
5.461475253105163574e-01
5.459285378456115723e-01
5.458860993385314941e-01
5.455126762390136719e-01
5.454722642898559570e-01
5.454283952713012695e-01
5.454135537147521973e-01
5.453287363052368164e-01
5.452416539192199707e-01
5.452097058296203613e-01
5.451446175575256348e-01
5.451382398605346680e-01
5.451354384422302246e-01
5.447590947151184082e-01
5.447399616241455078e-01
5.338615775108337402e-01
5.297571420669555664e-01
5.061586499214172363e-01
4.949596524238586426e-01
4.942857921123504639e-01
4.809648096561431885e-01
4.707326889038085938e-01
4.683355093002319336e-01
4.657885730266571045e-01
4.650620818138122559e-01
4.575906097888946533e-01
4.526589214801788330e-01
4.321471452713012695e-01
4.306757152080535889e-01
4.220276474952697754e-01
4.199385046958923340e-01
4.192558526992797852e-01
4.186370968818664551e-01
4.171265363693237305e-01
4.167940318584442139e-01
4.161087274551391602e-01
4.143939316272735596e-01
4.126552939414978027e-01
4.121798872947692871e-01
4.109569489955902100e-01
4.093468189239501953e-01
4.054427146911621094e-01
4.050745368003845215e-01
4.048781394958496094e-01
4.027858972549438477e-01
4.013975858688354492e-01
4.010990262031555176e-01
4.009667634963989258e-01
4.005374312400817871e-01
3.989919424057006836e-01
3.988204896450042725e-01
3.964949250221252441e-01
3.943314254283905029e-01
3.936329483985900879e-01
3.928959369659423828e-01
3.925124406814575195e-01
3.904189467430114746e-01
3.881628215312957764e-01
3.868852853775024414e-01
3.867728114128112793e-01
3.866687715053558350e-01
3.865273594856262207e-01
3.860105276107788086e-01
3.851638436317443848e-01
3.851129114627838135e-01
3.849819302558898926e-01
3.847953379154205322e-01
3.847119808197021484e-01
3.845894038677215576e-01
3.842940926551818848e-01
3.831897377967834473e-01
3.828555643558502197e-01
3.821679949760437012e-01
3.819399476051330566e-01
3.817360103130340576e-01
3.813556432723999023e-01
3.808545470237731934e-01
3.805694878101348877e-01
3.799799084663391113e-01
3.793599605560302734e-01
3.785715103149414062e-01
3.782559335231781006e-01
3.771290183067321777e-01
3.768517971038818359e-01
3.766532540321350098e-01
3.733704388141632080e-01
3.727701306343078613e-01
3.718732595443725586e-01
3.714477717876434326e-01
3.712937235832214355e-01
3.708146512508392334e-01
3.708011507987976074e-01
3.690366148948669434e-01
3.660830855369567871e-01
3.655181527137756348e-01
3.652766942977905273e-01
3.648148775100708008e-01
3.641230762004852295e-01
3.631485104560852051e-01
3.624666929244995117e-01
3.623924255371093750e-01
3.622625470161437988e-01
3.622586727142333984e-01
3.618259429931640625e-01
3.618105053901672363e-01
3.614976406097412109e-01
3.614606857299804688e-01
3.612009584903717041e-01
3.611807823181152344e-01
3.611031770706176758e-01
3.610715270042419434e-01
3.605427145957946777e-01
3.602936863899230957e-01
3.602132201194763184e-01
3.602053523063659668e-01
3.584214448928833008e-01
3.567130565643310547e-01
3.536332249641418457e-01
3.532719910144805908e-01
3.531720936298370361e-01
3.526027202606201172e-01
3.525249361991882324e-01
3.504943847656250000e-01
3.490808606147766113e-01
3.478792607784271240e-01
3.466358184814453125e-01
3.463979959487915039e-01
3.456000685691833496e-01
3.453991413116455078e-01
3.415543735027313232e-01
3.414660692214965820e-01
3.413229882717132568e-01
3.412572741508483887e-01
3.400862216949462891e-01
3.397151827812194824e-01
3.396755754947662354e-01
3.395402729511260986e-01
3.388562798500061035e-01
3.388042449951171875e-01
3.381941318511962891e-01
3.379970788955688477e-01
3.373661041259765625e-01
3.371986746788024902e-01
3.364160656929016113e-01
3.363043665885925293e-01
3.362306952476501465e-01
3.356935083866119385e-01
3.350933194160461426e-01
3.349705338478088379e-01
3.343278765678405762e-01
3.325369060039520264e-01
3.314197063446044922e-01
3.311445116996765137e-01
3.303107321262359619e-01
3.302577733993530273e-01
3.301376402378082275e-01
3.300961554050445557e-01
3.298558592796325684e-01
3.298479914665222168e-01
3.289409875869750977e-01
3.286861181259155273e-01
3.270551860332489014e-01
3.270378708839416504e-01
3.270152211189270020e-01
3.270099461078643799e-01
3.265622854232788086e-01
3.257759809494018555e-01
3.255591392517089844e-01
3.253111243247985840e-01
3.239272832870483398e-01
3.237306177616119385e-01
3.201221823692321777e-01
3.200045228004455566e-01
3.161616027355194092e-01
3.159026205539703369e-01
3.098122477531433105e-01
3.096506595611572266e-01
3.082641363143920898e-01
3.073528110980987549e-01
3.019042015075683594e-01
2.999930381774902344e-01
2.992618680000305176e-01
2.977693080902099609e-01
2.929147481918334961e-01
2.918442487716674805e-01
2.864885330200195312e-01
2.857350409030914307e-01
2.852273285388946533e-01
2.769084572792053223e-01
2.665773630142211914e-01
2.658629417419433594e-01
2.635941505432128906e-01
2.634440660476684570e-01
2.626706361770629883e-01
2.620396018028259277e-01
2.616085410118103027e-01
2.615267634391784668e-01
2.540834844112396240e-01
2.539847493171691895e-01
2.533670663833618164e-01
2.526001334190368652e-01
2.475959956645965576e-01
2.339067459106445312e-01
2.152021527290344238e-01
