0.000000000000000000e+00
8.780487804878048252e-02
9.105691056910569792e-02
9.430894308943089943e-02
9.593495934959349325e-02
1.024390243902438963e-01
1.056910569105691117e-01
1.089430894308943132e-01
1.089430894308943132e-01
1.154471544715447162e-01
1.186991869918699177e-01
1.626016260162601590e-01
1.658536585365853744e-01
2.569105691056910445e-01
2.569105691056910445e-01
2.650406504065040414e-01
2.650406504065040414e-01
2.780487804878049030e-01
2.780487804878049030e-01
2.813008130081300906e-01
2.813008130081300906e-01
3.056910569105690811e-01
3.056910569105690811e-01
3.073170731707317027e-01
3.073170731707317027e-01
3.447154471544715548e-01
3.447154471544715548e-01
3.463414634146341209e-01
3.463414634146341209e-01
3.512195121951219301e-01
3.512195121951219301e-01
3.577235772357723609e-01
3.577235772357723609e-01
3.593495934959349825e-01
3.593495934959349825e-01
3.723577235772357885e-01
3.723577235772357885e-01
3.756097560975609762e-01
3.756097560975609762e-01
3.821138211382114069e-01
3.821138211382114069e-01
3.853658536585365946e-01
3.853658536585365946e-01
3.869918699186991606e-01
3.869918699186991606e-01
3.967479674796747791e-01
3.967479674796747791e-01
4.048780487804878314e-01
4.048780487804878314e-01
4.097560975609755851e-01
4.097560975609755851e-01
4.162601626016260159e-01
4.162601626016260159e-01
4.211382113821138251e-01
4.211382113821138251e-01
4.341463414634146312e-01
4.341463414634146312e-01
4.357723577235772527e-01
4.357723577235772527e-01
4.373983739837398188e-01
4.373983739837398188e-01
4.439024390243902496e-01
4.439024390243902496e-01
4.487804878048780588e-01
4.487804878048780588e-01
4.536585365853658680e-01
4.536585365853658680e-01
4.552845528455284341e-01
4.552845528455284341e-01
4.569105691056910556e-01
4.569105691056910556e-01
4.585365853658536772e-01
4.585365853658536772e-01
4.650406504065040525e-01
4.650406504065040525e-01
4.682926829268292956e-01
4.682926829268292956e-01
4.731707317073170493e-01
4.731707317073170493e-01
4.764227642276422925e-01
4.764227642276422925e-01
4.780487804878048586e-01
4.780487804878048586e-01
4.796747967479674801e-01
4.796747967479674801e-01
4.861788617886179109e-01
4.861788617886179109e-01
4.975609756097560954e-01
4.975609756097560954e-01
5.056910569105691478e-01
5.056910569105691478e-01
5.073170731707317138e-01
5.073170731707317138e-01
5.105691056910569570e-01
5.105691056910569570e-01
5.121951219512195230e-01
5.121951219512195230e-01
5.154471544715447662e-01
5.154471544715447662e-01
5.170731707317073322e-01
5.170731707317073322e-01
5.203252032520325754e-01
5.203252032520325754e-01
5.219512195121951414e-01
5.219512195121951414e-01
5.235772357723577075e-01
5.235772357723577075e-01
5.268292682926829507e-01
5.268292682926829507e-01
5.284552845528455167e-01
5.284552845528455167e-01
5.300813008130080828e-01
5.300813008130080828e-01
5.382113821138211351e-01
5.382113821138211351e-01
5.398373983739837012e-01
5.398373983739837012e-01
5.430894308943089444e-01
5.430894308943089444e-01
5.463414634146341875e-01
5.463414634146341875e-01
5.479674796747967536e-01
5.479674796747967536e-01
5.495934959349593196e-01
5.495934959349593196e-01
5.544715447154471288e-01
5.544715447154471288e-01
5.560975609756098059e-01
5.560975609756098059e-01
5.577235772357723720e-01
5.577235772357723720e-01
5.658536585365853133e-01
5.658536585365853133e-01
5.674796747967479904e-01
5.674796747967479904e-01
5.691056910569105565e-01
5.691056910569105565e-01
5.772357723577236088e-01
5.772357723577236088e-01
5.804878048780487410e-01
5.804878048780487410e-01
5.821138211382114180e-01
5.821138211382114180e-01
5.837398373983739841e-01
5.837398373983739841e-01
5.869918699186992272e-01
5.869918699186992272e-01
5.886178861788617933e-01
5.886178861788617933e-01
5.951219512195121686e-01
5.951219512195121686e-01
5.967479674796748457e-01
5.967479674796748457e-01
5.983739837398374117e-01
5.983739837398374117e-01
5.999999999999999778e-01
5.999999999999999778e-01
6.016260162601626549e-01
6.016260162601626549e-01
6.048780487804877870e-01
6.048780487804877870e-01
6.065040650406503531e-01
6.065040650406503531e-01
6.081300813008130302e-01
6.081300813008130302e-01
6.097560975609755962e-01
6.097560975609755962e-01
6.162601626016259715e-01
6.162601626016259715e-01
6.178861788617886486e-01
6.178861788617886486e-01
6.195121951219512146e-01
6.195121951219512146e-01
6.227642276422764578e-01
6.227642276422764578e-01
6.260162601626015899e-01
6.260162601626015899e-01
6.276422764227642670e-01
6.276422764227642670e-01
6.308943089430893991e-01
6.308943089430893991e-01
6.325203252032520762e-01
6.325203252032520762e-01
6.341463414634146423e-01
6.341463414634146423e-01
6.357723577235772083e-01
6.357723577235772083e-01
6.373983739837398854e-01
6.373983739837398854e-01
6.390243902439024515e-01
6.390243902439024515e-01
6.406504065040650175e-01
6.406504065040650175e-01
6.439024390243902607e-01
6.439024390243902607e-01
6.455284552845528268e-01
6.455284552845528268e-01
6.471544715447153928e-01
6.471544715447153928e-01
6.487804878048780699e-01
6.487804878048780699e-01
6.504065040650406360e-01
6.504065040650406360e-01
6.520325203252032020e-01
6.520325203252032020e-01
6.552845528455284452e-01
6.552845528455284452e-01
6.569105691056910112e-01
6.569105691056910112e-01
6.585365853658536883e-01
6.585365853658536883e-01
6.634146341463414975e-01
6.634146341463414975e-01
6.650406504065040636e-01
6.650406504065040636e-01
6.666666666666666297e-01
6.666666666666666297e-01
6.699186991869918728e-01
6.699186991869918728e-01
6.715447154471544389e-01
6.715447154471544389e-01
6.731707317073171160e-01
6.731707317073171160e-01
6.747967479674796820e-01
6.747967479674796820e-01
6.764227642276422481e-01
6.764227642276422481e-01
6.780487804878049252e-01
6.780487804878049252e-01
6.796747967479674912e-01
6.796747967479674912e-01
6.813008130081300573e-01
6.813008130081300573e-01
6.845528455284553004e-01
6.845528455284553004e-01
6.878048780487804326e-01
6.878048780487804326e-01
6.894308943089431096e-01
6.894308943089431096e-01
6.910569105691056757e-01
6.910569105691056757e-01
6.926829268292682418e-01
6.926829268292682418e-01
6.943089430894309189e-01
6.943089430894309189e-01
6.975609756097560510e-01
6.975609756097560510e-01
6.991869918699187281e-01
6.991869918699187281e-01
7.008130081300812941e-01
7.008130081300812941e-01
7.024390243902438602e-01
7.024390243902438602e-01
7.089430894308943465e-01
7.089430894308943465e-01
7.121951219512194786e-01
7.121951219512194786e-01
7.138211382113821557e-01
7.138211382113821557e-01
7.154471544715447218e-01
7.154471544715447218e-01
7.170731707317072878e-01
7.170731707317072878e-01
7.186991869918699649e-01
7.186991869918699649e-01
7.203252032520325310e-01
7.203252032520325310e-01
7.219512195121950970e-01
7.219512195121950970e-01
7.235772357723577741e-01
7.235772357723577741e-01
7.252032520325203402e-01
7.252032520325203402e-01
7.268292682926829062e-01
7.268292682926829062e-01
7.284552845528455833e-01
7.284552845528455833e-01
7.300813008130081494e-01
7.300813008130081494e-01
7.317073170731707155e-01
7.317073170731707155e-01
7.349593495934959586e-01
7.349593495934959586e-01
7.382113821138210907e-01
7.382113821138210907e-01
7.398373983739837678e-01
7.398373983739837678e-01
7.430894308943088999e-01
7.430894308943088999e-01
7.447154471544715770e-01
7.447154471544715770e-01
7.512195121951219523e-01
7.512195121951219523e-01
7.528455284552845184e-01
7.528455284552845184e-01
7.544715447154471955e-01
7.544715447154471955e-01
7.560975609756097615e-01
7.560975609756097615e-01
7.609756097560975707e-01
7.609756097560975707e-01
7.674796747967479460e-01
7.674796747967479460e-01
7.707317073170731891e-01
7.707317073170731891e-01
7.723577235772357552e-01
7.723577235772357552e-01
7.739837398373983213e-01
7.739837398373983213e-01
7.772357723577235644e-01
7.772357723577235644e-01
7.788617886178861305e-01
7.788617886178861305e-01
7.804878048780488076e-01
7.804878048780488076e-01
7.837398373983739397e-01
7.837398373983739397e-01
7.853658536585366168e-01
7.853658536585366168e-01
7.869918699186991828e-01
7.869918699186991828e-01
7.886178861788617489e-01
7.886178861788617489e-01
7.902439024390244260e-01
7.902439024390244260e-01
7.918699186991869921e-01
7.918699186991869921e-01
7.934959349593495581e-01
7.934959349593495581e-01
7.983739837398373673e-01
7.983739837398373673e-01
8.016260162601626105e-01
8.016260162601626105e-01
8.081300813008129857e-01
8.081300813008129857e-01
8.097560975609756628e-01
8.097560975609756628e-01
8.113821138211382289e-01
8.113821138211382289e-01
8.146341463414633610e-01
8.146341463414633610e-01
8.162601626016260381e-01
8.162601626016260381e-01
8.195121951219511702e-01
8.195121951219511702e-01
8.227642276422764134e-01
8.227642276422764134e-01
8.243902439024389794e-01
8.243902439024389794e-01
8.260162601626016565e-01
8.260162601626016565e-01
8.276422764227642226e-01
8.276422764227642226e-01
8.292682926829267887e-01
8.292682926829267887e-01
8.308943089430894657e-01
8.308943089430894657e-01
8.357723577235772749e-01
8.357723577235772749e-01
8.390243902439024071e-01
8.390243902439024071e-01
8.406504065040650842e-01
8.406504065040650842e-01
8.422764227642276502e-01
8.422764227642276502e-01
8.439024390243902163e-01
8.439024390243902163e-01
8.471544715447154594e-01
8.471544715447154594e-01
8.487804878048780255e-01
8.487804878048780255e-01
8.552845528455284008e-01
8.552845528455284008e-01
8.585365853658536439e-01
8.585365853658536439e-01
8.601626016260162100e-01
8.601626016260162100e-01
8.617886178861788871e-01
8.617886178861788871e-01
8.634146341463414531e-01
8.634146341463414531e-01
8.650406504065040192e-01
8.650406504065040192e-01
8.666666666666666963e-01
8.666666666666666963e-01
8.682926829268292623e-01
8.682926829268292623e-01
8.715447154471545055e-01
8.715447154471545055e-01
8.731707317073170715e-01
8.731707317073170715e-01
8.764227642276423147e-01
8.764227642276423147e-01
8.796747967479674468e-01
8.796747967479674468e-01
8.813008130081301239e-01
8.813008130081301239e-01
8.845528455284552560e-01
8.845528455284552560e-01
8.861788617886179331e-01
8.861788617886179331e-01
8.878048780487804992e-01
8.878048780487804992e-01
8.894308943089430652e-01
8.894308943089430652e-01
8.910569105691057423e-01
8.910569105691057423e-01
8.926829268292683084e-01
8.926829268292683084e-01
8.943089430894308745e-01
8.943089430894308745e-01
8.975609756097561176e-01
8.975609756097561176e-01
8.991869918699186837e-01
8.991869918699186837e-01
9.008130081300812497e-01
9.008130081300812497e-01
9.024390243902439268e-01
9.024390243902439268e-01
9.056910569105690589e-01
9.056910569105690589e-01
9.073170731707317360e-01
9.073170731707317360e-01
9.089430894308943021e-01
9.089430894308943021e-01
9.105691056910568681e-01
9.105691056910568681e-01
9.121951219512195452e-01
9.121951219512195452e-01
9.170731707317073544e-01
9.170731707317073544e-01
9.186991869918699205e-01
9.186991869918699205e-01
9.219512195121951637e-01
9.219512195121951637e-01
9.252032520325202958e-01
9.252032520325202958e-01
9.284552845528455389e-01
9.284552845528455389e-01
9.300813008130081050e-01
9.300813008130081050e-01
9.317073170731707821e-01
9.317073170731707821e-01
9.333333333333333481e-01
9.333333333333333481e-01
9.349593495934959142e-01
9.349593495934959142e-01
9.365853658536585913e-01
9.365853658536585913e-01
9.398373983739837234e-01
9.398373983739837234e-01
9.414634146341462895e-01
9.414634146341462895e-01
9.430894308943089666e-01
9.430894308943089666e-01
9.463414634146340987e-01
9.463414634146340987e-01
9.479674796747967758e-01
9.479674796747967758e-01
9.495934959349593418e-01
9.495934959349593418e-01
9.512195121951219079e-01
9.512195121951219079e-01
9.528455284552845850e-01
9.528455284552845850e-01
9.544715447154471510e-01
9.544715447154471510e-01
9.560975609756097171e-01
9.560975609756097171e-01
9.593495934959349603e-01
9.593495934959349603e-01
9.609756097560975263e-01
9.609756097560975263e-01
9.626016260162602034e-01
9.626016260162602034e-01
9.642276422764227695e-01
9.642276422764227695e-01
9.658536585365853355e-01
9.658536585365853355e-01
9.674796747967480126e-01
9.674796747967480126e-01
9.691056910569105787e-01
9.691056910569105787e-01
9.707317073170731447e-01
9.707317073170731447e-01
9.723577235772358218e-01
9.723577235772358218e-01
9.739837398373983879e-01
9.739837398373983879e-01
9.804878048780487632e-01
9.804878048780487632e-01
9.821138211382113292e-01
9.821138211382113292e-01
9.837398373983740063e-01
9.837398373983740063e-01
9.853658536585365724e-01
9.853658536585365724e-01
9.869918699186991384e-01
9.869918699186991384e-01
9.886178861788618155e-01
9.886178861788618155e-01
9.902439024390243816e-01
9.902439024390243816e-01
9.918699186991869476e-01
9.918699186991869476e-01
9.934959349593496247e-01
9.934959349593496247e-01
9.951219512195121908e-01
9.951219512195121908e-01
1.000000000000000000e+00
