0.000000000000000000e+00
4.811543063234812075e-03
4.811543063234812075e-03
4.811543063234812075e-03
4.811543063234812075e-03
4.811543063234812075e-03
4.811543063234812075e-03
4.811543063234812075e-03
6.799077360627842417e-03
6.799077360627842417e-03
6.799077360627842417e-03
6.799077360627842417e-03
6.799077360627842417e-03
6.799077360627842417e-03
8.320427808671686937e-03
8.320427808671686937e-03
9.599851276968210043e-03
9.599851276968210043e-03
1.072428691417640079e-02
1.072428691417640079e-02
1.173835911668740309e-02
1.173835911668740309e-02
1.266859816018083874e-02
1.266859816018083874e-02
1.353230370605952582e-02
1.353230370605952582e-02
1.434150157755468419e-02
1.434150157755468419e-02
1.510495452035690543e-02
1.510495452035690543e-02
1.582928281010145821e-02
1.582928281010145821e-02
1.651963368720301556e-02
1.651963368720301556e-02
1.718010359961917588e-02
1.718010359961917588e-02
1.781401644450231192e-02
1.781401644450231192e-02
1.842411364851579206e-02
1.842411364851579206e-02
1.958168037737078454e-02
1.958168037737078454e-02
2.013275110910486485e-02
2.013275110910486485e-02
2.066733383138459612e-02
2.066733383138459612e-02
2.169187423028689013e-02
2.169187423028689013e-02
2.266359120209281153e-02
2.266359120209281153e-02
2.313173545019243937e-02
2.313173545019243937e-02
2.358901361559818943e-02
2.358901361559818943e-02
2.403604587766340270e-02
2.403604587766340270e-02
2.447339369941322826e-02
2.447339369941322826e-02
2.573221425196348111e-02
2.573221425196348111e-02
2.613550433166721143e-02
2.613550433166721143e-02
2.653126236516677172e-02
2.653126236516677172e-02
2.691982054853096773e-02
2.691982054853096773e-02
2.767654473896494216e-02
2.767654473896494216e-02
2.840788196326946360e-02
2.840788196326946360e-02
2.911574531449395709e-02
2.911574531449395709e-02
2.946140523623752561e-02
2.946140523623752561e-02
2.980180751944765810e-02
2.980180751944765810e-02
3.013713032151014298e-02
3.013713032151014298e-02
3.046754135571561745e-02
3.046754135571561745e-02
3.079319873228295382e-02
3.079319873228295382e-02
3.111425171407115192e-02
3.111425171407115192e-02
3.143084139733397231e-02
3.143084139733397231e-02
3.174310132641771504e-02
3.174310132641771504e-02
3.205115805007920093e-02
3.205115805007920093e-02
3.265513607973875160e-02
3.265513607973875160e-02
3.324366602902962403e-02
3.324366602902962403e-02
3.353239299344699942e-02
3.353239299344699942e-02
3.409923982250676749e-02
3.409923982250676749e-02
3.465252042358527018e-02
3.465252042358527018e-02
3.572088909952034208e-02
3.572088909952034208e-02
3.598043918285642739e-02
3.598043918285642739e-02
3.623710321175390575e-02
3.623710321175390575e-02
3.649094208463871114e-02
3.649094208463871114e-02
3.819336277337520569e-02
3.819336277337520569e-02
3.842653565233798696e-02
3.842653565233798696e-02
3.865733933160995367e-02
3.865733933160995367e-02
3.888581599780502329e-02
3.888581599780502329e-02
3.933595007138126348e-02
3.933595007138126348e-02
3.955768507642148241e-02
3.955768507642148241e-02
4.042326022879223074e-02
4.042326022879223074e-02
4.105094984422944654e-02
4.105094984422944654e-02
4.145964252689611496e-02
4.145964252689611496e-02
4.166114539491096863e-02
4.166114539491096863e-02
4.186078919980949081e-02
4.186078919980949081e-02
4.205860041540776528e-02
4.205860041540776528e-02
4.225460477903048018e-02
4.225460477903048018e-02
4.244882731970659601e-02
4.244882731970659601e-02
4.283202366643331510e-02
4.283202366643331510e-02
4.320837650888820908e-02
4.320837650888820908e-02
4.357806315491872390e-02
4.357806315491872390e-02
4.376045956933976439e-02
4.376045956933976439e-02
4.394125185702646430e-02
4.394125185702646430e-02
4.447419872053370166e-02
4.447419872053370166e-02
4.464876687552117585e-02
4.464876687552117585e-02
4.482182476018606310e-02
4.482182476018606310e-02
4.533210900410280381e-02
4.533210900410280381e-02
4.582940405024456265e-02
4.582940405024456265e-02
4.599235571840494530e-02
4.599235571840494530e-02
4.631412831258913815e-02
4.631412831258913815e-02
4.663048806103094190e-02
4.663048806103094190e-02
4.769665942285968713e-02
4.769665942285968713e-02
4.813476574690485343e-02
4.813476574690485343e-02
4.938510863832244746e-02
4.938510863832244746e-02
4.951832888856870507e-02
4.951832888856870507e-02
5.016799771029670230e-02
5.016799771029670230e-02
5.029470442203969049e-02
5.029470442203969049e-02
5.042035453264304828e-02
5.042035453264304828e-02
5.054495592194709064e-02
5.054495592194709064e-02
5.079104334458106607e-02
5.079104334458106607e-02
5.127096478198067686e-02
5.127096478198067686e-02
5.207267931794475058e-02
5.207267931794475058e-02
5.218335160281227514e-02
5.218335160281227514e-02
5.240186418230173560e-02
5.240186418230173560e-02
5.250971626189619712e-02
5.250971626189619712e-02
5.261663989353908277e-02
5.261663989353908277e-02
5.272264072601986346e-02
5.272264072601986346e-02
5.323899414126928575e-02
5.323899414126928575e-02
5.333957167577521585e-02
5.333957167577521585e-02
5.343926342674731877e-02
5.343926342674731877e-02
5.373307306166420771e-02
5.373307306166420771e-02
5.392460584594097051e-02
5.392460584594097051e-02
5.411270949840103761e-02
5.411270949840103761e-02
5.438851300701084968e-02
5.438851300701084968e-02
5.456819730669871388e-02
5.456819730669871388e-02
5.465679648390416728e-02
5.465679648390416728e-02
5.491767013963479160e-02
5.491767013963479160e-02
5.508752145122938759e-02
5.508752145122938759e-02
5.517123908489126455e-02
5.517123908489126455e-02
5.541760359012663090e-02
5.541760359012663090e-02
5.565685932655814461e-02
5.565685932655814461e-02
5.573504741379871341e-02
5.573504741379871341e-02
5.588909759008310607e-02
5.588909759008310607e-02
5.596496608171194764e-02
5.596496608171194764e-02
5.604006769515523789e-02
5.604006769515523789e-02
5.654455914523156407e-02
5.654455914523156407e-02
5.707655146715572697e-02
5.707655146715572697e-02
5.750403875404637433e-02
5.750403875404637433e-02
5.761978214476572158e-02
5.761978214476572158e-02
5.767659876056817347e-02
5.767659876056817347e-02
5.800285595080676565e-02
5.800285595080676565e-02
5.810607708029173063e-02
5.810607708029173063e-02
5.815665895451524459e-02
5.815665895451524459e-02
5.835216984557251713e-02
5.835216984557251713e-02
5.844585918691220378e-02
5.844585918691220378e-02
5.853685527199510574e-02
5.853685527199510574e-02
5.862517064197712846e-02
5.862517064197712846e-02
5.887415126836281765e-02
5.887415126836281765e-02
5.891333455875125830e-02
5.891333455875125830e-02
5.902694512303406638e-02
5.902694512303406638e-02
5.916928061129777400e-02
5.916928061129777400e-02
5.947984312190035538e-02
5.947984312190035538e-02
5.953425944479585896e-02
5.953425944479585896e-02
5.963545407887788086e-02
5.963545407887788086e-02
5.970469212095909362e-02
5.970469212095909362e-02
5.976824555093418478e-02
5.976824555093418478e-02
5.987836935767631985e-02
5.987836935767631985e-02
5.991006238040012116e-02
5.991006238040012116e-02
5.992497094411987357e-02
5.992497094411987357e-02
5.996595038258456523e-02
5.996595038258456523e-02
5.997836286649606274e-02
5.997836286649606274e-02
5.999015234736973512e-02
5.999015234736973512e-02
6.000131919244160866e-02
6.000131919244160866e-02
6.004782536072861276e-02
6.004782536072861276e-02
6.007385308897182641e-02
6.007385308897182641e-02
6.007880947304766045e-02
6.007880947304766045e-02
6.009553425137104110e-02
6.009553425137104110e-02
6.009615359821819658e-02
6.009615359821819658e-02
6.009615359821818964e-02
6.009615359821818964e-02
6.009553425137104110e-02
6.009553425137104110e-02
6.004782536072861276e-02
6.004782536072861276e-02
6.003976687242006116e-02
6.003976687242006116e-02
6.003108729061647220e-02
6.003108729061647220e-02
5.999015234736973512e-02
5.999015234736973512e-02
5.997836286649606274e-02
5.997836286649606274e-02
5.993925483805134791e-02
5.993925483805134791e-02
5.991006238040012116e-02
5.991006238040012116e-02
5.978816996037202014e-02
5.978816996037202014e-02
5.976824555093418478e-02
5.976824555093418478e-02
5.974769154469711241e-02
5.974769154469711241e-02
5.970469212095909362e-02
5.970469212095909362e-02
5.956051159991049282e-02
5.956051159991049282e-02
5.953425944479585896e-02
5.953425944479585896e-02
5.939342531360154720e-02
5.939342531360154720e-02
5.936333745690190733e-02
5.936333745690190733e-02
5.926921445897030682e-02
5.926921445897030682e-02
5.909941531008520987e-02
5.909941531008520987e-02
5.906350641849218014e-02
5.906350641849218014e-02
5.898973021064903011e-02
5.898973021064903011e-02
5.895186044349846888e-02
5.895186044349846888e-02
5.883430925884874929e-02
5.883430925884874929e-02
5.875264369991073377e-02
5.875264369991073377e-02
5.866832685631804406e-02
5.866832685631804406e-02
5.862517064197712846e-02
5.862517064197712846e-02
5.853685527199510574e-02
5.853685527199510574e-02
5.844585918691220378e-02
5.844585918691220378e-02
5.835216984557251713e-02
5.835216984557251713e-02
5.825577425375975948e-02
5.825577425375975948e-02
5.810607708029173063e-02
5.810607708029173063e-02
5.795021303093089715e-02
5.795021303093089715e-02
5.784285308542416737e-02
5.784285308542416737e-02
5.761978214476572158e-02
5.761978214476572158e-02
5.726405108045524300e-02
5.726405108045524300e-02
5.720227017843966533e-02
5.720227017843966533e-02
5.707655146715572697e-02
5.707655146715572697e-02
5.701260890168353274e-02
5.701260890168353274e-02
5.694794096213531831e-02
5.694794096213531831e-02
5.688254517454761211e-02
5.688254517454761211e-02
5.640417870943410794e-02
5.640417870943410794e-02
5.581245909290840496e-02
5.581245909290840496e-02
5.541760359012663090e-02
5.541760359012663090e-02
5.533627658397889670e-02
5.533627658397889670e-02
5.508752145122938759e-02
5.508752145122938759e-02
5.465679648390417422e-02
5.465679648390417422e-02
5.438851300701084968e-02
5.438851300701084968e-02
5.392460584594097051e-02
5.392460584594097051e-02
5.373307306166420771e-02
5.373307306166420771e-02
5.353807434236405871e-02
5.353807434236405871e-02
5.333957167577521585e-02
5.333957167577521585e-02
5.293189612108559206e-02
5.293189612108559206e-02
5.250971626189619712e-02
5.250971626189619712e-02
5.240186418230173560e-02
5.240186418230173560e-02
5.218335160281227514e-02
5.218335160281227514e-02
5.184847253308722675e-02
5.184847253308722675e-02
5.162040793433729513e-02
5.162040793433729513e-02
5.127096478198067686e-02
5.127096478198067686e-02
5.079104334458106607e-02
5.079104334458106607e-02
5.004022637116471023e-02
5.004022637116471023e-02
4.965044205514268505e-02
4.965044205514268505e-02
4.938510863832244052e-02
4.938510863832244052e-02
4.925077232062903543e-02
4.925077232062903543e-02
4.897871467350612545e-02
4.897871467350612545e-02
4.870208051600376231e-02
4.870208051600376231e-02
4.842079140962286116e-02
4.842079140962286116e-02
4.784391857815269156e-02
4.784391857815269156e-02
4.769665942285968713e-02
4.769665942285968713e-02
4.739841294227293417e-02
4.739841294227293417e-02
4.615392565224647747e-02
4.615392565224647747e-02
4.566505585598167050e-02
4.566505585598167050e-02
4.549929600242573480e-02
4.549929600242573480e-02
4.482182476018605616e-02
4.482182476018605616e-02
4.429810244039221467e-02
4.429810244039221467e-02
4.320837650888820214e-02
4.320837650888820214e-02
4.302104422395317679e-02
4.302104422395317679e-02
4.283202366643331510e-02
4.283202366643331510e-02
4.244882731970660295e-02
4.244882731970660295e-02
4.063448346413640888e-02
4.063448346413640888e-02
4.042326022879223768e-02
4.042326022879223768e-02
3.955768507642148241e-02
3.955768507642148241e-02
3.911200643137777155e-02
3.911200643137777155e-02
3.865733933160995367e-02
3.865733933160995367e-02
3.795777703309244355e-02
3.795777703309244355e-02
3.699037636042632610e-02
3.699037636042632610e-02
3.649094208463871808e-02
3.649094208463871808e-02
3.623710321175391269e-02
3.623710321175391269e-02
3.598043918285643433e-02
3.598043918285643433e-02
3.545838958534788116e-02
3.545838958534788116e-02
3.465252042358526324e-02
3.465252042358526324e-02
3.353239299344699942e-02
3.353239299344699942e-02
3.235513162606773463e-02
3.235513162606773463e-02
3.143084139733397231e-02
3.143084139733397231e-02
2.911574531449395015e-02
2.911574531449395015e-02
2.840788196326946360e-02
2.840788196326946360e-02
2.804526097819293878e-02
2.804526097819293878e-02
2.691982054853097120e-02
2.691982054853097120e-02
2.613550433166720449e-02
2.613550433166720449e-02
2.573221425196347417e-02
2.573221425196347417e-02
2.490156735141171862e-02
2.490156735141171862e-02
2.218389296472877970e-02
2.218389296472877970e-02
2.169187423028687972e-02
2.169187423028687972e-02
1.173835911668742737e-02
1.173835911668742737e-02
9.599851276968173613e-03
9.599851276968173613e-03
8.320427808671655712e-03
8.320427808671655712e-03
4.811543063234793860e-03
4.811543063234793860e-03
0.000000000000000000e+00
0.000000000000000000e+00
