0.000000000000000000e+00
0.000000000000000000e+00
0.000000000000000000e+00
9.477341399358787596e-03
9.477341399358787596e-03
2.309805186590419002e-02
2.309805186590419002e-02
2.492348290267634714e-02
2.661728761538260241e-02
2.661728761538260241e-02
2.820319130878631841e-02
2.820319130878631841e-02
3.111623370525423704e-02
3.111623370525423704e-02
3.375766579608252549e-02
3.375766579608252549e-02
3.499599977140244872e-02
3.499599977140244872e-02
3.618701424544445294e-02
3.618701424544445294e-02
3.733523804664970469e-02
3.733523804664970469e-02
3.951809712018027054e-02
3.951809712018027054e-02
4.534666470645884462e-02
4.534666470645884462e-02
4.794559416672192209e-02
4.794559416672192209e-02
5.037856687123999644e-02
5.037856687123999644e-02
5.820154637120907026e-02
5.820154637120907026e-02
6.070831903454418366e-02
6.070831903454418366e-02
6.689932735087850135e-02
6.792996393345133999e-02
7.134073170356469706e-02
7.134073170356469706e-02
7.447737911607792138e-02
7.447737911607792138e-02
7.574628703771557614e-02
7.574628703771557614e-02
8.005448144857350845e-02
8.005448144857350845e-02
8.042126584430264735e-02
8.042126584430264735e-02
8.078415686259281248e-02
8.078415686259281248e-02
8.149846624323675570e-02
8.149846624323675570e-02
8.420973815420637609e-02
8.420973815420637609e-02
8.609947735033006422e-02
8.609947735033006422e-02
8.640312494348800776e-02
8.640312494348800776e-02
9.033836394356496713e-02
9.033836394356496713e-02
9.059801322324900763e-02
9.059801322324900763e-02
9.185586535436918165e-02
9.185586535436918165e-02
9.209951139935543263e-02
9.209951139935543263e-02
9.373355855828796601e-02
9.373355855828796601e-02
9.545375843831399587e-02
9.545375843831399587e-02
9.605998126170960105e-02
9.605998126170960105e-02
9.645268269986066734e-02
9.645268269986066734e-02
9.664564139163234202e-02
9.974718041127779433e-02
9.974718041127779433e-02
1.000498875561586926e-01
1.001982035767108870e-01
1.004888053466653497e-01
1.004888053466653497e-01
1.009097616685323412e-01
1.009097616685323412e-01
1.011805317242403107e-01
1.011805317242403107e-01
1.016986725577084250e-01
1.018233764908628436e-01
1.027525182173167073e-01
1.027525182173167073e-01
1.028601963832463106e-01
1.028601963832463106e-01
1.031720892489824543e-01
1.031720892489824543e-01
1.033707889106008637e-01
1.033707889106008637e-01
1.036551011769319408e-01
1.036551011769319408e-01
1.039230484541326383e-01
1.039230484541326383e-01
1.044853099722635736e-01
1.044853099722635736e-01
1.046299192391927646e-01
1.046299192391927646e-01
1.047674567792881012e-01
1.047674567792881012e-01
1.048335824056394749e-01
1.048335824056394749e-01
1.048979504089569970e-01
1.048979504089569970e-01
1.051379094332772213e-01
1.051379094332772213e-01
1.051935359230784656e-01
1.051935359230784656e-01
1.052995726487054862e-01
1.053499881347881306e-01
1.053986717183855171e-01
1.053986717183855171e-01
1.054456257983232004e-01
1.054456257983232004e-01
1.054908526840123706e-01
1.054908526840123706e-01
1.057260611202365808e-01
1.057260611202365808e-01
1.058205084092870979e-01
1.058205084092870979e-01
1.059811303959341672e-01
1.059811303959341672e-01
1.060244311467880562e-01
1.060244311467880562e-01
1.060354657649976995e-01
1.060354657649976995e-01
1.060524398587792960e-01
1.060524398587792960e-01
1.060583801498024004e-01
1.060583801498024004e-01
1.060660171779821276e-01
1.060660171779821276e-01
1.060651686464505750e-01
1.060651686464505750e-01
1.060583801498024004e-01
1.060583801498024004e-01
1.060524398587792960e-01
1.060524398587792960e-01
1.060448018528018232e-01
1.060448018528018232e-01
1.060354657649976995e-01
1.060354657649976995e-01
1.060244311467880562e-01
1.060244311467880562e-01
1.059972641156365081e-01
1.059972641156365081e-01
1.059811303959341672e-01
1.059811303959341672e-01
1.059437586646801988e-01
1.059437586646801988e-01
1.059225188522252004e-01
1.059225188522252004e-01
1.058995750699689986e-01
1.058995750699689986e-01
1.058749262101277566e-01
1.058749262101277566e-01
1.057907368345641086e-01
1.057907368345641086e-01
1.057260611202365808e-01
1.057260611202365808e-01
1.056545313746646564e-01
1.056545313746646564e-01
1.055761336666578287e-01
1.055761336666578287e-01
1.054908526840123706e-01
1.054908526840123706e-01
1.053986717183855171e-01
1.053986717183855171e-01
1.050214263852857766e-01
1.050214263852857766e-01
1.047674567792881012e-01
1.047674567792881012e-01
1.046995701996908945e-01
1.046995701996908945e-01
1.043335995736752037e-01
1.043335995736752037e-01
1.040926510374291514e-01
1.040926510374291514e-01
1.039230484541326383e-01
1.039230484541326383e-01
1.038355430476481794e-01
1.038355430476481794e-01
1.037462288471248661e-01
1.037462288471248661e-01
1.035621552498788012e-01
1.035621552498788012e-01
1.032723583540145484e-01
1.032723583540145484e-01
1.031720892489824543e-01
1.031720892489824543e-01
1.026429734565401375e-01
1.026429734565401375e-01
1.024182600906693719e-01
1.024182600906693719e-01
1.023030791325461597e-01
1.023030791325461597e-01
1.021860068698253743e-01
1.021860068698253743e-01
1.019461622622450658e-01
1.019461622622450658e-01
1.016986725577084250e-01
1.016986725577084250e-01
1.014434818014444961e-01
1.014434818014444961e-01
1.013129804121860739e-01
1.013129804121860739e-01
1.009097616685323412e-01
1.009097616685323412e-01
1.007714245210416804e-01
1.007714245210416804e-01
1.004888053466653497e-01
1.004888053466653497e-01
1.003445065760951299e-01
1.003445065760951299e-01
1.001982035767108870e-01
1.001982035767108870e-01
1.000498875561586926e-01
1.000498875561586926e-01
9.974718041127779433e-02
9.974718041127779433e-02
9.959277082198285391e-02
9.959277082198285391e-02
9.911720335037707552e-02
9.911720335037707552e-02
9.810963255460700139e-02
9.810963255460700139e-02
9.793426366701289687e-02
9.793426366701289687e-02
9.757704648122939028e-02
9.757704648122939028e-02
9.721111047611791234e-02
9.721111047611791234e-02
9.683635680879366936e-02
9.683635680879366936e-02
9.664564139163234202e-02
9.664564139163234202e-02
9.645268269986066734e-02
9.645268269986066734e-02
9.625746724280667688e-02
9.625746724280667688e-02
9.586021072374084628e-02
9.586021072374084628e-02
9.565814131583365298e-02
9.565814131583365298e-02
9.503799240303847928e-02
9.503799240303847928e-02
9.482657855263998403e-02
9.482657855263998403e-02
9.461278983308757384e-02
9.461278983308757384e-02
9.439661010862626656e-02
9.439661010862626656e-02
9.417802291405356907e-02
9.417802291405356907e-02
9.373355855828796601e-02
9.373355855828796601e-02
9.350764674613515348e-02
9.350764674613515348e-02
9.327925814456287934e-02
9.327925814456287934e-02
9.257904730553237482e-02
9.257904730553237482e-02
9.185586535436918165e-02
9.185586535436918165e-02
9.136071365745782047e-02
9.136071365745782047e-02
9.110916529087509375e-02
9.110916529087509375e-02
9.059801322324900763e-02
9.059801322324900763e-02
9.007596793817981840e-02
9.007596793817981840e-02
8.954283890965263060e-02
8.954283890965263060e-02
8.872192513691302962e-02
8.872192513691302962e-02
8.844252370890373638e-02
8.844252370890373638e-02
8.700103447660838263e-02
8.700103447660838263e-02
8.640312494348800776e-02
8.640312494348800776e-02
8.609947735033006422e-02
8.609947735033006422e-02
8.579265702844270092e-02
8.579265702844270092e-02
8.548262981448334630e-02
8.548262981448334630e-02
8.516936068798448833e-02
8.516936068798448833e-02
8.485281374238570762e-02
8.485281374238570762e-02
8.453295215476623603e-02
8.453295215476623603e-02
8.388313298870041235e-02
8.388313298870041235e-02
8.254198931453010646e-02
8.254198931453010646e-02
8.184998472815986637e-02
8.184998472815986637e-02
8.149846624323675570e-02
8.149846624323675570e-02
8.078415686259281248e-02
8.078415686259281248e-02
8.005448144857350845e-02
8.005448144857350845e-02
7.968374991176056799e-02
7.968374991176056799e-02
7.854731058413139122e-02
7.854731058413139122e-02
7.816022006110269482e-02
7.816022006110269482e-02
7.776888838089432432e-02
7.776888838089432432e-02
7.737325119186863609e-02
7.737325119186863609e-02
7.697324210399353328e-02
7.697324210399353328e-02
7.656879259855153830e-02
7.656879259855153830e-02
7.615983193258765716e-02
7.615983193258765716e-02
7.532808241286911843e-02
7.532808241286911843e-02
7.490514001054934812e-02
7.490514001054934812e-02
7.360706487831178424e-02
7.360706487831178424e-02
7.226326867780062668e-02
7.226326867780062668e-02
7.180473521990037022e-02
7.180473521990037022e-02
7.134073170356469706e-02
7.134073170356469706e-02
7.087115068912033800e-02
7.087115068912033800e-02
6.843551709456136001e-02
6.843551709456136001e-02
6.637394066951274318e-02
6.637394066951274318e-02
6.584162816941876994e-02
6.584162816941876994e-02
6.530222048292079473e-02
6.530222048292079473e-02
6.420140185385361797e-02
6.420140185385361797e-02
6.306996115426105609e-02
6.306996115426105609e-02
6.249223951819937034e-02
6.249223951819937034e-02
6.070831903454418366e-02
6.070831903454418366e-02
5.820154637120906332e-02
5.820154637120906332e-02
5.621458885378419201e-02
5.621458885378419201e-02
5.552999189627168264e-02
5.552999189627168264e-02
5.483356636222012914e-02
5.483356636222012914e-02
5.412485565800613518e-02
5.412485565800613518e-02
5.340337068013589067e-02
5.340337068013589067e-02
5.266858646290023538e-02
5.266858646290023538e-02
5.115681772745449274e-02
5.115681772745449274e-02
4.958447337624956319e-02
4.958447337624956319e-02
4.709904457629689178e-02
4.709904457629689178e-02
4.623310502226734425e-02
4.623310502226734425e-02
4.534666470645885850e-02
4.534666470645885850e-02
4.350724077667993822e-02
4.350724077667993822e-02
4.255138070615337165e-02
4.255138070615337165e-02
4.156921938165307473e-02
4.156921938165307473e-02
4.055884613743346301e-02
4.055884613743346301e-02
3.951809712018028442e-02
3.951809712018028442e-02
3.844450545916804074e-02
3.844450545916804074e-02
3.733523804664973245e-02
3.733523804664973245e-02
3.618701424544447376e-02
3.618701424544447376e-02
3.375766579608253937e-02
3.375766579608253937e-02
3.246659822032485487e-02
3.246659822032485487e-02
3.246659822032485487e-02
2.969848480983500530e-02
2.969848480983500530e-02
2.820319130878632535e-02
2.820319130878632535e-02
2.661728761538261281e-02
2.661728761538261281e-02
2.309805186590420042e-02
2.309805186590420042e-02
1.889761889762835503e-02
1.889761889762835503e-02
1.638230752977126378e-02
1.638230752977126378e-02
1.338954816265284370e-02
1.338954816265284370e-02
9.477341399358792801e-03
9.477341399358792801e-03
0.000000000000000000e+00
0.000000000000000000e+00
