0.000000000000000000e+00
0.000000000000000000e+00
0.000000000000000000e+00
3.515144395749354072e-04
3.515144395749354072e-04
4.970873579063159187e-04
4.970873579063159187e-04
6.087695134300032639e-04
6.087695134300032639e-04
6.087695134300032639e-04
6.087695134300032639e-04
6.087695134300032639e-04
6.087695134300032639e-04
6.087695134300032639e-04
6.087695134300032639e-04
6.087695134300032639e-04
6.087695134300032639e-04
7.029052841629830541e-04
7.029052841629830541e-04
7.029052841629830541e-04
7.029052841629830541e-04
7.858259320343181920e-04
7.858259320343181920e-04
8.607787121797832227e-04
8.607787121797832227e-04
9.296927590107858380e-04
9.296927590107858380e-04
9.938250851649942444e-04
9.938250851649942444e-04
1.054048866315148445e-03
1.054048866315148445e-03
1.110999893874077288e-03
1.110999893874077288e-03
1.165158167257600904e-03
1.165158167257600904e-03
1.216896620176460614e-03
1.216896620176460614e-03
1.266511844633762133e-03
1.266511844633762133e-03
1.314244330377443938e-03
1.314244330377443938e-03
1.360292287044154863e-03
1.360292287044154863e-03
1.404821373479667223e-03
1.404821373479667223e-03
1.404821373479667223e-03
1.404821373479667223e-03
1.447971724692751058e-03
1.447971724692751058e-03
1.489863140884095313e-03
1.489863140884095313e-03
1.530598994038367879e-03
1.530598994038367879e-03
1.570269219423352756e-03
1.570269219423352756e-03
1.608952641104301456e-03
1.608952641104301456e-03
1.646718804196851179e-03
1.646718804196851179e-03
1.683629436011805508e-03
1.683629436011805508e-03
1.719739624026344130e-03
1.719739624026344130e-03
1.755098775003285363e-03
1.755098775003285363e-03
1.789751402994481551e-03
1.789751402994481551e-03
1.789751402994481551e-03
1.789751402994481551e-03
1.823737782126124904e-03
1.823737782126124904e-03
1.857094491489013656e-03
1.857094491489013656e-03
1.889854873162032101e-03
1.889854873162032101e-03
1.922049419718609153e-03
1.922049419718609153e-03
1.953706104048898336e-03
1.953706104048898336e-03
1.984850661658484755e-03
1.984850661658484755e-03
2.015506833554589743e-03
2.015506833554589743e-03
2.045696576243722937e-03
2.045696576243722937e-03
2.075440244125629444e-03
2.075440244125629444e-03
2.104756748593084818e-03
2.104756748593084818e-03
2.133663697373823671e-03
2.133663697373823671e-03
2.162177517033386093e-03
2.162177517033386093e-03
2.162177517033386093e-03
2.162177517033386093e-03
2.190313561061361155e-03
2.190313561061361155e-03
2.218086205562097481e-03
2.218086205562097481e-03
2.245508934244383036e-03
2.245508934244383036e-03
2.272594414137451505e-03
2.272594414137451505e-03
2.299354563240969471e-03
2.299354563240969471e-03
2.325800611135080305e-03
2.325800611135080305e-03
2.351943153425795508e-03
2.351943153425795508e-03
2.377792200775239416e-03
2.377792200775239416e-03
2.403357223160876559e-03
2.403357223160876559e-03
2.428647189919211358e-03
2.428647189919211358e-03
2.453670606054595207e-03
2.453670606054595207e-03
2.478435545230314209e-03
2.478435545230314209e-03
2.502949679805163089e-03
2.502949679805163089e-03
2.527220308232618409e-03
2.527220308232618409e-03
2.551254380100286077e-03
2.551254380100286077e-03
2.575058519053370458e-03
2.575058519053370458e-03
2.598639043816724364e-03
2.598639043816724364e-03
2.622001987504773805e-03
2.622001987504773805e-03
2.645153115386741742e-03
2.645153115386741742e-03
2.668097941255588145e-03
2.668097941255588145e-03
2.690841742532501871e-03
2.690841742532501871e-03
2.713389574224333960e-03
2.713389574224333960e-03
2.735746281838685907e-03
2.735746281838685907e-03
2.757916513350249909e-03
2.757916513350249909e-03
2.779904730302231591e-03
2.779904730302231591e-03
2.801715218118066338e-03
2.801715218118066338e-03
2.823352095691029212e-03
2.823352095691029212e-03
2.866120715994497845e-03
2.866120715994497845e-03
2.887259941233926396e-03
2.887259941233926396e-03
2.908240536266967768e-03
2.908240536266967768e-03
2.929065909850705855e-03
2.929065909850705855e-03
2.949739349611017053e-03
2.949739349611017053e-03
2.970264027989537141e-03
2.970264027989537141e-03
2.990643007820317605e-03
2.990643007820317605e-03
3.010879247563972953e-03
3.010879247563972953e-03
3.030975606224695432e-03
3.030975606224695432e-03
3.070759646497499360e-03
3.070759646497499360e-03
3.090452589098880397e-03
3.090452589098880397e-03
3.110016180554277428e-03
3.110016180554277428e-03
3.148764938159890996e-03
3.148764938159890996e-03
3.167954733012967768e-03
3.167954733012967768e-03
3.187024440443528978e-03
3.187024440443528978e-03
3.205976203355294547e-03
3.205976203355294547e-03
3.224812101178516164e-03
3.224812101178516164e-03
3.243534152474007552e-03
3.243534152474007552e-03
3.262144317401374956e-03
3.262144317401374956e-03
3.280644500059980932e-03
3.280644500059980932e-03
3.299036550710593863e-03
3.299036550710593863e-03
3.317322267885050233e-03
3.317322267885050233e-03
3.353581649216536009e-03
3.353581649216536009e-03
3.389436071478774733e-03
3.389436071478774733e-03
3.407215423682165203e-03
3.407215423682165203e-03
3.424898252947774710e-03
3.424898252947774710e-03
3.442486046688166164e-03
3.442486046688166164e-03
3.442486046688166164e-03
3.442486046688166164e-03
3.459980254159212426e-03
3.459980254159212426e-03
3.477382287818164483e-03
3.477382287818164483e-03
3.494693524620185506e-03
3.494693524620185506e-03
3.511915307256702288e-03
3.511915307256702288e-03
3.529048945338749896e-03
3.529048945338749896e-03
3.546095716528259011e-03
3.546095716528259011e-03
3.563056867620064978e-03
3.563056867620064978e-03
3.579933615577231970e-03
3.579933615577231970e-03
3.596727148522133911e-03
3.596727148522133911e-03
3.613438626685579365e-03
3.613438626685579365e-03
3.630069183316137534e-03
3.630069183316137534e-03
3.646619925551678951e-03
3.646619925551678951e-03
3.663091935255037308e-03
3.663091935255037308e-03
3.679486269815581377e-03
3.679486269815581377e-03
3.695803962918377955e-03
3.695803962918377955e-03
3.712046025282540913e-03
3.712046025282540913e-03
3.728213445370256052e-03
3.728213445370256052e-03
3.744307190067892518e-03
3.744307190067892518e-03
3.760328205340539992e-03
3.760328205340539992e-03
3.776277416861215444e-03
3.776277416861215444e-03
3.792155730615942924e-03
3.792155730615942924e-03
3.807964033485817905e-03
3.807964033485817905e-03
3.823703193807116534e-03
3.823703193807116534e-03
3.839374061910460698e-03
3.839374061910460698e-03
3.854977470639982164e-03
3.854977470639982164e-03
3.870514235853390883e-03
3.870514235853390883e-03
3.885985156903793564e-03
3.885985156903793564e-03
3.901391017104075681e-03
3.901391017104075681e-03
3.916732584174601947e-03
3.916732584174601947e-03
3.932010610674983343e-03
3.932010610674983343e-03
3.947225834420572087e-03
3.947225834420572087e-03
3.962378978884355425e-03
3.962378978884355425e-03
3.977470753584870164e-03
3.977470753584870164e-03
3.992501854460718189e-03
3.992501854460718189e-03
4.007472964232258045e-03
4.007472964232258045e-03
4.022384752750985185e-03
4.022384752750985185e-03
4.037237877337134309e-03
4.037237877337134309e-03
4.052032983105964374e-03
4.052032983105964374e-03
4.066770703283196370e-03
4.066770703283196370e-03
4.081451659510045363e-03
4.081451659510045363e-03
4.096076462138253590e-03
4.096076462138253590e-03
4.110645710515524465e-03
4.110645710515524465e-03
4.125159993261745192e-03
4.125159993261745192e-03
4.139619888536353633e-03
4.139619888536353633e-03
4.154025964297182461e-03
4.154025964297182461e-03
4.168378778551136248e-03
4.168378778551136248e-03
4.182678879596987698e-03
4.182678879596987698e-03
4.196926806260608753e-03
4.196926806260608753e-03
4.211123088122924532e-03
4.211123088122924532e-03
4.225268245740850317e-03
4.225268245740850317e-03
4.239362790861487401e-03
4.239362790861487401e-03
4.253407226629814589e-03
4.253407226629814589e-03
4.281347740881508504e-03
4.281347740881508504e-03
4.309093649119188907e-03
4.309093649119188907e-03
4.322894797995871508e-03
4.322894797995871508e-03
4.336648686616329136e-03
4.336648686616329136e-03
4.350355763228268974e-03
4.350355763228268974e-03
4.364016468931645326e-03
4.364016468931645326e-03
4.377631237837508252e-03
4.377631237837508252e-03
4.391200497222347982e-03
4.391200497222347982e-03
4.404724667678078243e-03
4.404724667678078243e-03
4.418204163257810277e-03
4.418204163257810277e-03
4.431639391617559799e-03
4.431639391617559799e-03
4.445030754154034348e-03
4.445030754154034348e-03
4.458378646138619859e-03
4.458378646138619859e-03
4.471683456847700029e-03
4.471683456847700029e-03
4.484945569689434246e-03
4.484945569689434246e-03
4.498165362327099029e-03
4.498165362327099029e-03
4.511343206799124823e-03
4.511343206799124823e-03
4.524479469635911411e-03
4.524479469635911411e-03
4.537574511973552910e-03
4.537574511973552910e-03
4.550628689664551300e-03
4.550628689664551300e-03
4.563642353385629485e-03
4.563642353385629485e-03
4.576615848742719359e-03
4.576615848742719359e-03
4.602443692045743960e-03
4.602443692045743960e-03
4.615298706756946687e-03
4.615298706756946687e-03
4.628114886826379705e-03
4.628114886826379705e-03
4.640892553988562250e-03
4.640892553988562250e-03
4.653632025482884460e-03
4.653632025482884460e-03
4.666333614141223926e-03
4.666333614141223926e-03
4.678997628473386891e-03
4.678997628473386891e-03
4.691624372750420949e-03
4.691624372750420949e-03
4.704214147085878164e-03
4.704214147085878164e-03
4.716767247515077192e-03
4.716767247515077192e-03
4.729283966072446790e-03
4.729283966072446790e-03
4.741764590866970677e-03
4.741764590866970677e-03
4.754209406155835219e-03
4.754209406155835219e-03
4.766618692416286010e-03
4.766618692416286010e-03
4.778992726415786166e-03
4.778992726415786166e-03
4.791331781280498865e-03
4.791331781280498865e-03
4.803636126562153136e-03
4.803636126562153136e-03
4.815906028303340580e-03
4.815906028303340580e-03
4.828141749101281209e-03
4.828141749101281209e-03
4.840343548170112156e-03
4.840343548170112156e-03
4.852511681401725299e-03
4.852511681401725299e-03
4.864646401425214498e-03
4.864646401425214498e-03
4.876747957664952400e-03
4.876747957664952400e-03
4.888816596397354934e-03
4.888816596397354934e-03
4.900852560806341282e-03
4.900852560806341282e-03
4.912856091037558735e-03
4.912856091037558735e-03
4.924827424251383701e-03
4.924827424251383701e-03
4.936766794674742227e-03
4.936766794674742227e-03
4.948674433651769136e-03
4.948674433651769136e-03
4.960550569693358662e-03
4.960550569693358662e-03
4.972395428525618749e-03
4.972395428525618749e-03
4.984209233137264564e-03
4.984209233137264564e-03
4.995992203825978979e-03
4.995992203825978979e-03
5.007744558243770391e-03
5.007744558243770391e-03
5.019466511441344342e-03
5.019466511441344342e-03
5.031158275911533188e-03
5.031158275911533188e-03
5.054452076105758057e-03
5.054452076105758057e-03
5.066054524404029272e-03
5.066054524404029272e-03
5.077627609203946325e-03
5.077627609203946325e-03
5.089171530828642299e-03
5.089171530828642299e-03
5.100686487285240045e-03
5.100686487285240045e-03
5.112172674302252820e-03
5.112172674302252820e-03
5.123630285366223384e-03
5.123630285366223384e-03
5.135059511757602418e-03
5.135059511757602418e-03
5.146460542585883612e-03
5.146460542585883612e-03
5.169178763342247018e-03
5.169178763342247018e-03
5.180496320940920253e-03
5.180496320940920253e-03
5.191786418383104521e-03
5.191786418383104521e-03
5.203049234426196726e-03
5.203049234426196726e-03
5.214284945853047380e-03
5.214284945853047380e-03
5.225493727502437957e-03
5.225493727502437957e-03
5.236675752298958035e-03
5.236675752298958035e-03
5.258960213635930150e-03
5.258960213635930150e-03
5.270062986715335143e-03
5.270062986715335143e-03
5.281139676075532162e-03
5.281139676075532162e-03
5.292190445498186520e-03
5.292190445498186520e-03
5.303215457018162042e-03
5.303215457018162042e-03
5.314214870949547122e-03
5.314214870949547122e-03
5.336137538851862781e-03
5.336137538851862781e-03
5.347061105074612380e-03
5.347061105074612380e-03
5.357959698261119744e-03
5.357959698261119744e-03
5.368833470495239929e-03
5.368833470495239929e-03
5.379682572286254190e-03
5.379682572286254190e-03
5.390507152591660772e-03
5.390507152591660772e-03
5.401307358839541571e-03
5.401307358839541571e-03
5.433563185035827567e-03
5.433563185035827567e-03
5.444267339506088203e-03
5.444267339506088203e-03
5.454947834872450607e-03
5.454947834872450607e-03
5.465604809833718089e-03
5.465604809833718089e-03
5.476238401704791418e-03
5.476238401704791418e-03
5.486848746435966755e-03
5.486848746435966755e-03
5.508000231570262840e-03
5.508000231570262840e-03
5.518541637219974774e-03
5.518541637219974774e-03
5.529060326259236345e-03
5.529060326259236345e-03
5.539556428093153975e-03
5.539556428093153975e-03
5.550030070871092916e-03
5.550030070871092916e-03
5.560481381503720039e-03
5.560481381503720039e-03
5.570910485679748253e-03
5.570910485679748253e-03
5.581317507882394696e-03
5.581317507882394696e-03
5.591702571405548355e-03
5.591702571405548355e-03
5.612407309737414349e-03
5.612407309737414349e-03
5.622727225328969999e-03
5.622727225328969999e-03
5.633025663837169968e-03
5.633025663837169968e-03
5.643302742842321723e-03
5.643302742842321723e-03
5.653558578826798492e-03
5.653558578826798492e-03
5.663793287189373277e-03
5.663793287189373277e-03
5.674006982259333434e-03
5.674006982259333434e-03
5.694371784574038704e-03
5.694371784574038704e-03
5.704523115253538890e-03
5.704523115253538890e-03
5.714653879536525302e-03
5.714653879536525302e-03
5.724764186608275948e-03
5.724764186608275948e-03
5.734854144664403887e-03
5.734854144664403887e-03
5.754973441639047414e-03
5.754973441639047414e-03
5.765002992112433847e-03
5.765002992112433847e-03
5.775012616704032833e-03
5.775012616704032833e-03
5.785002418845400229e-03
5.785002418845400229e-03
5.794972501050753635e-03
5.794972501050753635e-03
5.804922964928357389e-03
5.804922964928357389e-03
5.814853911191729743e-03
5.814853911191729743e-03
5.824765439670666171e-03
5.824765439670666171e-03
5.844530638240736861e-03
5.844530638240736861e-03
5.854384503669662204e-03
5.854384503669662204e-03
5.864219342010599037e-03
5.864219342010599037e-03
5.883832318889742168e-03
5.883832318889742168e-03
5.913111443833413139e-03
5.913111443833413139e-03
5.922834098232274830e-03
5.922834098232274830e-03
5.932538377634239204e-03
5.932538377634239204e-03
5.961541862341412576e-03
5.961541862341412576e-03
5.971173534498304750e-03
5.971173534498304750e-03
5.980787274319972549e-03
5.980787274319972549e-03
5.990383168143206122e-03
5.990383168143206122e-03
5.999961301592706374e-03
5.999961301592706374e-03
6.009521759589324039e-03
6.009521759589324039e-03
6.028589985436511034e-03
6.028589985436511034e-03
6.047588511279259824e-03
6.047588511279259824e-03
6.057061841749597844e-03
6.057061841749597844e-03
6.066517991956512160e-03
6.066517991956512160e-03
6.094784159933537560e-03
6.094784159933537560e-03
6.104172384840837740e-03
6.104172384840837740e-03
6.113543824203858737e-03
6.113543824203858737e-03
6.122898555096246628e-03
6.122898555096246628e-03
6.132236653984351159e-03
6.132236653984351159e-03
6.141558196733920907e-03
6.141558196733920907e-03
6.150863258616707380e-03
6.150863258616707380e-03
6.169424237937959007e-03
6.169424237937959007e-03
6.178680303008114022e-03
6.178680303008114022e-03
6.206351673708011829e-03
6.206351673708011829e-03
6.215543428581769489e-03
6.215543428581769489e-03
6.224719284141632183e-03
6.224719284141632183e-03
6.261265109447824301e-03
6.261265109447824301e-03
6.270362510989453686e-03
6.270362510989453686e-03
6.279444426586335178e-03
6.279444426586335178e-03
6.306597926161484902e-03
6.306597926161484902e-03
6.315618563953354775e-03
6.315618563953354775e-03
6.333614437927269532e-03
6.333614437927269532e-03
6.342589802927619397e-03
6.342589802927619397e-03
6.351550205029713771e-03
6.351550205029713771e-03
6.378342264023877800e-03
6.378342264023877800e-03
6.387243442328504467e-03
6.387243442328504467e-03
6.396129969366995925e-03
6.396129969366995925e-03
6.422702250534324808e-03
6.422702250534324808e-03
6.431530777988126585e-03
6.431530777988126585e-03
6.449144839696268651e-03
6.449144839696268651e-03
6.466701967330576797e-03
6.466701967330576797e-03
6.475459325647997533e-03
6.475459325647997533e-03
6.510348718986458047e-03
6.510348718986458047e-03
6.519036338394477124e-03
6.519036338394477124e-03
6.527710177293232982e-03
6.527710177293232982e-03
6.536370290543409324e-03
6.536370290543409324e-03
6.545016732628751790e-03
6.545016732628751790e-03
6.562268819376933932e-03
6.562268819376933932e-03
6.570874571154991343e-03
6.570874571154991343e-03
6.579466866005695067e-03
6.579466866005695067e-03
6.588045756581629650e-03
6.588045756581629650e-03
6.596611295179560103e-03
6.596611295179560103e-03
6.605163533743792920e-03
6.605163533743792920e-03
6.613702523869512823e-03
6.613702523869512823e-03
6.622228316806063123e-03
6.622228316806063123e-03
6.630740963460198326e-03
6.630740963460198326e-03
6.639240514399294239e-03
6.639240514399294239e-03
6.647727019854521649e-03
6.647727019854521649e-03
6.656200529723968820e-03
6.656200529723968820e-03
6.673108760651060879e-03
6.673108760651060879e-03
6.689965599820520484e-03
6.689965599820520484e-03
6.698374868789467446e-03
6.698374868789467446e-03
6.706771434737401720e-03
6.706771434737401720e-03
6.723526647865756337e-03
6.723526647865756337e-03
6.731885389423456108e-03
6.731885389423456108e-03
6.748565376186991052e-03
6.748565376186991052e-03
6.756886713955968272e-03
6.756886713955968272e-03
6.765195675864107624e-03
6.765195675864107624e-03
6.773492307455369205e-03
6.773492307455369205e-03
6.781776653983426217e-03
6.781776653983426217e-03
6.790048760414253183e-03
6.790048760414253183e-03
6.806556431424987813e-03
6.806556431424987813e-03
6.823015674558157578e-03
6.823015674558157578e-03
6.831227245100941758e-03
6.831227245100941758e-03
6.839426839442280456e-03
6.839426839442280456e-03
6.855790271341750779e-03
6.855790271341750779e-03
6.863954194142832255e-03
6.863954194142832255e-03
6.872106311233017011e-03
6.872106311233017011e-03
6.896492246589367575e-03
6.896492246589367575e-03
6.912691270759959913e-03
6.912691270759959913e-03
6.944950947786407598e-03
6.944950947786407598e-03
6.952987273831745356e-03
6.952987273831745356e-03
6.977028260826554501e-03
6.977028260826554501e-03
6.985019389450753194e-03
6.985019389450753194e-03
6.992999315641642774e-03
6.992999315641642774e-03
7.000968077705890108e-03
7.000968077705890108e-03
7.008925713722484810e-03
7.008925713722484810e-03
7.016872261544631825e-03
7.016872261544631825e-03
7.024807758801635341e-03
7.024807758801635341e-03
7.032732242900745397e-03
7.032732242900745397e-03
7.056439987030963326e-03
7.056439987030963326e-03
7.064320788193960421e-03
7.064320788193960421e-03
7.087898359592508142e-03
7.087898359592508142e-03
7.095736059041206877e-03
7.095736059041206877e-03
7.103563072301956327e-03
7.103563072301956327e-03
7.111379434659445727e-03
7.111379434659445727e-03
7.126980346790682749e-03
7.126980346790682749e-03
7.134764966125983071e-03
7.134764966125983071e-03
7.142539073684348386e-03
7.142539073684348386e-03
7.173531068965463900e-03
7.173531068965463900e-03
7.188964878210969169e-03
7.188964878210969169e-03
7.212038605431883923e-03
7.212038605431883923e-03
7.219709449333679141e-03
7.219709449333679141e-03
7.227370148144283621e-03
7.227370148144283621e-03
7.235020734089650171e-03
7.235020734089650171e-03
7.250291695396808567e-03
7.250291695396808567e-03
7.257912134322976397e-03
7.257912134322976397e-03
7.288294345298700939e-03
7.288294345298700939e-03
7.303426158617521910e-03
7.303426158617521910e-03
7.310977349719249840e-03
7.310977349719249840e-03
7.318518770951402963e-03
7.318518770951402963e-03
7.326050452485233060e-03
7.326050452485233060e-03
7.363563809343827253e-03
7.363563809343827253e-03
7.371037677251062945e-03
7.371037677251062945e-03
7.378502012167663035e-03
7.378502012167663035e-03
7.385956842996081739e-03
7.385956842996081739e-03
7.400838107232873483e-03
7.400838107232873483e-03
7.423089436734312679e-03
7.423089436734312679e-03
7.430487841479890485e-03
7.430487841479890485e-03
7.445256760677976260e-03
7.445256760677976260e-03
7.459988676813484459e-03
7.459988676813484459e-03
7.474683808675348234e-03
7.474683808675348234e-03
7.482017648255968531e-03
7.482017648255968531e-03
7.489342372791156846e-03
7.489342372791156846e-03
7.496658008998896908e-03
7.496658008998896908e-03
7.503964583459895102e-03
7.503964583459895102e-03
7.511262122618575336e-03
7.511262122618575336e-03
7.518550652784049618e-03
7.518550652784049618e-03
7.554859080182644085e-03
7.554859080182644085e-03
7.569320294128797748e-03
7.569320294128797748e-03
7.576537683556547678e-03
7.576537683556547678e-03
7.583746294841729740e-03
7.583746294841729740e-03
7.598137282891440775e-03
7.598137282891440775e-03
7.605319709297628586e-03
7.605319709297628586e-03
7.612493456846310472e-03
7.612493456846310472e-03
7.619658550050372944e-03
7.619658550050372944e-03
7.633962870868853806e-03
7.633962870868853806e-03
7.641102146904257299e-03
7.641102146904257299e-03
7.648232865438681256e-03
7.648232865438681256e-03
7.655355050385242825e-03
7.655355050385242825e-03
7.669573914580686200e-03
7.669573914580686200e-03
7.676670641071670596e-03
7.676670641071670596e-03
7.683758928460591997e-03
7.683758928460591997e-03
7.690838800081231490e-03
7.690838800081231490e-03
7.704973388786089637e-03
7.704973388786089637e-03
7.712028151973488593e-03
7.712028151973488593e-03
7.719074591600494535e-03
7.719074591600494535e-03
7.726112730441098489e-03
7.726112730441098489e-03
7.733142591159598844e-03
7.733142591159598844e-03
7.740164196311348152e-03
7.740164196311348152e-03
7.747177568343486913e-03
7.747177568343486913e-03
7.768168508585745341e-03
7.768168508585745341e-03
7.775149170471996191e-03
7.775149170471996191e-03
7.782121709876452242e-03
7.782121709876452242e-03
7.809931077390867143e-03
7.809931077390867143e-03
7.823787588522188030e-03
7.823787588522188030e-03
7.830703875582913087e-03
7.830703875582913087e-03
7.837612211812705273e-03
7.837612211812705273e-03
7.844512618217461264e-03
7.844512618217461264e-03
7.851405115705161267e-03
7.851405115705161267e-03
7.858289725086516075e-03
7.858289725086516075e-03
7.865166467075593304e-03
7.865166467075593304e-03
7.885749694393429099e-03
7.885749694393429099e-03
7.906262851741020434e-03
7.906262851741020434e-03
7.919899631157200498e-03
7.919899631157200498e-03
7.926706483110895415e-03
7.926706483110895415e-03
7.933505669633793278e-03
7.933505669633793278e-03
7.940297210417363027e-03
7.940297210417363027e-03
7.947081125063645141e-03
7.947081125063645141e-03
7.953857433085839701e-03
7.953857433085839701e-03
7.967387306869903874e-03
7.967387306869903874e-03
7.980886986119532789e-03
7.980886986119532789e-03
7.987625550648875389e-03
7.987625550648875389e-03
7.994356623798833106e-03
7.994356623798833106e-03
8.007796371503469665e-03
8.007796371503469665e-03
8.021206379477818435e-03
8.021206379477818435e-03
8.027900277652169625e-03
8.027900277652169625e-03
8.034586796631850575e-03
8.034586796631850575e-03
8.041265954824825674e-03
8.041265954824825674e-03
8.061259447546164497e-03
8.061259447546164497e-03
8.067909345052777861e-03
8.067909345052777861e-03
8.074551972602475244e-03
8.074551972602475244e-03
8.081187348122676611e-03
8.081187348122676611e-03
8.087815489462430590e-03
8.087815489462430590e-03
8.101050140607822525e-03
8.101050140607822525e-03
8.107656685724008369e-03
8.107656685724008369e-03
8.114256067281788026e-03
8.114256067281788026e-03
8.127433409503906359e-03
8.127433409503906359e-03
8.134011404870730710e-03
8.134011404870730710e-03
8.166795311611846700e-03
8.166795311611846700e-03
8.173330998069123360e-03
8.173330998069123360e-03
8.179859692266176069e-03
8.179859692266176069e-03
8.186381410932129857e-03
8.186381410932129857e-03
8.192896170724994764e-03
8.192896170724994764e-03
8.199403988232090851e-03
8.199403988232090851e-03
8.205904879970480140e-03
8.205904879970480140e-03
8.257664645390504557e-03
8.257664645390504557e-03
8.270536464413521735e-03
8.270536464413521735e-03
8.283381288965203579e-03
8.283381288965203579e-03
8.289793617537639242e-03
8.289793617537639242e-03
8.302598185154958649e-03
8.302598185154958649e-03
8.308990455158805216e-03
8.308990455158805216e-03
8.315376069825870103e-03
8.315376069825870103e-03
8.321755044476873697e-03
8.321755044476873697e-03
8.334493134699680339e-03
8.334493134699680339e-03
8.347204847142524961e-03
8.347204847142524961e-03
8.359890302132369500e-03
8.359890302132369500e-03
8.366223220417131484e-03
8.366223220417131484e-03
8.372549619019150138e-03
8.372549619019150138e-03
8.378869512706325906e-03
8.378869512706325906e-03
8.410371920137209301e-03
8.410371920137209301e-03
8.422927858956055780e-03
8.422927858956055780e-03
8.429196237877441614e-03
8.429196237877441614e-03
8.435458242149463520e-03
8.435458242149463520e-03
8.441713885958133240e-03
8.441713885958133240e-03
8.447963183433051040e-03
8.447963183433051040e-03
8.460442795619915746e-03
8.460442795619915746e-03
8.479114966428618824e-03
8.479114966428618824e-03
8.485326479503382813e-03
8.485326479503382813e-03
8.510110178632254371e-03
8.510110178632254371e-03
8.528632862467423401e-03
8.528632862467423401e-03
8.534794764026494909e-03
8.534794764026494909e-03
8.553243676028648296e-03
8.553243676028648296e-03
8.565512422178369473e-03
8.565512422178369473e-03
8.571637676043727949e-03
8.571637676043727949e-03
8.602173272361922363e-03
8.602173272361922363e-03
8.608262347082814084e-03
8.608262347082814084e-03
8.614345436746804335e-03
8.614345436746804335e-03
8.626493711536963732e-03
8.626493711536963732e-03
8.644671550993026851e-03
8.644671550993026851e-03
8.650718994715440174e-03
8.650718994715440174e-03
8.662796202398384895e-03
8.662796202398384895e-03
8.674849919091908584e-03
8.674849919091908584e-03
8.680867998904591085e-03
8.680867998904591085e-03
8.686880242582696240e-03
8.686880242582696240e-03
8.704882077677021657e-03
8.704882077677021657e-03
8.722831820798214453e-03
8.722831820798214453e-03
8.734769534854903289e-03
8.734769534854903289e-03
8.740729792870582590e-03
8.740729792870582590e-03
8.746684333840591685e-03
8.746684333840591685e-03
8.752633169433091803e-03
8.752633169433091803e-03
8.758576311273382625e-03
8.758576311273382625e-03
8.764513770944115656e-03
8.764513770944115656e-03
8.770445559985521472e-03
8.770445559985521472e-03
8.794116239189801038e-03
8.794116239189801038e-03
8.805917851980184230e-03
8.805917851980184230e-03
8.823578366454703711e-03
8.823578366454703711e-03
8.835324236592462938e-03
8.835324236592462938e-03
8.841188863070958276e-03
8.841188863070958276e-03
8.852901553887640440e-03
8.852901553887640440e-03
8.887907914024368791e-03
8.887907914024368791e-03
8.893723212767924019e-03
8.893723212767924019e-03
8.911136589142970577e-03
8.911136589142970577e-03
8.957335631950943261e-03
8.957335631950943261e-03
8.963086498954423234e-03
8.963086498954423234e-03
8.980307328498719419e-03
8.980307328498719419e-03
8.986037048350764903e-03
8.986037048350764903e-03
9.003194679004351830e-03
9.003194679004351830e-03
9.014606925347331406e-03
9.014606925347331406e-03
9.020305226107945898e-03
9.020305226107945898e-03
9.037368957092912353e-03
9.037368957092912353e-03
9.048718899615868644e-03
9.048718899615868644e-03
9.060048230425041260e-03
9.060048230425041260e-03
9.077003748465324595e-03
9.077003748465324595e-03
9.099539681254245962e-03
9.099539681254245962e-03
9.110777207507584491e-03
9.110777207507584491e-03
9.116388393453604341e-03
9.116388393453604341e-03
9.127595657565039378e-03
9.127595657565039378e-03
9.144368923088071199e-03
9.144368923088071199e-03
9.161097252264924218e-03
9.161097252264924218e-03
9.166663418675856378e-03
9.166663418675856378e-03
9.172224628521437675e-03
9.172224628521437675e-03
9.177780890811854803e-03
9.177780890811854803e-03
9.194420082007610795e-03
9.194420082007610795e-03
9.199956643585041616e-03
9.199956643585041616e-03
9.205488302213803847e-03
9.205488302213803847e-03
9.211015066727267289e-03
9.211015066727267289e-03
9.222053948596948408e-03
9.222053948596948408e-03
9.233073359283576476e-03
9.233073359283576476e-03
9.244073368419102738e-03
9.244073368419102738e-03
9.255054045182136216e-03
9.255054045182136216e-03
9.271488962351972021e-03
9.271488962351972021e-03
9.293335159694302711e-03
9.293335159694302711e-03
9.315105250328678532e-03
9.315105250328678532e-03
9.331383193781803490e-03
9.331383193781803490e-03
9.336799766616301482e-03
9.336799766616301482e-03
9.353021374590665335e-03
9.353021374590665335e-03
9.358419234142389270e-03
9.358419234142389270e-03
9.363812435611551174e-03
9.363812435611551174e-03
9.374584896452797453e-03
9.374584896452797453e-03
9.379964171836743803e-03
9.379964171836743803e-03
9.385338821162077586e-03
9.385338821162077586e-03
9.396074273383896169e-03
9.396074273383896169e-03
9.401435092091549317e-03
9.401435092091549317e-03
9.406791316363146901e-03
9.406791316363146901e-03
9.422832500876509448e-03
9.422832500876509448e-03
9.433503794854922533e-03
9.433503794854922533e-03
9.438832616373828144e-03
9.438832616373828144e-03
9.444156897851364862e-03
9.444156897851364862e-03
9.449476646961755058e-03
9.449476646961755058e-03
9.460102578659090877e-03
9.460102578659090877e-03
9.476007673944207566e-03
9.476007673944207566e-03
9.481300388684932995e-03
9.481300388684932995e-03
9.486588624117497925e-03
9.486588624117497925e-03
9.518224388893950505e-03
9.518224388893950505e-03
9.528734146087630349e-03
9.528734146087630349e-03
9.533982401911235069e-03
9.533982401911235069e-03
9.544465704428895664e-03
9.544465704428895664e-03
9.570597244789695590e-03
9.570597244789695590e-03
9.575810458993024715e-03
9.575810458993024715e-03
9.586223850532659546e-03
9.586223850532659546e-03
9.617360237858732855e-03
9.617360237858732855e-03
9.648342115539037395e-03
9.648342115539037395e-03
9.653490844613270630e-03
9.653490844613270630e-03
9.674043389944715632e-03
9.674043389944715632e-03
9.684294334429794163e-03
9.684294334429794163e-03
9.720040578149289831e-03
9.720040578149289831e-03
9.730216276474088280e-03
9.730216276474088280e-03
9.735297905991573825e-03
9.735297905991573825e-03
9.775802523141412237e-03
9.775802523141412237e-03
9.785887684519517515e-03
9.785887684519517515e-03
9.790924151157209473e-03
9.790924151157209473e-03
9.806009170215337564e-03
9.806009170215337564e-03
9.811029403775820695e-03
9.811029403775820695e-03
9.826065873052070021e-03
9.826065873052070021e-03
9.831069972932175369e-03
9.831069972932175369e-03
9.841066124752013283e-03
9.841066124752013283e-03
9.861010407509902473e-03
9.861010407509902473e-03
9.865986509248081404e-03
9.865986509248081404e-03
9.880890985391466153e-03
9.880890985391466153e-03
9.895759843493261848e-03
9.895759843493261848e-03
9.910593243866661767e-03
9.910593243866661767e-03
9.915529858677812197e-03
9.915529858677812197e-03
9.920462557271103946e-03
9.920462557271103946e-03
9.930316229143159104e-03
9.930316229143159104e-03
9.935237214050979607e-03
9.935237214050979607e-03
9.940154305999168369e-03
9.940154305999168369e-03
9.949976834098020820e-03
9.949976834098020820e-03
9.954882281749512576e-03
9.954882281749512576e-03
9.959783859443155363e-03
9.959783859443155363e-03
9.964681572889790701e-03
9.964681572889790701e-03
9.969575427784538313e-03
9.969575427784538313e-03
9.974465429806855105e-03
9.974465429806855105e-03
1.000372484771158005e-02
1.000372484771158005e-02
1.000858803734899077e-02
1.000858803734899077e-02
1.001344741899309540e-02
1.001344741899309540e-02
1.004252405025418335e-02
1.004252405025418335e-02
1.005218604618148687e-02
1.005218604618148687e-02
1.005701140344377950e-02
1.005701140344377950e-02
1.006665086360383418e-02
1.006665086360383418e-02
1.007146497727321940e-02
1.007146497727321940e-02
1.009068411420806569e-02
1.009068411420806569e-02
1.009547959564729112e-02
1.009547959564729112e-02
1.011462446900719681e-02
1.011462446900719681e-02
1.011940145053518217e-02
1.011940145053518217e-02
1.013371031038692339e-02
1.013371031038692339e-02
1.013847258607628379e-02
1.013847258607628379e-02
1.014323119825873316e-02
1.014323119825873316e-02
1.014798615208797015e-02
1.014798615208797015e-02
1.017643933654389758e-02
1.017643933654389758e-02
1.018116882506691148e-02
1.018116882506691148e-02
1.018589469598039920e-02
1.018589469598039920e-02
1.019061695431732958e-02
1.019061695431732958e-02
1.020005065332760773e-02
1.020005065332760773e-02
1.020946996209900169e-02
1.020946996209900169e-02
1.021887492042437492e-02
1.021887492042437492e-02
1.022357203054846675e-02
1.022357203054846675e-02
1.022826556788972163e-02
1.022826556788972163e-02
1.023764194387566731e-02
1.023764194387566731e-02
1.024232479231451838e-02
1.024232479231451838e-02
1.024700408755895194e-02
1.024700408755895194e-02
1.026568583371398509e-02
1.026568583371398509e-02
1.028431111574697708e-02
1.028431111574697708e-02
1.029824320702187393e-02
1.029824320702187393e-02
1.032601313446276578e-02
1.032601313446276578e-02
1.033062929220884482e-02
1.033062929220884482e-02
1.033985122377143948e-02
1.033985122377143948e-02
1.034905934093218599e-02
1.034905934093218599e-02
1.036743427922853268e-02
1.036743427922853268e-02
1.037660117349134374e-02
1.037660117349134374e-02
1.039032589840436192e-02
1.039032589840436192e-02
1.039489399368897365e-02
1.039489399368897365e-02
1.039945868994827591e-02
1.039945868994827591e-02
1.044491968491080384e-02
1.044491968491080384e-02
1.046752426671631632e-02
1.046752426671631632e-02
1.047654276786166502e-02
1.047654276786166502e-02
1.048554798830741985e-02
1.048554798830741985e-02
1.055266724296584011e-02
1.055266724296584011e-02
1.058373854664580033e-02
1.058373854664580033e-02
1.058816439061863006e-02
1.058816439061863006e-02
1.059700643377994855e-02
1.059700643377994855e-02
1.060142264101260161e-02
1.060142264101260161e-02
1.060583564402666629e-02
1.060583564402666629e-02
1.062785273541790726e-02
1.062785273541790726e-02
1.063224659674743069e-02
1.063224659674743069e-02
1.063663728164572150e-02
1.063663728164572150e-02
1.064102479404474208e-02
1.064102479404474208e-02
1.065854319696182828e-02
1.065854319696182828e-02
1.067164887919367679e-02
1.067164887919367679e-02
1.068907916075504186e-02
1.068907916075504186e-02
1.070645942559324618e-02
1.070645942559324618e-02
1.071079670523852542e-02
1.071079670523852542e-02
1.072811479089190445e-02
1.072811479089190445e-02
1.073243657285158359e-02
1.073243657285158359e-02
1.073675526651053647e-02
1.073675526651053647e-02
1.074107087559393256e-02
1.074107087559393256e-02
1.075830254037332678e-02
1.075830254037332678e-02
1.076689996153136659e-02
1.076689996153136659e-02
1.077977316184053694e-02
1.077977316184053694e-02
1.079261893194738767e-02
1.079261893194738767e-02
1.080543736968102297e-02
1.080543736968102297e-02
1.080970412521010254e-02
1.080970412521010254e-02
1.081822857219921080e-02
1.081822857219921080e-02
1.083099263599481346e-02
1.083099263599481346e-02
1.085220602737694412e-02
1.085220602737694412e-02
1.086912295013369931e-02
1.086912295013369931e-02
1.087756355812053745e-02
1.087756355812053745e-02
1.089020223121118548e-02
1.089020223121118548e-02
1.091120761151138929e-02
1.091120761151138929e-02
1.091539985704885647e-02
1.091539985704885647e-02
1.092795899361459835e-02
1.092795899361459835e-02
1.093213951702062987e-02
1.093213951702062987e-02
1.094883242281297249e-02
1.094883242281297249e-02
1.095299836898449772e-02
1.095299836898449772e-02
1.096132154824602627e-02
1.096132154824602627e-02
1.098622161880879154e-02
1.098622161880879154e-02
1.099036153436711884e-02
1.099036153436711884e-02
1.101926059841426553e-02
1.101926059841426553e-02
1.103571150443862295e-02
1.103571150443862295e-02
1.104391990099083502e-02
1.104391990099083502e-02
1.104801984624616089e-02
1.104801984624616089e-02
1.108886410322200769e-02
1.108886410322200769e-02
1.109293307793359634e-02
1.109293307793359634e-02
1.110512323301556317e-02
1.110512323301556317e-02
1.117372927373671762e-02
1.117372927373671762e-02
1.117774015049992006e-02
1.117774015049992006e-02
1.119375634980301383e-02
1.119375634980301383e-02
1.120174810579444881e-02
1.120174810579444881e-02
1.120573990807938354e-02
1.120573990807938354e-02
1.120972899709477173e-02
1.120972899709477173e-02
1.122963384426193915e-02
1.122963384426193915e-02
1.123757689112132169e-02
1.123757689112132169e-02
1.127713116258177370e-02
1.127713116258177370e-02
1.129287817599314639e-02
1.129287817599314639e-02
1.130073576592614988e-02
1.130073576592614988e-02
1.133596428932862749e-02
1.133596428932862749e-02
1.135544383482067765e-02
1.135544383482067765e-02
1.135933191107321716e-02
1.135933191107321716e-02
1.137873327531175108e-02
1.137873327531175108e-02
1.139034297590350506e-02
1.139034297590350506e-02
1.139420770563938368e-02
1.139420770563938368e-02
1.139806985452890276e-02
1.139806985452890276e-02
1.140192942519466582e-02
1.140192942519466582e-02
1.140578642025399242e-02
1.140578642025399242e-02
1.141349269399617034e-02
1.141349269399617034e-02
1.141734197788728256e-02
1.141734197788728256e-02
1.142118869658851135e-02
1.142118869658851135e-02
1.142887444878025113e-02
1.142887444878025113e-02
1.147096377927757024e-02
1.147096377927757024e-02
1.147477485502809008e-02
1.147477485502809008e-02
1.148238942844874953e-02
1.148238942844874953e-02
1.148619293114264660e-02
1.148619293114264660e-02
1.148999391449978015e-02
1.148999391449978015e-02
1.150896112854062070e-02
1.150896112854062070e-02
1.151274704819206691e-02
1.151274704819206691e-02
1.151653046589910280e-02
1.151653046589910280e-02
1.153541011137365103e-02
1.153541011137365103e-02
1.154294454185488678e-02
1.154294454185488678e-02
1.156548833413219984e-02
1.156548833413219984e-02
1.159167717261040155e-02
1.159167717261040155e-02
1.159913760159352568e-02
1.159913760159352568e-02
1.160286414522031066e-02
1.160286414522031066e-02
1.161774590222652490e-02
1.161774590222652490e-02
1.162517216304420273e-02
1.162517216304420273e-02
1.163258870363162445e-02
1.163258870363162445e-02
1.163629333464805127e-02
1.163629333464805127e-02
1.164739269836428601e-02
1.164739269836428601e-02
1.166584334492881680e-02
1.166584334492881680e-02
1.167688485781619157e-02
1.167688485781619157e-02
1.171718622818895481e-02
1.171718622818895481e-02
1.172448281077025437e-02
1.172448281077025437e-02
1.174268285130378522e-02
1.174268285130378522e-02
1.174631577714255366e-02
1.174631577714255366e-02
1.178251583398002081e-02
1.178251583398002081e-02
1.178972776842151550e-02
1.178972776842151550e-02
1.180771687175505638e-02
1.180771687175505638e-02
1.181130772667995932e-02
1.181130772667995932e-02
1.183637895388620076e-02
1.183637895388620076e-02
1.185421786287689516e-02
1.185421786287689516e-02
1.185777876068921759e-02
1.185777876068921759e-02
1.186133736866487771e-02
1.186133736866487771e-02
1.187554894335117982e-02
1.187554894335117982e-02
1.187909613297314509e-02
1.187909613297314509e-02
1.188264104506387212e-02
1.188264104506387212e-02
1.188618368166109718e-02
1.188618368166109718e-02
1.189679795881320654e-02
1.189679795881320654e-02
1.192148534113460223e-02
1.192148534113460223e-02
1.193554279950573629e-02
1.193554279950573629e-02
1.194606230992319162e-02
1.194606230992319162e-02
1.194956433187729233e-02
1.194956433187729233e-02
1.198098207809044496e-02
1.198098207809044496e-02
1.198793933048073954e-02
1.198793933048073954e-02
1.199141463162560137e-02
1.199141463162560137e-02
1.201913749315226647e-02
1.201913749315226647e-02
1.202259293604979185e-02
1.202259293604979185e-02
1.202604618199769153e-02
1.202604618199769153e-02
1.205702684386635373e-02
1.205702684386635373e-02
1.206045822382424693e-02
1.206045822382424693e-02
1.207073931318556129e-02
1.207073931318556129e-02
1.208783107134158569e-02
1.208783107134158569e-02
1.209806017268498686e-02
1.209806017268498686e-02
1.210146555851702305e-02
1.210146555851702305e-02
1.210486879007665120e-02
1.210486879007665120e-02
1.212524304121401220e-02
1.212524304121401220e-02
1.212863124355024851e-02
1.212863124355024851e-02
1.213540123052570495e-02
1.213540123052570495e-02
1.213878301874417483e-02
1.213878301874417483e-02
1.214216267249743596e-02
1.214216267249743596e-02
1.214554019356731129e-02
1.214554019356731129e-02
1.215228884476870358e-02
1.215228884476870358e-02
1.215565997844837709e-02
1.215565997844837709e-02
1.217584220491426880e-02
1.217584220491426880e-02
1.219594828981348904e-02
1.219594828981348904e-02
1.221930965573751401e-02
1.221930965573751401e-02
1.222263860982480965e-02
1.222263860982480965e-02
1.222596547307783221e-02
1.222596547307783221e-02
1.224919511545696088e-02
1.224919511545696088e-02
1.225250531322035798e-02
1.225250531322035798e-02
1.225581343540209367e-02
1.225581343540209367e-02
1.225911948368245408e-02
1.225911948368245408e-02
1.227561867517348339e-02
1.227561867517348339e-02
1.228549341016786992e-02
1.228549341016786992e-02
1.230191014564730942e-02
1.230191014564730942e-02
1.232154257374713097e-02
1.232154257374713097e-02
1.232480749249665643e-02
1.232480749249665643e-02
1.232807037197919744e-02
1.232807037197919744e-02
1.233459001961570434e-02
1.233459001961570434e-02
1.234110152957421450e-02
1.234110152957421450e-02
1.235734478651013407e-02
1.235734478651013407e-02
1.239290218872709029e-02
1.239290218872709029e-02
1.239934103378585034e-02
1.239934103378585034e-02
1.240255745146565634e-02
1.240255745146565634e-02
1.241219470379167564e-02
1.241219470379167564e-02
1.242821688162326806e-02
1.242821688162326806e-02
1.244418933967858173e-02
1.244418933967858173e-02
1.245056444424622391e-02
1.245056444424622391e-02
1.247281507966850264e-02
1.247281507966850264e-02
1.247598585971457230e-02
1.247598585971457230e-02
1.247915467373174152e-02
1.247915467373174152e-02
1.248548640966619383e-02
1.248548640966619383e-02
1.249812635490644974e-02
1.249812635490644974e-02
1.251073501051596509e-02
1.251073501051596509e-02
1.251388229650226766e-02
1.251388229650226766e-02
1.252645197290413667e-02
1.252645197290413667e-02
1.252958953244245541e-02
1.252958953244245541e-02
1.253899057145868232e-02
1.253899057145868232e-02
1.255774040190117333e-02
1.255774040190117333e-02
1.256085861766097038e-02
1.256085861766097038e-02
1.256397490697611780e-02
1.256397490697611780e-02
1.256708927127973309e-02
1.256708927127973309e-02
1.258263226762274152e-02
1.258263226762274152e-02
1.258883604098092260e-02
1.258883604098092260e-02
1.260431201054580501e-02
1.260431201054580501e-02
1.261357470195716146e-02
1.261357470195716146e-02
1.261665845911416617e-02
1.261665845911416617e-02
1.261974031527397441e-02
1.261974031527397441e-02
1.264432689527514656e-02
1.264432689527514656e-02
1.265351566385993984e-02
1.265351566385993984e-02
1.266574097958250364e-02
1.266574097958250364e-02
1.266879260765541373e-02
1.266879260765541373e-02
1.267184235810343319e-02
1.267184235810343319e-02
1.267489023228190320e-02
1.267489023228190320e-02
1.269010150641881537e-02
1.269010150641881537e-02
1.269313815132291565e-02
1.269313815132291565e-02
1.269617292938532080e-02
1.269617292938532080e-02
1.269920584194440122e-02
1.269920584194440122e-02
1.270526607589561249e-02
1.270526607589561249e-02
1.271131886384165369e-02
1.271131886384165369e-02
1.271434246888644704e-02
1.271434246888644704e-02
1.273244513755764779e-02
1.273244513755764779e-02
1.273846454956894733e-02
1.273846454956894733e-02
1.275947438008053283e-02
1.275947438008053283e-02
1.277442623952552286e-02
1.277442623952552286e-02
1.277741111197805424e-02
1.277741111197805424e-02
1.279230804763450274e-02
1.279230804763450274e-02
1.280122431368930017e-02
1.280122431368930017e-02
1.280419276077920075e-02
1.280419276077920075e-02
1.281604837489704572e-02
1.281604837489704572e-02
1.282492103780210127e-02
1.282492103780210127e-02
1.283082709490254367e-02
1.283082709490254367e-02
1.283967262828016043e-02
1.283967262828016043e-02
1.285437912737241554e-02
1.285437912737241554e-02
1.285731502984913989e-02
1.285731502984913989e-02
1.286611196477167700e-02
1.286611196477167700e-02
1.286904068966764417e-02
1.286904068966764417e-02
1.287196762323200572e-02
1.287196762323200572e-02
1.287489276668647015e-02
1.287489276668647015e-02
1.289531875002469449e-02
1.289531875002469449e-02
1.290404601263885238e-02
1.290404601263885238e-02
1.290695154498858535e-02
1.290695154498858535e-02
1.291855593042514488e-02
1.291855593042514488e-02
1.292145259676944630e-02
1.292145259676944630e-02
1.293013198282434023e-02
1.293013198282434023e-02
1.293302157780686079e-02
1.293302157780686079e-02
1.293590940791213180e-02
1.293590940791213180e-02
1.295607490112718474e-02
1.295607490112718474e-02
1.296755939387824255e-02
1.296755939387824255e-02
1.297042613712528006e-02
1.297042613712528006e-02
1.297901587358597092e-02
1.297901587358597092e-02
1.299044441436581973e-02
1.299044441436581973e-02
1.299329719274666152e-02
1.299329719274666152e-02
1.299899752936553923e-02
1.299899752936553923e-02
1.300469091341998132e-02
1.300469091341998132e-02
1.301605686031806139e-02
1.301605686031806139e-02
1.301889401591860458e-02
1.301889401591860458e-02
1.302172944133538415e-02
1.302172944133538415e-02
1.303022534777447013e-02
1.303022534777447013e-02
1.303305386373920099e-02
1.303305386373920099e-02
1.303588065515335140e-02
1.303588065515335140e-02
1.304152906881482499e-02
1.304152906881482499e-02
1.304998878316510590e-02
1.304998878316510590e-02
1.307247251753381259e-02
1.307247251753381259e-02
1.308367333345225939e-02
1.308367333345225939e-02
1.311988798604997453e-02
1.311988798604997453e-02
1.312543405376349198e-02
1.312543405376349198e-02
1.313097336790437775e-02
1.313097336790437775e-02
1.314203176961706299e-02
1.314203176961706299e-02
1.315306325923847920e-02
1.315306325923847920e-02
1.315856893317305862e-02
1.315856893317305862e-02
1.316681487917089471e-02
1.316681487917089471e-02
1.318873055392697467e-02
1.318873055392697467e-02
1.319419280986255764e-02
1.319419280986255764e-02
1.320237373033439007e-02
1.320237373033439007e-02
1.321053971938303088e-02
1.321053971938303088e-02
1.321325840242480038e-02
1.321325840242480038e-02
1.321869080468062244e-02
1.321869080468062244e-02
1.323494837411863696e-02
1.323494837411863696e-02
1.325114665766461905e-02
1.325114665766461905e-02
1.325384062295728929e-02
1.325384062295728929e-02
1.326728587246841194e-02
1.326728587246841194e-02
1.327533339644617998e-02
1.327533339644617998e-02
1.328069025156900819e-02
1.328069025156900819e-02
1.329938795524315820e-02
1.329938795524315820e-02
1.330205255592685140e-02
1.330205255592685140e-02
1.330737689218199245e-02
1.330737689218199245e-02
1.331003662969960574e-02
1.331003662969960574e-02
1.333918709368797292e-02
1.333918709368797292e-02
1.334446622988033453e-02
1.334446622988033453e-02
1.335237288695930932e-02
1.335237288695930932e-02
1.336289264817906372e-02
1.336289264817906372e-02
1.337076566604533494e-02
1.337076566604533494e-02
1.337862430955491164e-02
1.337862430955491164e-02
1.339951060980534500e-02
1.339951060980534500e-02
1.341770279412510258e-02
1.341770279412510258e-02
1.342806353793861603e-02
1.342806353793861603e-02
1.343064977963109863e-02
1.343064977963109863e-02
1.344613416807165576e-02
1.344613416807165576e-02
1.345128305769098011e-02
1.345128305769098011e-02
1.345385514908983143e-02
1.345385514908983143e-02
1.346925480632242891e-02
1.346925480632242891e-02
1.347181594235620505e-02
1.347181594235620505e-02
1.348459821811913428e-02
1.348459821811913428e-02
1.349479600662275430e-02
1.349479600662275430e-02
1.349734156775895047e-02
1.349734156775895047e-02
1.349988557625866892e-02
1.349988557625866892e-02
1.350242803299950625e-02
1.350242803299950625e-02
1.351258235988429812e-02
1.351258235988429812e-02
1.352018185440473363e-02
1.352018185440473363e-02
1.353533915771405402e-02
1.353533915771405402e-02
1.355295263944006172e-02
1.355295263944006172e-02
1.356548767259148185e-02
1.356548767259148185e-02
1.357798447181431112e-02
1.357798447181431112e-02
1.359541595840921616e-02
1.359541595840921616e-02
1.360286378965281859e-02
1.360286378965281859e-02
1.360782142518126604e-02
1.360782142518126604e-02
1.362512546640055541e-02
1.362512546640055541e-02
1.363005588160547468e-02
1.363005588160547468e-02
1.363744019852943315e-02
1.363744019852943315e-02
1.364726488435945469e-02
1.364726488435945469e-02
1.365951195208202004e-02
1.365951195208202004e-02
1.366440028759653876e-02
1.366440028759653876e-02
1.366684221037775884e-02
1.366684221037775884e-02
1.367659495369558283e-02
1.367659495369558283e-02
1.368146236785677816e-02
1.368146236785677816e-02
1.369360482829289766e-02
1.369360482829289766e-02
1.370812672404969103e-02
1.370812672404969103e-02
1.372259526377125199e-02
1.372259526377125199e-02
1.372980957785578660e-02
1.372980957785578660e-02
1.373940801552543320e-02
1.373940801552543320e-02
1.374659138497748637e-02
1.374659138497748637e-02
1.375614863864544832e-02
1.375614863864544832e-02
1.375853428354840285e-02
1.375853428354840285e-02
1.376568242603219000e-02
1.376568242603219000e-02
1.377281739614464456e-02
1.377281739614464456e-02
1.377519279586063641e-02
1.377519279586063641e-02
1.378704790102019961e-02
1.378704790102019961e-02
1.380122596090722388e-02
1.380122596090722388e-02
1.380358388342595166e-02
1.380358388342595166e-02
1.380829537448717559e-02
1.380829537448717559e-02
1.384344707903636257e-02
1.384344707903636257e-02
1.385043848610629721e-02
1.385043848610629721e-02
1.386206210302985339e-02
1.386206210302985339e-02
1.386438252369060799e-02
1.386438252369060799e-02
1.386670151179110293e-02
1.386670151179110293e-02
1.387827498900831395e-02
1.387827498900831395e-02
1.388981275961742243e-02
1.388981275961742243e-02
1.390819914454614545e-02
1.390819914454614545e-02
1.391507060499103804e-02
1.391507060499103804e-02
1.391735825694868922e-02
1.391735825694868922e-02
1.392877528672507512e-02
1.392877528672507512e-02
1.393560854561972338e-02
1.393560854561972338e-02
1.393788347624918406e-02
1.393788347624918406e-02
1.394469981080042470e-02
1.394469981080042470e-02
1.395150347380356634e-02
1.395150347380356634e-02
1.396507285921268909e-02
1.396507285921268909e-02
1.396958476604637234e-02
1.396958476604637234e-02
1.397183861846640687e-02
1.397183861846640687e-02
1.397409107112568619e-02
1.397409107112568619e-02
1.398308689767767399e-02
1.398308689767767399e-02
1.398757642994438721e-02
1.398757642994438721e-02
1.400547881091166250e-02
1.400547881091166250e-02
1.401216925541922190e-02
1.401216925541922190e-02
1.401439662728715292e-02
1.401439662728715292e-02
1.401662261210774932e-02
1.401662261210774932e-02
1.402551269411891031e-02
1.402551269411891031e-02
1.402773175359716198e-02
1.402773175359716198e-02
1.403659416710965543e-02
1.403659416710965543e-02
1.403880631766030174e-02
1.403880631766030174e-02
1.404322647993884281e-02
1.404322647993884281e-02
1.404764112812738330e-02
1.404764112812738330e-02
1.405645390300938602e-02
1.405645390300938602e-02
1.406524468372642375e-02
1.406524468372642375e-02
1.406963183916029939e-02
1.406963183916029939e-02
1.407182336039360104e-02
1.407182336039360104e-02
1.408930625902065151e-02
1.408930625902065151e-02
1.410018868613849632e-02
1.410018868613849632e-02
1.410236108339120442e-02
1.410236108339120442e-02
1.410887011014164312e-02
1.410887011014164312e-02
1.411969130898296960e-02
1.411969130898296960e-02
1.413047860160310254e-02
1.413047860160310254e-02
1.413908407537896143e-02
1.413908407537896143e-02
1.414337870575331502e-02
1.414337870575331502e-02
1.414981053201491701e-02
1.414981053201491701e-02
1.415195177807535010e-02
1.415195177807535010e-02
1.415623022982681264e-02
1.415623022982681264e-02
1.415836743673878212e-02
1.415836743673878212e-02
1.416477098892948705e-02
1.416477098892948705e-02
1.417329025458340629e-02
1.417329025458340629e-02
1.419238021720781173e-02
1.419238021720781173e-02
1.420082989568039779e-02
1.420082989568039779e-02
1.420715315455628458e-02
1.420715315455628458e-02
1.421976374171140915e-02
1.421976374171140915e-02
1.422395664196716286e-02
1.422395664196716286e-02
1.422605110184108068e-02
1.422605110184108068e-02
1.422814423566041812e-02
1.422814423566041812e-02
1.423023604401032344e-02
1.423023604401032344e-02
1.423232652747524057e-02
1.423232652747524057e-02
1.424484163831853806e-02
1.424484163831853806e-02
1.426352518849241871e-02
1.426352518849241871e-02
1.426559455270186641e-02
1.426559455270186641e-02
1.428210217223453704e-02
1.428210217223453704e-02
1.428621596072497321e-02
1.428621596072497321e-02
1.429237682458535733e-02
1.429237682458535733e-02
1.429852591933149578e-02
1.429852591933149578e-02
1.431690274038397229e-02
1.431690274038397229e-02
1.431893809711940607e-02
1.431893809711940607e-02
1.432300490989852140e-02
1.432300490989852140e-02
1.432503636704958970e-02
1.432503636704958970e-02
1.433314921361901473e-02
1.433314921361901473e-02
1.434124131535816429e-02
1.434124131535816429e-02
1.434527959789058671e-02
1.434527959789058671e-02
1.434931270736335487e-02
1.434931270736335487e-02
1.435736342456224099e-02
1.435736342456224099e-02
1.436940081109064349e-02
1.436940081109064349e-02
1.438139187408855532e-02
1.438139187408855532e-02
1.439532305420200553e-02
1.439532305420200553e-02
1.440523549176810775e-02
1.440523549176810775e-02
1.441116762387906203e-02
1.441116762387906203e-02
1.443085856240709786e-02
1.443085856240709786e-02
1.443282066052177168e-02
1.443282066052177168e-02
1.443478148876181991e-02
1.443478148876181991e-02
1.444261211331514250e-02
1.444261211331514250e-02
1.444651981976804653e-02
1.444651981976804653e-02
1.445626693522315820e-02
1.445626693522315820e-02
1.446015693188469273e-02
1.446015693188469273e-02
1.447179663365937702e-02
1.447179663365937702e-02
1.452931709974701266e-02
1.452931709974701266e-02
1.453311181874196792e-02
1.453311181874196792e-02
1.453690156267275699e-02
1.453690156267275699e-02
1.454257685883041280e-02
1.454257685883041280e-02
1.455012654387900436e-02
1.455012654387900436e-02
1.455953576710865283e-02
1.455953576710865283e-02
1.457265673869964119e-02
1.457265673869964119e-02
1.457639447757390003e-02
1.457639447757390003e-02
1.458012728557091242e-02
1.458012728557091242e-02
1.458385516647692226e-02
1.458385516647692226e-02
1.458571726045157849e-02
1.458571726045157849e-02
1.458943775780090907e-02
1.458943775780090907e-02
1.459500928437855796e-02
1.459500928437855796e-02
1.459686400326252673e-02
1.459686400326252673e-02
1.462270138785983289e-02
1.462270138785983289e-02
1.463003948465411985e-02
1.463003948465411985e-02
1.463370121596496362e-02
1.463370121596496362e-02
1.463735807410114845e-02
1.463735807410114845e-02
1.465011875396907831e-02
1.465011875396907831e-02
1.468445542086812411e-02
1.468445542086812411e-02
1.468804443412785599e-02
1.468804443412785599e-02
1.468983713330533278e-02
1.468983713330533278e-02
1.469162862810277637e-02
1.469162862810277637e-02
1.469878257229521694e-02
1.469878257229521694e-02
1.471303278387344968e-02
1.471303278387344968e-02
1.471658334113511157e-02
1.471658334113511157e-02
1.472190019441845486e-02
1.472190019441845486e-02
1.472543877991307204e-02
1.472543877991307204e-02
1.475007515598069502e-02
1.475007515598069502e-02
1.475532400267727182e-02
1.475532400267727182e-02
1.475881729102669973e-02
1.475881729102669973e-02
1.476056215363315618e-02
1.476056215363315618e-02
1.476926866781239425e-02
1.476926866781239425e-02
1.477100641381517976e-02
1.477100641381517976e-02
1.477274297518386612e-02
1.477274297518386612e-02
1.479521066068121768e-02
1.479521066068121768e-02
1.480379898126776492e-02
1.480379898126776492e-02
1.480722606918124899e-02
1.480722606918124899e-02
1.481406613672033717e-02
1.481406613672033717e-02
1.481918385544094344e-02
1.481918385544094344e-02
1.482258980165659934e-02
1.482258980165659934e-02
1.483108415883671247e-02
1.483108415883671247e-02
1.483447370682030100e-02
1.483447370682030100e-02
1.483785857682678316e-02
1.483785857682678316e-02
1.483954925858912977e-02
1.483954925858912977e-02
1.484798515095439760e-02
1.484798515095439760e-02
1.486142195145405756e-02
1.486142195145405756e-02
1.486644154892471578e-02
1.486644154892471578e-02
1.486978213675436977e-02
1.486978213675436977e-02
1.488143763737792731e-02
1.488143763737792731e-02
1.488475734847126072e-02
1.488475734847126072e-02
1.488807242883690915e-02
1.488807242883690915e-02
1.489138288156751158e-02
1.489138288156751158e-02
1.489633989059548080e-02
1.489633989059548080e-02
1.490293306798311408e-02
1.490293306798311408e-02
1.491114858991514705e-02
1.491114858991514705e-02
1.491278823814212208e-02
1.491278823814212208e-02
1.491606408147758828e-02
1.491606408147758828e-02
1.492749331514956965e-02
1.492749331514956965e-02
1.492912146873639351e-02
1.492912146873639351e-02
1.494210542277776659e-02
1.494210542277776659e-02
1.494695551263482310e-02
1.494695551263482310e-02
1.495018318880604602e-02
1.495018318880604602e-02
1.497424528845643296e-02
1.497424528845643296e-02
1.499489211966154034e-02
1.499489211966154034e-02
1.500120645388465686e-02
1.500120645388465686e-02
1.500278220922185435e-02
1.500278220922185435e-02
1.501221301162927735e-02
1.501221301162927735e-02
1.501534758109319620e-02
1.501534758109319620e-02
1.503406036632479181e-02
1.503406036632479181e-02
1.504180957537087568e-02
1.504180957537087568e-02
1.504335605040297771e-02
1.504335605040297771e-02
1.506029333581797303e-02
1.506029333581797303e-02
1.506641879455966962e-02
1.506641879455966962e-02
1.506794736762219131e-02
1.506794736762219131e-02
1.506947482471552961e-02
1.507252639235151861e-02
1.512372287882919955e-02
1.512372287882919955e-02
1.512669457859336722e-02
1.512669457859336722e-02
1.512966186628749224e-02
1.512966186628749224e-02
1.514884187078074582e-02
1.514884187078074582e-02
1.516492611602231894e-02
1.516492611602231894e-02
1.516783628085995213e-02
1.516783628085995213e-02
1.516928972202211123e-02
1.516928972202211123e-02
1.517364348425433163e-02
1.517364348425433163e-02
1.517798741118994710e-02
1.517798741118994710e-02
1.518232151127110567e-02
1.518232151127110567e-02
1.518376402900772221e-02
1.518376402900772221e-02
1.519669764762500257e-02
1.519669764762500257e-02
1.519955981089082288e-02
1.519955981089082288e-02
1.520812021696758484e-02
1.520812021696758484e-02
1.520954315064980064e-02
1.520954315064980064e-02
1.521522403751411970e-02
1.521522403751411970e-02
1.521805797647872091e-02
1.521805797647872091e-02
1.522088758236231874e-02
1.522088758236231874e-02
1.523356725161540207e-02
1.523356725161540207e-02
1.523637306859520514e-02
1.523637306859520514e-02
1.524476462420878281e-02
1.524476462420878281e-02
1.525311738665755500e-02
1.525311738665755500e-02
1.526004843433045703e-02
1.526004843433045703e-02
1.526833024109642417e-02
1.526833024109642417e-02
1.526970678641044118e-02
1.526970678641044118e-02
1.527657343404471499e-02
1.527657343404471499e-02
1.528341330992018243e-02
1.528341330992018243e-02
1.528477807564948207e-02
1.528477807564948207e-02
1.529022644996479510e-02
1.529022644996479510e-02
1.529158587282128043e-02
1.529158587282128043e-02
1.529294422795893747e-02
1.529294422795893747e-02
1.530242284165141131e-02
1.530242284165141131e-02
1.530646911722672102e-02
1.530646911722672102e-02
1.531050581133471672e-02
1.531050581133471672e-02
1.531587317873231782e-02
1.531587317873231782e-02
1.531988754550306885e-02
1.532255848049143658e-02
1.532522517045096025e-02
1.532522517045096025e-02
1.532788761759724776e-02
1.532788761759724776e-02
1.533452518764929010e-02
1.533452518764929010e-02
1.533981618409342891e-02
1.533981618409342891e-02
1.534245533514509707e-02
1.534245533514509707e-02
1.535820151827697183e-02
1.535820151827697183e-02
1.537120739009491949e-02
1.537120739009491949e-02
1.537379594137831644e-02
1.537379594137831644e-02
1.538024893729002078e-02
1.538024893729002078e-02
1.538282278828809364e-02
1.538282278828809364e-02
1.539051917768895564e-02
1.539051917768895564e-02
1.539690403344749596e-02
1.539690403344749596e-02
1.540199308924181110e-02
1.540199308924181110e-02
1.540833090017618492e-02
1.540833090017618492e-02
1.540959533043523288e-02
1.540959533043523288e-02
1.541212106108235357e-02
1.541212106108235357e-02
1.541716001006680943e-02
1.541716001006680943e-02
1.542718791594168901e-02
1.542718791594168901e-02
1.543590773904155236e-02
1.543590773904155236e-02
1.544581097313078334e-02
1.544581097313078334e-02
1.544704421253664979e-02
1.544704421253664979e-02
1.544950758417898765e-02
1.544950758417898765e-02
1.545564789967572399e-02
1.545564789967572399e-02
1.546541864520300895e-02
1.546541864520300895e-02
1.547633178296235409e-02
1.547633178296235409e-02
1.547995094798644902e-02
1.547995094798644902e-02
1.548835965506674059e-02
1.548835965506674059e-02
1.548955678686953462e-02
1.548955678686953462e-02
1.549194796881149527e-02
1.549194796881149527e-02
1.549671801269374496e-02
1.549671801269374496e-02
1.549790795838006455e-02
1.549790795838006455e-02
1.550739062059506776e-02
1.550739062059506776e-02
1.550975104385476748e-02
1.550975104385476748e-02
1.551328400462929566e-02
1.551328400462929566e-02
1.551680776205591195e-02
1.551680776205591195e-02
1.552964956726609475e-02
1.552964956726609475e-02
1.554236802904302231e-02
1.554236802904302231e-02
1.555610239735551528e-02
1.555610239735551528e-02
1.559090783166092176e-02
1.559090783166092176e-02
1.559422461918402031e-02
1.559422461918402031e-02
1.560630869717059659e-02
1.560630869717059659e-02
1.562151269621093845e-02
1.562151269621093845e-02
1.562796857320523924e-02
1.562796857320523924e-02
1.563118300559057303e-02
1.563118300559057303e-02
1.566283341917414432e-02
1.566283341917414432e-02
1.566387300251693288e-02
1.566387300251693288e-02
1.567008964842290727e-02
1.567008964842290727e-02
1.567524289931113840e-02
1.567524289931113840e-02
1.567627057503651750e-02
1.567627057503651750e-02
1.568037136959678918e-02
1.568037136959678918e-02
1.568343656719667009e-02
1.568343656719667009e-02
1.568750964283568278e-02
1.568750964283568278e-02
1.569055406543767850e-02
1.569055406543767850e-02
1.569459945991834998e-02
1.569459945991834998e-02
1.570164088648353176e-02
1.570164088648353176e-02
1.571062314943627233e-02
1.571062314943627233e-02
1.571458966008731223e-02
1.571458966008731223e-02
1.571854042998706638e-02
1.571854042998706638e-02
1.572345677500187194e-02
1.572345677500187194e-02
1.572737217150660394e-02
1.572737217150660394e-02
1.572834856667538334e-02
1.572834856667538334e-02
1.573418633850968279e-02
1.573418633850968279e-02
1.573515586898396532e-02
1.573515586898396532e-02
1.574287684995787778e-02
1.574287684995787778e-02
1.574383756742915585e-02
1.574383756742915585e-02
1.574479730657649817e-02
1.574479730657649817e-02
1.575148810253618192e-02
1.575148810253618192e-02
1.575339096376822748e-02
1.575339096376822748e-02
1.575434092947809381e-02
1.575434092947809381e-02
1.575528991881944979e-02
1.575528991881944979e-02
1.577684759890150487e-02
1.577684759890150487e-02
1.577962150972761490e-02
1.577962150972761490e-02
1.578054420307545280e-02
1.578054420307545280e-02
1.578697586366696604e-02
1.578697586366696604e-02
1.578880474550714216e-02
1.578880474550714216e-02
1.579245087066636494e-02
1.579245087066636494e-02
1.579517528611765545e-02
1.579517528611765545e-02
1.579698671872847848e-02
1.579698671872847848e-02
1.579879427740957937e-02
1.579879427740957937e-02
1.580059796349046405e-02
1.580059796349046405e-02
1.580329623438619588e-02
1.580329623438619588e-02
1.580598579937516138e-02
1.580598579937516138e-02
1.580777400828128204e-02
1.580777400828128204e-02
1.581044907329141533e-02
1.581044907329141533e-02
1.581222761963964329e-02
1.581222761963964329e-02
1.581842212131649716e-02
1.581842212131649716e-02
1.582194061288622403e-02
1.582194061288622403e-02
1.582281782560905625e-02
1.582281782560905625e-02
1.584528754581962517e-02
1.584528754581962517e-02
1.584953418805283565e-02
1.584953418805283565e-02
1.585122613169693412e-02
1.585122613169693412e-02
1.585375685823640565e-02
1.585375685823640565e-02
1.585543921842984261e-02
1.585543921842984261e-02
1.585962835988685704e-02
1.585962835988685704e-02
1.586710853288346434e-02
1.586710853288346434e-02
1.587040819954220472e-02
1.587040819954220472e-02
1.587205230165836256e-02
1.587205230165836256e-02
1.587287292043302461e-02
1.587287292043302461e-02
1.587696169738929755e-02
1.587696169738929755e-02
1.588021554749318581e-02
1.588021554749318581e-02
1.588506772552411225e-02
1.588506772552411225e-02
1.588587308740126852e-02
1.588587308740126852e-02
1.588828345971338499e-02
1.588828345971338499e-02
1.589387435257816686e-02
1.589387435257816686e-02
1.589704822601405859e-02
1.589704822601405859e-02
1.590647865278826609e-02
1.590647865278826609e-02
1.591036766700421046e-02
1.591036766700421046e-02
1.591577247792432329e-02
1.591577247792432329e-02
1.591807461831864709e-02
1.591807461831864709e-02
1.591960464561079439e-02
1.591960464561079439e-02
1.592189258982183719e-02
1.592189258982183719e-02
1.592265334597562851e-02
1.592265334597562851e-02
1.592795216611891940e-02
1.592795216611891940e-02
1.593245716343002355e-02
1.593245716343002355e-02
1.593767004418493796e-02
1.593767004418493796e-02
1.593915094915379291e-02
1.593915094915379291e-02
1.594430442525905656e-02
1.594430442525905656e-02
1.594503686755061739e-02
1.594503686755061739e-02
1.595086251356852419e-02
1.595086251356852419e-02
1.595375275509546692e-02
1.595375275509546692e-02
1.595591056356401860e-02
1.595591056356401860e-02
1.595734440317686867e-02
1.595734440317686867e-02
1.595805991355370504e-02
1.595805991355370504e-02
1.596516336826735508e-02
1.596516336826735508e-02
1.596657279684078265e-02
1.596657279684078265e-02
1.597007995632717184e-02
1.597007995632717184e-02
1.597147625793764875e-02
1.597147625793764875e-02
1.597495061510723416e-02
1.597495061510723416e-02
1.598046089620450139e-02
1.598046089620450139e-02
1.598182910900476303e-02
1.598182910900476303e-02
1.598319358074181545e-02
1.598319358074181545e-02
1.598793978475371996e-02
1.598793978475371996e-02
1.599464067968088543e-02
1.599464067968088543e-02
1.599663274894479528e-02
1.599663274894479528e-02
1.599729490653482855e-02
1.599729490653482855e-02
1.600124827244382014e-02
1.600124827244382014e-02
1.600581813453391677e-02
1.600581813453391677e-02
1.600646724679870292e-02
1.600646724679870292e-02
1.600711542810994564e-02
1.600711542810994564e-02
1.600840899832396691e-02
1.600840899832396691e-02
1.601034237431474272e-02
1.601034237431474272e-02
1.601226737780489864e-02
1.601226737780489864e-02
1.601925414117743446e-02
1.601925414117743446e-02
1.602239278484991064e-02
1.602239278484991064e-02
1.602983088097553396e-02
1.602983088097553396e-02
1.603532185184159548e-02
1.603532185184159548e-02
1.603773820440421508e-02
1.603773820440421508e-02
1.603833997848743559e-02
1.603833997848743559e-02
1.604073782171583015e-02
1.604073782171583015e-02
1.604252649127956704e-02
1.604252649127956704e-02
1.604842863383171281e-02
1.604842863383171281e-02
1.604901376622526465e-02
1.604901376622526465e-02
1.605250516915747785e-02
1.605250516915747785e-02
1.605423840921968437e-02
1.605423840921968437e-02
1.605710869062084920e-02
1.605710869062084920e-02
1.606108835604848004e-02
1.606108835604848004e-02
1.606390332761618162e-02
1.606390332761618162e-02
1.606502286854256251e-02
1.606502286854256251e-02
1.606613872622530970e-02
1.606613872622530970e-02
1.606669527409023551e-02
1.606669527409023551e-02
1.606725090143180934e-02
1.606835939492671367e-02
1.607056533982664098e-02
1.607056533982664098e-02
1.607166279274726411e-02
1.607166279274726411e-02
1.607439033246413351e-02
1.607439033246413351e-02
1.608190522670804867e-02
1.608190522670804867e-02
1.608664121016922452e-02
1.608664121016922452e-02
1.608716284384063486e-02
1.608716284384063486e-02
1.609027339167942716e-02
1.609027339167942716e-02
1.609181629188963236e-02
1.609181629188963236e-02
1.609232875940476426e-02
1.609232875940476426e-02
1.609386066551075564e-02
1.609386066551075564e-02
1.609790545653246724e-02
1.609790545653246724e-02
1.610287908417218361e-02
1.610287908417218361e-02
1.610679215027331287e-02
1.610679215027331287e-02
1.610968857354733857e-02
1.610968857354733857e-02
1.611207714659291731e-02
1.611207714659291731e-02
1.611349933656810660e-02
1.611349933656810660e-02
1.611585140375455458e-02
1.611585140375455458e-02
1.611910599073781633e-02
1.611910599073781633e-02
1.612094569837996608e-02
1.612094569837996608e-02
1.612277082583778512e-02
1.612277082583778512e-02
1.612322483012954694e-02
1.612322483012954694e-02
1.613811949952908067e-02
1.613811949952908067e-02
1.614188632191457945e-02
1.614188632191457945e-02
1.614271340683792050e-02
1.614271340683792050e-02
1.614394722754705636e-02
1.614394722754705636e-02
1.614435668628079121e-02
1.614435668628079121e-02
1.614598544887578188e-02
1.614598544887578188e-02
1.614759969901571543e-02
1.614759969901571543e-02
1.615196409243777054e-02
1.615196409243777054e-02
1.615429845791154992e-02
1.615429845791154992e-02
1.615506933401067782e-02
1.615506933401067782e-02
1.615698067915243702e-02
1.615698067915243702e-02
1.616331003161022156e-02
1.616331003161022156e-02
1.616797380577159396e-02
1.616797380577159396e-02
1.617417933599230723e-02
1.617417933599230723e-02
1.617485078739988244e-02
1.617485078739988244e-02
1.617717245155374586e-02
1.617717245155374586e-02
1.617815392248311140e-02
1.617815392248311140e-02
1.617944992784314112e-02
1.617944992784314112e-02
1.618900521047611854e-02
1.618900521047611854e-02
1.619075469383510213e-02
1.619075469383510213e-02
1.619104312577548596e-02
1.619104312577548596e-02
1.619471090589619591e-02
1.619471090589619591e-02
1.619608113600071175e-02
1.619608113600071175e-02
1.619769575756615371e-02
1.619769575756615371e-02
1.619849093976421031e-02
1.619849093976421031e-02
1.619927803783082626e-02
1.619927803783082626e-02
1.620031492863891615e-02
1.620031492863891615e-02
1.620159083896370242e-02
1.620159083896370242e-02
1.620184332769600624e-02
1.620184332769600624e-02
1.620284430624997427e-02
1.620284430624997427e-02
1.620309230700260270e-02
1.620309230700260270e-02
1.620333941028353347e-02
1.620333941028353347e-02
1.620623466165619503e-02
1.620623466165619503e-02
1.620647010148629566e-02
1.620647010148629566e-02
1.620670464440574290e-02
1.620670464440574290e-02
1.620693829045347784e-02
1.620693829045347784e-02
1.620786390670077987e-02
1.620832133459547755e-02
1.620877517607655083e-02
1.620877517607655083e-02
1.621394164082731737e-02
1.621394164082731737e-02
1.621414571096605264e-02
1.621414571096605264e-02
1.621594204253620081e-02
1.621594204253620081e-02
1.621613715779707948e-02
1.621613715779707948e-02
1.621785291013345606e-02
1.621785291013345606e-02
1.621931716096628590e-02
1.621931716096628590e-02
1.621949616549065235e-02
1.621949616549065235e-02
1.621967427526358960e-02
1.621967427526358960e-02
1.621985149031457407e-02
1.621985149031457407e-02
1.622020323636782710e-02
1.622020323636782710e-02
1.622336637622913760e-02
1.622336637622913760e-02
1.622490152870518371e-02
1.622490152870518371e-02
1.622620674032317425e-02
1.622620674032317425e-02
1.622717186005987605e-02
1.622717186005987605e-02
1.622757208011726959e-02
1.622757208011726959e-02
1.622897076499875760e-02
1.622897076499875760e-02
1.622921345912900840e-02
1.622921345912900840e-02
1.622933346646637104e-02
1.622933346646637104e-02
1.623134089258171375e-02
1.623144393375629616e-02
1.623154608215383876e-02
1.623154608215383876e-02
1.623279277607900944e-02
1.623279277607900944e-02
1.623288242730062600e-02
1.623288242730062600e-02
1.623372985219944525e-02
1.623372985219944525e-02
1.623469809250168219e-02
1.623469809250168219e-02
1.623655547155974585e-02
1.623655547155974585e-02
1.623666383069286706e-02
1.623666383069286706e-02
1.623682659099483921e-02
1.623682659099483921e-02
1.623688545185302326e-02
1.623688545185302326e-02
1.623691354446011453e-02
1.623691354446011453e-02
1.623712624405094368e-02
1.623712624405094368e-02
1.623734161626929490e-02
1.623734161626929490e-02
1.623727785212138175e-02
1.623727785212138175e-02
1.623726670451735785e-02
1.623726670451735785e-02
1.623716370029412714e-02
1.623716370029412714e-02
1.623712624405094368e-02
1.623712624405094368e-02
1.623706337087706814e-02
1.623706337087706814e-02
1.623704062945634935e-02
1.623704062945634935e-02
1.623701699618146366e-02
1.623701699618146366e-02
1.623685646736618832e-02
1.623685646736618832e-02
1.623682659099483921e-02
1.623682659099483921e-02
1.623655547155974585e-02
1.623655547155974585e-02
1.623631467089699937e-02
1.623631467089699937e-02
1.623578980226190321e-02
1.623578980226190321e-02
1.623521898278617107e-02
1.623521898278617107e-02
1.623509411335053582e-02
1.623509411335053582e-02
1.623503034037540940e-02
1.623503034037540940e-02
1.623434353861339524e-02
1.623434353861339524e-02
1.623412009878927656e-02
1.623396667724904055e-02
1.623348499554944785e-02
1.623348499554944785e-02
1.623305905213934947e-02
1.623305905213934947e-02
1.623288242730062600e-02
1.623288242730062600e-02
1.623261079595733278e-02
1.623261079595733278e-02
1.623194574830853776e-02
1.623194574830853776e-02
1.622980456475799776e-02
1.622980456475799776e-02
1.622968812980473199e-02
1.622968812980473199e-02
1.622909255864645600e-02
1.622909255864645600e-02
1.622809319913292442e-02
1.622809319913292442e-02
1.622730616019848332e-02
1.622730616019848332e-02
1.622519783211022470e-02
1.622519783211022470e-02
1.622429819540684159e-02
1.622429819540684159e-02
1.622414512725198904e-02
1.622414512725198904e-02
1.622383630896936935e-02
1.622383630896936935e-02
1.622207387941919030e-02
1.622207387941919030e-02
1.622123700421986697e-02
1.622123700421986697e-02
1.621840871603088402e-02
1.621840871603088402e-02
1.621671713186286293e-02
1.621671713186286293e-02
1.621414571096605264e-02
1.621414571096605264e-02
1.621332405624723375e-02
1.621332405624723375e-02
1.621311640321885031e-02
1.621311640321885031e-02
1.621227683267803532e-02
1.621227683267803532e-02
1.621099059773688927e-02
1.621099059773688927e-02
1.621077308889347368e-02
1.621077308889347368e-02
1.620922543144526218e-02
1.620922543144526218e-02
1.620504400747241336e-02
1.620504400747241336e-02
1.620407533570597872e-02
1.620407533570597872e-02
1.620133745251015750e-02
1.620133745251015750e-02
1.619415652211388112e-02
1.619415652211388112e-02
1.619017513133133232e-02
1.619017513133133232e-02
1.618540905282042641e-02
1.618540905282042641e-02
1.618510352151109055e-02
1.618510352151109055e-02
1.618479708973426592e-02
1.618479708973426592e-02
1.618448975743881288e-02
1.618448975743881288e-02
1.618356235692686856e-02
1.618356235692686856e-02
1.617618286449067078e-02
1.617618286449067078e-02
1.617551863008367952e-02
1.617551863008367952e-02
1.617111313459207098e-02
1.617111313459207098e-02
1.616762047557909407e-02
1.616762047557909407e-02
1.616655506441288040e-02
1.616655506441288040e-02
1.616619812029610609e-02
1.616619812029610609e-02
1.615736023239132055e-02
1.615736023239132055e-02
1.615583658811342929e-02
1.615583658811342929e-02
1.614517288190876060e-02
1.614517288190876060e-02
1.614476523771173413e-02
1.614476523771173413e-02
1.614353686144149105e-02
1.614353686144149105e-02
1.613980272328862167e-02
1.613980272328862167e-02
1.613896292783448608e-02
1.613896292783448608e-02
1.613599503129676746e-02
1.613599503129676746e-02
1.613211373338279200e-02
1.613211373338279200e-02
1.613080360138562444e-02
1.613080360138562444e-02
1.612948528306255153e-02
1.612948528306255153e-02
1.612771478754215088e-02
1.612771478754215088e-02
1.612726988856380203e-02
1.612726988856380203e-02
1.611207714659291731e-02
1.611207714659291731e-02
1.611112445624255513e-02
1.611112445624255513e-02
1.610287908417218361e-02
1.610287908417218361e-02
1.609436946902360194e-02
1.609436946902360194e-02
1.609181629188963236e-02
1.609181629188963236e-02
1.608872224312507884e-02
1.608872224312507884e-02
1.608664121016922452e-02
1.608664121016922452e-02
1.608611865939431340e-02
1.608611865939431340e-02
1.607763304747014677e-02
1.607763304747014677e-02
1.606891226127052374e-02
1.606891226127052374e-02
1.606835939492671367e-02
1.606835939492671367e-02
1.606725090143180934e-02
1.606725090143180934e-02
1.606613872622530970e-02
1.606613872622530970e-02
1.604312086495005701e-02
1.604312086495005701e-02
1.604252649127956704e-02
1.604252649127956704e-02
1.603592732862576392e-02
1.603592732862576392e-02
1.601925414117743446e-02
1.601925414117743446e-02
1.601799218339160918e-02
1.601799218339160918e-02
1.601735981113533436e-02
1.601735981113533436e-02
1.601672650982349788e-02
1.601672650982349788e-02
1.601545711959213858e-02
1.601545711959213858e-02
1.601290718560152704e-02
1.601290718560152704e-02
1.601034237431474272e-02
1.601034237431474272e-02
1.600905438745238094e-02
1.600905438745238094e-02
1.600711542810994564e-02
1.600711542810994564e-02
1.600321237367124602e-02
1.600321237367124602e-02
1.599993421249232273e-02
1.599993421249232273e-02
1.599729490653482855e-02
1.599729490653482855e-02
1.599397479070772954e-02
1.599397479070772954e-02
1.599264021323466151e-02
1.599264021323466151e-02
1.598387441401113995e-02
1.598387441401113995e-02
1.597840156040762974e-02
1.597840156040762974e-02
1.595662795322249500e-02
1.595662795322249500e-02
1.593544161344113280e-02
1.593544161344113280e-02
1.593320469158200983e-02
1.593320469158200983e-02
1.592644294346667877e-02
1.592644294346667877e-02
1.592492994058531536e-02
1.592492994058531536e-02
1.592265334597562851e-02
1.592265334597562851e-02
1.592036823977528021e-02
1.592036823977528021e-02
1.591500320405705646e-02
1.591500320405705646e-02
1.591268969932520955e-02
1.591268969932520955e-02
1.590803710335985180e-02
1.590803710335985180e-02
1.590413386193015310e-02
1.590413386193015310e-02
1.590256592305901162e-02
1.590256592305901162e-02
1.589546319048355111e-02
1.589546319048355111e-02
1.589307850737863362e-02
1.589307850737863362e-02
1.588828345971338499e-02
1.588828345971338499e-02
1.587614585042839907e-02
1.587614585042839907e-02
1.587532904939969319e-02
1.587532904939969319e-02
1.586379357503761925e-02
1.586379357503761925e-02
1.586129731604592197e-02
1.586129731604592197e-02
1.585375685823640565e-02
1.585375685823640565e-02
1.585207066558044775e-02
1.585207066558044775e-02
1.582544368193627288e-02
1.582544368193627288e-02
1.582456935997408887e-02
1.582456935997408887e-02
1.582369407458497981e-02
1.582369407458497981e-02
1.582281782560905625e-02
1.582281782560905625e-02
1.581044907329141186e-02
1.581044907329141186e-02
1.579608148674751383e-02
1.579608148674751383e-02
1.579245087066636494e-02
1.579062974739189884e-02
1.579062974739189884e-02
1.578971773135979736e-02
1.578971773135979736e-02
1.578697586366696604e-02
1.578697586366696604e-02
1.578054420307545280e-02
1.578054420307545280e-02
1.577034110543775944e-02
1.577034110543775944e-02
1.576190552068165718e-02
1.576190552068165718e-02
1.574671385061471307e-02
1.574671385061471307e-02
1.573321582791006867e-02
1.573321582791006867e-02
1.573029841354419561e-02
1.573029841354419561e-02
1.572932398062707252e-02
1.572932398062707252e-02
1.572050991586567206e-02
1.572050991586567206e-02
1.571260837309964783e-02
1.571260837309964783e-02
1.571161625344561635e-02
1.571161625344561635e-02
1.570763792940833500e-02
1.570763792940833500e-02
1.568445632013046667e-02
1.568445632013046667e-02
1.568139409212321311e-02
1.567934765681900516e-02
1.567729725973319999e-02
1.567729725973319999e-02
1.567112228222049264e-02
1.567112228222049264e-02
1.567008964842290727e-02
1.567008964842290727e-02
1.565762059477301613e-02
1.565762059477301613e-02
1.565238290600491286e-02
1.565238290600491286e-02
1.565133238233264515e-02
1.565133238233264515e-02
1.565028086288693804e-02
1.565028086288693804e-02
1.562259117821861512e-02
1.562259117821861512e-02
1.561067276001693385e-02
1.561067276001693385e-02
1.560192856365280080e-02
1.560192856365280080e-02
1.559863290899419358e-02
1.559863290899419358e-02
1.558424705111037881e-02
1.558424705111037881e-02
1.558090304645267689e-02
1.558090304645267689e-02
1.557194127387550101e-02
1.557194127387550101e-02
1.557081650473009574e-02
1.557081650473009574e-02
1.554006474206117913e-02
1.554006474206117913e-02
1.553428871760242219e-02
1.553428871760242219e-02
1.552499410709198141e-02
1.552499410709198141e-02
1.550975104385476748e-02
1.550975104385476748e-02
1.550502610229371331e-02
1.550502610229371331e-02
1.548115527757883483e-02
1.548115527757883483e-02
1.547270334850937498e-02
1.547270334850937498e-02
1.546906563810477447e-02
1.546906563810477447e-02
1.540326274023932386e-02
1.540326274023932386e-02
1.539562915525227380e-02
1.539562915525227380e-02
1.538923906579945690e-02
1.538923906579945690e-02
1.538024893729002078e-02
1.538024893729002078e-02
1.536471761100803232e-02
1.536471761100803232e-02
1.535820151827697183e-02
1.535820151827697183e-02
1.533849502218510678e-02
1.533849502218510678e-02
1.532921725080641819e-02
1.532921725080641819e-02
1.529971999781049898e-02
1.529701288990219059e-02
1.529430151566225568e-02
1.529430151566225568e-02
1.528204747475830211e-02
1.528204747475830211e-02
1.526695262317732081e-02
1.526695262317732081e-02
1.526143141963739666e-02
1.526143141963739666e-02
1.526004843433045703e-02
1.526004843433045703e-02
1.525866437467113951e-02
1.525866437467113951e-02
1.523917456810115582e-02
1.523917456810115582e-02
1.522794265568438825e-02
1.522794265568438825e-02
1.520098926152511909e-02
1.520098926152511909e-02
1.518664579291123529e-02
1.518664579291123529e-02
1.516638174563162550e-02
1.516346939171686614e-02
1.515616933869144180e-02
1.515616933869144180e-02
1.515030955946089497e-02
1.515030955946089497e-02
1.514884187078074755e-02
1.514884187078074755e-02
1.512966186628749224e-02
1.512966186628749224e-02
1.511776623267949322e-02
1.511776623267949322e-02
1.508923036759604944e-02
1.508923036759604944e-02
1.506335829916789423e-02
1.506335829916789423e-02
1.504490140398413722e-02
1.504490140398413722e-02
1.504335605040297771e-02
1.504335605040297771e-02
1.503250715530867268e-02
1.503250715530867268e-02
1.500907392838562830e-02
1.500907392838562830e-02
1.498061858957215609e-02
1.497743421166273722e-02
1.495983880794590597e-02
1.495983880794590597e-02
1.495179531288275132e-02
1.495179531288275132e-02
1.494372326330468959e-02
1.494372326330468959e-02
1.491933532318197135e-02
1.491933532318197135e-02
1.490622273443843911e-02
1.490622273443843911e-02
1.489963878772245995e-02
1.489963878772245995e-02
1.485471286897239312e-02
1.485471286897239312e-02
1.483277951777597914e-02
1.483277951777597914e-02
1.478486577003782637e-02
1.478486577003782637e-02
1.473954532963630930e-02
1.473954532963630930e-02
1.472720627894642809e-02
1.472720627894642809e-02
1.470056805179028106e-02
1.470056805179028106e-02
1.469699589061768466e-02
1.469699589061768466e-02
1.468983713330533278e-02
1.468983713330533278e-02
1.468804443412785599e-02
1.468804443412785599e-02
1.462270138785983289e-02
1.462270138785983289e-02
1.460056975887667405e-02
1.460056975887667405e-02
1.459315333748611651e-02
1.459315333748611651e-02
1.454824098293399856e-02
1.454824098293399856e-02
1.448146174030715688e-02
1.448146174030715688e-02
1.447566645171116488e-02
1.447566645171116488e-02
1.445237188373740302e-02
1.445237188373740302e-02
1.442299746083191593e-02
1.442299746083191593e-02
1.441314244933479885e-02
1.441314244933479885e-02
1.438338588905314908e-02
1.438338588905314908e-02
1.437739999298438300e-02
1.437739999298438300e-02
1.436940081109064349e-02
1.436940081109064349e-02
1.435132732356549437e-02
1.435132732356549437e-02
1.433314921361901473e-02
1.433314921361901473e-02
1.430670643103998038e-02
1.430670643103998038e-02
1.428827089063028008e-02
1.428827089063028008e-02
1.426972933651892914e-02
1.426972933651892914e-02
1.423859003439369164e-02
1.423859003439369164e-02
1.423023604401032691e-02
1.423023604401032691e-02
1.420504673374096624e-02
1.420504673374096624e-02
1.420293898098003160e-02
1.420293898098003160e-02
1.418814736726567785e-02
1.418814736726567785e-02
1.417541671718891561e-02
1.417541671718891561e-02
1.414552399646663502e-02
1.414552399646663502e-02
1.412185147751477202e-02
1.412185147751477202e-02
1.411103706614827771e-02
1.411103706614827771e-02
1.410236108339120442e-02
1.410236108339120442e-02
1.406743894715162604e-02
1.406743894715162604e-02
1.404984638606246797e-02
1.404984638606246797e-02
1.404101708838614328e-02
1.404101708838614328e-02
1.403880631766030174e-02
1.403880631766030174e-02
1.396281480344121854e-02
1.396281480344121854e-02
1.392192931277110024e-02
1.392192931277110024e-02
1.388289437705336228e-02
1.388289437705336228e-02
1.386670151179110293e-02
1.386670151179110293e-02
1.386206210302985339e-02
1.386206210302985339e-02
1.385043848610629721e-02
1.385043848610629721e-02
1.383644272033547271e-02
1.383644272033547271e-02
1.382473995428062929e-02
1.382473995428062929e-02
1.381064894451502351e-02
1.380594035437155212e-02
1.376806221198774612e-02
1.376806221198774612e-02
1.374898290103247073e-02
1.374898290103247073e-02
1.372500151152319589e-02
1.372500151152319589e-02
1.366440028759654049e-02
1.366440028759654049e-02
1.366195686843230117e-02
1.366195686843230117e-02
1.363498026591688020e-02
1.363498026591688020e-02
1.359541595840921616e-02
1.359541595840921616e-02
1.356298372806309660e-02
1.356298372806309660e-02
1.352271192852515409e-02
1.352271192852515409e-02
1.345642567274788967e-02
1.345642567274788967e-02
1.344870939765183473e-02
1.344870939765183473e-02
1.337338680978026467e-02
1.337338680978026467e-02
1.333390152341505652e-02
1.333390152341505652e-02
1.330471553458187177e-02
1.330471553458187177e-02
1.328871331269822903e-02
1.328871331269822903e-02
1.327801263943494472e-02
1.327801263943494472e-02
1.322682701378065373e-02
1.322682701378065373e-02
1.317504577244509034e-02
1.317504577244509034e-02
1.314479216238142317e-02
1.314479216238142317e-02
1.311433515619553694e-02
1.311433515619553694e-02
1.294167977821603609e-02
1.294167977821603609e-02
1.275947438008053283e-02
1.275947438008053283e-02
1.275048122022123982e-02
1.275048122022123982e-02
1.273244513755765125e-02
1.273244513755765125e-02
1.271736421641423212e-02
1.271736421641423212e-02
1.267793623154403297e-02
1.267793623154403297e-02
1.267489023228190147e-02
1.267489023228190147e-02
1.264432689527514656e-02
1.264432689527514656e-02
1.259812735232506385e-02
1.259812735232506385e-02
1.256085861766097038e-02
1.256085861766097038e-02
1.240577186799023644e-02
1.240577186799023644e-02
1.236058736190833243e-02
1.235410018791095049e-02
1.231173556566792296e-02
1.231173556566792296e-02
1.230191014564731289e-02
1.230191014564731289e-02
1.224256848644966755e-02
1.224256848644966755e-02
1.222596547307783221e-02
1.222596547307783221e-02
1.221264546821991884e-02
1.221264546821991884e-02
1.218590474147073291e-02
1.218590474147073291e-02
1.214554019356731129e-02
1.214554019356731129e-02
1.213878301874417483e-02
1.213878301874417483e-02
1.210486879007664773e-02
1.210486879007664773e-02
1.206045822382424346e-02
1.206045822382424346e-02
1.191091859441169992e-02
1.191091859441169992e-02
1.190739182952488262e-02
1.190739182952488262e-02
1.179333023999732874e-02
1.179333023999732874e-02
1.172812754771351829e-02
1.172812754771351829e-02
1.171353437812277729e-02
1.171353437812277729e-02
1.159913760159352394e-02
1.159913760159352394e-02
1.157672688145577021e-02
1.157672688145577021e-02
1.150138177352006026e-02
1.150138177352006026e-02
1.144038390275061746e-02
1.144038390275061746e-02
1.134765985753190438e-02
1.134765985753190438e-02
1.133986542929142118e-02
1.133986542929142118e-02
1.128500998227674641e-02
1.128500998227674641e-02
1.122565827828168536e-02
1.122565827828168536e-02
1.120573990807938354e-02
1.120573990807938354e-02
1.111323605951100579e-02
1.111323605951100579e-02
1.100689246969663304e-02
1.100689246969663304e-02
1.098622161880879328e-02
1.098622161880879328e-02
1.093213951702063161e-02
1.093213951702063161e-02
1.082248627079865008e-02
1.082248627079865008e-02
1.070211903511315843e-02
1.070211903511315843e-02
1.066728346497363734e-02
1.066728346497363734e-02
1.065416833542619929e-02
1.065416833542619929e-02
1.060142264101259987e-02
1.060142264101259987e-02
1.059258701832104660e-02
1.058816439061863006e-02
1.050351872368470753e-02
1.050351872368470753e-02
1.049453996224154230e-02
1.049453996224154230e-02
1.048104703603130843e-02
1.048104703603130843e-02
1.023295553736431468e-02
1.023295553736431468e-02
1.020476210400124602e-02
1.020476210400124602e-02
1.018116882506690975e-02
1.018116882506690975e-02
1.009547959564729286e-02
1.009547959564729286e-02
9.949976834098020820e-03
9.949976834098020820e-03
9.920462557271103946e-03
9.920462557271103946e-03
9.826065873052068286e-03
9.826065873052068286e-03
9.821057749008469187e-03
9.821057749008469187e-03
9.795956550144920699e-03
9.795956550144920699e-03
9.606998683856171617e-03
9.606998683856171617e-03
9.449476646961753323e-03
9.449476646961753323e-03
9.401435092091551052e-03
9.401435092091551052e-03
9.374584896452799188e-03
9.374584896452799188e-03
9.369200987042160950e-03
9.369200987042160950e-03
9.353021374590663600e-03
9.353021374590663600e-03
9.121994540377802857e-03
9.121994540377802857e-03
9.088281886711331234e-03
9.088281886711331234e-03
9.014606925347331406e-03
9.014606925347331406e-03
8.997480713578370412e-03
8.997480713578370412e-03
8.963086498954426704e-03
8.963086498954426704e-03
8.928501407614636634e-03
8.928501407614636634e-03
8.887907914024370526e-03
8.887907914024370526e-03
8.835324236592462938e-03
8.835324236592462938e-03
8.728803548082302022e-03
8.728803548082302022e-03
8.608262347082812349e-03
8.608262347082812349e-03
8.231839517141990165e-03
8.231839517141990165e-03
8.027900277652169625e-03
8.027900277652169625e-03
7.906262851741018699e-03
7.906262851741018699e-03
7.809931077390869746e-03
7.809931077390869746e-03
7.802990810813056552e-03
7.802990810813056552e-03
7.775149170471999660e-03
7.775149170471999660e-03
7.525830200131105978e-03
7.525830200131105978e-03
7.445256760677977995e-03
7.445256760677977995e-03
7.326050452485230458e-03
7.326050452485230458e-03
7.227370148144285356e-03
7.227370148144285356e-03
7.142539073684351855e-03
7.142539073684351855e-03
6.880246664576586055e-03
6.880246664576586055e-03
6.823015674558159313e-03
6.823015674558159313e-03
6.748565376186987583e-03
6.748565376186987583e-03
6.647727019854517312e-03
6.647727019854517312e-03
6.570874571154992211e-03
6.570874571154992211e-03
6.431530777988127452e-03
6.431530777988127452e-03
6.396129969366993323e-03
6.396129969366993323e-03
6.324624046326473084e-03
6.324624046326473084e-03
6.113543824203858737e-03
6.113543824203858737e-03
5.961541862341414311e-03
5.961541862341414311e-03
5.804922964928353052e-03
5.804922964928353052e-03
5.754973441639043945e-03
5.754973441639043945e-03
5.539556428093153108e-03
5.539556428093153108e-03
5.465604809833715487e-03
5.465604809833715487e-03
5.444267339506091673e-03
5.444267339506091673e-03
5.180496320940921988e-03
5.180496320940921988e-03
4.960550569693356927e-03
4.960550569693356927e-03
4.912856091037559603e-03
4.912856091037559603e-03
4.716767247515080662e-03
4.716767247515080662e-03
4.550628689664551300e-03
4.550628689664551300e-03
4.350355763228274178e-03
4.350355763228274178e-03
4.196926806260614824e-03
4.196926806260614824e-03
4.007472964232261514e-03
4.007472964232261514e-03
3.823703193807117401e-03
3.823703193807117401e-03
3.663091935255042512e-03
3.663091935255042512e-03
3.299036550710586491e-03
3.299036550710586491e-03
3.262144317401379726e-03
3.262144317401379726e-03
3.224812101178513996e-03
3.224812101178513996e-03
3.129452846758005308e-03
3.129452846758005308e-03
2.970264027989530202e-03
2.970264027989530202e-03
2.949739349611026160e-03
2.949739349611026160e-03
2.866120715994493508e-03
2.866120715994493508e-03
2.502949679805162222e-03
2.502949679805162222e-03
1.889854873162034703e-03
1.889854873162034703e-03
1.823737782126116447e-03
1.823737782126116447e-03
1.489863140884101819e-03
1.489863140884101819e-03
1.447971724692750407e-03
1.447971724692750407e-03
1.314244330377464321e-03
1.314244330377464321e-03
1.266511844633775143e-03
1.266511844633775143e-03
1.216896620176465818e-03
1.216896620176465818e-03
1.165158167257597651e-03
1.165158167257597651e-03
6.087695134299577274e-04
6.087695134299577274e-04
0.000000000000000000e+00
