1.999695777893066406e+00
9.996957778930664062e-01
9.875664710998535156e-01
9.810966253280639648e-01
9.406516551971435547e-01
9.228363633155822754e-01
8.889520168304443359e-01
8.849382400512695312e-01
8.678760528564453125e-01
8.623982667922973633e-01
8.605366945266723633e-01
8.505567312240600586e-01
8.319478034973144531e-01
8.318435549736022949e-01
8.187862634658813477e-01
8.052090406417846680e-01
8.035588264465332031e-01
8.034979104995727539e-01
7.955768704414367676e-01
7.931236028671264648e-01
7.755110263824462891e-01
7.664400339126586914e-01
7.633332014083862305e-01
7.573567628860473633e-01
7.561296820640563965e-01
7.535111308097839355e-01
7.513273358345031738e-01
7.512657642364501953e-01
7.510477304458618164e-01
7.470597028732299805e-01
7.459676265716552734e-01
7.405401468276977539e-01
7.401812076568603516e-01
7.378026247024536133e-01
7.361244559288024902e-01
7.337059378623962402e-01
7.334690093994140625e-01
7.292624115943908691e-01
7.178875803947448730e-01
7.170577049255371094e-01
7.164288163185119629e-01
7.074265480041503906e-01
7.069692611694335938e-01
7.067883610725402832e-01
7.026052474975585938e-01
7.000707387924194336e-01
6.952576637268066406e-01
6.949549913406372070e-01
6.941226720809936523e-01
6.941187977790832520e-01
6.937952041625976562e-01
6.927552223205566406e-01
6.900444626808166504e-01
6.858727931976318359e-01
6.838725805282592773e-01
6.783840656280517578e-01
6.777299046516418457e-01
6.758863925933837891e-01
6.751020550727844238e-01
6.749019622802734375e-01
6.742078065872192383e-01
6.741514205932617188e-01
6.723104715347290039e-01
6.720665097236633301e-01
6.713533401489257812e-01
6.711528897285461426e-01
6.707892417907714844e-01
6.693994402885437012e-01
6.687875986099243164e-01
6.665997505187988281e-01
6.659834980964660645e-01
6.657861471176147461e-01
6.656461954116821289e-01
6.639885306358337402e-01
6.632609367370605469e-01
6.605393886566162109e-01
6.592862606048583984e-01
6.583416461944580078e-01
6.567202806472778320e-01
6.548699140548706055e-01
6.544883847236633301e-01
6.537999510765075684e-01
6.534326672554016113e-01
6.522322893142700195e-01
6.520957946777343750e-01
6.520123481750488281e-01
6.508468389511108398e-01
6.463214755058288574e-01
6.412480473518371582e-01
6.402432918548583984e-01
6.347231864929199219e-01
6.335220336914062500e-01
6.321645379066467285e-01
6.315892934799194336e-01
6.285105943679809570e-01
6.281559467315673828e-01
6.280299425125122070e-01
6.273938417434692383e-01
6.254651546478271484e-01
6.254585385322570801e-01
6.239740848541259766e-01
6.238831281661987305e-01
6.233044862747192383e-01
6.227564215660095215e-01
6.227445006370544434e-01
6.222307085990905762e-01
6.219391226768493652e-01
6.211154460906982422e-01
6.209937930107116699e-01
6.182016730308532715e-01
6.178070306777954102e-01
6.171882152557373047e-01
6.168379783630371094e-01
6.165230870246887207e-01
6.164798140525817871e-01
6.159287095069885254e-01
6.147522926330566406e-01
6.128360033035278320e-01
6.123655438423156738e-01
6.118573546409606934e-01
6.088674664497375488e-01
6.068918108940124512e-01
6.066330075263977051e-01
6.060045361518859863e-01
6.038400530815124512e-01
6.035537719726562500e-01
6.034895777702331543e-01
6.019913554191589355e-01
6.012817025184631348e-01
6.010581254959106445e-01
6.007000803947448730e-01
6.006976962089538574e-01
5.999028682708740234e-01
5.998082160949707031e-01
5.972587466239929199e-01
5.958068966865539551e-01
5.949412584304809570e-01
5.943928360939025879e-01
5.940995812416076660e-01
5.926696062088012695e-01
5.925877690315246582e-01
5.920811295509338379e-01
5.900311470031738281e-01
5.899761319160461426e-01
5.899030566215515137e-01
5.894265770912170410e-01
5.892195701599121094e-01
5.886744260787963867e-01
5.881289243698120117e-01
5.871800780296325684e-01
5.854520201683044434e-01
5.852226614952087402e-01
5.842759609222412109e-01
5.822375416755676270e-01
5.809751152992248535e-01
5.795148015022277832e-01
5.794483423233032227e-01
5.774295926094055176e-01
5.774242877960205078e-01
5.746197104454040527e-01
5.733286738395690918e-01
5.728374719619750977e-01
5.720838308334350586e-01
5.719956755638122559e-01
5.719866752624511719e-01
5.703739523887634277e-01
5.702062845230102539e-01
5.679030418395996094e-01
5.668929219245910645e-01
5.645013451576232910e-01
5.644705295562744141e-01
5.642776489257812500e-01
5.615182518959045410e-01
5.612683892250061035e-01
5.607602000236511230e-01
5.605258941650390625e-01
5.602536797523498535e-01
5.600015521049499512e-01
5.597030520439147949e-01
5.593274235725402832e-01
5.586103796958923340e-01
5.579556822776794434e-01
5.576760768890380859e-01
5.559125542640686035e-01
5.552077293395996094e-01
5.543171763420104980e-01
5.538649559020996094e-01
5.524251461029052734e-01
5.520488619804382324e-01
5.515151023864746094e-01
5.514684319496154785e-01
5.513969659805297852e-01
5.508418083190917969e-01
5.500621795654296875e-01
5.493831038475036621e-01
5.492414236068725586e-01
5.491850376129150391e-01
5.484162569046020508e-01
5.483933091163635254e-01
5.479258894920349121e-01
5.463297367095947266e-01
5.449043512344360352e-01
5.426980853080749512e-01
5.426818132400512695e-01
5.412719249725341797e-01
5.406768321990966797e-01
5.404788255691528320e-01
5.375800728797912598e-01
5.372734665870666504e-01
5.371604561805725098e-01
5.371523499488830566e-01
5.337547659873962402e-01
5.332992672920227051e-01
5.310261845588684082e-01
5.295017361640930176e-01
5.285640358924865723e-01
5.270181894302368164e-01
5.266343355178833008e-01
5.259919762611389160e-01
5.241303443908691406e-01
5.232723355293273926e-01
5.200150609016418457e-01
5.197468996047973633e-01
5.182142853736877441e-01
5.176485776901245117e-01
5.168648362159729004e-01
5.165597200393676758e-01
5.161551237106323242e-01
5.148760080337524414e-01
5.137322545051574707e-01
5.135431289672851562e-01
5.132527351379394531e-01
5.132008790969848633e-01
5.113815069198608398e-01
5.103970766067504883e-01
5.102729797363281250e-01
5.091067552566528320e-01
5.067577958106994629e-01
5.067039728164672852e-01
5.043551325798034668e-01
5.026034116744995117e-01
5.005161762237548828e-01
5.002670884132385254e-01
4.995740950107574463e-01
4.992536604404449463e-01
4.975059926509857178e-01
4.972801804542541504e-01
4.968711733818054199e-01
4.961838424205780029e-01
4.950125813484191895e-01
4.947170019149780273e-01
4.939160048961639404e-01
4.938286244869232178e-01
4.928544759750366211e-01
4.927816689014434814e-01
4.921049475669860840e-01
4.910814464092254639e-01
4.904259741306304932e-01
4.892441034317016602e-01
4.861601293087005615e-01
4.829707741737365723e-01
4.815105497837066650e-01
4.814882874488830566e-01
4.808044433593750000e-01
4.804705381393432617e-01
4.798330962657928467e-01
4.797725081443786621e-01
4.794728457927703857e-01
4.784072637557983398e-01
4.782950282096862793e-01
4.780218601226806641e-01
4.771406352519989014e-01
4.769560694694519043e-01
4.761271178722381592e-01
4.758101403713226318e-01
4.744030237197875977e-01
4.736091196537017822e-01
4.728692173957824707e-01
4.726431965827941895e-01
4.723145365715026855e-01
4.723142087459564209e-01
4.721031785011291504e-01
4.715040326118469238e-01
4.708276093006134033e-01
4.703442454338073730e-01
4.694185853004455566e-01
4.688618779182434082e-01
4.676327705383300781e-01
4.667524695396423340e-01
4.659467041492462158e-01
4.655878543853759766e-01
4.652626812458038330e-01
4.645858705043792725e-01
4.645344018936157227e-01
4.633115530014038086e-01
4.630734920501708984e-01
4.621322751045227051e-01
4.617193341255187988e-01
4.609022736549377441e-01
4.606469869613647461e-01
4.601646661758422852e-01
4.599379301071166992e-01
4.598265588283538818e-01
4.592540860176086426e-01
4.587357044219970703e-01
4.560917615890502930e-01
4.549469053745269775e-01
4.531762301921844482e-01
4.530894458293914795e-01
4.524181485176086426e-01
4.523012936115264893e-01
4.518366456031799316e-01
4.501813948154449463e-01
4.495944380760192871e-01
4.494433701038360596e-01
4.492889940738677979e-01
4.483545720577239990e-01
4.482214152812957764e-01
4.481098055839538574e-01
4.480032920837402344e-01
4.473723769187927246e-01
4.472531676292419434e-01
4.471857249736785889e-01
4.468810856342315674e-01
4.451808333396911621e-01
4.431521892547607422e-01
4.430421888828277588e-01
4.428163170814514160e-01
4.398725628852844238e-01
4.388357698917388916e-01
4.377394020557403564e-01
4.370252192020416260e-01
4.348759949207305908e-01
4.339966773986816406e-01
4.337658882141113281e-01
4.333250820636749268e-01
4.331265985965728760e-01
4.329744577407836914e-01
4.327679574489593506e-01
4.327049255371093750e-01
4.314835667610168457e-01
4.311979711055755615e-01
4.302423000335693359e-01
4.299418628215789795e-01
4.292888641357421875e-01
4.283795356750488281e-01
4.256502389907836914e-01
4.256211519241333008e-01
4.251783490180969238e-01
4.249436259269714355e-01
4.238444268703460693e-01
4.238354563713073730e-01
4.219241142272949219e-01
4.215164184570312500e-01
4.210523664951324463e-01
4.206036925315856934e-01
4.169369935989379883e-01
4.168408215045928955e-01
4.148600399494171143e-01
4.147505760192871094e-01
4.111653566360473633e-01
4.110120832920074463e-01
4.104329049587249756e-01
4.090964794158935547e-01
4.068476557731628418e-01
4.067272245883941650e-01
4.061769545078277588e-01
4.057098627090454102e-01
4.055239856243133545e-01
4.049197733402252197e-01
4.031498432159423828e-01
4.030383527278900146e-01
4.012363553047180176e-01
4.005427360534667969e-01
4.003519415855407715e-01
4.003348946571350098e-01
3.995377421379089355e-01
3.982724249362945557e-01
3.965156078338623047e-01
3.963800072669982910e-01
3.960737884044647217e-01
3.956450223922729492e-01
3.938234746456146240e-01
3.928333222866058350e-01
3.927978873252868652e-01
3.926315903663635254e-01
3.924841582775115967e-01
3.924482464790344238e-01
3.918624222278594971e-01
3.911120295524597168e-01
3.895672857761383057e-01
3.885570764541625977e-01
3.881889581680297852e-01
3.877099156379699707e-01
3.847387433052062988e-01
3.842593431472778320e-01
3.830174803733825684e-01
3.822688162326812744e-01
3.813945651054382324e-01
3.652412891387939453e-01
3.596705198287963867e-01
3.580913543701171875e-01
3.441727757453918457e-01
3.368274867534637451e-01
3.196387290954589844e-01
3.172500133514404297e-01
3.112071752548217773e-01
3.050057888031005859e-01
3.048774003982543945e-01
3.046359121799468994e-01
3.016014099121093750e-01
2.967082858085632324e-01
2.948471903800964355e-01
2.899862527847290039e-01
2.764006853103637695e-01
2.750784158706665039e-01
2.732524275779724121e-01
2.730172872543334961e-01
2.729691267013549805e-01
2.727381587028503418e-01
2.713889181613922119e-01
2.711314260959625244e-01
2.583250701427459717e-01
2.580115199089050293e-01
2.543610036373138428e-01
2.533662021160125732e-01
2.522729039192199707e-01
2.519245743751525879e-01
2.512180209159851074e-01
2.492573857307434082e-01
2.382964193820953369e-01
2.369596362113952637e-01
2.276502549648284912e-01
2.197837233543395996e-01
1.826439201831817627e-01
1.686157286167144775e-01
1.621159017086029053e-01
1.446297168731689453e-01
3.096997737884521484e-03
