0.000000000000000000e+00
0.000000000000000000e+00
0.000000000000000000e+00
2.000000000000000042e-03
2.000000000000000042e-03
4.000000000000000083e-03
4.000000000000000083e-03
6.000000000000000125e-03
6.000000000000000125e-03
8.000000000000000167e-03
8.000000000000000167e-03
1.000000000000000021e-02
1.000000000000000021e-02
1.200000000000000025e-02
1.200000000000000025e-02
1.400000000000000029e-02
1.400000000000000029e-02
1.600000000000000033e-02
1.600000000000000033e-02
1.799999999999999864e-02
1.799999999999999864e-02
2.199999999999999872e-02
2.199999999999999872e-02
2.400000000000000050e-02
2.400000000000000050e-02
2.599999999999999881e-02
2.599999999999999881e-02
2.800000000000000058e-02
2.800000000000000058e-02
2.999999999999999889e-02
2.999999999999999889e-02
3.200000000000000067e-02
3.200000000000000067e-02
3.400000000000000244e-02
3.400000000000000244e-02
3.599999999999999728e-02
3.599999999999999728e-02
4.200000000000000261e-02
4.200000000000000261e-02
4.599999999999999922e-02
4.599999999999999922e-02
5.399999999999999939e-02
5.399999999999999939e-02
5.600000000000000117e-02
5.600000000000000117e-02
6.400000000000000133e-02
6.400000000000000133e-02
6.600000000000000311e-02
6.600000000000000311e-02
7.399999999999999634e-02
7.399999999999999634e-02
7.599999999999999811e-02
7.599999999999999811e-02
7.799999999999999989e-02
7.799999999999999989e-02
8.200000000000000344e-02
8.200000000000000344e-02
8.400000000000000522e-02
8.400000000000000522e-02
8.599999999999999312e-02
8.599999999999999312e-02
8.799999999999999489e-02
8.799999999999999489e-02
8.999999999999999667e-02
8.999999999999999667e-02
9.600000000000000200e-02
9.600000000000000200e-02
1.000000000000000056e-01
1.000000000000000056e-01
1.059999999999999970e-01
1.059999999999999970e-01
1.079999999999999988e-01
1.079999999999999988e-01
1.100000000000000006e-01
1.100000000000000006e-01
1.160000000000000059e-01
1.160000000000000059e-01
1.260000000000000009e-01
1.260000000000000009e-01
1.300000000000000044e-01
1.300000000000000044e-01
1.340000000000000080e-01
1.340000000000000080e-01
1.400000000000000133e-01
1.400000000000000133e-01
1.419999999999999873e-01
1.419999999999999873e-01
1.459999999999999909e-01
1.459999999999999909e-01
1.479999999999999927e-01
1.479999999999999927e-01
1.519999999999999962e-01
1.519999999999999962e-01
1.539999999999999980e-01
1.539999999999999980e-01
1.640000000000000069e-01
1.640000000000000069e-01
1.660000000000000087e-01
1.660000000000000087e-01
1.680000000000000104e-01
1.680000000000000104e-01
1.739999999999999880e-01
1.739999999999999880e-01
1.799999999999999933e-01
1.799999999999999933e-01
1.819999999999999951e-01
1.819999999999999951e-01
1.880000000000000004e-01
1.880000000000000004e-01
1.940000000000000058e-01
1.940000000000000058e-01
2.020000000000000129e-01
2.020000000000000129e-01
2.039999999999999869e-01
2.039999999999999869e-01
2.099999999999999922e-01
2.099999999999999922e-01
2.139999999999999958e-01
2.139999999999999958e-01
2.240000000000000047e-01
2.240000000000000047e-01
2.260000000000000064e-01
2.260000000000000064e-01
2.280000000000000082e-01
2.280000000000000082e-01
2.300000000000000100e-01
2.300000000000000100e-01
2.340000000000000135e-01
2.340000000000000135e-01
2.419999999999999929e-01
2.419999999999999929e-01
2.439999999999999947e-01
2.439999999999999947e-01
2.479999999999999982e-01
2.479999999999999982e-01
2.620000000000000107e-01
2.640000000000000124e-01
2.640000000000000124e-01
2.680000000000000160e-01
2.680000000000000160e-01
2.700000000000000178e-01
2.700000000000000178e-01
2.720000000000000195e-01
2.740000000000000213e-01
2.740000000000000213e-01
2.800000000000000266e-01
2.800000000000000266e-01
2.839999999999999747e-01
2.839999999999999747e-01
2.879999999999999782e-01
2.879999999999999782e-01
2.939999999999999836e-01
2.939999999999999836e-01
3.019999999999999907e-01
3.019999999999999907e-01
3.200000000000000067e-01
3.200000000000000067e-01
3.220000000000000084e-01
3.220000000000000084e-01
3.260000000000000120e-01
3.260000000000000120e-01
3.400000000000000244e-01
3.400000000000000244e-01
3.420000000000000262e-01
3.420000000000000262e-01
3.439999999999999725e-01
3.439999999999999725e-01
3.499999999999999778e-01
3.499999999999999778e-01
3.519999999999999796e-01
3.519999999999999796e-01
3.539999999999999813e-01
3.539999999999999813e-01
3.579999999999999849e-01
3.579999999999999849e-01
3.739999999999999991e-01
3.739999999999999991e-01
3.780000000000000027e-01
3.780000000000000027e-01
3.800000000000000044e-01
3.800000000000000044e-01
3.820000000000000062e-01
3.820000000000000062e-01
3.840000000000000080e-01
3.840000000000000080e-01
3.880000000000000115e-01
3.880000000000000115e-01
3.900000000000000133e-01
3.900000000000000133e-01
3.940000000000000169e-01
3.940000000000000169e-01
3.980000000000000204e-01
3.980000000000000204e-01
4.060000000000000275e-01
4.060000000000000275e-01
4.099999999999999756e-01
4.099999999999999756e-01
4.159999999999999809e-01
4.159999999999999809e-01
4.199999999999999845e-01
4.199999999999999845e-01
4.279999999999999916e-01
4.279999999999999916e-01
4.299999999999999933e-01
4.299999999999999933e-01
4.520000000000000129e-01
4.520000000000000129e-01
4.540000000000000147e-01
4.540000000000000147e-01
4.580000000000000182e-01
4.580000000000000182e-01
4.699999999999999734e-01
4.699999999999999734e-01
4.719999999999999751e-01
4.719999999999999751e-01
4.839999999999999858e-01
4.839999999999999858e-01
4.919999999999999929e-01
4.919999999999999929e-01
4.939999999999999947e-01
4.939999999999999947e-01
4.959999999999999964e-01
4.959999999999999964e-01
5.000000000000000000e-01
5.000000000000000000e-01
5.100000000000000089e-01
5.100000000000000089e-01
5.140000000000000124e-01
5.140000000000000124e-01
5.180000000000000160e-01
5.180000000000000160e-01
5.200000000000000178e-01
5.200000000000000178e-01
5.360000000000000320e-01
5.360000000000000320e-01
5.460000000000000409e-01
5.460000000000000409e-01
5.480000000000000426e-01
5.480000000000000426e-01
5.520000000000000462e-01
5.520000000000000462e-01
5.540000000000000480e-01
5.540000000000000480e-01
5.580000000000000515e-01
5.580000000000000515e-01
5.639999999999999458e-01
5.639999999999999458e-01
5.659999999999999476e-01
5.659999999999999476e-01
5.739999999999999547e-01
5.739999999999999547e-01
5.779999999999999583e-01
5.779999999999999583e-01
5.799999999999999600e-01
5.799999999999999600e-01
5.819999999999999618e-01
5.819999999999999618e-01
5.859999999999999654e-01
5.859999999999999654e-01
5.919999999999999707e-01
5.919999999999999707e-01
6.019999999999999796e-01
6.019999999999999796e-01
6.119999999999999885e-01
6.119999999999999885e-01
6.260000000000000009e-01
6.260000000000000009e-01
6.320000000000000062e-01
6.320000000000000062e-01
6.440000000000000169e-01
6.440000000000000169e-01
6.500000000000000222e-01
6.500000000000000222e-01
6.520000000000000240e-01
6.520000000000000240e-01
6.540000000000000258e-01
6.540000000000000258e-01
6.580000000000000293e-01
6.580000000000000293e-01
6.600000000000000311e-01
6.600000000000000311e-01
6.879999999999999449e-01
6.879999999999999449e-01
6.919999999999999485e-01
6.919999999999999485e-01
6.979999999999999538e-01
6.979999999999999538e-01
7.159999999999999698e-01
7.159999999999999698e-01
7.239999999999999769e-01
7.239999999999999769e-01
7.359999999999999876e-01
7.359999999999999876e-01
7.399999999999999911e-01
7.399999999999999911e-01
7.419999999999999929e-01
7.419999999999999929e-01
7.620000000000000107e-01
7.620000000000000107e-01
7.640000000000000124e-01
7.640000000000000124e-01
7.660000000000000142e-01
7.660000000000000142e-01
7.680000000000000160e-01
7.680000000000000160e-01
7.740000000000000213e-01
7.740000000000000213e-01
7.780000000000000249e-01
7.780000000000000249e-01
7.800000000000000266e-01
7.800000000000000266e-01
7.860000000000000320e-01
7.860000000000000320e-01
7.960000000000000409e-01
7.960000000000000409e-01
8.060000000000000497e-01
8.060000000000000497e-01
8.100000000000000533e-01
8.100000000000000533e-01
8.239999999999999547e-01
8.239999999999999547e-01
8.259999999999999565e-01
8.259999999999999565e-01
8.279999999999999583e-01
8.279999999999999583e-01
8.539999999999999813e-01
8.539999999999999813e-01
8.639999999999999902e-01
8.639999999999999902e-01
9.020000000000000240e-01
9.020000000000000240e-01
9.040000000000000258e-01
9.040000000000000258e-01
9.060000000000000275e-01
9.060000000000000275e-01
9.100000000000000311e-01
9.100000000000000311e-01
9.200000000000000400e-01
9.200000000000000400e-01
9.320000000000000506e-01
9.320000000000000506e-01
9.399999999999999467e-01
9.399999999999999467e-01
9.499999999999999556e-01
9.499999999999999556e-01
9.619999999999999662e-01
9.619999999999999662e-01
9.639999999999999680e-01
9.639999999999999680e-01
9.699999999999999734e-01
9.699999999999999734e-01
9.719999999999999751e-01
9.719999999999999751e-01
9.759999999999999787e-01
9.759999999999999787e-01
9.799999999999999822e-01
9.799999999999999822e-01
9.939999999999999947e-01
9.939999999999999947e-01
9.979999999999999982e-01
9.979999999999999982e-01
1.000000000000000000e+00
