0.000000000000000000e+00
9.477341399358787596e-03
4.534666470645884462e-02
4.534666470645884462e-02
4.623310502226732344e-02
4.623310502226732344e-02
4.794559416672192209e-02
4.877376343896378669e-02
5.621458885378420589e-02
5.621458885378420589e-02
5.688778427747032129e-02
5.688778427747032129e-02
5.820154637120907026e-02
5.820154637120907026e-02
5.947419608536125279e-02
5.947419608536125279e-02
6.070831903454418366e-02
6.070831903454418366e-02
6.131166283832138741e-02
6.131166283832138741e-02
6.249223951819937728e-02
6.249223951819937728e-02
6.363961030678927377e-02
6.363961030678927377e-02
6.475554030351379775e-02
6.475554030351379775e-02
6.530222048292079473e-02
6.584162816941876994e-02
6.689932735087850135e-02
6.689932735087850135e-02
6.741795013199378128e-02
6.741795013199378128e-02
6.792996393345133999e-02
6.792996393345133999e-02
6.991480529902090180e-02
6.991480529902090180e-02
7.039588056129421345e-02
7.039588056129421345e-02
7.087115068912033800e-02
7.087115068912033800e-02
7.316433557410331745e-02
7.316433557410331745e-02
7.404471621932248726e-02
7.404471621932248726e-02
7.490514001054933424e-02
7.490514001054933424e-02
7.574628703771557614e-02
7.574628703771557614e-02
7.656879259855152442e-02
7.656879259855152442e-02
7.776888838089432432e-02
7.776888838089432432e-02
7.968374991176055411e-02
7.968374991176055411e-02
8.288256752779803171e-02
8.288256752779803171e-02
8.321958904008117108e-02
8.321958904008117108e-02
8.388313298870041235e-02
8.388313298870041235e-02
8.516936068798450221e-02
8.516936068798450221e-02
8.548262981448336018e-02
8.548262981448336018e-02
8.609947735033006422e-02
8.609947735033006422e-02
8.700103447660838263e-02
8.700103447660838263e-02
8.927205609819904852e-02
8.927205609819904852e-02
8.954283890965263060e-02
8.954283890965263060e-02
9.059801322324900763e-02
9.059801322324900763e-02
9.085493932637894732e-02
9.085493932637894732e-02
9.136071365745782047e-02
9.136071365745782047e-02
9.160960648316310295e-02
9.160960648316310295e-02
9.185586535436918165e-02
9.185586535436918165e-02
9.209951139935543263e-02
9.209951139935543263e-02
9.234056530041387378e-02
9.234056530041387378e-02
9.257904730553237482e-02
9.257904730553237482e-02
9.327925814456287934e-02
9.327925814456287934e-02
9.417802291405356907e-02
9.417802291405356907e-02
9.439661010862626656e-02
9.439661010862626656e-02
9.482657855263998403e-02
9.482657855263998403e-02
9.545375843831399587e-02
9.545375843831399587e-02
9.565814131583363911e-02
9.565814131583363911e-02
9.586021072374083241e-02
9.586021072374083241e-02
9.605998126170960105e-02
9.605998126170960105e-02
9.625746724280667688e-02
9.625746724280667688e-02
9.702484217972218161e-02
9.702484217972218161e-02
9.793426366701289687e-02
9.793426366701289687e-02
9.828285710132769748e-02
9.828285710132769748e-02
9.845394862574075034e-02
9.845394862574075034e-02
9.878977679901904119e-02
9.878977679901904119e-02
9.943631127510714485e-02
9.943631127510714485e-02
9.959277082198285391e-02
9.959277082198285391e-02
9.989954954853400015e-02
9.989954954853400015e-02
1.001982035767108870e-01
1.001982035767108870e-01
1.003445065760951299e-01
1.003445065760951299e-01
1.004888053466653497e-01
1.004888053466653497e-01
1.007714245210416804e-01
1.007714245210416804e-01
1.010461280801991102e-01
1.010461280801991102e-01
1.011805317242403107e-01
1.011805317242403107e-01
1.013129804121860739e-01
1.013129804121860739e-01
1.014434818014444961e-01
1.014434818014444961e-01
1.018233764908628436e-01
1.018233764908628436e-01
1.019461622622450658e-01
1.019461622622450658e-01
1.023030791325461597e-01
1.023030791325461597e-01
1.025315561181044388e-01
1.025315561181044388e-01
1.029660138103830891e-01
1.029660138103830891e-01
1.030699762297440369e-01
1.030699762297440369e-01
1.031720892489824543e-01
1.031720892489824543e-01
1.035621552498788012e-01
1.035621552498788012e-01
1.038355430476481794e-01
1.038355430476481794e-01
1.039230484541326383e-01
1.039230484541326383e-01
1.040087496319420379e-01
1.040087496319420379e-01
1.041747570191550731e-01
1.041747570191550731e-01
1.042550718190726755e-01
1.042550718190726755e-01
1.044853099722635736e-01
1.044853099722635736e-01
1.045585003718014494e-01
1.045585003718014494e-01
1.048335824056394749e-01
1.048335824056394749e-01
1.050805405391502662e-01
1.050805405391502662e-01
1.052995726487054862e-01
1.052995726487054862e-01
1.054456257983232004e-01
1.054456257983232004e-01
1.054908526840123706e-01
1.054908526840123706e-01
1.056545313746646841e-01
1.056545313746646841e-01
1.057260611202365808e-01
1.057260611202365808e-01
1.057907368345641086e-01
1.057907368345641086e-01
1.058205084092870979e-01
1.058485710815219305e-01
1.058485710815219305e-01
1.058749262101277566e-01
1.058749262101277566e-01
1.058995750699689986e-01
1.058995750699689986e-01
1.059225188522252004e-01
1.059225188522252004e-01
1.059437586646801988e-01
1.059437586646801988e-01
1.059632955319906866e-01
1.059632955319906866e-01
1.059811303959341672e-01
1.059811303959341672e-01
1.060116974677794699e-01
1.060116974677794699e-01
1.060354657649976995e-01
1.060354657649976995e-01
1.060626230111248874e-01
1.060626230111248874e-01
1.060651686464505750e-01
1.060651686464505750e-01
1.060583801498024004e-01
1.060583801498024004e-01
1.060524398587792960e-01
1.060524398587792960e-01
1.060448018528018232e-01
1.060448018528018232e-01
1.060354657649976995e-01
1.060354657649976995e-01
1.060116974677794699e-01
1.060116974677794699e-01
1.059437586646801988e-01
1.059437586646801988e-01
1.058995750699689986e-01
1.058995750699689986e-01
1.057907368345641086e-01
1.057907368345641086e-01
1.057592549141681548e-01
1.057592549141681548e-01
1.057260611202365808e-01
1.057260611202365808e-01
1.056161919404406402e-01
1.056161919404406402e-01
1.055343545960271689e-01
1.055343545960271689e-01
1.054908526840123706e-01
1.054908526840123706e-01
1.053986717183855171e-01
1.053986717183855171e-01
1.053499881347881306e-01
1.053499881347881306e-01
1.050805405391502662e-01
1.050805405391502662e-01
1.050214263852857766e-01
1.050214263852857766e-01
1.047674567792881012e-01
1.047674567792881012e-01
1.044103443151108424e-01
1.044103443151108424e-01
1.042550718190726755e-01
1.042550718190726755e-01
1.040087496319420379e-01
1.040087496319420379e-01
1.038355430476481794e-01
1.038355430476481794e-01
1.034673861658832045e-01
1.034673861658832045e-01
1.032723583540145484e-01
1.032723583540145484e-01
1.029660138103830891e-01
1.029660138103830891e-01
1.027525182173167073e-01
1.027525182173167073e-01
1.023030791325461597e-01
1.023030791325461597e-01
1.021860068698253743e-01
1.021860068698253743e-01
1.020670367944519069e-01
1.020670367944519069e-01
1.016986725577084250e-01
1.016986725577084250e-01
1.013129804121860739e-01
1.013129804121860739e-01
1.011805317242403107e-01
1.004888053466653497e-01
1.004888053466653497e-01
1.000498875561586926e-01
1.000498875561586926e-01
9.974718041127779433e-02
9.974718041127779433e-02
9.943631127510714485e-02
9.943631127510714485e-02
9.927779207859126209e-02
9.927779207859126209e-02
9.911720335037707552e-02
9.911720335037707552e-02
9.757704648122939028e-02
9.757704648122939028e-02
9.702484217972220937e-02
9.702484217972220937e-02
9.664564139163234202e-02
9.664564139163234202e-02
9.645268269986066734e-02
9.645268269986066734e-02
9.625746724280667688e-02
9.625746724280667688e-02
9.586021072374084628e-02
9.586021072374084628e-02
9.565814131583365298e-02
9.565814131583365298e-02
9.524704719832527422e-02
9.524704719832527422e-02
9.503799240303847928e-02
9.503799240303847928e-02
9.482657855263998403e-02
9.482657855263998403e-02
9.461278983308757384e-02
9.461278983308757384e-02
9.417802291405356907e-02
9.417802291405356907e-02
9.395701144672494176e-02
9.395701144672494176e-02
9.350764674613515348e-02
9.350764674613515348e-02
9.327925814456287934e-02
9.327925814456287934e-02
9.304837451562493478e-02
9.304837451562493478e-02
9.281497723966752877e-02
9.281497723966752877e-02
9.257904730553237482e-02
9.257904730553237482e-02
9.234056530041387378e-02
9.234056530041387378e-02
9.185586535436918165e-02
9.185586535436918165e-02
9.160960648316310295e-02
9.160960648316310295e-02
9.136071365745782047e-02
9.136071365745782047e-02
9.110916529087509375e-02
9.110916529087509375e-02
9.059801322324900763e-02
9.059801322324900763e-02
9.033836394356496713e-02
9.033836394356496713e-02
8.954283890965263060e-02
8.954283890965263060e-02
8.927205609819904852e-02
8.927205609819904852e-02
8.899842695239056078e-02
8.899842695239056078e-02
8.844252370890373638e-02
8.844252370890373638e-02
8.816019509960262845e-02
8.816019509960262845e-02
8.758664281726979972e-02
8.758664281726979972e-02
8.729536070147142501e-02
8.729536070147142501e-02
8.670363314187011505e-02
8.670363314187011505e-02
8.548262981448334630e-02
8.548262981448334630e-02
8.516936068798448833e-02
8.516936068798448833e-02
8.485281374238570762e-02
8.485281374238570762e-02
8.453295215476623603e-02
8.453295215476623603e-02
8.388313298870041235e-02
8.388313298870041235e-02
8.321958904008117108e-02
8.321958904008117108e-02
8.288256752779801784e-02
8.288256752779801784e-02
8.184998472815986637e-02
8.184998472815986637e-02
8.114320673968955511e-02
8.114320673968955511e-02
8.042126584430266123e-02
8.042126584430266123e-02
8.005448144857350845e-02
8.005448144857350845e-02
6.131166283832137354e-02
6.131166283832137354e-02
6.070831903454418366e-02
6.070831903454418366e-02
6.009592332263477554e-02
6.009592332263477554e-02
5.947419608536123892e-02
5.947419608536123892e-02
5.884284153573821757e-02
5.884284153573821757e-02
5.754997827975261854e-02
5.754997827975261854e-02
5.688778427747031435e-02
5.688778427747031435e-02
5.621458885378419201e-02
5.621458885378419201e-02
5.552999189627168264e-02
5.552999189627168264e-02
5.483356636222012914e-02
5.483356636222012914e-02
5.412485565800613518e-02
5.412485565800613518e-02
5.266858646290023538e-02
5.266858646290023538e-02
5.191993836668142015e-02
5.191993836668142015e-02
4.958447337624956319e-02
4.958447337624956319e-02
4.877376343896379363e-02
4.877376343896379363e-02
4.794559416672194985e-02
4.794559416672194985e-02
4.709904457629689178e-02
4.709904457629689178e-02
4.623310502226734425e-02
4.623310502226734425e-02
4.534666470645885850e-02
4.534666470645885850e-02
4.443849682426264519e-02
4.443849682426264519e-02
4.255138070615337165e-02
4.255138070615337165e-02
4.156921938165307473e-02
4.156921938165307473e-02
3.844450545916804074e-02
3.844450545916804074e-02
3.499599977140246260e-02
3.499599977140246260e-02
3.375766579608253937e-02
3.375766579608253937e-02
3.246659822032485487e-02
3.246659822032485487e-02
3.111623370525425092e-02
3.111623370525425092e-02
2.820319130878632535e-02
2.820319130878632535e-02
1.889761889762835503e-02
1.889761889762835503e-02
1.638230752977126378e-02
1.638230752977126378e-02
1.338954816265284370e-02
1.338954816265284370e-02
9.477341399358792801e-03
9.477341399358792801e-03
0.000000000000000000e+00
