3.906560540199279785e-01
6.269190311431884766e-01
4.369147717952728271e-01
4.603205323219299316e-01
4.367064833641052246e-01
4.773526787757873535e-01
4.886206686496734619e-01
6.692206263542175293e-01
9.906570911407470703e-01
5.513452291488647461e-01
5.001255869865417480e-01
9.999616742134094238e-01
5.509660243988037109e-01
3.350408077239990234e-01
7.295151352882385254e-01
3.983937501907348633e-01
5.077443122863769531e-01
4.622779786586761475e-01
4.776673316955566406e-01
5.293157100677490234e-01
4.346671700477600098e-01
5.201802849769592285e-01
3.924897313117980957e-01
3.990458250045776367e-01
5.519960522651672363e-01
9.958648681640625000e-01
6.577632427215576172e-01
9.851088523864746094e-01
4.045616388320922852e-01
4.423740804195404053e-01
5.411160588264465332e-01
4.185941517353057861e-01
4.165844619274139404e-01
3.786840438842773438e-01
5.099190473556518555e-01
4.959594607353210449e-01
3.468413650989532471e-01
3.799038529396057129e-01
3.924897313117980957e-01
4.616290330886840820e-01
5.293390154838562012e-01
4.651697278022766113e-01
3.892579078674316406e-01
4.961152076721191406e-01
3.814499378204345703e-01
5.409992337226867676e-01
4.667982757091522217e-01
3.924897313117980957e-01
3.624888062477111816e-01
4.011407792568206787e-01
4.740780293941497803e-01
9.558737277984619141e-01
4.700725972652435303e-01
5.864673852920532227e-01
3.924897313117980957e-01
4.862019717693328857e-01
4.535269737243652344e-01
4.115398526191711426e-01
4.773389399051666260e-01
4.991784691810607910e-01
4.814285039901733398e-01
4.911447763442993164e-01
4.923157989978790283e-01
6.316090226173400879e-01
9.464585781097412109e-01
4.550491571426391602e-01
5.284606814384460449e-01
4.669279158115386963e-01
4.966093599796295166e-01
4.098197221755981445e-01
8.260361552238464355e-01
5.269973278045654297e-01
4.921696186065673828e-01
5.813633203506469727e-01
5.323143005371093750e-01
3.122269511222839355e-01
6.119030117988586426e-01
4.753273427486419678e-01
6.991366744041442871e-01
4.369443356990814209e-01
5.978221893310546875e-01
3.924897313117980957e-01
4.490287005901336670e-01
4.750715792179107666e-01
5.708154439926147461e-01
5.205371975898742676e-01
6.095756292343139648e-01
5.681360960006713867e-01
4.285976290702819824e-01
8.689509630203247070e-01
5.477023124694824219e-01
9.875168800354003906e-01
4.915826916694641113e-01
2.897958159446716309e-01
4.835875630378723145e-01
4.815566539764404297e-01
6.276640892028808594e-01
4.604848325252532959e-01
4.909787476062774658e-01
4.030446112155914307e-01
5.966181159019470215e-01
9.831179380416870117e-01
5.194165706634521484e-01
5.755335688591003418e-01
6.067221760749816895e-01
4.991027116775512695e-01
4.212276339530944824e-01
3.993840515613555908e-01
3.924897313117980957e-01
3.323149681091308594e-01
3.978953957557678223e-01
4.541413486003875732e-01
4.850085079669952393e-01
4.966294169425964355e-01
5.662112832069396973e-01
5.420985221862792969e-01
4.394745826721191406e-01
4.804809093475341797e-01
3.243750631809234619e-01
5.566744804382324219e-01
4.906271696090698242e-01
6.055753231048583984e-01
3.924897313117980957e-01
3.924897313117980957e-01
3.444640934467315674e-01
5.396251082420349121e-01
4.649719297885894775e-01
5.907435417175292969e-01
4.725622534751892090e-01
4.523120820522308350e-01
3.924897313117980957e-01
3.924897313117980957e-01
3.407753109931945801e-01
9.157973527908325195e-01
4.502684772014617920e-01
4.538995027542114258e-01
5.160016417503356934e-01
4.540856182575225830e-01
9.883271455764770508e-01
3.944728374481201172e-01
9.848836660385131836e-01
4.361878037452697754e-01
5.047981739044189453e-01
5.377412438392639160e-01
5.690905451774597168e-01
3.837313950061798096e-01
4.986305832862854004e-01
4.250574707984924316e-01
4.401584267616271973e-01
3.924897313117980957e-01
4.193668961524963379e-01
5.199599862098693848e-01
4.982569813728332520e-01
6.116866469383239746e-01
5.350594520568847656e-01
4.757620096206665039e-01
4.955597519874572754e-01
4.003313183784484863e-01
4.155960679054260254e-01
6.520224809646606445e-01
3.944177031517028809e-01
4.950923025608062744e-01
4.466666877269744873e-01
5.602717399597167969e-01
4.033834636211395264e-01
5.692938566207885742e-01
9.925976991653442383e-01
3.924897313117980957e-01
2.674416303634643555e-01
5.937016606330871582e-01
4.850976765155792236e-01
4.720356166362762451e-01
3.924897313117980957e-01
5.824131965637207031e-01
4.304407835006713867e-01
5.121141672134399414e-01
6.599023938179016113e-01
5.879944562911987305e-01
5.148581862449645996e-01
5.581740736961364746e-01
4.102456569671630859e-01
3.885784745216369629e-01
5.693048834800720215e-01
3.954368829727172852e-01
4.692219495773315430e-01
9.999995231628417969e-01
4.708892405033111572e-01
4.846575260162353516e-01
4.009967446327209473e-01
6.146392226219177246e-01
8.807207345962524414e-01
6.012632846832275391e-01
4.978912770748138428e-01
4.002845585346221924e-01
5.246081948280334473e-01
3.924897313117980957e-01
5.951976776123046875e-01
4.340702891349792480e-01
4.838451147079467773e-01
3.146501779556274414e-01
5.166863203048706055e-01
4.368761181831359863e-01
4.303509593009948730e-01
5.455916523933410645e-01
5.373278856277465820e-01
5.739755034446716309e-01
3.936337232589721680e-01
5.871185660362243652e-01
3.794385492801666260e-01
3.239404857158660889e-01
7.453486919403076172e-01
5.505646467208862305e-01
3.924897313117980957e-01
3.562783300876617432e-01
4.276994764804840088e-01
9.647678136825561523e-01
9.312392473220825195e-01
5.498518943786621094e-01
3.570906519889831543e-01
4.266781806945800781e-01
5.188978910446166992e-01
4.783079624176025391e-01
4.711770713329315186e-01
4.093098342418670654e-01
5.455783605575561523e-01
4.880735874176025391e-01
9.999971389770507812e-01
4.363524019718170166e-01
5.859081149101257324e-01
5.789070129394531250e-01
5.381619930267333984e-01
3.745037019252777100e-01
4.426739215850830078e-01
5.332777500152587891e-01
4.762057960033416748e-01
3.762382864952087402e-01
5.859842896461486816e-01
4.074892699718475342e-01
5.334078669548034668e-01
4.833043813705444336e-01
4.615270495414733887e-01
4.082924723625183105e-01
3.978871107101440430e-01
3.924897313117980957e-01
3.861526846885681152e-01
5.625026226043701172e-01
5.834028124809265137e-01
4.870274960994720459e-01
5.298621654510498047e-01
4.756700694561004639e-01
3.881539106369018555e-01
5.952597856521606445e-01
3.924897313117980957e-01
6.011226177215576172e-01
5.995749235153198242e-01
4.438985586166381836e-01
3.710468411445617676e-01
3.924897313117980957e-01
4.114039242267608643e-01
4.376464784145355225e-01
4.788275063037872314e-01
5.456403493881225586e-01
4.576738476753234863e-01
4.823068082332611084e-01
5.806754827499389648e-01
3.961940407752990723e-01
3.924897313117980957e-01
3.769227564334869385e-01
4.255390465259552002e-01
4.470679163932800293e-01
4.733692705631256104e-01
3.924897313117980957e-01
4.490766823291778564e-01
5.345854163169860840e-01
3.924897313117980957e-01
4.128086566925048828e-01
4.139873087406158447e-01
4.961318075656890869e-01
3.924897313117980957e-01
3.783105015754699707e-01
4.467359781265258789e-01
3.924897313117980957e-01
4.529948830604553223e-01
9.619289040565490723e-01
5.128694176673889160e-01
3.924897313117980957e-01
5.119910240173339844e-01
3.735475540161132812e-01
3.629649877548217773e-01
5.676411390304565430e-01
5.086790323257446289e-01
4.402833580970764160e-01
6.472615599632263184e-01
5.410173535346984863e-01
5.623697042465209961e-01
4.635925590991973877e-01
3.089836239814758301e-01
7.932872176170349121e-01
4.118385016918182373e-01
3.787025511264801025e-01
9.985373020172119141e-01
4.889543652534484863e-01
2.467721104621887207e-01
4.080659151077270508e-01
4.961557090282440186e-01
4.211594760417938232e-01
5.351960659027099609e-01
3.924897313117980957e-01
9.731950163841247559e-01
3.924897313117980957e-01
4.695593714714050293e-01
4.049796164035797119e-01
5.974534749984741211e-01
4.593951106071472168e-01
6.456179618835449219e-01
4.339745044708251953e-01
6.936410665512084961e-01
4.285673797130584717e-01
9.999730587005615234e-01
5.149012804031372070e-01
5.934948921203613281e-01
5.507793426513671875e-01
3.580582141876220703e-01
4.919440150260925293e-01
3.666397929191589355e-01
5.434978008270263672e-01
3.964828252792358398e-01
4.529141485691070557e-01
5.415282249450683594e-01
4.292009174823760986e-01
4.736472964286804199e-01
4.755866825580596924e-01
5.484972000122070312e-01
4.654719829559326172e-01
4.372235536575317383e-01
8.141541481018066406e-01
5.090888142585754395e-01
5.733789205551147461e-01
9.219110012054443359e-01
5.891280174255371094e-01
6.179164052009582520e-01
4.366994500160217285e-01
4.035358726978302002e-01
4.825505614280700684e-01
9.784986972808837891e-01
4.706934988498687744e-01
4.440984725952148438e-01
5.996696949005126953e-01
5.037731528282165527e-01
4.814897179603576660e-01
3.924897313117980957e-01
5.150045752525329590e-01
5.893138647079467773e-01
4.705600440502166748e-01
5.361622571945190430e-01
5.067614316940307617e-01
4.413932561874389648e-01
5.647574067115783691e-01
5.750910639762878418e-01
4.596398472785949707e-01
3.952867984771728516e-01
3.835284411907196045e-01
3.924897313117980957e-01
3.924897313117980957e-01
7.068159580230712891e-01
9.956326484680175781e-01
9.924363493919372559e-01
4.529353082180023193e-01
5.890745520591735840e-01
3.924897313117980957e-01
4.069804251194000244e-01
5.802474617958068848e-01
9.553781151771545410e-01
6.240910887718200684e-01
4.003300666809082031e-01
5.299655795097351074e-01
6.911286711692810059e-01
5.611216425895690918e-01
3.937705457210540771e-01
8.717353343963623047e-01
3.934915065765380859e-01
4.978705048561096191e-01
3.924897313117980957e-01
7.494901418685913086e-01
5.265610218048095703e-01
5.174410343170166016e-01
4.104407131671905518e-01
5.122622847557067871e-01
5.095943212509155273e-01
5.878063440322875977e-01
5.558617711067199707e-01
5.070016384124755859e-01
1.363075077533721924e-01
4.735218286514282227e-01
5.260597467422485352e-01
4.889017343521118164e-01
3.924897313117980957e-01
5.680946707725524902e-01
5.310910344123840332e-01
4.892793297767639160e-01
4.001081585884094238e-01
9.983513355255126953e-01
3.924897313117980957e-01
6.787214279174804688e-01
3.924897313117980957e-01
4.946700930595397949e-01
6.206580400466918945e-01
4.810287952423095703e-01
5.152310132980346680e-01
5.116365551948547363e-01
4.854465723037719727e-01
4.177354872226715088e-01
5.542689561843872070e-01
5.385593771934509277e-01
4.713747501373291016e-01
4.329806268215179443e-01
3.924897313117980957e-01
3.463073372840881348e-01
5.487729907035827637e-01
6.656008958816528320e-01
5.032847523689270020e-01
4.845489859580993652e-01
7.675385475158691406e-01
4.667609930038452148e-01
5.173379778861999512e-01
4.349639415740966797e-01
4.313588738441467285e-01
3.804535567760467529e-01
5.373978614807128906e-01
7.211042046546936035e-01
3.060929179191589355e-01
4.529138505458831787e-01
3.924897313117980957e-01
4.906206130981445312e-01
4.444603621959686279e-01
4.651574790477752686e-01
3.924897313117980957e-01
3.873328268527984619e-01
4.695711731910705566e-01
8.195526599884033203e-01
4.917586743831634521e-01
8.977108001708984375e-01
6.273711919784545898e-01
4.799544215202331543e-01
5.503988265991210938e-01
4.775265157222747803e-01
4.814615845680236816e-01
4.650281369686126709e-01
5.621736645698547363e-01
3.924897313117980957e-01
5.938990712165832520e-01
4.009184241294860840e-01
4.428836107254028320e-01
9.996474981307983398e-01
9.367682337760925293e-01
5.875710844993591309e-01
4.729168415069580078e-01
5.602892041206359863e-01
5.175643563270568848e-01
9.265230894088745117e-01
4.444821476936340332e-01
5.124664902687072754e-01
4.457119107246398926e-01
5.781796574592590332e-01
3.901388943195343018e-01
3.894308209419250488e-01
5.276492834091186523e-01
5.270675420761108398e-01
4.359043836593627930e-01
4.584508836269378662e-01
5.498580336570739746e-01
5.444322824478149414e-01
3.963623046875000000e-01
6.404968500137329102e-01
9.402667880058288574e-01
4.765870571136474609e-01
9.984346628189086914e-01
5.020868778228759766e-01
4.494165778160095215e-01
4.356805086135864258e-01
5.233522057533264160e-01
4.660709500312805176e-01
7.618023157119750977e-01
4.596832394599914551e-01
5.629820227622985840e-01
4.420289099216461182e-01
4.445142149925231934e-01
4.630636274814605713e-01
3.924897313117980957e-01
5.804473161697387695e-01
3.924897313117980957e-01
5.384128093719482422e-01
3.955265283584594727e-01
4.259256720542907715e-01
3.572686016559600830e-01
5.430890321731567383e-01
4.581468105316162109e-01
4.256522655487060547e-01
3.101731240749359131e-01
5.742520093917846680e-01
5.454820394515991211e-01
3.905765414237976074e-01
3.746255338191986084e-01
3.828606903553009033e-01
4.036596417427062988e-01
2.888508737087249756e-01
4.822674393653869629e-01
6.425913572311401367e-01
4.801545441150665283e-01
4.825400114059448242e-01
3.410195708274841309e-01
5.424976348876953125e-01
3.632055521011352539e-01
4.197323024272918701e-01
4.771819114685058594e-01
4.294302761554718018e-01
4.376053214073181152e-01
3.924897313117980957e-01
3.924897313117980957e-01
4.395845234394073486e-01
4.794461429119110107e-01
4.198399484157562256e-01
4.025640189647674561e-01
3.827054500579833984e-01
4.889543652534484863e-01
4.574309587478637695e-01
4.923197627067565918e-01
4.457119107246398926e-01
5.640908479690551758e-01
3.946958184242248535e-01
4.742549657821655273e-01
4.114952981472015381e-01
3.932558596134185791e-01
5.250098705291748047e-01
3.313915133476257324e-01
3.867214620113372803e-01
4.571673274040222168e-01
4.059258103370666504e-01
3.924897313117980957e-01
4.674342274665832520e-01
4.098200798034667969e-01
3.967003226280212402e-01
4.600989520549774170e-01
4.889112710952758789e-01
4.330454170703887939e-01
5.352493524551391602e-01
4.013054966926574707e-01
4.640525579452514648e-01
4.813524186611175537e-01
4.808077216148376465e-01
3.558283448219299316e-01
4.963719248771667480e-01
5.135636329650878906e-01
4.341252446174621582e-01
4.123588502407073975e-01
5.561211705207824707e-01
5.105922222137451172e-01
3.975658714771270752e-01
3.641213178634643555e-01
6.361964941024780273e-01
4.358206987380981445e-01
5.287818312644958496e-01
4.886569082736968994e-01
5.831280946731567383e-01
5.157839059829711914e-01
5.488602519035339355e-01
3.835903108119964600e-01
4.614036679267883301e-01
5.187958478927612305e-01
4.261332452297210693e-01
5.436354279518127441e-01
4.574937224388122559e-01
4.061834514141082764e-01
3.924897313117980957e-01
3.877669870853424072e-01
4.482706487178802490e-01
5.408253073692321777e-01
4.183805286884307861e-01
4.782574474811553955e-01
3.996533453464508057e-01
2.851464152336120605e-01
4.508140087127685547e-01
9.457092285156250000e-01
3.975777626037597656e-01
5.507587194442749023e-01
3.924897313117980957e-01
5.549682378768920898e-01
5.600433349609375000e-01
5.266033411026000977e-01
4.694581925868988037e-01
3.969446420669555664e-01
6.919437646865844727e-01
4.006527066230773926e-01
4.283215999603271484e-01
3.963125646114349365e-01
4.236161708831787109e-01
4.739314913749694824e-01
4.879591763019561768e-01
4.674715697765350342e-01
4.196627736091613770e-01
3.769019246101379395e-01
5.402175784111022949e-01
3.924897313117980957e-01
3.708564043045043945e-01
4.921712577342987061e-01
3.776532709598541260e-01
5.109003186225891113e-01
5.540422201156616211e-01
4.716006815433502197e-01
4.021136164665222168e-01
6.005443334579467773e-01
5.811706185340881348e-01
6.089795231819152832e-01
3.975497186183929443e-01
5.717972517013549805e-01
4.007797241210937500e-01
3.793858289718627930e-01
4.810341000556945801e-01
5.124242901802062988e-01
4.539604783058166504e-01
4.759333431720733643e-01
4.473224282264709473e-01
4.259598255157470703e-01
6.460872888565063477e-01
3.924897313117980957e-01
5.167782306671142578e-01
5.296292901039123535e-01
3.238333463668823242e-01
3.924897313117980957e-01
3.924897313117980957e-01
5.619969964027404785e-01
7.973095774650573730e-01
4.022493064403533936e-01
4.014543294906616211e-01
5.515979528427124023e-01
3.925730586051940918e-01
4.844399392604827881e-01
3.770576417446136475e-01
5.532826185226440430e-01
6.426857709884643555e-01
5.202199220657348633e-01
4.930533170700073242e-01
3.924897313117980957e-01
5.239073634147644043e-01
4.258077740669250488e-01
4.262806475162506104e-01
3.538011908531188965e-01
5.041024088859558105e-01
3.924897313117980957e-01
3.293599486351013184e-01
3.738750219345092773e-01
5.970346331596374512e-01
3.752954602241516113e-01
3.924897313117980957e-01
4.643353521823883057e-01
3.924897313117980957e-01
3.924897313117980957e-01
4.207359552383422852e-01
3.924897313117980957e-01
4.749007225036621094e-01
3.985159099102020264e-01
4.177820980548858643e-01
2.919287085533142090e-01
4.524087309837341309e-01
5.315815210342407227e-01
4.258410036563873291e-01
4.693646132946014404e-01
3.924897313117980957e-01
5.606982707977294922e-01
3.992173373699188232e-01
4.292560219764709473e-01
6.268209218978881836e-01
3.924897313117980957e-01
4.223394393920898438e-01
4.851202070713043213e-01
4.062641859054565430e-01
4.117772579193115234e-01
6.577632427215576172e-01
6.469663381576538086e-01
4.807926714420318604e-01
4.710431694984436035e-01
5.044327974319458008e-01
4.277081787586212158e-01
4.655815958976745605e-01
4.247133731842041016e-01
2.666853666305541992e-01
3.686151504516601562e-01
4.191650748252868652e-01
3.578487932682037354e-01
5.193925499916076660e-01
3.741093873977661133e-01
4.880750179290771484e-01
4.603055119514465332e-01
4.108600318431854248e-01
4.893035292625427246e-01
3.924897313117980957e-01
4.811692535877227783e-01
3.924897313117980957e-01
4.265636801719665527e-01
4.820480346679687500e-01
3.893117308616638184e-01
4.328321814537048340e-01
4.010167121887207031e-01
3.924897313117980957e-01
3.163287639617919922e-01
4.576682150363922119e-01
4.583860337734222412e-01
5.170754194259643555e-01
4.043411016464233398e-01
3.924897313117980957e-01
3.887892365455627441e-01
4.287395179271697998e-01
5.053625702857971191e-01
4.959115087985992432e-01
3.587248921394348145e-01
4.882483780384063721e-01
4.767425954341888428e-01
7.076422572135925293e-01
4.117447733879089355e-01
3.941635787487030029e-01
3.924897313117980957e-01
4.063633680343627930e-01
4.075458347797393799e-01
3.351226449012756348e-01
4.472955763339996338e-01
3.924897313117980957e-01
5.350021123886108398e-01
3.684154748916625977e-01
5.458299517631530762e-01
3.924897313117980957e-01
4.720477759838104248e-01
3.346686065196990967e-01
6.361361145973205566e-01
4.679834842681884766e-01
5.138093233108520508e-01
4.599685072898864746e-01
3.924897313117980957e-01
3.959754109382629395e-01
4.423368275165557861e-01
4.299728274345397949e-01
3.984300196170806885e-01
4.531623423099517822e-01
4.019464254379272461e-01
4.854220449924468994e-01
4.714008867740631104e-01
3.665682077407836914e-01
3.924897313117980957e-01
4.242736399173736572e-01
3.924897313117980957e-01
5.434517860412597656e-01
3.924897313117980957e-01
4.926720857620239258e-01
4.792207479476928711e-01
6.345545649528503418e-01
2.818431258201599121e-01
3.975715339183807373e-01
6.198282241821289062e-01
5.192131996154785156e-01
3.491771221160888672e-01
5.087495446205139160e-01
5.318165421485900879e-01
5.307871103286743164e-01
3.924897313117980957e-01
3.795839846134185791e-01
5.009720325469970703e-01
5.156679749488830566e-01
3.924897313117980957e-01
5.083475112915039062e-01
2.230037748813629150e-01
3.924897313117980957e-01
3.924897313117980957e-01
4.018704295158386230e-01
4.271458089351654053e-01
4.741488099098205566e-01
6.259942650794982910e-01
5.783116817474365234e-01
2.946868538856506348e-01
5.571286678314208984e-01
4.229644536972045898e-01
4.810855686664581299e-01
5.037817358970642090e-01
5.592278242111206055e-01
5.204139947891235352e-01
4.485626220703125000e-01
4.501262605190277100e-01
3.924897313117980957e-01
5.321926474571228027e-01
3.924897313117980957e-01
3.924897313117980957e-01
3.851186037063598633e-01
4.210724830627441406e-01
5.048999786376953125e-01
3.914577364921569824e-01
4.075112044811248779e-01
3.929155766963958740e-01
4.098316431045532227e-01
5.299754142761230469e-01
5.487644672393798828e-01
5.543410181999206543e-01
4.679844677448272705e-01
3.593396544456481934e-01
4.848491251468658447e-01
3.910896182060241699e-01
3.924897313117980957e-01
4.118626117706298828e-01
4.257831573486328125e-01
6.215894818305969238e-01
6.785542964935302734e-01
3.936251997947692871e-01
5.271483659744262695e-01
4.520973265171051025e-01
4.463375806808471680e-01
5.101105570793151855e-01
4.070338606834411621e-01
4.056479632854461670e-01
3.997421562671661377e-01
3.469711244106292725e-01
5.529291629791259766e-01
4.359006285667419434e-01
5.835534334182739258e-01
5.945026278495788574e-01
3.924897313117980957e-01
4.308394193649291992e-01
5.893107652664184570e-01
9.468678236007690430e-01
3.924897313117980957e-01
4.729564189910888672e-01
4.317478835582733154e-01
5.253390669822692871e-01
5.422933101654052734e-01
3.727828562259674072e-01
3.839652538299560547e-01
5.969418287277221680e-01
4.433175027370452881e-01
4.173909425735473633e-01
3.547554612159729004e-01
3.991461992263793945e-01
3.985908925533294678e-01
4.408936202526092529e-01
4.851675331592559814e-01
4.292039275169372559e-01
5.584549307823181152e-01
5.812057256698608398e-01
5.610136389732360840e-01
3.924897313117980957e-01
4.909114539623260498e-01
4.477219879627227783e-01
9.312392473220825195e-01
4.322637319564819336e-01
5.152696967124938965e-01
4.399424791336059570e-01
4.094167351722717285e-01
7.066777944564819336e-01
4.309639334678649902e-01
4.671218991279602051e-01
3.924897313117980957e-01
5.986394882202148438e-01
3.693843781948089600e-01
3.867904841899871826e-01
5.207998156547546387e-01
4.982300996780395508e-01
7.384875416755676270e-01
4.648784399032592773e-01
4.909380376338958740e-01
4.472102224826812744e-01
2.640194296836853027e-01
5.426239967346191406e-01
4.999775588512420654e-01
4.911499023437500000e-01
4.463507235050201416e-01
4.431656301021575928e-01
4.170238971710205078e-01
3.745037019252777100e-01
3.932740986347198486e-01
5.211685895919799805e-01
3.932621479034423828e-01
3.812553286552429199e-01
3.924897313117980957e-01
7.183346748352050781e-01
5.073636770248413086e-01
5.284207463264465332e-01
3.738436698913574219e-01
3.924897313117980957e-01
5.206264257431030273e-01
5.065170526504516602e-01
3.675159215927124023e-01
4.252480864524841309e-01
5.134412646293640137e-01
4.855712354183197021e-01
5.273852348327636719e-01
3.591793775558471680e-01
4.752024412155151367e-01
3.924897313117980957e-01
4.012721180915832520e-01
5.073969364166259766e-01
4.289766848087310791e-01
4.611073434352874756e-01
4.340916275978088379e-01
3.912316560745239258e-01
4.272066652774810791e-01
4.271948933601379395e-01
4.173094332218170166e-01
3.374906182289123535e-01
4.184783399105072021e-01
4.108290374279022217e-01
5.265959501266479492e-01
3.988674879074096680e-01
4.464189410209655762e-01
3.924897313117980957e-01
5.266563892364501953e-01
4.394496381282806396e-01
4.528568387031555176e-01
4.530898034572601318e-01
3.642259836196899414e-01
3.924897313117980957e-01
4.995376467704772949e-01
3.257574439048767090e-01
5.194165110588073730e-01
3.994649052619934082e-01
2.474707961082458496e-01
4.853714108467102051e-01
4.886063933372497559e-01
4.378590881824493408e-01
3.924897313117980957e-01
6.650520563125610352e-01
3.807170689105987549e-01
3.495357334613800049e-01
3.924897313117980957e-01
3.888093829154968262e-01
4.162742793560028076e-01
3.853149414062500000e-01
6.047309637069702148e-01
3.924897313117980957e-01
6.039130091667175293e-01
4.264948964118957520e-01
4.996722936630249023e-01
3.924897313117980957e-01
7.131312489509582520e-01
3.986943960189819336e-01
3.688402771949768066e-01
4.957538545131683350e-01
3.924897313117980957e-01
4.963764846324920654e-01
5.658498406410217285e-01
3.914674222469329834e-01
5.760543346405029297e-01
5.159631967544555664e-01
5.973706245422363281e-01
3.645207881927490234e-01
3.941042423248291016e-01
3.833324313163757324e-01
4.007054567337036133e-01
4.707593321800231934e-01
5.467024445533752441e-01
3.974992036819458008e-01
4.897979199886322021e-01
4.298160672187805176e-01
5.089232921600341797e-01
5.368212461471557617e-01
4.558660686016082764e-01
5.376297235488891602e-01
7.611258029937744141e-01
5.641677975654602051e-01
4.034032821655273438e-01
4.816055893898010254e-01
5.750865936279296875e-01
3.650578260421752930e-01
6.215353608131408691e-01
3.924897313117980957e-01
4.113898575305938721e-01
3.924897313117980957e-01
6.436876058578491211e-01
4.164648354053497314e-01
5.018634796142578125e-01
3.924897313117980957e-01
4.865220487117767334e-01
3.983425796031951904e-01
5.159984827041625977e-01
4.175052046775817871e-01
5.850698947906494141e-01
5.376113653182983398e-01
3.415051102638244629e-01
3.924897313117980957e-01
3.924897313117980957e-01
4.153507053852081299e-01
4.994905292987823486e-01
3.901149928569793701e-01
5.127966403961181641e-01
3.924897313117980957e-01
4.146716594696044922e-01
4.528354108333587646e-01
5.011536478996276855e-01
6.394391655921936035e-01
3.924897313117980957e-01
3.924897313117980957e-01
3.543404936790466309e-01
4.622897505760192871e-01
7.750983834266662598e-01
3.912720680236816406e-01
5.418881773948669434e-01
