8.493167161941528320e-01
6.109251379966735840e-01
7.043003439903259277e-01
9.391556978225708008e-01
5.905047655105590820e-01
9.426599144935607910e-01
1.251164972782135010e-01
7.379593849182128906e-01
7.064380645751953125e-01
1.000000000000000000e+00
1.000000000000000000e+00
7.397434115409851074e-02
1.378297805786132812e-03
1.000000000000000000e+00
7.445168495178222656e-01
4.258920252323150635e-01
1.812304556369781494e-01
1.000000000000000000e+00
1.601913571357727051e-02
1.492512226104736328e-02
1.421095728874206543e-01
4.783681035041809082e-02
3.614374995231628418e-02
9.999500513076782227e-01
9.859736561775207520e-01
9.159445762634277344e-02
1.712220013141632080e-01
1.056259870529174805e-02
1.476046442985534668e-02
4.730993509292602539e-02
7.759748697280883789e-01
1.000000000000000000e+00
2.192744612693786621e-01
8.956720829010009766e-01
8.619115352630615234e-01
1.960941553115844727e-01
3.106538653373718262e-01
1.000000000000000000e+00
4.202988743782043457e-02
5.712475776672363281e-01
3.565109670162200928e-01
9.999192357063293457e-01
7.669202089309692383e-01
2.507984638214111328e-03
5.892899036407470703e-01
1.000000000000000000e+00
7.104926109313964844e-01
1.000000000000000000e+00
4.430404305458068848e-02
7.179203033447265625e-01
8.519232273101806641e-03
9.991521835327148438e-01
7.557169198989868164e-01
9.963984489440917969e-01
1.000000000000000000e+00
9.991354942321777344e-01
1.365951299667358398e-01
8.755516409873962402e-01
2.076163291931152344e-01
9.890428185462951660e-01
2.272799909114837646e-01
1.844848692417144775e-01
1.000000000000000000e+00
5.047994852066040039e-02
9.104623794555664062e-01
4.832199215888977051e-01
9.997963905334472656e-01
2.726233899593353271e-01
1.000000000000000000e+00
9.996476173400878906e-01
1.000000000000000000e+00
3.528508543968200684e-02
8.023709058761596680e-03
3.296416997909545898e-01
3.671336174011230469e-02
1.000000000000000000e+00
3.663016855716705322e-01
9.992700219154357910e-01
1.000000000000000000e+00
4.900228977203369141e-01
5.508875250816345215e-01
1.000000000000000000e+00
1.000000000000000000e+00
8.539133071899414062e-01
7.587937116622924805e-01
1.000000000000000000e+00
3.110170364379882812e-04
1.000000000000000000e+00
9.581315517425537109e-01
1.589089632034301758e-03
9.363490343093872070e-02
9.996568560600280762e-01
6.777313947677612305e-01
3.908748626708984375e-01
8.921617269515991211e-02
3.524553775787353516e-02
2.515679001808166504e-01
6.347661018371582031e-01
1.000000000000000000e+00
1.000000000000000000e+00
9.204059839248657227e-02
7.809854745864868164e-01
9.999998211860656738e-01
2.078967690467834473e-01
9.999997615814208984e-01
1.196953356266021729e-01
1.466155052185058594e-03
9.825686216354370117e-01
1.398445367813110352e-01
9.829308986663818359e-01
2.440540194511413574e-01
4.329124987125396729e-01
1.000000000000000000e+00
6.094146370887756348e-01
9.999076724052429199e-01
4.557135701179504395e-02
9.446666240692138672e-01
1.144319772720336914e-03
2.961322665214538574e-01
2.641975879669189453e-04
8.363336324691772461e-03
1.000000000000000000e+00
5.722995996475219727e-01
7.802197933197021484e-01
1.000000000000000000e+00
8.894103765487670898e-02
9.998129606246948242e-01
9.548037052154541016e-01
9.999992847442626953e-01
3.607726097106933594e-01
9.280236959457397461e-01
1.000000000000000000e+00
1.004810929298400879e-01
1.328885555267333984e-02
2.205493152141571045e-01
2.129495739936828613e-01
9.802820682525634766e-01
9.999890327453613281e-01
3.458307981491088867e-01
2.470747631377889775e-06
3.080644607543945312e-01
5.267920494079589844e-01
1.328498125076293945e-03
9.989681243896484375e-01
1.317828893661499023e-02
9.597193598747253418e-01
1.259267330169677734e-03
2.011426985263824463e-01
2.768518924713134766e-01
8.173888921737670898e-02
5.101582407951354980e-01
3.376300930976867676e-01
9.613276720046997070e-01
5.448955297470092773e-02
9.996113777160644531e-01
3.152706027030944824e-01
4.796361923217773438e-02
9.997285604476928711e-01
9.922162294387817383e-01
9.686899185180664062e-01
8.502755165100097656e-01
3.774474263191223145e-01
8.783916234970092773e-01
7.881522178649902344e-04
7.138710021972656250e-01
6.344810128211975098e-02
9.632091522216796875e-01
6.087159514427185059e-01
5.271131992340087891e-01
1.000000000000000000e+00
1.000000000000000000e+00
9.995594024658203125e-01
6.288284063339233398e-01
9.981496334075927734e-01
9.322507381439208984e-01
7.534262537956237793e-01
2.503293752670288086e-02
3.820616900920867920e-01
5.572676658630371094e-02
9.765574932098388672e-01
1.348426938056945801e-02
8.586632013320922852e-01
2.284079492092132568e-01
7.013580799102783203e-01
1.000000000000000000e+00
9.999985694885253906e-01
8.894667029380798340e-02
1.539326608180999756e-01
9.990285634994506836e-01
3.282470107078552246e-01
1.000000000000000000e+00
9.999917745590209961e-01
1.268612742424011230e-01
1.316842734813690186e-01
2.063571214675903320e-01
9.999053478240966797e-01
5.106524825096130371e-01
8.587793707847595215e-01
1.833503842353820801e-01
9.819196462631225586e-01
3.710646331310272217e-01
7.611215114593505859e-04
8.254485130310058594e-01
1.000000000000000000e+00
6.998022198677062988e-01
3.879129886627197266e-03
6.537184119224548340e-02
1.000000000000000000e+00
2.333936095237731934e-01
1.000000000000000000e+00
1.468658447265625000e-04
7.222669124603271484e-01
4.530834555625915527e-01
7.822912931442260742e-01
9.999995231628417969e-01
8.833467960357666016e-02
5.646473169326782227e-01
5.338559150695800781e-01
9.452544450759887695e-01
5.048374533653259277e-01
4.997912943363189697e-01
2.728199958801269531e-02
4.209008812904357910e-02
2.865673899650573730e-01
8.412830829620361328e-01
9.982519745826721191e-01
2.353770732879638672e-01
1.701131463050842285e-01
9.124578237533569336e-01
3.642653226852416992e-01
9.311037063598632812e-01
5.259454250335693359e-03
1.000000000000000000e+00
6.633422374725341797e-01
9.159530401229858398e-01
9.999674558639526367e-01
1.000000000000000000e+00
9.507790803909301758e-01
2.114332020282745361e-01
3.559361696243286133e-01
1.000000000000000000e+00
1.000000000000000000e+00
1.000000000000000000e+00
5.925893783569335938e-04
9.532700777053833008e-01
5.678400397300720215e-01
7.006172537803649902e-01
1.000000000000000000e+00
9.814122915267944336e-01
3.993848736172367353e-07
1.000000000000000000e+00
5.894765853881835938e-01
1.000000000000000000e+00
3.253412246704101562e-02
9.998896718025207520e-01
1.881843805313110352e-02
3.925371170043945312e-02
1.589114665985107422e-01
5.664334297180175781e-01
1.000000000000000000e+00
1.295191645622253418e-01
9.612150192260742188e-01
1.000000000000000000e+00
9.996235370635986328e-01
1.000000000000000000e+00
8.051785826683044434e-02
3.456650078296661377e-01
1.000000000000000000e+00
7.591959238052368164e-01
1.000000000000000000e+00
4.604786038398742676e-01
5.689319968223571777e-01
1.000000000000000000e+00
5.344312191009521484e-01
3.410867452621459961e-01
4.973411560058593750e-03
1.000000000000000000e+00
1.962925791740417480e-01
1.000000000000000000e+00
3.134850859642028809e-01
9.978561401367187500e-01
7.838030457496643066e-01
2.448324859142303467e-01
2.302478551864624023e-01
9.999377727508544922e-01
9.999934434890747070e-01
3.393644094467163086e-02
1.000000000000000000e+00
1.458992660045623779e-01
9.999978542327880859e-01
1.000000000000000000e+00
2.274995148181915283e-01
3.150019049644470215e-02
9.998649358749389648e-01
1.000000000000000000e+00
9.977167844772338867e-01
7.487066984176635742e-01
2.335536479949951172e-02
1.000000000000000000e+00
8.658303022384643555e-01
9.999763965606689453e-01
1.000000000000000000e+00
6.533931493759155273e-01
1.000000000000000000e+00
7.101466059684753418e-01
4.371766746044158936e-01
1.934456719254740165e-07
1.000000000000000000e+00
4.955227673053741455e-01
4.532171189785003662e-01
6.683604717254638672e-01
3.662691116333007812e-01
1.775159239768981934e-01
1.000000000000000000e+00
9.908828735351562500e-01
1.972496509552001953e-03
9.999046325683593750e-01
9.287255406379699707e-01
1.000000000000000000e+00
9.997462630271911621e-01
1.792628169059753418e-01
2.635682225227355957e-01
4.357345700263977051e-01
3.881249129772186279e-01
1.857775747776031494e-01
1.000000000000000000e+00
2.901065349578857422e-01
8.311023712158203125e-01
1.364918351173400879e-01
3.426700234413146973e-01
2.599393427371978760e-01
9.997254610061645508e-01
1.000000000000000000e+00
3.250039815902709961e-01
1.000000000000000000e+00
2.460427284240722656e-01
9.818938970565795898e-01
9.999353885650634766e-01
9.993741512298583984e-01
1.446211934089660645e-01
9.306862950325012207e-01
5.708953142166137695e-01
7.095404863357543945e-01
1.755805313587188721e-01
8.117115497589111328e-01
3.011381626129150391e-01
3.977085947990417480e-01
1.452536582946777344e-01
2.266468107700347900e-01
9.999604821205139160e-01
9.999995827674865723e-01
4.220160245895385742e-01
3.646135330200195312e-02
9.999701976776123047e-01
1.968818902969360352e-02
9.924639463424682617e-01
5.719244480133056641e-02
1.585996747016906738e-01
7.596966624259948730e-01
2.075434327125549316e-01
9.999333620071411133e-01
2.521632611751556396e-01
3.330057859420776367e-01
9.976841211318969727e-01
1.164916157722473145e-01
5.892150402069091797e-01
1.388026177883148193e-01
9.999958872795104980e-01
9.999971389770507812e-01
6.152562499046325684e-01
2.135744690895080566e-02
2.426094710826873779e-01
1.868821084499359131e-01
9.765226244926452637e-01
9.637746214866638184e-02
9.999905228614807129e-01
3.138695657253265381e-01
1.000000000000000000e+00
9.998889565467834473e-01
4.121943116188049316e-01
1.547133028507232666e-01
1.500624418258666992e-02
5.607035756111145020e-02
1.000000000000000000e+00
4.986774921417236328e-01
1.068267226219177246e-02
1.645624637603759766e-01
1.000000000000000000e+00
5.194231867790222168e-02
6.069779396057128906e-03
9.771540164947509766e-01
9.275565147399902344e-01
1.125308871269226074e-02
3.017771244049072266e-02
1.739439070224761963e-01
3.310846686363220215e-01
9.466633796691894531e-01
6.508710980415344238e-02
9.826584458351135254e-01
8.056538105010986328e-01
1.148224771022796631e-01
7.678528428077697754e-01
2.119800448417663574e-02
1.000000000000000000e+00
9.946033954620361328e-01
3.106328845024108887e-01
7.137238979339599609e-03
4.130570888519287109e-01
6.285886764526367188e-01
1.000000000000000000e+00
5.787301063537597656e-01
9.996932744979858398e-01
9.351609349250793457e-01
9.999971985816955566e-01
2.018775641918182373e-01
1.830652058124542236e-01
1.001049280166625977e-01
8.978983163833618164e-01
6.610256433486938477e-02
2.224949896335601807e-01
2.039805352687835693e-01
2.193841338157653809e-02
4.582369327545166016e-02
1.000000000000000000e+00
2.216715514659881592e-01
7.473943829536437988e-01
3.702169954776763916e-01
3.408639430999755859e-01
1.000000000000000000e+00
1.813929975032806396e-01
8.797001838684082031e-02
1.000000000000000000e+00
2.513107061386108398e-01
9.995371103286743164e-01
1.965136528015136719e-01
2.693604228554136171e-09
9.553968906402587891e-02
9.975862503051757812e-01
9.507446289062500000e-01
2.451753914356231689e-01
1.000000000000000000e+00
1.000000000000000000e+00
1.000000000000000000e+00
1.131420731544494629e-01
1.269474625587463379e-02
6.705585122108459473e-01
3.454845547676086426e-01
4.932054281234741211e-01
9.599038958549499512e-01
1.000000000000000000e+00
2.078413963317871094e-04
6.171888113021850586e-02
9.448379278182983398e-03
8.692950010299682617e-03
8.318734169006347656e-02
2.844384312629699707e-02
3.942983448505401611e-01
8.126829266548156738e-01
6.116622686386108398e-02
8.885185718536376953e-01
5.693843960762023926e-02
4.629940688610076904e-01
9.561032056808471680e-02
5.181729793548583984e-04
5.097031593322753906e-03
1.666454672813415527e-01
9.896982908248901367e-01
2.351858913898468018e-01
5.442724823951721191e-01
2.191876769065856934e-01
9.482014179229736328e-01
3.996321558952331543e-02
5.835584402084350586e-01
2.216999828815460205e-01
2.903906702995300293e-01
8.037406206130981445e-01
7.308121894311625510e-07
9.160987138748168945e-01
6.847147941589355469e-01
8.843073844909667969e-01
1.199865639209747314e-01
5.701047182083129883e-01
3.214796781539916992e-01
9.856325387954711914e-01
1.780673563480377197e-01
9.887581467628479004e-01
4.528081417083740234e-01
1.000000000000000000e+00
9.999996423721313477e-01
7.075490951538085938e-01
5.701851844787597656e-02
1.000000000000000000e+00
7.502400875091552734e-02
1.000000000000000000e+00
3.820372521877288818e-01
5.830096006393432617e-01
3.625114444738564146e-11
3.332340717315673828e-02
2.524273395538330078e-01
9.879146218299865723e-01
3.575226962566375732e-01
4.264035820960998535e-02
1.000000000000000000e+00
6.453186273574829102e-03
9.913853406906127930e-01
4.234515428543090820e-01
4.001335799694061279e-01
7.653495669364929199e-02
6.354619264602661133e-01
9.977047443389892578e-01
6.828340291976928711e-01
9.571655988693237305e-01
9.867351055145263672e-01
5.400679111480712891e-01
9.999996423721313477e-01
9.999944567680358887e-01
1.088473200798034668e-02
1.000000000000000000e+00
8.408422470092773438e-01
6.963831186294555664e-01
9.977136850357055664e-01
8.133289813995361328e-01
9.890290498733520508e-01
9.640946388244628906e-01
9.999463558197021484e-01
2.171558141708374023e-01
5.968871712684631348e-02
2.527818083763122559e-02
1.936324536800384521e-01
1.793137192726135254e-02
6.808719038963317871e-01
1.000000000000000000e+00
4.579690992832183838e-01
9.761016368865966797e-01
1.999256014823913574e-02
1.388318240642547607e-01
1.541104316711425781e-01
2.661089301109313965e-01
3.809034824371337891e-03
1.305514574050903320e-02
1.000000000000000000e+00
5.082735419273376465e-01
9.491596817970275879e-01
5.246672034263610840e-01
2.185349464416503906e-01
9.998818635940551758e-01
8.163954615592956543e-01
1.000000000000000000e+00
7.966879010200500488e-01
1.145564615726470947e-01
9.743921756744384766e-01
9.223326444625854492e-01
1.839233040809631348e-01
3.995441198348999023e-01
9.738067388534545898e-01
9.646852016448974609e-01
1.000000000000000000e+00
9.422436952590942383e-01
9.999997615814208984e-01
9.999977350234985352e-01
9.882535338401794434e-01
1.152515411376953125e-03
2.585712479685753351e-07
6.621328592300415039e-01
9.998613595962524414e-01
9.518672227859497070e-01
2.239780426025390625e-01
1.000000000000000000e+00
1.486243307590484619e-01
1.216156482696533203e-01
3.089880049228668213e-01
3.447240591049194336e-02
8.130937814712524414e-02
2.161969840526580811e-01
2.685365080833435059e-02
2.084477841854095459e-01
5.035221576690673828e-03
1.000000000000000000e+00
4.750293195247650146e-01
9.999977350234985352e-01
3.328900933265686035e-01
6.797244548797607422e-01
8.627345561981201172e-01
4.789264798164367676e-01
9.995301961898803711e-01
9.875364303588867188e-01
2.534448504447937012e-01
8.583050966262817383e-02
2.511932253837585449e-01
1.000000000000000000e+00
8.023637533187866211e-02
6.166580319404602051e-02
5.287153720855712891e-01
1.139162778854370117e-01
8.227193355560302734e-01
1.000000000000000000e+00
9.727833271026611328e-01
2.298895120620727539e-01
9.983805418014526367e-01
6.854029893875122070e-01
3.236225247383117676e-02
9.999992251396179199e-01
2.961637377738952637e-01
7.097149491310119629e-01
1.193333268165588379e-01
2.984180748462677002e-01
1.852170825004577637e-01
9.621203541755676270e-01
4.029674232006072998e-01
3.124541044235229492e-02
3.326249861856922507e-05
0.000000000000000000e+00
9.848916530609130859e-01
1.412941217422485352e-01
6.480538845062255859e-02
2.162556648254394531e-01
3.632200956344604492e-01
7.527366876602172852e-01
4.014408588409423828e-02
9.806103706359863281e-01
4.995996952056884766e-01
6.142206257209181786e-05
1.885998249053955078e-02
9.005482196807861328e-01
1.000000000000000000e+00
1.000000000000000000e+00
9.504508972167968750e-01
2.459795773029327393e-01
2.009142041206359863e-01
1.829898655414581299e-01
1.877217292785644531e-01
9.999253749847412109e-01
1.000000000000000000e+00
4.800242185592651367e-02
7.637673616409301758e-02
9.999543428421020508e-01
9.682953953742980957e-01
5.509671568870544434e-01
9.155966043472290039e-01
9.999970197677612305e-01
6.665861606597900391e-01
2.763020098209381104e-01
1.010861992835998535e-02
5.630331039428710938e-01
2.637469172477722168e-01
7.957273721694946289e-02
8.872051239013671875e-01
9.970934391021728516e-01
8.790869712829589844e-01
7.769154310226440430e-01
9.966737627983093262e-01
9.656484723091125488e-01
2.298709750175476074e-02
5.350518226623535156e-02
1.000000000000000000e+00
3.098660707473754883e-02
9.249812364578247070e-01
2.171915769577026367e-02
9.985929727554321289e-01
9.997706413269042969e-01
2.284930646419525146e-01
1.630555391311645508e-01
9.985644817352294922e-01
2.334713935852050781e-03
9.769877195358276367e-01
8.625519275665283203e-02
2.631235122680664062e-02
6.309788227081298828e-01
1.361155211925506592e-01
7.592770457267761230e-01
1.369775831699371338e-01
4.206380248069763184e-02
1.965120136737823486e-01
1.000000000000000000e+00
9.995564818382263184e-01
2.678150534629821777e-01
9.899500608444213867e-01
6.389566063880920410e-01
9.368482828140258789e-01
7.237414717674255371e-01
9.999983906745910645e-01
1.000000000000000000e+00
1.000000000000000000e+00
7.133104205131530762e-01
4.429518580436706543e-01
9.999998807907104492e-01
3.084613382816314697e-01
9.896755218505859375e-04
7.650269269943237305e-01
9.218952655792236328e-01
4.726220071315765381e-01
6.947138905525207520e-01
3.257232904434204102e-02
5.980254411697387695e-01
1.000000000000000000e+00
4.433605909071047790e-07
2.230774760246276855e-01
2.631481587886810303e-01
4.073288440704345703e-01
9.087610840797424316e-01
7.167977690696716309e-01
7.062107324600219727e-03
9.924200773239135742e-01
2.017858624458312988e-02
8.683685660362243652e-01
1.000000000000000000e+00
2.048101723194122314e-01
5.965120792388916016e-01
9.418946504592895508e-02
9.373558759689331055e-01
4.413048624992370605e-01
5.687615871429443359e-01
9.984990954399108887e-01
9.293525815010070801e-01
2.135220766067504883e-01
4.461709558963775635e-01
6.740870475769042969e-01
9.699421525001525879e-01
5.040917992591857910e-01
1.605731248855590820e-02
9.999839067459106445e-01
5.001472234725952148e-01
8.307082653045654297e-01
9.982327222824096680e-01
1.712493300437927246e-01
1.017248630523681641e-01
5.250043272972106934e-01
1.000000000000000000e+00
2.293874919414520264e-01
9.998555779457092285e-01
3.851148486137390137e-01
9.999768137931823730e-01
7.958645224571228027e-01
2.078159749507904053e-01
7.790011167526245117e-01
6.677511930465698242e-01
1.306770741939544678e-01
1.000000000000000000e+00
1.000000000000000000e+00
7.728487253189086914e-01
4.165831208229064941e-02
9.477349519729614258e-01
3.647005558013916016e-02
9.631252288818359375e-01
9.870421886444091797e-02
1.242198348045349121e-01
8.377574682235717773e-01
1.625899970531463623e-01
2.824022471904754639e-01
5.315601825714111328e-01
1.000000000000000000e+00
9.999989867210388184e-01
9.498784542083740234e-01
8.985325098037719727e-01
9.383037090301513672e-01
3.905687928199768066e-01
2.979525327682495117e-01
4.772841930389404297e-04
9.997260570526123047e-01
4.371578693389892578e-01
1.000000000000000000e+00
9.776757955551147461e-01
1.034367084503173828e-02
9.999675750732421875e-01
1.639154553413391113e-02
1.000000000000000000e+00
6.551158428192138672e-01
5.120177865028381348e-01
2.602394819259643555e-01
3.128928840160369873e-01
9.995399117469787598e-01
8.345785140991210938e-01
1.069501638412475586e-01
4.387696087360382080e-01
0.000000000000000000e+00
1.000000000000000000e+00
8.912843465805053711e-02
9.993026852607727051e-01
9.488348960876464844e-01
1.480930447578430176e-01
1.000000000000000000e+00
5.541188120841979980e-01
2.040376663208007812e-01
3.896951675415039062e-03
9.983046054840087891e-01
1.000000000000000000e+00
4.157391786575317383e-01
2.183803915977478027e-01
2.948844432830810547e-02
1.519115567207336426e-01
9.361635446548461914e-01
5.778348445892333984e-02
1.569504737854003906e-01
1.000000000000000000e+00
9.677371978759765625e-01
9.922918081283569336e-01
6.569880247116088867e-02
7.596919536590576172e-01
8.933108448982238770e-01
1.853887438774108887e-01
9.997198581695556641e-01
1.734536588191986084e-01
4.504073262214660645e-01
9.486796855926513672e-01
8.085786104202270508e-01
8.898169994354248047e-01
9.999916553497314453e-01
7.422256469726562500e-01
1.578286290168762207e-02
1.935654878616333008e-02
2.199760079383850098e-02
9.999981522560119629e-01
9.998759031295776367e-01
8.783128261566162109e-01
8.459072113037109375e-01
6.550688743591308594e-01
7.504394054412841797e-01
5.316078662872314453e-03
8.237251639366149902e-02
2.266138792037963867e-02
7.237747311592102051e-02
4.044336080551147461e-02
2.849687039852142334e-01
7.989007234573364258e-01
4.928013682365417480e-02
7.207841277122497559e-01
9.966915845870971680e-01
9.717708826065063477e-01
8.750705718994140625e-01
7.999677062034606934e-01
9.999995231628417969e-01
6.085718274116516113e-01
9.948537349700927734e-01
9.962204694747924805e-01
9.909836649894714355e-01
5.548561215400695801e-01
9.971946477890014648e-01
9.815802574157714844e-01
9.895222783088684082e-01
8.636248111724853516e-01
9.999934434890747070e-01
6.919959187507629395e-01
8.301451802253723145e-02
3.422789871692657471e-01
9.955054521560668945e-01
9.160773754119873047e-01
1.000000000000000000e+00
4.472545087337493896e-01
2.927989044110290706e-06
1.000000000000000000e+00
9.999956488609313965e-01
3.923706710338592529e-01
9.999832510948181152e-01
9.879711866378784180e-01
9.263169765472412109e-02
6.146016120910644531e-01
1.000000000000000000e+00
9.379552602767944336e-01
8.313509821891784668e-02
9.969888925552368164e-01
8.322393894195556641e-02
3.471427857875823975e-01
9.878419637680053711e-01
9.111769795417785645e-01
9.999741315841674805e-01
9.998848438262939453e-01
2.204228639602661133e-01
5.862790346145629883e-02
6.243798732757568359e-01
3.418706655502319336e-01
3.489338159561157227e-01
2.618714272975921631e-01
4.351353645324707031e-02
3.533405390498955967e-08
9.116023778915405273e-02
9.821577072143554688e-01
9.617424011230468750e-01
5.186076760292053223e-01
2.108941674232482910e-01
9.416155815124511719e-01
6.311689615249633789e-01
1.606068313121795654e-01
4.735151827335357666e-01
5.626505017280578613e-01
9.999994039535522461e-01
8.048686385154724121e-02
2.355873584747314453e-04
2.720010280609130859e-01
9.964337348937988281e-01
9.681453108787536621e-01
9.161434769630432129e-01
3.472610116004943848e-01
1.325638890266418457e-01
1.000000000000000000e+00
3.908006548881530762e-01
3.333441615104675293e-01
1.000000000000000000e+00
1.000000000000000000e+00
2.839847207069396973e-01
4.739845693111419678e-01
5.252238512039184570e-01
6.581262946128845215e-01
9.669114351272583008e-01
9.423946142196655273e-01
5.221056342124938965e-01
2.452448010444641113e-02
2.567051053047180176e-01
4.922899007797241211e-01
1.000000000000000000e+00
3.968589305877685547e-01
6.247699260711669922e-03
4.491198062896728516e-01
5.096938014030456543e-01
5.674098134040832520e-01
9.063546061515808105e-01
5.175297260284423828e-01
8.455593585968017578e-01
5.094446539878845215e-01
1.000000000000000000e+00
9.451496005058288574e-01
8.349806666374206543e-01
5.506921410560607910e-01
2.415507733821868896e-01
1.000000000000000000e+00
9.999939799308776855e-01
9.999879002571105957e-01
1.429574787616729736e-01
9.648739695549011230e-01
7.315347790718078613e-01
9.630679488182067871e-01
2.364420890808105469e-01
9.928964376449584961e-01
9.763950109481811523e-01
9.563758373260498047e-01
4.748365283012390137e-02
9.992597103118896484e-01
9.933198690414428711e-01
8.315966129302978516e-01
9.999653100967407227e-01
5.978215932846069336e-01
2.743296027183532715e-01
9.394832849502563477e-01
6.064144968986511230e-01
1.027464866638183594e-03
5.157177448272705078e-01
7.786093950271606445e-01
4.294174065812284002e-13
8.646047711372375488e-01
8.898654580116271973e-02
8.787617683410644531e-01
7.962483167648315430e-01
7.822988033294677734e-01
8.845961093902587891e-01
6.349866390228271484e-01
9.347971081733703613e-01
1.212833523750305176e-01
1.240673959255218506e-01
9.998824000358581543e-01
1.000000000000000000e+00
9.978088140487670898e-01
7.645040154457092285e-01
9.999990463256835938e-01
1.487791538238525391e-03
2.243583500385284424e-01
4.423933029174804688e-01
6.876087188720703125e-02
9.873726963996887207e-02
5.848407745361328125e-04
1.000000000000000000e+00
9.972064495086669922e-01
7.117165923118591309e-01
4.647608697414398193e-01
9.981457591056823730e-01
6.573263406753540039e-01
3.545764982700347900e-01
4.476817250251770020e-01
1.815285384654998779e-01
6.564440131187438965e-01
6.756948232650756836e-01
3.068089485168457031e-02
6.940707564353942871e-02
1.453995704650878906e-01
1.431502401828765869e-01
4.655024409294128418e-02
3.228091001510620117e-01
4.268677234649658203e-01
4.909575283527374268e-01
2.500286102294921875e-01
5.776178836822509766e-01
3.058939576148986816e-01
5.767144560813903809e-01
1.000000000000000000e+00
3.698306083679199219e-01
1.762875020503997803e-01
9.969499111175537109e-01
1.185992360115051270e-01
4.719479978084564209e-01
2.825633287429809570e-01
2.776979804039001465e-01
1.175706386566162109e-01
1.970683038234710693e-01
9.993851184844970703e-01
7.867022752761840820e-01
2.712905406951904297e-04
5.054041743278503418e-02
5.965504050254821777e-02
8.249743580818176270e-01
1.309759318828582764e-01
9.991391897201538086e-01
6.318458318710327148e-01
1.588943004608154297e-01
1.533010601997375488e-02
1.953998208045959473e-01
3.096635937690734863e-01
1.687688827514648438e-01
5.589646697044372559e-01
3.642547130584716797e-02
8.267029523849487305e-01
1.819973289966583252e-01
1.330283284187316895e-02
2.052277326583862305e-02
3.355672561156097800e-06
5.243088185835631521e-10
1.723662018775939941e-02
4.113560914993286133e-02
5.506546949618496001e-05
1.830600500106811523e-01
5.974838733673095703e-01
5.467238426208496094e-01
6.036609411239624023e-02
6.319921016693115234e-01
1.092397272586822510e-01
7.873626947402954102e-01
3.665592074394226074e-01
1.319612562656402588e-01
3.238902091979980469e-01
2.402985095977783203e-02
9.161305427551269531e-02
7.874369621276855469e-04
6.532651185989379883e-01
3.435681462287902832e-01
9.170338511466979980e-02
6.274542212486267090e-02
1.296862065792083740e-01
5.222442150115966797e-01
7.908463478088378906e-03
1.554614305496215820e-01
3.509220480918884277e-01
2.309104204177856445e-01
1.567004024982452393e-01
9.818172454833984375e-01
9.999639391899108887e-01
6.067274212837219238e-01
5.156432390213012695e-01
9.891819953918457031e-02
2.568155527114868164e-02
7.734959721565246582e-01
6.035268306732177734e-04
1.976233397726900876e-05
3.126621246337890625e-03
2.113819420337677002e-01
9.787850379943847656e-01
1.236271262168884277e-01
4.245299100875854492e-01
1.628953218460083008e-02
1.674478650093078613e-01
2.637186050415039062e-01
7.027515769004821777e-01
1.219646036624908447e-01
6.448591947555541992e-01
3.130420744419097900e-01
7.094757556915283203e-01
4.648765921592712402e-01
1.932754218578338623e-01
6.472538709640502930e-01
1.902077198028564453e-01
1.437650620937347412e-01
8.801040053367614746e-02
1.000000000000000000e+00
4.271622300148010254e-01
2.436155080795288086e-02
8.754798769950866699e-02
3.484354019165039062e-01
6.775110960006713867e-03
5.077528953552246094e-02
4.920544624328613281e-01
1.598040216777008027e-05
1.292760968208312988e-01
1.636579632759094238e-01
2.448448836803436279e-01
3.632605075836181641e-04
8.748650550842285156e-03
9.686391949653625488e-01
5.294007062911987305e-02
3.784216940402984619e-01
7.114033102989196777e-01
7.826027274131774902e-02
5.427268147468566895e-02
9.470741748809814453e-01
3.137474550385377370e-06
2.179135978221893311e-01
1.748409867286682129e-02
8.484178781509399414e-02
9.995526075363159180e-01
1.000000000000000000e+00
1.517665386199951172e-02
6.130972504615783691e-02
3.817573189735412598e-02
8.286207914352416992e-01
4.290415644645690918e-01
1.371166706085205078e-01
8.308058977127075195e-02
3.956682085990905762e-01
2.340212166309356689e-01
6.914556026458740234e-02
2.753785252571105957e-02
7.328119874000549316e-02
2.702906131744384766e-01
1.493990719318389893e-01
2.079475522041320801e-01
5.577477812767028809e-02
2.836027741432189941e-01
9.999401569366455078e-01
9.884521961212158203e-01
2.324441969394683838e-01
9.717653989791870117e-01
2.058706879615783691e-01
1.861685514450073242e-01
7.244339585304260254e-02
2.936747670173645020e-02
2.253344655036926270e-02
4.331771135330200195e-01
8.939669132232666016e-01
3.670775890350341797e-02
7.087540626525878906e-01
4.187307357788085938e-01
9.934467077255249023e-01
2.389881908893585205e-01
8.202123641967773438e-02
2.988314628601074219e-02
1.408157340732074658e-10
3.056308627128601074e-02
9.821233153343200684e-02
9.794909954071044922e-01
0.000000000000000000e+00
1.993673741817474365e-01
7.311592698097229004e-01
9.190550446510314941e-02
9.939664006233215332e-01
5.566404461860656738e-01
2.520876824855804443e-01
8.252084255218505859e-02
9.470547437667846680e-01
5.560815334320068359e-04
1.847380399703979492e-02
3.539406061172485352e-01
2.668758034706115723e-01
9.992835521697998047e-01
2.071717679500579834e-01
3.142308294773101807e-01
1.000000000000000000e+00
4.303192496299743652e-01
6.775588393211364746e-01
5.249083042144775391e-04
1.603485941886901855e-01
1.587156653404235840e-01
1.674474477767944336e-01
5.325877070426940918e-01
3.306584954261779785e-01
5.831626057624816895e-02
8.793586492538452148e-02
7.808665633201599121e-01
1.318584382534027100e-01
8.007001280784606934e-01
6.618353128433227539e-01
1.068338155746459961e-01
1.190809011459350586e-01
6.265130650717765093e-05
2.341806888580322266e-03
6.832110881805419922e-02
3.307290077209472656e-01
2.266705036163330078e-03
9.204893112182617188e-01
8.861988782882690430e-02
9.764921665191650391e-02
4.982822429155930877e-05
4.134207963943481445e-02
8.368793129920959473e-02
1.884530782699584961e-01
4.247554540634155273e-01
6.284660696983337402e-01
6.702200174331665039e-01
5.243142247200012207e-01
4.703661799430847168e-02
5.105715990066528320e-01
9.994784593582153320e-01
9.999747276306152344e-01
4.385745525360107422e-01
1.927410066127777100e-01
3.815788030624389648e-01
1.209157705307006836e-02
2.701280117034912109e-01
9.999994039535522461e-01
4.980469048023223877e-01
9.836163520812988281e-01
4.922679066658020020e-01
1.001098752021789551e-02
1.132553815841674805e-01
1.179411447083111852e-05
8.536360263824462891e-01
5.306690931320190430e-03
3.540103435516357422e-01
2.515619993209838867e-01
8.023437261581420898e-01
1.309010386466979980e-02
2.430209517478942871e-02
3.249970078468322754e-01
1.292420029640197754e-01
4.985606670379638672e-01
9.471015930175781250e-01
1.340152025222778320e-01
6.036623120307922363e-01
1.375898718833923340e-02
2.346570193767547607e-01
9.744819998741149902e-02
2.489428520202636719e-01
3.660097718238830566e-01
2.703917026519775391e-02
4.552754759788513184e-02
4.678913354873657227e-01
9.999925494194030762e-01
3.099816739559173584e-01
8.288770914077758789e-02
9.225801229476928711e-01
2.772491574287414551e-01
3.935143351554870605e-01
8.197725415229797363e-01
3.588853478431701660e-01
8.856073617935180664e-01
3.141402304172515869e-01
1.822889447212219238e-01
2.258665859699249268e-01
2.442654669284820557e-01
1.499445736408233643e-01
2.768876552581787109e-01
1.024439036846160889e-01
1.512523591518402100e-01
1.520276665687561035e-01
3.793746232986450195e-03
9.805300831794738770e-02
3.617390692234039307e-01
1.611727774143218994e-01
5.213120579719543457e-02
9.931271076202392578e-01
8.073135614395141602e-01
6.849825382232666016e-03
2.753610908985137939e-01
4.691341519355773926e-02
2.626918256282806396e-01
2.132543623447418213e-01
6.533505916595458984e-01
7.906144857406616211e-02
2.798361778259277344e-01
6.415411829948425293e-01
2.255982160568237305e-01
3.091986775398254395e-01
1.604604721069335938e-01
4.623127877712249756e-01
2.229944169521331787e-01
9.994890689849853516e-01
1.547270417213439941e-01
4.277732968330383301e-02
6.127064228057861328e-01
3.668549656867980957e-02
1.580271124839782715e-02
2.756565809249877930e-03
1.956484913825988770e-01
8.086434006690979004e-02
4.132458865642547607e-01
5.053052902221679688e-01
4.679277241230010986e-01
3.115269541740417480e-01
2.720861136913299561e-01
2.688020467758178711e-01
4.371050298213958740e-01
2.882843017578125000e-01
8.947539329528808594e-02
3.487968444824218750e-02
2.256357669830322266e-02
1.585752069950103760e-01
2.828775346279144287e-01
4.118655920028686523e-01
1.768428385257720947e-01
8.518265485763549805e-01
1.799143850803375244e-01
5.340316891670227051e-02
1.883536577224731445e-03
5.590993762016296387e-01
3.355971276760101318e-01
1.402773261070251465e-01
8.831858634948730469e-03
4.678931832313537598e-02
2.703569233417510986e-01
1.034262478351593018e-01
8.740532398223876953e-02
9.186986088752746582e-02
7.339680194854736328e-01
5.753046274185180664e-02
1.606595516204833984e-02
2.860667109489440918e-01
2.654346525669097900e-01
1.202583312988281250e-03
7.302239537239074707e-02
1.635865867137908936e-01
1.343646645545959473e-02
3.994072973728179932e-01
1.833162903785705566e-01
3.224027156829833984e-01
3.379427492618560791e-01
9.526447653770446777e-01
9.725791215896606445e-02
3.003408312797546387e-01
3.437801301479339600e-01
7.558751106262207031e-02
6.732353568077087402e-02
2.356937527656555176e-01
6.918004751205444336e-01
9.785888791084289551e-01
2.019737362861633301e-01
7.894738912582397461e-01
8.808019161224365234e-01
9.766746163368225098e-01
5.440741777420043945e-03
3.619518280029296875e-01
2.776524424552917480e-02
1.575137078762054443e-01
8.494198322296142578e-03
2.162011563777923584e-01
3.123533725738525391e-01
2.685188055038452148e-01
2.622610330581665039e-02
1.688688099384307861e-01
5.082551836967468262e-01
1.000000000000000000e+00
2.931706905364990234e-01
7.931128144264221191e-02
9.339210391044616699e-02
2.646184861660003662e-01
6.760382652282714844e-02
7.889419794082641602e-03
9.757436513900756836e-01
1.000000000000000000e+00
2.093011140823364258e-01
5.409240722656250000e-02
1.136089861392974854e-01
3.646765351295471191e-01
8.133377432823181152e-01
3.361025154590606689e-01
3.193578124046325684e-02
1.320928335189819336e-02
2.210736274719238281e-02
4.107847809791564941e-02
9.556990861892700195e-02
7.087910175323486328e-01
3.915385007858276367e-01
2.500951886177062988e-01
4.017187952995300293e-01
1.942362785339355469e-01
6.216466426849365234e-04
5.924335718154907227e-01
7.900897264480590820e-01
5.563115477561950684e-01
3.858079612255096436e-01
2.799749374389648438e-03
2.383995056152343750e-02
2.906386852264404297e-01
3.496831655502319336e-02
1.203162372112274170e-01
4.906368255615234375e-01
1.922481954097747803e-01
4.759207367897033691e-01
5.890407562255859375e-01
2.790221571922302246e-01
5.434082746505737305e-01
9.999928474426269531e-01
2.256065607070922852e-03
5.887989997863769531e-01
1.518027782440185547e-01
1.943995058536529541e-01
1.460224390029907227e-02
2.078243494033813477e-01
3.338843584060668945e-01
5.536782741546630859e-02
3.164722919464111328e-01
4.098802804946899414e-03
8.237817287445068359e-01
1.320659816265106201e-01
6.204581856727600098e-01
3.679866194725036621e-01
1.760531663894653320e-01
5.596020817756652832e-01
2.206491231918334961e-01
1.179859638214111328e-01
3.859364986419677734e-02
3.256528973579406738e-01
8.960700035095214844e-02
2.199631929397583008e-02
5.507827401161193848e-01
3.696298599243164062e-01
4.335543513298034668e-02
6.297612190246582031e-01
3.946104645729064941e-02
9.655004739761352539e-01
1.324225962162017822e-01
1.720669865608215332e-01
3.942896498188019905e-08
1.600272953510284424e-01
4.263106882572174072e-01
9.980821013450622559e-01
2.861770987510681152e-01
8.942922949790954590e-02
3.422951698303222656e-02
3.638020157814025879e-02
6.965801119804382324e-02
4.450613558292388916e-01
5.184864494367502630e-05
3.968632221221923828e-02
3.182898163795471191e-01
4.999067187309265137e-01
5.310589075088500977e-01
1.578119397163391113e-01
1.885725855827331543e-01
1.961750090122222900e-01
1.998155117034912109e-01
2.159008681774139404e-01
2.407964468002319336e-01
2.605725526809692383e-01
2.142867743968963623e-01
6.808528304100036621e-02
4.426348209381103516e-01
3.166350126266479492e-01
5.238786339759826660e-02
1.176601648330688477e-01
5.980259180068969727e-01
4.202561974525451660e-01
1.573376059532165527e-01
9.623888134956359863e-02
8.869290351867675781e-03
1.409382184647256508e-05
2.594064474105834961e-01
4.535807967185974121e-01
9.093850851058959961e-03
3.208639621734619141e-01
2.188429236412048340e-01
2.414990365505218506e-01
8.226349949836730957e-02
1.151976883411407471e-01
2.649760246276855469e-02
1.352648735046386719e-01
1.755760610103607178e-01
7.101875962689518929e-05
1.702017486095428467e-01
1.534627377986907959e-01
2.629680633544921875e-01
5.761876106262207031e-01
6.538360118865966797e-01
4.497927129268646240e-01
9.668735265731811523e-01
1.000000000000000000e+00
1.801522898858820554e-06
2.648444771766662598e-01
3.732266128063201904e-01
7.239678502082824707e-02
5.447043180465698242e-01
9.134706854820251465e-02
9.078571796417236328e-01
5.257753133773803711e-01
9.986481070518493652e-01
4.853824675083160400e-01
3.197291493415832520e-01
2.017470002174377441e-01
3.257106939713594329e-08
9.191443920135498047e-01
4.788553118705749512e-01
6.829645633697509766e-01
3.470872640609741211e-01
1.727621555328369141e-01
8.680737018585205078e-02
6.561237573623657227e-02
2.374561727046966553e-01
9.991831779479980469e-01
5.969362854957580566e-01
1.964746713638305664e-01
5.024965405464172363e-01
2.010861039161682129e-01
1.526941359043121338e-01
1.288275122642517090e-01
1.000000000000000000e+00
1.000000000000000000e+00
3.984304368495941162e-01
3.144724965095520020e-01
6.717629432678222656e-01
7.540496587753295898e-01
6.859320402145385742e-01
3.004534840583801270e-01
1.939602494239807129e-01
4.731228649616241455e-01
6.413865089416503906e-02
5.717306137084960938e-01
1.515050828456878662e-01
7.514507770538330078e-01
5.156739950180053711e-01
8.518916368484497070e-02
2.841190695762634277e-01
2.735648751258850098e-01
7.177060842514038086e-01
4.992083609104156494e-01
9.050503373146057129e-02
4.771106839179992676e-01
7.113261818885803223e-01
2.084735035896301270e-02
4.281502366065979004e-01
2.024467587471008301e-01
7.652950286865234375e-02
2.311066687107086182e-01
2.192378044128417969e-03
9.513443708419799805e-02
2.615594863891601562e-01
1.666724681854248047e-03
1.000000000000000000e+00
5.847864747047424316e-01
5.027137994766235352e-01
2.162082068934978452e-09
1.046520471572875977e-02
6.031063199043273926e-02
1.009523868560791016e-02
1.178349554538726807e-01
3.185999393463134766e-01
3.757703304290771484e-02
3.507048631945508532e-06
1.250611543655395508e-01
9.878933429718017578e-03
3.001243472099304199e-01
2.100744843482971191e-02
5.678558349609375000e-02
1.270741224288940430e-03
3.419215083122253418e-01
3.952417969703674316e-01
1.610242128372192383e-01
2.377550601959228516e-01
1.706650555133819580e-01
2.842208445072174072e-01
1.393234729766845703e-02
1.280133426189422607e-01
6.979184746742248535e-01
2.311539053916931152e-01
1.587848961353302002e-01
3.368401527404785156e-01
5.061861276626586914e-01
3.594688177108764648e-01
4.733465313911437988e-01
6.329476833343505859e-03
2.368073165416717529e-01
5.068942904472351074e-01
3.840233683586120605e-01
2.907941341400146484e-01
1.487931609153747559e-02
5.211788415908813477e-01
1.330647766590118408e-01
4.385100305080413818e-01
3.967398405075073242e-02
9.164666533470153809e-01
6.949249505996704102e-01
2.106457948684692383e-03
3.261720538139343262e-01
2.944022417068481445e-03
1.444757580757141113e-01
9.536450505256652832e-01
2.837859392166137695e-01
2.058699727058410645e-02
4.900116026401519775e-01
6.797677278518676758e-02
3.548633456230163574e-01
2.847033739089965820e-02
7.798696756362915039e-01
9.953515529632568359e-01
3.932669162750244141e-01
3.871686756610870361e-01
2.057785391807556152e-01
4.070138633251190186e-01
1.016643643379211426e-02
3.572238683700561523e-01
1.998358666896820068e-01
3.158721029758453369e-01
2.426146864891052246e-01
4.831164765115025794e-13
1.309965848922729492e-01
9.163790345191955566e-01
9.652816057205200195e-01
7.943707704544067383e-02
8.168469071388244629e-01
2.084278464317321777e-01
9.932013750076293945e-01
5.529898405075073242e-01
9.714875221252441406e-01
3.071098923683166504e-01
8.441810607910156250e-01
2.510736584663391113e-01
3.506335616111755371e-02
5.214447379112243652e-01
9.999344348907470703e-01
4.073533713817596436e-01
3.642590641975402832e-01
1.422232389450073242e-01
9.931839108467102051e-01
3.737515211105346680e-02
1.661470532417297363e-01
4.066620171070098877e-01
5.372475981712341309e-01
3.647544980049133301e-02
9.836027622222900391e-01
9.267313480377197266e-01
2.387207746505737305e-02
3.228747844696044922e-01
9.984806180000305176e-01
4.839351177215576172e-01
8.925374746322631836e-01
7.002546191215515137e-01
7.108343243598937988e-01
1.576855778694152832e-01
2.211666107177734375e-02
3.494677245616912842e-01
4.504090547561645508e-02
9.653238654136657715e-01
6.253539323806762695e-01
4.522495269775390625e-01
1.574681997299194336e-01
1.181497573852539062e-01
3.234236836433410645e-01
4.886207282543182373e-01
9.997782707214355469e-01
3.350144326686859131e-01
2.028697729110717773e-02
6.212325096130371094e-01
2.991253137588500977e-01
4.940915107727050781e-02
3.270593881607055664e-01
9.124225378036499023e-01
5.237777829170227051e-01
2.607997059822082520e-01
1.978933513164520264e-01
5.835551619529724121e-01
9.955140948295593262e-01
6.688443422317504883e-01
8.914211392402648926e-01
2.354979515075683594e-04
4.240727722644805908e-01
5.275894999504089355e-01
5.504018068313598633e-02
3.261308968067169189e-01
1.140180230140686035e-01
3.009464740753173828e-01
3.490795791149139404e-01
7.426536083221435547e-02
1.000000000000000000e+00
5.022093057632446289e-01
3.089004755020141602e-01
3.797256946563720703e-01
2.512872219085693359e-01
5.924600362777709961e-02
1.779651641845703125e-01
1.486268341541290283e-01
2.392180860042572021e-01
3.418893218040466309e-01
5.577209591865539551e-01
1.121853590011596680e-01
2.998062372207641602e-01
9.795086383819580078e-01
2.525400817394256592e-01
3.568838834762573242e-01
5.393030643463134766e-01
6.211677193641662598e-02
7.347238063812255859e-01
7.469602227210998535e-01
8.933638334274291992e-01
4.317057132720947266e-02
4.113873243331909180e-01
1.560841202735900879e-01
3.022765219211578369e-01
1.885249316692352295e-01
7.208168506622314453e-03
3.004759550094604492e-03
9.806581735610961914e-01
3.449246883392333984e-01
1.780626773834228516e-01
3.615713715553283691e-01
1.783473789691925049e-01
5.953416824340820312e-01
9.633786678314208984e-01
4.574802517890930176e-01
1.265913248062133789e-03
3.764977753162384033e-01
2.421257495880126953e-01
3.302186727523803711e-01
2.634727954864501953e-02
5.635392665863037109e-02
8.736538887023925781e-02
3.217577934265136719e-01
3.208126425743103027e-01
1.226809024810791016e-01
1.997772455215454102e-01
3.189676702022552490e-01
2.359518408775329590e-02
6.902000308036804199e-02
7.841169834136962891e-03
6.610417366027832031e-02
9.126552939414978027e-02
3.236132860183715820e-02
3.155782222747802734e-01
6.313475966453552246e-02
1.470437049865722656e-01
4.981338083744049072e-01
2.610155940055847168e-02
2.429312467575073242e-02
2.425108253955841064e-01
3.377759456634521484e-01
2.885571122169494629e-02
3.451286852359771729e-01
2.345178723335266113e-01
7.978108525276184082e-02
1.447726488113403320e-01
1.575979590415954590e-01
2.134802937507629395e-02
5.072205662727355957e-01
7.407256960868835449e-02
6.875693798065185547e-03
1.950696408748626709e-01
1.834760010242462158e-01
9.307190775871276855e-02
2.821310758590698242e-01
4.283793866634368896e-01
2.169395685195922852e-01
1.098066568374633789e-03
5.931556224822998047e-04
2.899787425994873047e-01
1.191014051437377930e-02
2.002510130405426025e-01
2.698677778244018555e-01
3.014338016510009766e-02
5.747079849243164062e-04
9.676202535629272461e-01
5.372774600982666016e-02
3.312574326992034912e-01
1.118092238903045654e-01
3.099296092987060547e-01
4.467719793319702148e-02
1.240867674350738525e-01
2.703033089637756348e-01
4.297536313533782959e-01
3.796401619911193848e-01
9.837864637374877930e-01
3.957876563072204590e-01
2.874643206596374512e-01
2.054212093353271484e-01
7.443964481353759766e-03
3.774884939193725586e-01
8.827124834060668945e-01
4.221375584602355957e-01
2.514503896236419678e-01
9.820750355720520020e-02
4.009365439414978027e-01
4.098021984100341797e-02
1.666513979434967041e-01
3.403601050376892090e-02
6.071611046791076660e-01
3.150749206542968750e-01
2.912086248397827148e-01
4.396869540214538574e-01
7.615205645561218262e-02
5.720138549804687500e-02
3.491878509521484375e-02
2.835151851177215576e-01
1.473876535892486572e-01
3.628534078598022461e-02
9.762257337570190430e-01
4.092939794063568115e-01
2.527388632297515869e-01
3.233404755592346191e-01
1.195359826087951660e-01
3.336889743804931641e-01
1.667653322219848633e-01
2.370758354663848877e-01
2.827705442905426025e-01
2.927872538566589355e-02
4.492321312427520752e-01
6.280032992362976074e-01
9.926852583885192871e-02
7.158210277557373047e-01
3.069398999214172363e-01
5.659309029579162598e-02
9.149634838104248047e-02
4.630344808101654053e-01
2.840697467327117920e-01
1.784682273864746094e-02
3.169657886028289795e-01
2.811184525489807129e-02
3.543198406696319580e-01
2.956202626228332520e-02
9.643765687942504883e-01
1.876039206981658936e-01
6.441924571990966797e-01
4.678156971931457520e-01
4.478587210178375244e-01
1.000000000000000000e+00
1.541961729526519775e-01
5.286774039268493652e-02
3.196038901805877686e-01
6.186226010322570801e-02
1.207923889160156250e-01
3.102101385593414307e-01
3.129803240299224854e-01
2.641981542110443115e-01
6.895527243614196777e-01
1.892603039741516113e-01
2.708077430725097656e-03
8.901745080947875977e-02
2.211478650569915771e-01
6.660383939743041992e-02
1.855110824108123779e-01
5.183681845664978027e-02
3.189881443977355957e-01
9.980878233909606934e-02
3.622960746288299561e-01
1.002313196659088135e-01
1.748234033584594727e-03
3.151082992553710938e-01
3.186608552932739258e-01
1.934427917003631592e-01
1.705411970615386963e-01
1.821684837341308594e-01
1.495160460472106934e-01
6.736493110656738281e-01
1.273858845233917236e-01
5.573153495788574219e-02
9.779900312423706055e-03
1.334369182586669922e-01
1.985818147659301758e-03
2.757909297943115234e-01
3.395998477935791016e-02
6.762434244155883789e-01
1.262424588203430176e-01
4.459106922149658203e-02
2.421085834503173828e-01
3.715080320835113525e-01
2.636430263519287109e-01
1.219876706600189209e-01
9.583849906921386719e-01
5.790120363235473633e-02
5.105277895927429199e-02
1.060023307800292969e-01
2.341106534004211426e-02
8.049547672271728516e-03
3.222575783729553223e-02
2.317562699317932129e-02
1.959135830402374268e-01
4.166329503059387207e-01
1.395490467548370361e-01
4.100120067596435547e-02
9.955127239227294922e-01
8.116877079010009766e-02
1.327675580978393555e-02
5.976809263229370117e-01
2.697914838790893555e-03
2.102831006050109863e-02
1.458960771560668945e-02
3.008520603179931641e-02
1.531967520713806152e-02
3.260940313339233398e-03
2.674165368080139160e-02
1.954236626625061035e-02
5.099475383758544922e-04
2.270758152008056641e-03
3.641691803932189941e-02
2.788484380289446563e-06
2.317515015602111816e-02
1.299178600311279297e-02
2.437055110931396484e-03
2.458781003952026367e-03
2.810472249984741211e-02
3.062051534652709961e-02
1.030451059341430664e-02
9.136319160461425781e-03
2.347158789634704590e-01
2.183595299720764160e-02
9.498864412307739258e-03
5.363583564758300781e-03
5.575716495513916016e-03
8.833628892898559570e-02
1.336428523063659668e-02
2.016943693161010742e-02
5.528616905212402344e-02
1.799598336219787598e-02
1.956170797348022461e-02
1.543465256690979004e-02
4.455980658531188965e-02
1.049056649208068848e-02
4.129800796508789062e-01
9.495731592178344727e-01
1.000000000000000000e+00
2.352029085159301758e-03
2.821295857429504395e-01
8.813801407814025879e-02
5.948570370674133301e-01
5.891150236129760742e-02
8.988142013549804688e-01
7.047590613365173340e-02
5.788127183914184570e-01
2.619869112968444824e-01
3.128049373626708984e-01
8.086046576499938965e-02
2.527390420436859131e-01
2.591782808303833008e-02
3.941715955734252930e-01
5.387730598449707031e-01
1.122616827487945557e-01
4.528455734252929688e-01
3.233806490898132324e-01
1.779909729957580566e-01
2.360434234142303467e-01
1.126602292060852051e-02
3.306705653667449951e-01
3.330746293067932129e-02
1.829768419265747070e-01
2.259605228900909424e-01
3.446485102176666260e-01
3.187794983386993408e-01
1.651392579078674316e-01
5.078589320182800293e-01
1.025513708591461182e-01
2.097021341323852539e-01
3.032758831977844238e-02
8.072036504745483398e-02
3.462567031383514404e-01
1.421281695365905762e-02
3.453053236007690430e-01
1.588752865791320801e-02
4.040853083133697510e-01
1.061364412307739258e-01
2.128041982650756836e-01
3.482492864131927490e-01
1.096500754356384277e-01
2.536193728446960449e-01
8.190616369247436523e-01
3.410843908786773682e-01
2.988208532333374023e-01
1.000000000000000000e+00
4.035237431526184082e-02
6.140768527984619141e-04
4.071307778358459473e-01
2.833497524261474609e-01
8.027702569961547852e-03
9.668618440628051758e-02
1.537093520164489746e-02
1.826679706573486328e-02
5.858799815177917480e-02
2.253663539886474609e-02
9.858667850494384766e-03
7.432997226715087891e-04
3.316146135330200195e-02
1.697385311126708984e-02
9.999989271163940430e-01
6.348931789398193359e-02
9.441071748733520508e-01
9.909303188323974609e-01
3.675028681755065918e-01
2.615004181861877441e-01
4.175693988800048828e-01
2.499215006828308105e-01
4.980347156524658203e-01
5.908992886543273926e-02
4.430771470069885254e-01
1.488511264324188232e-01
1.722461581230163574e-01
2.789535224437713623e-01
2.586854100227355957e-01
1.496181488037109375e-01
5.829448699951171875e-01
