2.000000000000000000e+00
1.000000000000000000e+00
9.999998211860656738e-01
9.999996423721313477e-01
9.999995827674865723e-01
9.999995231628417969e-01
9.999994039535522461e-01
9.999989867210388184e-01
9.999989271163940430e-01
9.999978542327880859e-01
9.999977350234985352e-01
9.999939799308776855e-01
9.999934434890747070e-01
9.999925494194030762e-01
9.999763965606689453e-01
9.999747276306152344e-01
9.999653100967407227e-01
9.999639391899108887e-01
9.999463558197021484e-01
9.999401569366455078e-01
9.999353885650634766e-01
9.999344348907470703e-01
9.997963905334472656e-01
9.997782707214355469e-01
9.995564818382263184e-01
9.995526075363159180e-01
9.995301961898803711e-01
9.993851184844970703e-01
9.993026852607727051e-01
9.992835521697998047e-01
9.992597103118896484e-01
9.991831779479980469e-01
9.991521835327148438e-01
9.991391897201538086e-01
9.989681243896484375e-01
9.986481070518493652e-01
9.984990954399108887e-01
9.984806180000305176e-01
9.981457591056823730e-01
9.980821013450622559e-01
9.969888925552368164e-01
9.969499111175537109e-01
9.962204694747924805e-01
9.955127239227294922e-01
9.955054521560668945e-01
9.953515529632568359e-01
9.946033954620361328e-01
9.934467077255249023e-01
9.933198690414428711e-01
9.931271076202392578e-01
9.909836649894714355e-01
9.909303188323974609e-01
9.887581467628479004e-01
9.884521961212158203e-01
9.848916530609130859e-01
9.836027622222900391e-01
9.818938970565795898e-01
9.818172454833984375e-01
9.814122915267944336e-01
9.806581735610961914e-01
9.802820682525634766e-01
9.785888791084289551e-01
9.769877195358276367e-01
9.766746163368225098e-01
9.763950109481811523e-01
9.762257337570190430e-01
9.761016368865966797e-01
9.757436513900756836e-01
9.717708826065063477e-01
9.714875221252441406e-01
9.686899185180664062e-01
9.686391949653625488e-01
9.677371978759765625e-01
9.676202535629272461e-01
9.669114351272583008e-01
9.668735265731811523e-01
9.656484723091125488e-01
9.652816057205200195e-01
9.646852016448974609e-01
9.643765687942504883e-01
9.640946388244628906e-01
9.633786678314208984e-01
9.597193598747253418e-01
9.583849906921386719e-01
9.548037052154541016e-01
9.536450505256652832e-01
9.532700777053833008e-01
9.526447653770446777e-01
9.498784542083740234e-01
9.495731592178344727e-01
9.477349519729614258e-01
9.470547437667846680e-01
9.446666240692138672e-01
9.441071748733520508e-01
9.275565147399902344e-01
9.267313480377197266e-01
9.249812364578247070e-01
9.225801229476928711e-01
9.218952655792236328e-01
9.163790345191955566e-01
9.124578237533569336e-01
9.124225378036499023e-01
9.087610840797424316e-01
9.078571796417236328e-01
9.005482196807861328e-01
8.988142013549804688e-01
8.956720829010009766e-01
8.933638334274291992e-01
8.933108448982238770e-01
8.914211392402648926e-01
8.872051239013671875e-01
8.856073617935180664e-01
8.843073844909667969e-01
8.808019161224365234e-01
8.539133071899414062e-01
8.518265485763549805e-01
8.455593585968017578e-01
8.441810607910156250e-01
8.307082653045654297e-01
8.267029523849487305e-01
8.254485130310058594e-01
8.237817287445068359e-01
8.227193355560302734e-01
8.168469071388244629e-01
8.163954615592956543e-01
8.133377432823181152e-01
8.085786104202270508e-01
8.073135614395141602e-01
8.037406206130981445e-01
8.007001280784606934e-01
7.958645224571228027e-01
7.867022752761840820e-01
7.809854745864868164e-01
7.808665633201599121e-01
7.802197933197021484e-01
7.798696756362915039e-01
7.759748697280883789e-01
7.734959721565246582e-01
7.557169198989868164e-01
7.540496587753295898e-01
7.527366876602172852e-01
7.514507770538330078e-01
7.473943829536437988e-01
7.469602227210998535e-01
7.379593849182128906e-01
7.339680194854736328e-01
7.315347790718078613e-01
7.311592698097229004e-01
7.179203033447265625e-01
7.177060842514038086e-01
7.167977690696716309e-01
7.158210277557373047e-01
7.117165923118591309e-01
7.108343243598937988e-01
7.095404863357543945e-01
7.087540626525878906e-01
7.043003439903259277e-01
7.027515769004821777e-01
7.006172537803649902e-01
7.002546191215515137e-01
6.998022198677062988e-01
6.979184746742248535e-01
6.963831186294555664e-01
6.949249505996704102e-01
6.919959187507629395e-01
6.859320402145385742e-01
6.847147941589355469e-01
6.829645633697509766e-01
6.777313947677612305e-01
6.756948232650756836e-01
6.740870475769042969e-01
6.717629432678222656e-01
6.705585122108459473e-01
6.688443422317504883e-01
6.621328592300415039e-01
6.618353128433227539e-01
6.573263406753540039e-01
6.564440131187438965e-01
6.550688743591308594e-01
6.538360118865966797e-01
6.533931493759155273e-01
6.415411829948425293e-01
6.347661018371582031e-01
6.318458318710327148e-01
6.309788227081298828e-01
6.297612190246582031e-01
6.285886764526367188e-01
6.253539323806762695e-01
6.243798732757568359e-01
6.204581856727600098e-01
6.146016120910644531e-01
6.127064228057861328e-01
6.085718274116516113e-01
6.067274212837219238e-01
6.064144968986511230e-01
5.980259180068969727e-01
5.978215932846069336e-01
5.969362854957580566e-01
5.965120792388916016e-01
5.924335718154907227e-01
5.892150402069091797e-01
5.847864747047424316e-01
5.835584402084350586e-01
5.835551619529724121e-01
5.830096006393432617e-01
5.788127183914184570e-01
5.787301063537597656e-01
5.761876106262207031e-01
5.722995996475219727e-01
5.717306137084960938e-01
5.626505017280578613e-01
5.563115477561950684e-01
5.541188120841979980e-01
5.529898405075073242e-01
5.508875250816345215e-01
5.507827401161193848e-01
5.506921410560607910e-01
5.447043180465698242e-01
5.442724823951721191e-01
5.434082746505737305e-01
5.400679111480712891e-01
5.372475981712341309e-01
5.338559150695800781e-01
5.325877070426940918e-01
5.315601825714111328e-01
5.310589075088500977e-01
5.287153720855712891e-01
5.275894999504089355e-01
5.267920494079589844e-01
5.257753133773803711e-01
5.246672034263610840e-01
5.222442150115966797e-01
5.221056342124938965e-01
5.211788415908813477e-01
5.157177448272705078e-01
5.156432390213012695e-01
5.106524825096130371e-01
5.105715990066528320e-01
5.082735419273376465e-01
5.053052902221679688e-01
5.040917992591857910e-01
5.022093057632446289e-01
5.001472234725952148e-01
4.999067187309265137e-01
4.995996952056884766e-01
4.992083609104156494e-01
4.986774921417236328e-01
4.980347156524658203e-01
4.922899007797241211e-01
4.906368255615234375e-01
4.900228977203369141e-01
4.839351177215576172e-01
4.789264798164367676e-01
4.759207367897033691e-01
4.735151827335357666e-01
4.731228649616241455e-01
4.726220071315765381e-01
4.648765921592712402e-01
4.647608697414398193e-01
4.630344808101654053e-01
4.629940688610076904e-01
4.623127877712249756e-01
4.579690992832183838e-01
4.535807967185974121e-01
4.530834555625915527e-01
4.528455734252929688e-01
4.528081417083740234e-01
4.522495269775390625e-01
4.504073262214660645e-01
4.492321312427520752e-01
4.491198062896728516e-01
4.476817250251770020e-01
4.461709558963775635e-01
4.430771470069885254e-01
4.429518580436706543e-01
4.426348209381103516e-01
4.413048624992370605e-01
4.396869540214538574e-01
4.387696087360382080e-01
4.385100305080413818e-01
4.371578693389892578e-01
4.371050298213958740e-01
4.357345700263977051e-01
4.331771135330200195e-01
4.329124987125396729e-01
4.263106882572174072e-01
4.258920252323150635e-01
4.240727722644805908e-01
4.234515428543090820e-01
4.221375584602355957e-01
4.220160245895385742e-01
4.166329503059387207e-01
4.157391786575317383e-01
4.132458865642547607e-01
4.130570888519287109e-01
4.129800796508789062e-01
4.121943116188049316e-01
4.073533713817596436e-01
4.073288440704345703e-01
4.040853083133697510e-01
4.029674232006072998e-01
4.009365439414978027e-01
3.995441198348999023e-01
3.984304368495941162e-01
3.968589305877685547e-01
3.952417969703674316e-01
3.942983448505401611e-01
3.932669162750244141e-01
3.923706710338592529e-01
3.915385007858276367e-01
3.881249129772186279e-01
3.858079612255096436e-01
3.851148486137390137e-01
3.840233683586120605e-01
3.820372521877288818e-01
3.774884939193725586e-01
3.774474263191223145e-01
3.715080320835113525e-01
3.702169954776763916e-01
3.665592074394226074e-01
3.662691116333007812e-01
3.646765351295471191e-01
3.642653226852416992e-01
3.642590641975402832e-01
3.632200956344604492e-01
3.615713715553283691e-01
3.607726097106933594e-01
3.588853478431701660e-01
3.575226962566375732e-01
3.568838834762573242e-01
3.559361696243286133e-01
3.490795791149139404e-01
3.489338159561157227e-01
3.482492864131927490e-01
3.471427857875823975e-01
3.462567031383514404e-01
3.454845547676086426e-01
3.435681462287902832e-01
3.422789871692657471e-01
3.418893218040466309e-01
3.410867452621459961e-01
3.410843908786773682e-01
3.408639430999755859e-01
3.377759456634521484e-01
3.376300930976867676e-01
3.336889743804931641e-01
3.328900933265686035e-01
3.312574326992034912e-01
3.310846686363220215e-01
3.302186727523803711e-01
3.282470107078552246e-01
3.256528973579406738e-01
3.250039815902709961e-01
3.217577934265136719e-01
3.214796781539916992e-01
3.155782222747802734e-01
3.152706027030944824e-01
3.141402304172515869e-01
3.134850859642028809e-01
3.129803240299224854e-01
3.128928840160369873e-01
3.115269541740417480e-01
3.106328845024108887e-01
3.091986775398254395e-01
3.089880049228668213e-01
3.089004755020141602e-01
3.080644607543945312e-01
3.022765219211578369e-01
3.011381626129150391e-01
2.988208532333374023e-01
2.961322665214538574e-01
2.906386852264404297e-01
2.901065349578857422e-01
2.874643206596374512e-01
2.865673899650573730e-01
2.860667109489440918e-01
2.849687039852142334e-01
2.840697467327117920e-01
2.839847207069396973e-01
2.825633287429809570e-01
2.824022471904754639e-01
2.768876552581787109e-01
2.763020098209381104e-01
2.753610908985137939e-01
2.743296027183532715e-01
2.735648751258850098e-01
2.726233899593353271e-01
2.720861136913299561e-01
2.720010280609130859e-01
2.685188055038452148e-01
2.678150534629821777e-01
2.668758034706115723e-01
2.661089301109313965e-01
2.641981542110443115e-01
2.637469172477722168e-01
2.636430263519287109e-01
2.631481587886810303e-01
2.619869112968444824e-01
2.618714272975921631e-01
2.605725526809692383e-01
2.599393427371978760e-01
2.586854100227355957e-01
2.567051053047180176e-01
2.536193728446960449e-01
2.534448504447937012e-01
2.525400817394256592e-01
2.521632611751556396e-01
2.520876824855804443e-01
2.515679001808166504e-01
2.514503896236419678e-01
2.513107061386108398e-01
2.512872219085693359e-01
2.511932253837585449e-01
2.489428520202636719e-01
2.451753914356231689e-01
2.448448836803436279e-01
2.448324859142303467e-01
2.442654669284820557e-01
2.440540194511413574e-01
2.426146864891052246e-01
2.426094710826873779e-01
2.421085834503173828e-01
2.415507733821868896e-01
2.368073165416717529e-01
2.364420890808105469e-01
2.356937527656555176e-01
2.351858913898468018e-01
2.340212166309356689e-01
2.333936095237731934e-01
2.309104204177856445e-01
2.266468107700347900e-01
2.255982160568237305e-01
2.230774760246276855e-01
2.229944169521331787e-01
2.216715514659881592e-01
2.206491231918334961e-01
2.191876769065856934e-01
2.188429236412048340e-01
2.183803915977478027e-01
2.179135978221893311e-01
2.171558141708374023e-01
2.169395685195922852e-01
2.162556648254394531e-01
2.162011563777923584e-01
2.161969840526580811e-01
2.142867743968963623e-01
2.135220766067504883e-01
2.132543623447418213e-01
2.129495739936828613e-01
2.128041982650756836e-01
2.114332020282745361e-01
2.113819420337677002e-01
2.108941674232482910e-01
2.093011140823364258e-01
2.084477841854095459e-01
2.079475522041320801e-01
2.078967690467834473e-01
2.078243494033813477e-01
2.075434327125549316e-01
2.071717679500579834e-01
2.063571214675903320e-01
2.054212093353271484e-01
2.039805352687835693e-01
2.019737362861633301e-01
2.018775641918182373e-01
2.017470002174377441e-01
2.011426985263824463e-01
2.010861039161682129e-01
2.009142041206359863e-01
1.970683038234710693e-01
1.965120136737823486e-01
1.964746713638305664e-01
1.962925791740417480e-01
1.961750090122222900e-01
1.960941553115844727e-01
1.939602494239807129e-01
1.936324536800384521e-01
1.884530782699584961e-01
1.877217292785644531e-01
1.876039206981658936e-01
1.868821084499359131e-01
1.861685514450073242e-01
1.857775747776031494e-01
1.855110824108123779e-01
1.839233040809631348e-01
1.834760010242462158e-01
1.833503842353820801e-01
1.833162903785705566e-01
1.830652058124542236e-01
1.830600500106811523e-01
1.829898655414581299e-01
1.815285384654998779e-01
1.812304556369781494e-01
1.799143850803375244e-01
1.792628169059753418e-01
1.783473789691925049e-01
1.780673563480377197e-01
1.779651641845703125e-01
1.775159239768981934e-01
1.760531663894653320e-01
1.755805313587188721e-01
1.755760610103607178e-01
1.734536588191986084e-01
1.720669865608215332e-01
1.712220013141632080e-01
1.702017486095428467e-01
1.701131463050842285e-01
1.666513979434967041e-01
1.666454672813415527e-01
1.651392579078674316e-01
1.645624637603759766e-01
1.635865867137908936e-01
1.625899970531463623e-01
1.610242128372192383e-01
1.606068313121795654e-01
1.600272953510284424e-01
1.589114665985107422e-01
1.587156653404235840e-01
1.585996747016906738e-01
1.573376059532165527e-01
1.569504737854003906e-01
1.547270417213439941e-01
1.547133028507232666e-01
1.541961729526519775e-01
1.539326608180999756e-01
1.520276665687561035e-01
1.519115567207336426e-01
1.486268341541290283e-01
1.480930447578430176e-01
1.470437049865722656e-01
1.458992660045623779e-01
1.453995704650878906e-01
1.452536582946777344e-01
1.447726488113403320e-01
1.446211934089660645e-01
1.431502401828765869e-01
1.429574787616729736e-01
1.422232389450073242e-01
1.412941217422485352e-01
1.402773261070251465e-01
1.398445367813110352e-01
1.395490467548370361e-01
1.388026177883148193e-01
1.371166706085205078e-01
1.361155211925506592e-01
1.330647766590118408e-01
1.325638890266418457e-01
1.318584382534027100e-01
1.316842734813690186e-01
1.309759318828582764e-01
1.306770741939544678e-01
1.296862065792083740e-01
1.295191645622253418e-01
1.273858845233917236e-01
1.268612742424011230e-01
1.262424588203430176e-01
1.251164972782135010e-01
1.250611543655395508e-01
1.242198348045349121e-01
1.240867674350738525e-01
1.240673959255218506e-01
1.219646036624908447e-01
1.212833523750305176e-01
1.203162372112274170e-01
1.196953356266021729e-01
1.195359826087951660e-01
1.193333268165588379e-01
1.175706386566162109e-01
1.164916157722473145e-01
1.151976883411407471e-01
1.145564615726470947e-01
1.140180230140686035e-01
1.139162778854370117e-01
1.132553815841674805e-01
1.131420731544494629e-01
1.092397272586822510e-01
1.069501638412475586e-01
1.024439036846160889e-01
1.004810929298400879e-01
1.002313196659088135e-01
1.001049280166625977e-01
9.891819953918457031e-02
9.870421886444091797e-02
9.668618440628051758e-02
9.637746214866638184e-02
9.623888134956359863e-02
9.561032056808471680e-02
9.556990861892700195e-02
9.553968906402587891e-02
9.513443708419799805e-02
9.363490343093872070e-02
9.307190775871276855e-02
9.204059839248657227e-02
9.161305427551269531e-02
9.159445762634277344e-02
9.126552939414978027e-02
9.116023778915405273e-02
8.942922949790954590e-02
8.912843465805053711e-02
8.901745080947875977e-02
8.894103765487670898e-02
8.833628892898559570e-02
8.833467960357666016e-02
8.801040053367614746e-02
8.797001838684082031e-02
8.680737018585205078e-02
8.583050966262817383e-02
8.368793129920959473e-02
8.313509821891784668e-02
8.308058977127075195e-02
8.301451802253723145e-02
8.252084255218505859e-02
8.237251639366149902e-02
8.202123641967773438e-02
8.130937814712524414e-02
8.072036504745483398e-02
8.023637533187866211e-02
7.978108525276184082e-02
7.957273721694946289e-02
7.826027274131774902e-02
7.653495669364929199e-02
7.652950286865234375e-02
7.637673616409301758e-02
7.558751106262207031e-02
7.502400875091552734e-02
7.407256960868835449e-02
7.397434115409851074e-02
7.239678502082824707e-02
7.237747311592102051e-02
6.902000308036804199e-02
6.876087188720703125e-02
6.610417366027832031e-02
6.569880247116088867e-02
6.561237573623657227e-02
6.480538845062255859e-02
6.348931789398193359e-02
6.344810128211975098e-02
6.186226010322570801e-02
6.166580319404602051e-02
6.130972504615783691e-02
6.116622686386108398e-02
6.031063199043273926e-02
5.968871712684631348e-02
5.891150236129760742e-02
5.862790346145629883e-02
5.790120363235473633e-02
5.778348445892333984e-02
5.720138549804687500e-02
5.693843960762023926e-02
5.635392665863037109e-02
5.607035756111145020e-02
5.573153495788574219e-02
5.572676658630371094e-02
5.504018068313598633e-02
5.448955297470092773e-02
5.372774600982666016e-02
5.350518226623535156e-02
5.213120579719543457e-02
5.194231867790222168e-02
5.054041743278503418e-02
5.047994852066040039e-02
4.940915107727050781e-02
4.730993509292602539e-02
4.655024409294128418e-02
4.557135701179504395e-02
4.455980658531188965e-02
4.351353645324707031e-02
4.277732968330383301e-02
4.165831208229064941e-02
4.098021984100341797e-02
4.044336080551147461e-02
4.035237431526184082e-02
3.996321558952331543e-02
3.946104645729064941e-02
3.925371170043945312e-02
3.737515211105346680e-02
3.671336174011230469e-02
3.647544980049133301e-02
3.646135330200195312e-02
3.628534078598022461e-02
3.524553775787353516e-02
3.487968444824218750e-02
3.447240591049194336e-02
3.395998477935791016e-02
3.332340717315673828e-02
3.316146135330200195e-02
3.236225247383117676e-02
3.193578124046325684e-02
3.098660707473754883e-02
3.032758831977844238e-02
3.017771244049072266e-02
2.956202626228332520e-02
2.948844432830810547e-02
2.847033739089965820e-02
2.844384312629699707e-02
2.753785252571105957e-02
2.728199958801269531e-02
2.703917026519775391e-02
2.685365080833435059e-02
2.634727954864501953e-02
2.631235122680664062e-02
2.568155527114868164e-02
2.452448010444641113e-02
2.341106534004211426e-02
2.335536479949951172e-02
2.317515015602111816e-02
2.266138792037963867e-02
2.210736274719238281e-02
2.199760079383850098e-02
2.199631929397583008e-02
2.193841338157653809e-02
2.183595299720764160e-02
2.135744690895080566e-02
2.134802937507629395e-02
2.119800448417663574e-02
2.028697729110717773e-02
2.017858624458312988e-02
2.016943693161010742e-02
1.968818902969360352e-02
1.954236626625061035e-02
1.881843805313110352e-02
1.799598336219787598e-02
1.793137192726135254e-02
1.697385311126708984e-02
1.639154553413391113e-02
1.606595516204833984e-02
1.601913571357727051e-02
1.580271124839782715e-02
1.578286290168762207e-02
1.517665386199951172e-02
1.492512226104736328e-02
1.487931609153747559e-02
1.476046442985534668e-02
1.375898718833923340e-02
1.348426938056945801e-02
1.330283284187316895e-02
1.328885555267333984e-02
1.320928335189819336e-02
1.317828893661499023e-02
1.309010386466979980e-02
1.305514574050903320e-02
1.299178600311279297e-02
1.269474625587463379e-02
1.126602292060852051e-02
1.056259870529174805e-02
1.046520471572875977e-02
1.034367084503173828e-02
1.016643643379211426e-02
1.010861992835998535e-02
9.498864412307739258e-03
9.448379278182983398e-03
8.748650550842285156e-03
8.519232273101806641e-03
8.494198322296142578e-03
8.363336324691772461e-03
8.027702569961547852e-03
8.023709058761596680e-03
7.208168506622314453e-03
7.062107324600219727e-03
6.775110960006713867e-03
6.453186273574829102e-03
6.329476833343505859e-03
6.069779396057128906e-03
5.363583564758300781e-03
5.316078662872314453e-03
5.306690931320190430e-03
4.973411560058593750e-03
4.098802804946899414e-03
3.809034824371337891e-03
2.697914838790893555e-03
2.507984638214111328e-03
2.341806888580322266e-03
2.334713935852050781e-03
1.985818147659301758e-03
1.972496509552001953e-03
1.666724681854248047e-03
1.328498125076293945e-03
1.265913248062133789e-03
1.259267330169677734e-03
1.202583312988281250e-03
1.144319772720336914e-03
1.098066568374633789e-03
7.881522178649902344e-04
7.874369621276855469e-04
7.611215114593505859e-04
5.931556224822998047e-04
5.848407745361328125e-04
5.249083042144775391e-04
5.181729793548583984e-04
5.099475383758544922e-04
4.772841930389404297e-04
3.632605075836181641e-04
3.110170364379882812e-04
2.712905406951904297e-04
2.355873584747314453e-04
2.354979515075683594e-04
1.468658447265625000e-04
6.265130650717765093e-05
6.142206257209181786e-05
4.982822429155930877e-05
3.326249861856922507e-05
3.137474550385377370e-06
2.927989044110290706e-06
2.788484380289446563e-06
2.470747631377889775e-06
1.801522898858820554e-06
1.934456719254740165e-07
3.942896498188019905e-08
3.533405390498955967e-08
3.257106939713594329e-08
2.693604228554136171e-09
1.408157340732074658e-10
3.625114444738564146e-11
4.831164765115025794e-13
4.294174065812284002e-13
0.000000000000000000e+00
