6.118268966674804688e-01
6.510277986526489258e-01
3.420736491680145264e-01
7.340164184570312500e-01
6.187397837638854980e-01
6.119163036346435547e-01
6.283296942710876465e-01
5.637260079383850098e-01
4.714363813400268555e-01
5.367302298545837402e-01
6.118862628936767578e-01
3.362451791763305664e-01
6.491221189498901367e-01
6.074964404106140137e-01
6.119072437286376953e-01
3.429270088672637939e-01
5.192965269088745117e-01
5.637452006340026855e-01
5.368289351463317871e-01
4.348020553588867188e-01
6.118851900100708008e-01
5.370161533355712891e-01
7.168952822685241699e-01
7.978734970092773438e-01
6.119092702865600586e-01
5.640333890914916992e-01
5.369278192520141602e-01
5.369923114776611328e-01
5.371449589729309082e-01
5.094229578971862793e-01
5.189971923828125000e-01
4.069586694240570068e-01
5.368099808692932129e-01
5.639553070068359375e-01
5.373864173889160156e-01
5.637418627738952637e-01
2.900901436805725098e-01
6.521600484848022461e-01
3.648859262466430664e-01
4.348056614398956299e-01
6.180821657180786133e-01
5.053471326828002930e-01
3.965718746185302734e-01
6.645785570144653320e-01
6.529374122619628906e-01
5.552546977996826172e-01
5.637630820274353027e-01
3.965936899185180664e-01
5.191269516944885254e-01
4.067189097404479980e-01
5.367362499237060547e-01
6.880539059638977051e-01
7.324135303497314453e-01
4.980669319629669189e-01
3.640054464340209961e-01
5.639166831970214844e-01
6.504998803138732910e-01
3.140033185482025146e-01
5.637036561965942383e-01
5.166072845458984375e-01
7.181194424629211426e-01
7.822665572166442871e-01
4.070536196231842041e-01
3.134117126464843750e-01
5.192947983741760254e-01
6.119202375411987305e-01
5.367710590362548828e-01
5.094231963157653809e-01
5.485076308250427246e-01
5.104455351829528809e-01
8.231150507926940918e-01
5.371255278587341309e-01
5.093012452125549316e-01
8.195141553878784180e-01
6.118608117103576660e-01
5.117227435111999512e-01
5.040907859802246094e-01
4.050059020519256592e-01
5.616104602813720703e-01
6.138434410095214844e-01
5.637443065643310547e-01
5.639052987098693848e-01
6.118121743202209473e-01
5.637286901473999023e-01
5.103005766868591309e-01
5.188220143318176270e-01
5.198055505752563477e-01
5.819061994552612305e-01
4.070507884025573730e-01
3.645817637443542480e-01
5.097035765647888184e-01
5.243180990219116211e-01
6.567476987838745117e-01
6.549454927444458008e-01
5.007159709930419922e-01
6.468874216079711914e-01
6.118682026863098145e-01
5.113854408264160156e-01
3.130385279655456543e-01
5.847742557525634766e-01
6.485074162483215332e-01
4.350135028362274170e-01
4.050053954124450684e-01
7.411300539970397949e-01
5.092561244964599609e-01
5.637137293815612793e-01
4.349832236766815186e-01
3.421363234519958496e-01
7.141712307929992676e-01
3.647655248641967773e-01
6.814781427383422852e-01
5.963844060897827148e-01
5.370106101036071777e-01
3.647100925445556641e-01
5.190863609313964844e-01
5.367637872695922852e-01
3.238274157047271729e-01
6.901301145553588867e-01
5.653354525566101074e-01
7.572410106658935547e-01
5.637166500091552734e-01
5.191342830657958984e-01
5.637174248695373535e-01
3.358632922172546387e-01
5.638948082923889160e-01
6.409047842025756836e-01
5.185251235961914062e-01
6.119040250778198242e-01
5.367938280105590820e-01
5.368193387985229492e-01
2.976904809474945068e-01
3.220010101795196533e-01
3.359040617942810059e-01
3.639601469039916992e-01
8.190832734107971191e-01
5.191859602928161621e-01
5.035732388496398926e-01
5.778242349624633789e-01
4.868313670158386230e-01
3.649007976055145264e-01
3.972881436347961426e-01
6.427962779998779297e-01
5.185407996177673340e-01
7.948781251907348633e-01
5.637266039848327637e-01
3.434867858886718750e-01
5.639270544052124023e-01
3.219319880008697510e-01
6.457710266113281250e-01
3.967638611793518066e-01
3.641700744628906250e-01
8.155995011329650879e-01
4.616654813289642334e-01
5.371842384338378906e-01
5.346376895904541016e-01
6.118872165679931641e-01
5.191117525100708008e-01
3.358640670776367188e-01
3.648056387901306152e-01
3.420394361019134521e-01
5.192368626594543457e-01
6.119230985641479492e-01
3.873426914215087891e-01
7.638215422630310059e-01
3.133524656295776367e-01
4.050032496452331543e-01
5.639178752899169922e-01
5.197653174400329590e-01
6.571008563041687012e-01
5.245747566223144531e-01
5.194888114929199219e-01
3.134149014949798584e-01
3.445016443729400635e-01
3.270690441131591797e-01
6.496041417121887207e-01
5.092375874519348145e-01
4.349843859672546387e-01
6.433809995651245117e-01
3.532592356204986572e-01
4.070561528205871582e-01
7.927190065383911133e-01
4.070210754871368408e-01
4.928950071334838867e-01
6.118687391281127930e-01
6.118873357772827148e-01
4.180637598037719727e-01
6.541814804077148438e-01
5.082450509071350098e-01
6.388747692108154297e-01
4.052466750144958496e-01
5.367553234100341797e-01
6.955173015594482422e-01
5.092691779136657715e-01
3.434578180313110352e-01
5.367231369018554688e-01
3.432354032993316650e-01
5.370785593986511230e-01
5.320514440536499023e-01
6.118521690368652344e-01
6.671280264854431152e-01
4.349288344383239746e-01
5.639738440513610840e-01
3.969666957855224609e-01
5.637307763099670410e-01
4.757982790470123291e-01
6.118863224983215332e-01
6.332479119300842285e-01
6.957244873046875000e-01
3.423075675964355469e-01
3.639074563980102539e-01
6.515709161758422852e-01
7.271894216537475586e-01
3.432380855083465576e-01
3.639781475067138672e-01
5.367401242256164551e-01
5.369903445243835449e-01
5.639564990997314453e-01
6.293040513992309570e-01
3.410753905773162842e-01
6.117854118347167969e-01
2.923443913459777832e-01
6.118134856224060059e-01
6.990101933479309082e-01
3.320682644844055176e-01
8.288134336471557617e-01
5.639673471450805664e-01
6.208469867706298828e-01
3.638788163661956787e-01
6.119180321693420410e-01
5.094551444053649902e-01
7.621323466300964355e-01
7.823469638824462891e-01
6.571900844573974609e-01
6.437014341354370117e-01
3.224815726280212402e-01
6.465190649032592773e-01
7.099738121032714844e-01
4.131610691547393799e-01
6.144827008247375488e-01
5.094397068023681641e-01
7.227073907852172852e-01
4.509847462177276611e-01
3.641906976699829102e-01
3.263905644416809082e-01
5.367096662521362305e-01
5.366727709770202637e-01
3.723713159561157227e-01
3.484230339527130127e-01
6.117694973945617676e-01
5.185510516166687012e-01
5.093612670898437500e-01
6.119302511215209961e-01
5.370473265647888184e-01
7.157060503959655762e-01
5.366682410240173340e-01
5.122590661048889160e-01
7.192388772964477539e-01
3.133901953697204590e-01
6.368052959442138672e-01
6.424279212951660156e-01
6.877145767211914062e-01
4.067761003971099854e-01
8.017624616622924805e-01
5.193403959274291992e-01
6.459193229675292969e-01
5.110840797424316406e-01
4.909367859363555908e-01
3.003737926483154297e-01
5.092691779136657715e-01
6.118921637535095215e-01
5.192875266075134277e-01
4.070531725883483887e-01
5.102518200874328613e-01
5.054011344909667969e-01
3.648317456245422363e-01
6.493505239486694336e-01
5.639530420303344727e-01
4.682901203632354736e-01
8.172355890274047852e-01
3.421377539634704590e-01
6.118876934051513672e-01
3.966819643974304199e-01
4.050034582614898682e-01
4.879203438758850098e-01
5.185819864273071289e-01
3.647733628749847412e-01
5.874860286712646484e-01
3.647390305995941162e-01
6.459404826164245605e-01
7.953286170959472656e-01
5.637415647506713867e-01
6.118475198745727539e-01
5.197907090187072754e-01
4.761688709259033203e-01
5.189719796180725098e-01
7.240985631942749023e-01
3.219202756881713867e-01
3.967481255531311035e-01
3.432274460792541504e-01
5.192869305610656738e-01
5.000453591346740723e-01
5.060340166091918945e-01
6.437733769416809082e-01
3.432169258594512939e-01
5.189250707626342773e-01
5.369808077812194824e-01
6.119120717048645020e-01
5.092400312423706055e-01
5.639007091522216797e-01
3.648495674133300781e-01
5.107333064079284668e-01
3.421263694763183594e-01
5.637326240539550781e-01
5.370697379112243652e-01
5.984508395195007324e-01
5.637303590774536133e-01
6.403837203979492188e-01
8.178532719612121582e-01
6.358723044395446777e-01
6.636645197868347168e-01
5.092381834983825684e-01
6.550360918045043945e-01
6.650652885437011719e-01
5.639467835426330566e-01
3.238458931446075439e-01
6.668353676795959473e-01
7.596095204353332520e-01
6.118846535682678223e-01
5.187334418296813965e-01
3.577430546283721924e-01
6.118634939193725586e-01
5.634647011756896973e-01
5.112888216972351074e-01
7.128831148147583008e-01
5.071851611137390137e-01
5.191915631294250488e-01
5.637041926383972168e-01
5.639093518257141113e-01
7.632821798324584961e-01
6.118915677070617676e-01
6.822021007537841797e-01
4.049892425537109375e-01
7.291147708892822266e-01
3.879678249359130859e-01
5.595338344573974609e-01
5.637329220771789551e-01
4.964596927165985107e-01
6.536647081375122070e-01
5.072728395462036133e-01
6.138891577720642090e-01
3.641349077224731445e-01
5.283339023590087891e-01
5.216150879859924316e-01
5.367246270179748535e-01
6.119251251220703125e-01
5.194566249847412109e-01
5.010021328926086426e-01
7.267578840255737305e-01
4.207739233970642090e-01
4.141788184642791748e-01
3.358647823333740234e-01
4.697862565517425537e-01
3.421260118484497070e-01
3.433198332786560059e-01
5.639377236366271973e-01
5.638999342918395996e-01
6.384757161140441895e-01
5.089354515075683594e-01
8.069308996200561523e-01
4.069468975067138672e-01
6.504507660865783691e-01
7.651792168617248535e-01
8.213279247283935547e-01
6.118769049644470215e-01
5.189468860626220703e-01
6.119061708450317383e-01
6.119297742843627930e-01
5.639309883117675781e-01
3.966764509677886963e-01
4.143269658088684082e-01
6.119048595428466797e-01
5.067291855812072754e-01
7.447790503501892090e-01
3.646536469459533691e-01
5.370736122131347656e-01
5.071919560432434082e-01
3.647986054420471191e-01
6.118867993354797363e-01
6.348989605903625488e-01
5.005954504013061523e-01
6.118519306182861328e-01
5.370573997497558594e-01
8.200867176055908203e-01
3.065755367279052734e-01
7.291676998138427734e-01
6.118555665016174316e-01
8.047543168067932129e-01
3.684333860874176025e-01
5.638990998268127441e-01
5.794113278388977051e-01
3.432196974754333496e-01
6.362165212631225586e-01
3.646640181541442871e-01
4.389674961566925049e-01
3.648858368396759033e-01
5.981655120849609375e-01
7.889720201492309570e-01
5.637668371200561523e-01
6.119273900985717773e-01
6.123838424682617188e-01
8.219361305236816406e-01
4.050061702728271484e-01
5.639770030975341797e-01
6.565753817558288574e-01
5.193701386451721191e-01
6.118842959403991699e-01
3.363080322742462158e-01
3.237133026123046875e-01
5.371209979057312012e-01
3.747672438621520996e-01
5.093883872032165527e-01
5.366827845573425293e-01
4.067643582820892334e-01
3.649197220802307129e-01
6.118868589401245117e-01
5.638022422790527344e-01
2.813217043876647949e-01
6.432448625564575195e-01
5.031188130378723145e-01
5.092356204986572266e-01
5.146899223327636719e-01
5.639706850051879883e-01
5.132182240486145020e-01
5.637351870536804199e-01
6.118491888046264648e-01
5.369223356246948242e-01
3.219462931156158447e-01
3.641701936721801758e-01
4.348084032535552979e-01
3.360624909400939941e-01
5.092357397079467773e-01
7.186988592147827148e-01
6.257542371749877930e-01
6.118862628936767578e-01
5.637419223785400391e-01
5.092344880104064941e-01
5.111252069473266602e-01
6.412719488143920898e-01
6.119071245193481445e-01
5.329498052597045898e-01
5.075978040695190430e-01
3.970105051994323730e-01
7.286807298660278320e-01
5.002065300941467285e-01
4.475753307342529297e-01
6.119294166564941406e-01
3.432167172431945801e-01
6.976349353790283203e-01
6.141537427902221680e-01
5.192928910255432129e-01
5.197932124137878418e-01
5.639148950576782227e-01
7.516335844993591309e-01
5.761167407035827637e-01
6.367549300193786621e-01
8.248850107192993164e-01
5.192273855209350586e-01
5.637981891632080078e-01
5.190551280975341797e-01
7.867430448532104492e-01
6.119246482849121094e-01
6.981446743011474609e-01
3.360438644886016846e-01
6.118893623352050781e-01
7.378493547439575195e-01
5.193258523941040039e-01
7.532335519790649414e-01
4.050974249839782715e-01
6.423885822296142578e-01
5.637311935424804688e-01
5.639723539352416992e-01
5.369799137115478516e-01
4.348841309547424316e-01
5.025687813758850098e-01
5.197198390960693359e-01
5.336211323738098145e-01
3.358638584613800049e-01
3.410873711109161377e-01
4.050050973892211914e-01
5.187041163444519043e-01
4.208579361438751221e-01
5.191441178321838379e-01
4.341232776641845703e-01
5.639576315879821777e-01
6.118445396423339844e-01
5.367983579635620117e-01
3.641215264797210693e-01
4.066814184188842773e-01
3.133758604526519775e-01
6.118735671043395996e-01
6.117779612541198730e-01
4.070106148719787598e-01
3.423495292663574219e-01
3.646490573883056641e-01
5.681960582733154297e-01
3.645346760749816895e-01
7.055896520614624023e-01
8.203878402709960938e-01
4.350087642669677734e-01
5.638791918754577637e-01
3.408396244049072266e-01
5.092056989669799805e-01
3.219972848892211914e-01
3.362410962581634521e-01
6.446585655212402344e-01
5.189182758331298828e-01
6.463745832443237305e-01
3.361310958862304688e-01
3.063579201698303223e-01
3.134395480155944824e-01
5.369774699211120605e-01
3.220535814762115479e-01
5.372757315635681152e-01
6.489009261131286621e-01
5.060340166091918945e-01
3.422015607357025146e-01
6.518766880035400391e-01
7.516335844993591309e-01
6.173414587974548340e-01
4.068924486637115479e-01
6.118539571762084961e-01
4.347690343856811523e-01
3.434635400772094727e-01
6.119018793106079102e-01
8.203834295272827148e-01
4.551430940628051758e-01
7.774141430854797363e-01
4.032076299190521240e-01
3.408238291740417480e-01
5.367618799209594727e-01
5.120171308517456055e-01
3.359431326389312744e-01
4.348949193954467773e-01
5.091959238052368164e-01
3.893724381923675537e-01
5.369639992713928223e-01
3.409922122955322266e-01
6.585278511047363281e-01
5.060764551162719727e-01
5.926588773727416992e-01
4.446392059326171875e-01
5.192786455154418945e-01
6.118634939193725586e-01
3.353773951530456543e-01
3.646515309810638428e-01
6.695851087570190430e-01
4.956711828708648682e-01
4.348340034484863281e-01
3.649502992630004883e-01
4.051640629768371582e-01
5.624513030052185059e-01
5.187548995018005371e-01
4.349550008773803711e-01
5.052496790885925293e-01
4.049868881702423096e-01
5.094285607337951660e-01
6.261854767799377441e-01
3.434101343154907227e-01
5.366981029510498047e-01
5.093017816543579102e-01
5.637356042861938477e-01
3.966864943504333496e-01
3.224205970764160156e-01
3.642283678054809570e-01
3.206558227539062500e-01
5.841315984725952148e-01
7.084286212921142578e-01
3.133898973464965820e-01
7.634998559951782227e-01
3.133921623229980469e-01
6.373814344406127930e-01
4.317571520805358887e-01
5.191534161567687988e-01
3.408592939376831055e-01
7.168198823928833008e-01
3.237552642822265625e-01
4.049746692180633545e-01
5.088199377059936523e-01
5.369134545326232910e-01
5.640134811401367188e-01
5.373792648315429688e-01
3.431352972984313965e-01
3.410811126232147217e-01
3.237293362617492676e-01
3.133970797061920166e-01
3.224972486495971680e-01
3.408287167549133301e-01
4.348824322223663330e-01
5.191045403480529785e-01
6.117970347404479980e-01
3.220074772834777832e-01
4.348688721656799316e-01
3.642066717147827148e-01
3.431695699691772461e-01
5.639322996139526367e-01
3.362289667129516602e-01
6.119148731231689453e-01
5.093511343002319336e-01
3.410463333129882812e-01
3.364053368568420410e-01
6.119208931922912598e-01
4.914822578430175781e-01
4.349661469459533691e-01
7.374886274337768555e-01
4.822311103343963623e-01
5.296579003334045410e-01
3.238245248794555664e-01
4.349823594093322754e-01
5.370916128158569336e-01
3.223533928394317627e-01
4.348929226398468018e-01
3.362378180027008057e-01
3.641356825828552246e-01
5.765299797058105469e-01
3.421275019645690918e-01
5.372173190116882324e-01
4.349583387374877930e-01
7.238629460334777832e-01
3.484550714492797852e-01
4.050508141517639160e-01
5.188735127449035645e-01
3.361068367958068848e-01
3.133903443813323975e-01
5.521923899650573730e-01
5.092585682868957520e-01
3.361139595508575439e-01
3.224906921386718750e-01
3.224947452545166016e-01
6.046720147132873535e-01
5.093569755554199219e-01
4.049625694751739502e-01
4.350084662437438965e-01
3.360507488250732422e-01
4.347727894783020020e-01
3.219481110572814941e-01
5.092322230339050293e-01
5.192655920982360840e-01
4.349364042282104492e-01
3.220592737197875977e-01
3.409596681594848633e-01
3.649830818176269531e-01
4.049645066261291504e-01
4.357937574386596680e-01
3.238350152969360352e-01
5.373777151107788086e-01
3.409529328346252441e-01
3.421149849891662598e-01
5.637342929840087891e-01
3.431646823883056641e-01
5.637542009353637695e-01
3.219497799873352051e-01
3.639671504497528076e-01
4.050433337688446045e-01
5.094196796417236328e-01
5.371112823486328125e-01
6.118621230125427246e-01
3.219641447067260742e-01
6.637289524078369141e-01
3.647041320800781250e-01
8.155168294906616211e-01
3.647602200508117676e-01
4.049799740314483643e-01
3.422160744667053223e-01
5.192356109619140625e-01
6.460007429122924805e-01
3.363242149353027344e-01
6.247332692146301270e-01
5.369278192520141602e-01
6.475880742073059082e-01
5.093610882759094238e-01
5.185164213180541992e-01
5.637965798377990723e-01
5.637089014053344727e-01
5.372860431671142578e-01
4.069287776947021484e-01
6.119000315666198730e-01
5.068849325180053711e-01
3.647030293941497803e-01
5.637812614440917969e-01
5.188316106796264648e-01
8.282123804092407227e-01
6.118259429931640625e-01
5.637285709381103516e-01
5.639849305152893066e-01
4.052724838256835938e-01
3.359768688678741455e-01
6.433534026145935059e-01
3.432269096374511719e-01
5.694029331207275391e-01
6.583117842674255371e-01
3.220443725585937500e-01
5.197892189025878906e-01
6.133116483688354492e-01
3.133798837661743164e-01
3.220239877700805664e-01
7.987806797027587891e-01
4.052165150642395020e-01
5.641111731529235840e-01
6.538461446762084961e-01
3.361795544624328613e-01
5.177833437919616699e-01
3.358996808528900146e-01
6.156334877014160156e-01
3.639115095138549805e-01
3.237506747245788574e-01
6.508413553237915039e-01
5.045334100723266602e-01
5.638127326965332031e-01
3.220158815383911133e-01
3.642143309116363525e-01
3.224137425422668457e-01
3.219685554504394531e-01
3.434650897979736328e-01
3.431575894355773926e-01
3.969522118568420410e-01
3.420236110687255859e-01
7.895923852920532227e-01
5.118247866630554199e-01
5.055168271064758301e-01
3.648502826690673828e-01
3.410777449607849121e-01
4.070170521736145020e-01
3.410780727863311768e-01
3.219798207283020020e-01
4.349060058593750000e-01
4.051484465599060059e-01
5.870847702026367188e-01
3.639387488365173340e-01
3.646363019943237305e-01
5.196724534034729004e-01
4.069290161132812500e-01
4.111797809600830078e-01
3.134247362613677979e-01
3.642314672470092773e-01
4.050035476684570312e-01
3.361095786094665527e-01
4.070027470588684082e-01
5.092815756797790527e-01
3.219577074050903320e-01
5.093036293983459473e-01
3.647335767745971680e-01
6.119005084037780762e-01
3.409481942653656006e-01
4.348487854003906250e-01
3.145722746849060059e-01
3.133879303932189941e-01
4.347512423992156982e-01
5.185706615447998047e-01
3.134270906448364258e-01
5.094016790390014648e-01
4.349392652511596680e-01
3.964924812316894531e-01
3.278036117553710938e-01
3.645811676979064941e-01
5.196439027786254883e-01
5.197163224220275879e-01
3.638604879379272461e-01
3.638629913330078125e-01
3.648409247398376465e-01
3.361756503582000732e-01
3.133774995803833008e-01
3.238344788551330566e-01
4.070763289928436279e-01
3.238487839698791504e-01
5.185871720314025879e-01
5.057243108749389648e-01
4.930172562599182129e-01
7.256257534027099609e-01
8.210029006004333496e-01
6.119218468666076660e-01
5.638831853866577148e-01
4.049791693687438965e-01
4.348279833793640137e-01
7.923815250396728516e-01
5.637289881706237793e-01
3.360732197761535645e-01
4.348356127738952637e-01
3.362257480621337891e-01
3.363138139247894287e-01
5.371081829071044922e-01
3.065333962440490723e-01
6.995031237602233887e-01
4.067303836345672607e-01
4.069389104843139648e-01
3.134272694587707520e-01
5.190854668617248535e-01
3.553856015205383301e-01
3.237729072570800781e-01
5.638422369956970215e-01
5.373585224151611328e-01
3.648598790168762207e-01
3.422048091888427734e-01
3.133849501609802246e-01
3.870307505130767822e-01
3.219333887100219727e-01
2.844455838203430176e-01
7.168135046958923340e-01
5.367821455001831055e-01
3.965981900691986084e-01
5.187781453132629395e-01
3.134357929229736328e-01
5.368083119392395020e-01
6.117634177207946777e-01
3.238251805305480957e-01
4.070545434951782227e-01
4.067623019218444824e-01
3.967030346393585205e-01
5.657575130462646484e-01
3.058276772499084473e-01
6.427868008613586426e-01
5.092315077781677246e-01
3.647183179855346680e-01
5.637079477310180664e-01
8.257321119308471680e-01
3.647117018699645996e-01
3.645731210708618164e-01
4.347726702690124512e-01
3.362054824829101562e-01
4.704935848712921143e-01
7.954996228218078613e-01
4.348660111427307129e-01
6.119171380996704102e-01
6.118099093437194824e-01
4.051502645015716553e-01
3.639809489250183105e-01
3.433235585689544678e-01
3.362275660037994385e-01
3.238342404365539551e-01
3.361333310604095459e-01
5.372438430786132812e-01
3.649839162826538086e-01
5.366718173027038574e-01
5.102323889732360840e-01
5.196894407272338867e-01
5.113992094993591309e-01
5.640287399291992188e-01
5.369558930397033691e-01
5.639564990997314453e-01
5.191087126731872559e-01
5.195075273513793945e-01
5.214877128601074219e-01
3.219437003135681152e-01
5.198019146919250488e-01
5.185688138008117676e-01
3.224224746227264404e-01
3.274433612823486328e-01
4.049870967864990234e-01
3.360494077205657959e-01
3.639135956764221191e-01
4.050424993038177490e-01
6.407006978988647461e-01
7.658900618553161621e-01
5.637390613555908203e-01
5.641321539878845215e-01
8.085689544677734375e-01
3.408291041851043701e-01
3.170619010925292969e-01
6.738487482070922852e-01
5.092436671257019043e-01
5.111820101737976074e-01
6.949969530105590820e-01
5.637302398681640625e-01
7.823469638824462891e-01
3.965800702571868896e-01
4.349532127380371094e-01
3.965564370155334473e-01
5.640255212783813477e-01
4.066907167434692383e-01
3.421460390090942383e-01
5.187217593193054199e-01
4.052113294601440430e-01
5.092827081680297852e-01
2.821090817451477051e-01
4.049958586692810059e-01
5.640642046928405762e-01
3.133994936943054199e-01
3.684605062007904053e-01
5.196648240089416504e-01
4.050796031951904297e-01
4.173827171325683594e-01
5.571686029434204102e-01
5.467600226402282715e-01
3.645485937595367432e-01
4.519591927528381348e-01
6.125003695487976074e-01
3.837423920631408691e-01
6.118406057357788086e-01
5.198146104812622070e-01
3.135196566581726074e-01
3.237370550632476807e-01
5.092151165008544922e-01
3.360688984394073486e-01
3.408893942832946777e-01
5.092676281929016113e-01
8.284131288528442383e-01
5.637993216514587402e-01
4.349534809589385986e-01
4.050239622592926025e-01
3.360989391803741455e-01
5.092348456382751465e-01
3.367208838462829590e-01
6.951799392700195312e-01
5.188129544258117676e-01
5.410258173942565918e-01
3.965239226818084717e-01
4.348477423191070557e-01
3.134141564369201660e-01
5.370085835456848145e-01
4.069633483886718750e-01
4.221662282943725586e-01
5.373792052268981934e-01
4.051872193813323975e-01
3.224184513092041016e-01
3.878229856491088867e-01
5.638242363929748535e-01
4.049961566925048828e-01
3.650129735469818115e-01
3.650206923484802246e-01
4.709156453609466553e-01
5.195354819297790527e-01
5.036538839340209961e-01
5.092334151268005371e-01
3.432539105415344238e-01
5.092710256576538086e-01
3.432623147964477539e-01
5.193263888359069824e-01
3.434382677078247070e-01
3.363394737243652344e-01
3.647948503494262695e-01
3.224683105945587158e-01
5.190880298614501953e-01
3.529550433158874512e-01
5.194715261459350586e-01
6.327761411666870117e-01
3.362792730331420898e-01
5.371607542037963867e-01
4.050092697143554688e-01
4.377207159996032715e-01
5.196801424026489258e-01
4.348419606685638428e-01
2.985895872116088867e-01
8.174331188201904297e-01
5.044531226158142090e-01
5.187552571296691895e-01
3.361155390739440918e-01
5.186632275581359863e-01
4.069932997226715088e-01
5.638183355331420898e-01
6.118379831314086914e-01
5.637561082839965820e-01
6.117787361145019531e-01
5.370292067527770996e-01
5.367580056190490723e-01
3.648279011249542236e-01
4.525338113307952881e-01
3.641240000724792480e-01
3.134133517742156982e-01
6.933143138885498047e-01
3.409233093261718750e-01
3.649440407752990723e-01
3.965564966201782227e-01
6.117980480194091797e-01
3.434603512287139893e-01
4.349771142005920410e-01
4.175205528736114502e-01
4.968450069427490234e-01
3.966163098812103271e-01
7.025137543678283691e-01
3.219928443431854248e-01
5.109773874282836914e-01
5.188646316528320312e-01
3.148179352283477783e-01
4.314229786396026611e-01
4.153421521186828613e-01
3.432819843292236328e-01
6.412413716316223145e-01
5.194262266159057617e-01
7.201713919639587402e-01
3.647522926330566406e-01
6.813440322875976562e-01
6.477193832397460938e-01
6.541523933410644531e-01
5.194126367568969727e-01
3.648473620414733887e-01
3.964875936508178711e-01
4.070887267589569092e-01
7.880197763442993164e-01
5.191739201545715332e-01
5.094379186630249023e-01
6.119165420532226562e-01
