0.000000000000000000e+00
1.546329263730616618e-02
1.546329263730616618e-02
1.546329263730616618e-02
1.546329263730616618e-02
1.726584300822866028e-02
1.726584300822866028e-02
1.888894583355741480e-02
1.888894583355741480e-02
2.175360263268842631e-02
2.175360263268842631e-02
2.304263961399569821e-02
2.304263961399569821e-02
2.425683981025753694e-02
2.425683981025753694e-02
2.540693486237452156e-02
2.540693486237452156e-02
2.650127213817904392e-02
2.650127213817904392e-02
2.754649769214125715e-02
2.754649769214125715e-02
2.854800640298545134e-02
2.854800640298545134e-02
2.951024954803142114e-02
2.951024954803142114e-02
3.043695141616051258e-02
3.043695141616051258e-02
3.219589182980145403e-02
3.219589182980145403e-02
3.539992402498384760e-02
3.539992402498384760e-02
3.614577394855871678e-02
3.614577394855871678e-02
3.758061673300439054e-02
3.758061673300439054e-02
3.894658689805021584e-02
3.894658689805021584e-02
4.088141544604659283e-02
4.088141544604659283e-02
4.327639618211678862e-02
4.327639618211678862e-02
4.495250243429799175e-02
4.495250243429799175e-02
4.704806578082725704e-02
4.704806578082725704e-02
4.900312134400729852e-02
4.900312134400729852e-02
4.947190934450790278e-02
4.947190934450790278e-02
4.993316284041445646e-02
4.993316284041445646e-02
5.127373312270505634e-02
5.127373312270505634e-02
5.296710291881678856e-02
5.296710291881678856e-02
5.377634497780804657e-02
5.377634497780804657e-02
5.456211748102939019e-02
5.456211748102939019e-02
5.532542043343936095e-02
5.532542043343936095e-02
5.569893557043143623e-02
5.569893557043143623e-02
5.606717154932777669e-02
5.606717154932777669e-02
5.643023171780232883e-02
5.643023171780232883e-02
5.714121784712328234e-02
5.714121784712328234e-02
5.817123900560287886e-02
5.817123900560287886e-02
5.883460729858634025e-02
5.883460729858634025e-02
5.948005616837048759e-02
5.948005616837048759e-02
6.010816288065947560e-02
6.010816288065947560e-02
6.131446699535016143e-02
6.131446699535016143e-02
6.245741645382761609e-02
6.245741645382761609e-02
6.300621810258853761e-02
6.300621810258853761e-02
6.327512450263261812e-02
6.327512450263261812e-02
6.354043017148058858e-02
6.354043017148058858e-02
6.406041765743014649e-02
6.406041765743014649e-02
6.530036099610006528e-02
6.530036099610006528e-02
6.623310058128117905e-02
6.623310058128117905e-02
6.645835380152356753e-02
6.645835380152356753e-02
6.689956814334849233e-02
6.689956814334849233e-02
6.732859528318055342e-02
6.732859528318055342e-02
6.753861148859127694e-02
6.753861148859127694e-02
6.794978817310089181e-02
6.794978817310089181e-02
6.815100208163589468e-02
6.815100208163589468e-02
6.834933416656986671e-02
6.834933416656986671e-02
6.854480944328436576e-02
6.854480944328436576e-02
6.873745228432118215e-02
6.873745228432118215e-02
6.929862067336869935e-02
6.929862067336869935e-02
6.948016529511392980e-02
6.948016529511392980e-02
7.017935438190031627e-02
7.017935438190031627e-02
7.034750489724164724e-02
7.034750489724164724e-02
7.099408668121701127e-02
7.099408668121701127e-02
7.130201216542998710e-02
7.130201216542998710e-02
7.145219221891843664e-02
7.145219221891843664e-02
7.174506612967093688e-02
7.174506612967093688e-02
7.188779048602275679e-02
7.188779048602275679e-02
7.269306276227564811e-02
7.269306276227564811e-02
7.281888801001183686e-02
7.281888801001183686e-02
7.318223711188912017e-02
7.318223711188912017e-02
7.329868350275470235e-02
7.329868350275470235e-02
7.341281360970769443e-02
7.341281360970769443e-02
7.374141268369038826e-02
7.374141268369038826e-02
7.394908762914939593e-02
7.394908762914939593e-02
7.404953683827407429e-02
7.404953683827407429e-02
7.460535828858291807e-02
7.460535828858291807e-02
7.485350428267320555e-02
7.485350428267320555e-02
7.508207469368732845e-02
7.508207469368732845e-02
7.529124780546964102e-02
7.529124780546964102e-02
7.559719511225490574e-02
7.559719511225490574e-02
7.575538626610647808e-02
7.575538626610647808e-02
7.580391465351080105e-02
7.580391465351080105e-02
7.593695021614070562e-02
7.593695021614070562e-02
7.601521876540294487e-02
7.601521876540294487e-02
7.605123640247039851e-02
7.605123640247039851e-02
7.608518027222677116e-02
7.608518027222677116e-02
7.614685763341892677e-02
7.614685763341892677e-02
7.620027096482555329e-02
7.620027096482555329e-02
7.622388415337952305e-02
7.622388415337952305e-02
7.626493315422958053e-02
7.626493315422958053e-02
7.628237229068980663e-02
7.628237229068980663e-02
7.629775645385734884e-02
7.629775645385734884e-02
7.633159069877254455e-02
7.633159069877254455e-02
7.634389034285797571e-02
7.634389034285797571e-02
7.634696494427049840e-02
7.634696494427049840e-02
7.629775645385734884e-02
7.629775645385734884e-02
7.608518027222677116e-02
7.608518027222677116e-02
7.605123640247041239e-02
7.605123640247041239e-02
7.593695021614071949e-02
7.593695021614071949e-02
7.548118487931115839e-02
7.548118487931115839e-02
7.535669001496086983e-02
7.535669001496086983e-02
7.515394601252421702e-02
7.515394601252421702e-02
7.500804825939626219e-02
7.500804825939626219e-02
7.493186032242779571e-02
7.493186032242779571e-02
7.485350428267320555e-02
7.485350428267320555e-02
7.460535828858293195e-02
7.460535828858293195e-02
7.433744067576855685e-02
7.433744067576855685e-02
7.424370457138305957e-02
7.424370457138305957e-02
7.414773951417966136e-02
7.414773951417966136e-02
7.404953683827407429e-02
7.404953683827407429e-02
7.394908762914939593e-02
7.394908762914939593e-02
7.318223711188912017e-02
7.318223711188912017e-02
7.306346336223704108e-02
7.306346336223704108e-02
7.281888801001183686e-02
7.281888801001183686e-02
7.269306276227564811e-02
7.269306276227564811e-02
7.243427567258788058e-02
7.243427567258788058e-02
7.230128828671909813e-02
7.230128828671909813e-02
7.188779048602275679e-02
7.188779048602275679e-02
7.174506612967093688e-02
7.174506612967093688e-02
7.159987172655998822e-02
7.159987172655998822e-02
7.130201216543000098e-02
7.130201216543000098e-02
7.034750489724164724e-02
7.034750489724164724e-02
7.017935438190030240e-02
7.017935438190030240e-02
6.965899034555195213e-02
6.965899034555195213e-02
6.815100208163589468e-02
6.815100208163589468e-02
6.794978817310089181e-02
6.794978817310089181e-02
6.689956814334850621e-02
6.689956814334850621e-02
6.623310058128117905e-02
6.623310058128117905e-02
6.577314292912173066e-02
6.577314292912173066e-02
6.481447414697613651e-02
6.481447414697613651e-02
6.273366466801288954e-02
6.273366466801288954e-02
6.189363713552871460e-02
6.189363713552871460e-02
6.160600277760255178e-02
6.160600277760255178e-02
6.071946562071356412e-02
6.071946562071356412e-02
5.783264302849801253e-02
5.783264302849801253e-02
5.748933097711977219e-02
5.748933097711977219e-02
5.678821534639396512e-02
5.678821534639396512e-02
5.213329839300966106e-02
5.213329839300966106e-02
5.170681524399143442e-02
5.170681524399143442e-02
5.127373312270505634e-02
5.127373312270505634e-02
5.083388336848694566e-02
5.083388336848694566e-02
5.038708874924133219e-02
5.038708874924133219e-02
4.947190934450790278e-02
4.947190934450790278e-02
4.852658047957052190e-02
4.852658047957052190e-02
4.704806578082725704e-02
4.704806578082725704e-02
4.601901710999960204e-02
4.601901710999960204e-02
4.495250243429799175e-02
4.495250243429799175e-02
4.440435543112618982e-02
4.440435543112618982e-02
4.384578784469998769e-02
4.384578784469998769e-02
4.269574739503993049e-02
4.269574739503993049e-02
4.025069695376129464e-02
4.025069695376129464e-02
3.894658689805022278e-02
3.894658689805022278e-02
3.827174127682141103e-02
3.827174127682141103e-02
3.614577394855871678e-02
3.614577394855871678e-02
3.539992402498384066e-02
3.539992402498384066e-02
3.133126583706408175e-02
3.133126583706408175e-02
3.043695141616052646e-02
3.043695141616052646e-02
2.754649769214126409e-02
2.754649769214126409e-02
2.175360263268840549e-02
2.175360263268840549e-02
1.726584300822869497e-02
1.726584300822869497e-02
1.546329263730619394e-02
1.546329263730619394e-02
1.096278527348830932e-02
0.000000000000000000e+00
