1.546114385128021240e-01
1.052047908306121826e-01
1.000000000000000000e+00
6.858928203582763672e-01
9.429026246070861816e-01
7.203125357627868652e-01
7.478445768356323242e-01
9.984985589981079102e-01
3.844354152679443359e-01
1.943382322788238525e-01
2.420593202114105225e-01
1.000000000000000000e+00
2.974511682987213135e-01
4.821907281875610352e-01
1.000000000000000000e+00
9.999955892562866211e-01
9.999989867210388184e-01
4.102557897567749023e-03
9.999881982803344727e-01
1.000000000000000000e+00
9.939727187156677246e-01
9.686788916587829590e-01
1.000000000000000000e+00
4.326578974723815918e-01
1.000000000000000000e+00
3.465121984481811523e-01
4.735514521598815918e-01
3.233837485313415527e-01
3.654653728008270264e-01
7.534856796264648438e-01
7.413309812545776367e-02
9.999998807907104492e-01
2.223355770111083984e-01
9.885265827178955078e-01
1.033943295478820801e-01
5.278996229171752930e-01
9.999969601631164551e-01
6.512807607650756836e-01
1.759037077426910400e-01
5.045557022094726562e-02
1.157009601593017578e-02
7.044211030006408691e-01
5.357376933097839355e-01
1.000000000000000000e+00
5.785202383995056152e-01
1.277047693729400635e-01
9.999983906745910645e-01
3.888785839080810547e-01
9.584898352622985840e-01
5.731991529464721680e-01
2.328144609928131104e-01
1.651600003242492676e-02
9.986710548400878906e-01
9.999950528144836426e-01
9.263962507247924805e-03
9.999026060104370117e-01
7.010407447814941406e-01
1.598565876483917236e-01
1.000000000000000000e+00
5.552397370338439941e-01
1.000000000000000000e+00
1.000000000000000000e+00
9.999998211860656738e-01
4.207909107208251953e-03
9.999849796295166016e-01
4.305795729160308838e-01
7.104279994964599609e-01
1.000000000000000000e+00
9.999797344207763672e-01
5.760827064514160156e-01
5.913314223289489746e-02
9.999290108680725098e-01
1.000000000000000000e+00
7.860956192016601562e-01
2.528676390647888184e-01
3.923580050468444824e-02
9.999619126319885254e-01
1.782504916191101074e-01
1.000000000000000000e+00
5.581241846084594727e-02
5.004745125770568848e-01
9.941766858100891113e-01
1.000000000000000000e+00
8.505512475967407227e-01
2.411417663097381592e-01
1.000000000000000000e+00
5.698406696319580078e-01
7.528038024902343750e-01
1.000000000000000000e+00
9.762957096099853516e-01
2.846924066543579102e-01
9.767552614212036133e-01
9.814015030860900879e-01
6.737145185470581055e-01
9.998891353607177734e-01
9.272435903549194336e-01
1.000000000000000000e+00
1.558035612106323242e-03
6.272926926612854004e-02
3.959628343582153320e-01
3.016098737716674805e-01
2.147072553634643555e-02
2.987200957704772009e-07
1.538476645946502686e-01
8.510147333145141602e-01
9.494952559471130371e-01
9.298799037933349609e-01
9.918152093887329102e-01
1.542448699474334717e-01
3.995533585548400879e-01
9.948208332061767578e-01
1.257145404815673828e-02
9.999997019767761230e-01
9.019434452056884766e-02
3.042460978031158447e-01
2.448960244655609131e-01
4.609814286231994629e-01
1.693721115589141846e-01
2.985841035842895508e-02
3.684246540069580078e-01
9.998794794082641602e-01
4.971027970314025879e-01
2.956493153760675341e-05
1.000000000000000000e+00
9.695063829421997070e-01
2.415291070938110352e-01
9.252448678016662598e-01
1.000000000000000000e+00
7.726515531539916992e-01
9.999056458473205566e-01
2.575397491455078125e-03
1.739567518234252930e-02
1.976761221885681152e-02
2.815294563770294189e-01
1.000000000000000000e+00
9.999965429306030273e-01
2.616181373596191406e-01
2.563331723213195801e-01
9.999618530273437500e-01
7.913926839828491211e-01
1.661350429058074951e-01
3.498122096061706543e-01
5.972654223442077637e-01
9.239035844802856445e-02
3.268073797225952148e-01
6.942392587661743164e-01
9.999678134918212891e-01
9.811666607856750488e-02
4.107498526573181152e-01
1.964506506919860840e-02
9.999789595603942871e-01
4.677489995956420898e-01
2.534328103065490723e-01
2.453196048736572266e-02
1.134609878063201904e-01
2.932820070242377064e-14
1.751976013183593750e-01
3.109997510910034180e-01
1.000000000000000000e+00
3.835658133029937744e-01
7.063402533531188965e-01
1.413074135780334473e-02
3.530201315879821777e-01
1.533831357955932617e-01
6.357828378677368164e-01
9.914529323577880859e-01
4.800942242145538330e-01
7.813870906829833984e-03
9.999980926513671875e-01
9.580782651901245117e-01
1.000000000000000000e+00
9.998261928558349609e-01
3.439538776874542236e-01
4.299951493740081787e-01
2.348135113716125488e-01
2.579260766506195068e-01
2.404096126556396484e-01
3.964933454990386963e-01
9.968071579933166504e-01
9.999986886978149414e-01
1.224253177642822266e-01
5.254362821578979492e-01
1.000000000000000000e+00
3.129029273986816406e-01
9.647084474563598633e-01
9.999996423721313477e-01
1.722121238708496094e-02
3.040611147880554199e-01
5.548949837684631348e-01
4.458308219909667969e-03
5.493109226226806641e-01
9.934402704238891602e-01
4.293718934059143066e-01
1.565040349960327148e-01
5.100083351135253906e-01
1.000000000000000000e+00
9.612736701965332031e-01
1.000000000000000000e+00
1.333708167076110840e-01
1.000000000000000000e+00
9.993952512741088867e-01
1.000000000000000000e+00
6.911237835884094238e-01
2.446565032005310059e-01
2.541900277137756348e-01
1.749023199081420898e-01
2.662144899368286133e-01
1.843779087066650391e-01
9.889137744903564453e-01
5.463417172431945801e-01
1.496278047561645508e-01
1.000000000000000000e+00
1.000000000000000000e+00
9.326469898223876953e-01
3.504492640495300293e-01
3.220765590667724609e-01
4.565005004405975342e-01
1.000000000000000000e+00
9.481649398803710938e-01
6.215485334396362305e-01
2.882674932479858398e-01
9.415217638015747070e-01
9.999908208847045898e-01
1.000000000000000000e+00
2.301797866821289062e-01
1.000000000000000000e+00
9.999924898147583008e-01
9.999943375587463379e-01
1.230061948299407959e-01
1.685621142387390137e-01
1.000000000000000000e+00
4.432709515094757080e-01
2.131396830081939697e-01
2.476462721824645996e-02
9.981150031089782715e-01
1.000000000000000000e+00
6.923803687095642090e-02
9.999887943267822266e-01
9.999611377716064453e-01
6.603476405143737793e-01
1.979701220989227295e-01
1.000000000000000000e+00
5.005583167076110840e-02
3.950229287147521973e-02
2.368566393852233887e-02
5.369527339935302734e-01
9.998363256454467773e-01
9.457631111145019531e-01
2.812345921993255615e-01
7.281596660614013672e-01
6.801933050155639648e-03
9.999997019767761230e-01
1.111012399196624756e-01
8.288589119911193848e-02
1.000000000000000000e+00
7.062748670578002930e-01
1.000000000000000000e+00
8.293533325195312500e-01
3.477335274219512939e-01
7.770983756927307695e-06
6.579215526580810547e-01
9.990571737289428711e-01
9.996792078018188477e-01
2.330842614173889160e-02
8.910769224166870117e-01
1.503806412220001221e-01
1.000000000000000000e+00
3.408150672912597656e-01
9.999996423721313477e-01
5.152190923690795898e-01
1.000000000000000000e+00
2.724502384662628174e-01
4.826533198356628418e-01
4.450375139713287354e-01
9.999929666519165039e-01
5.393970012664794922e-02
1.000000000000000000e+00
1.820788383483886719e-01
0.000000000000000000e+00
4.218176007270812988e-02
1.355785131454467773e-02
9.999952316284179688e-01
1.000000000000000000e+00
1.000000000000000000e+00
4.030435085296630859e-01
5.908653736114501953e-01
2.353203296661376953e-02
5.733727812767028809e-01
9.999790191650390625e-01
4.875323772430419922e-01
7.458494901657104492e-01
1.000000000000000000e+00
9.510132074356079102e-01
3.400204181671142578e-01
3.909288537329302926e-08
9.879138469696044922e-01
9.998050928115844727e-01
1.000000000000000000e+00
3.999552130699157715e-02
1.477833986282348633e-01
9.959142804145812988e-01
7.230147719383239746e-02
9.999831914901733398e-01
2.262965142726898193e-01
1.000000000000000000e+00
8.781332373619079590e-01
8.093413710594177246e-02
1.000000000000000000e+00
1.000000000000000000e+00
5.065528750419616699e-01
9.999994635581970215e-01
8.200858831405639648e-01
1.649455130100250244e-01
9.623595476150512695e-01
5.601555109024047852e-03
4.545149207115173340e-01
5.712395906448364258e-01
1.000000000000000000e+00
1.994940638542175293e-01
9.999319911003112793e-01
1.000000000000000000e+00
2.563178539276123047e-03
9.998027086257934570e-01
1.922726631164550781e-03
1.149253845214843750e-01
4.070775210857391357e-01
5.075049996376037598e-01
2.344653606414794922e-01
1.000000000000000000e+00
2.677487134933471680e-01
1.000000000000000000e+00
5.324767827987670898e-01
9.051901102066040039e-01
1.266229152679443359e-01
4.261591136455535889e-01
4.664441943168640137e-01
1.096325218677520752e-01
2.899254262447357178e-01
9.662567377090454102e-01
9.723221063613891602e-01
2.984125018119812012e-01
6.221066713333129883e-01
1.739642322063446045e-01
9.892555475234985352e-01
6.522397994995117188e-01
1.404246359015814960e-05
9.996893405914306641e-01
1.000000000000000000e+00
9.996365308761596680e-01
3.190448880195617676e-02
9.443921446800231934e-01
9.999998211860656738e-01
4.167258739471435547e-04
2.798168063163757324e-01
9.996531009674072266e-01
1.035109758377075195e-01
5.137131810188293457e-01
9.999771118164062500e-01
8.548254966735839844e-01
7.996541261672973633e-02
5.465955138206481934e-01
1.000000000000000000e+00
9.999058246612548828e-01
1.101374626159667969e-02
1.000000000000000000e+00
1.000000000000000000e+00
9.875558018684387207e-01
8.369359374046325684e-01
7.114425301551818848e-02
2.511324584484100342e-01
1.169683337211608887e-01
2.653434276580810547e-01
1.000000000000000000e+00
9.830129146575927734e-01
3.977722040637843293e-10
1.000000000000000000e+00
9.995795488357543945e-01
3.499605655670166016e-01
9.894866943359375000e-01
9.999990463256835938e-01
1.934606134891510010e-01
1.325288414955139160e-01
8.887556195259094238e-02
5.710154771804809570e-02
8.880032300949096680e-01
7.320001721382141113e-02
2.099108695983886719e-02
1.403960585594177246e-02
2.776325941085815430e-01
1.500644683837890625e-01
3.651306033134460449e-02
6.701397299766540527e-01
9.142019748687744141e-01
3.187793493270874023e-01
3.023955523967742920e-01
3.565633893013000488e-01
2.894950509071350098e-01
4.894867539405822754e-02
0.000000000000000000e+00
1.011409163475036621e-01
6.679259968223050237e-05
6.091669201850891113e-02
6.140044331550598145e-02
1.902991831302642822e-01
1.000000000000000000e+00
2.802572846412658691e-01
2.189286053180694580e-01
1.415854692459106445e-02
6.903827190399169922e-02
4.844500720500946045e-01
4.017750620841979980e-01
4.036990106105804443e-01
7.831510901451110840e-02
4.208324551582336426e-01
1.670582890510559082e-01
3.252288699150085449e-01
8.589638471603393555e-01
1.150455176830291748e-01
9.033802151679992676e-02
2.856642007827758789e-03
9.924307465553283691e-02
9.159963130950927734e-01
3.943075239658355713e-01
1.017398238182067871e-01
2.264657616615295410e-01
6.097293496131896973e-01
9.999957084655761719e-01
1.640753448009490967e-01
5.820477008819580078e-02
2.087775766849517822e-01
4.596109390258789062e-01
2.208149731159210205e-01
3.983116149902343750e-02
3.202333450317382812e-01
5.221728682518005371e-01
6.236192584037780762e-02
9.953033924102783203e-01
2.887668013572692871e-01
1.371559500694274902e-02
4.228588938713073730e-02
4.291269183158874512e-02
1.167925596237182617e-01
3.153651952743530273e-03
1.777217984199523926e-01
1.887606084346771240e-01
3.980189561843872070e-02
8.581174612045288086e-01
3.215509951114654541e-01
6.626692414283752441e-01
9.978721141815185547e-01
2.160099148750305176e-02
2.150295376777648926e-01
3.688874840736389160e-01
1.785402595996856689e-01
1.804689764976501465e-01
1.295169889926910400e-01
1.959598362445831299e-01
7.038116455078125000e-04
1.906412839889526367e-01
3.734868168830871582e-01
8.229910731315612793e-01
7.562481164932250977e-01
7.580766081809997559e-01
4.060486853122711182e-01
1.260883808135986328e-01
2.665400505065917969e-03
7.067080736160278320e-01
3.108603656291961670e-01
4.353318512439727783e-01
1.544305384159088135e-01
8.412680029869079590e-02
3.839391469955444336e-02
2.946028709411621094e-01
6.304311752319335938e-01
6.555566787719726562e-01
7.359066009521484375e-01
5.016722679138183594e-01
5.285269021987915039e-02
7.372587919235229492e-03
8.769477605819702148e-01
7.047055959701538086e-01
2.721548080444335938e-03
9.267318248748779297e-02
1.595002412796020508e-02
4.074487090110778809e-01
1.946767866611480713e-01
8.371097445487976074e-01
4.760431647300720215e-01
7.017523646354675293e-01
2.220410108566284180e-01
1.864856779575347900e-01
1.148968935012817383e-02
2.074920237064361572e-01
7.814441323280334473e-01
0.000000000000000000e+00
4.312500059604644775e-01
6.040346622467041016e-02
2.589398920536041260e-01
3.666878342628479004e-01
9.741736650466918945e-01
5.487169027328491211e-01
4.923828542232513428e-01
8.688238263130187988e-02
4.498877525329589844e-01
5.304214358329772949e-01
8.484755754470825195e-01
5.539238452911376953e-03
3.261091113090515137e-01
9.655153751373291016e-01
8.811619281768798828e-01
3.835548032517489573e-27
8.070151805877685547e-01
9.663538336753845215e-01
7.221041917800903320e-01
1.301226019859313965e-02
9.993441104888916016e-01
3.813262879848480225e-01
5.282455086708068848e-01
6.169689893722534180e-01
3.438985347747802734e-02
1.876100897789001465e-02
2.235975563526153564e-01
7.402905821800231934e-02
4.539677500724792480e-02
6.016966700553894043e-02
1.279587447643280029e-01
1.201046109199523926e-01
2.219253778457641602e-02
8.107781410217285156e-03
2.351429760456085205e-01
5.236246585845947266e-01
2.195866405963897705e-01
5.802620649337768555e-01
9.893420338630676270e-02
5.320656299591064453e-01
4.428991675376892090e-02
5.722373723983764648e-03
3.961525559425354004e-01
2.838908731937408447e-01
9.987651705741882324e-01
8.807641267776489258e-01
8.503645658493041992e-02
9.763851165771484375e-01
1.407412290573120117e-01
4.362064003944396973e-01
6.237894296646118164e-03
9.290564656257629395e-01
6.767094135284423828e-01
3.040235638618469238e-01
6.468458771705627441e-01
8.991514444351196289e-01
1.394655704498291016e-01
9.240537881851196289e-03
6.769061088562011719e-03
8.954661488533020020e-01
9.358404874801635742e-01
8.958762884140014648e-01
6.336196064949035645e-01
9.219800233840942383e-01
1.098540425300598145e-02
1.841642260551452637e-01
9.941421747207641602e-01
2.565217018127441406e-01
5.848554968833923340e-01
5.027644038200378418e-01
3.396648168563842773e-02
8.791685104370117188e-02
4.136553406715393066e-02
3.752729296684265137e-02
1.896747946739196777e-02
9.288261532783508301e-01
9.111300110816955566e-02
2.000534832477569580e-01
1.344482004642486572e-01
2.410264015197753906e-01
4.853439331054687500e-02
2.575995097231498221e-07
7.365067005157470703e-01
1.400882303714752197e-01
3.238466382026672363e-02
1.247627735137939453e-01
1.615793108940124512e-01
2.614603936672210693e-01
5.796579718589782715e-01
1.808649599552154541e-01
1.000000000000000000e+00
6.999003887176513672e-01
7.006719708442687988e-02
3.764140605926513672e-02
1.230028271675109863e-02
3.568022251129150391e-01
1.681899130344390869e-01
3.196934461593627930e-01
8.768370747566223145e-02
2.642077803611755371e-01
7.093200683593750000e-01
4.941859245300292969e-01
4.011887311935424805e-01
3.719903230667114258e-01
1.135854423046112061e-01
2.898656725883483887e-01
5.326074361801147461e-01
1.974960565567016602e-01
5.919855539104901254e-07
3.342606425285339355e-01
6.161397695541381836e-02
2.804743647575378418e-01
3.026834130287170410e-02
3.017853796482086182e-01
3.015442490577697754e-01
1.108895540237426758e-01
4.552557468414306641e-01
2.124350368976593018e-01
3.853888511657714844e-01
5.197058320045471191e-01
2.327154576778411865e-01
1.694822311401367188e-01
3.526751995086669922e-01
3.310580849647521973e-01
7.542368769645690918e-02
4.229104518890380859e-01
1.318067312240600586e-03
1.932958066463470459e-01
9.495824575424194336e-03
6.769289970397949219e-01
4.036039113998413086e-01
1.845250427722930908e-01
8.315774798393249512e-02
5.023636617806914728e-07
8.304526081840424311e-18
2.903565764427185059e-02
1.031836867332458496e-02
5.608389973640441895e-01
2.759341895580291748e-01
1.771740019321441650e-01
2.570072412490844727e-01
3.573516011238098145e-02
1.273482441902160645e-01
5.160886049270629883e-02
2.067710161209106445e-01
2.044174075126647949e-01
3.173950016498565674e-01
6.763869524002075195e-02
1.361663639545440674e-01
2.228712737560272217e-01
1.877365410327911377e-01
3.000093996524810791e-01
4.232287267313949997e-07
1.521052718162536621e-01
4.187002182006835938e-01
6.059200763702392578e-01
3.232588171958923340e-01
9.999108314514160156e-02
6.508863568305969238e-01
1.993894577026367188e-03
7.260411977767944336e-02
5.340616703033447266e-01
5.612760782241821289e-02
3.920225501060485840e-01
4.943123459815979004e-02
2.960346043109893799e-01
3.205907344818115234e-02
2.673365175724029541e-01
3.546929359436035156e-01
5.323787331581115723e-01
8.652520179748535156e-02
1.000000000000000000e+00
5.238950252532958984e-04
2.070988118648529053e-01
3.216873109340667725e-01
7.800149917602539062e-01
5.542316436767578125e-01
3.544688224792480469e-04
1.009294092655181885e-01
4.343181848526000977e-02
7.790200710296630859e-01
1.070328950881958008e-01
9.907053709030151367e-01
2.424874603748321533e-01
1.379615068435668945e-01
1.071493625640869141e-01
8.458808660507202148e-01
5.863637328147888184e-01
5.677998065948486328e-01
9.884451031684875488e-01
8.466908335685729980e-01
2.284248173236846924e-01
3.409166932106018066e-01
9.731364846229553223e-01
2.366286516189575195e-02
1.431871354579925537e-01
1.000000000000000000e+00
1.326746940612792969e-01
6.543629765510559082e-01
1.156993508338928223e-01
4.060908555984497070e-01
8.599286079406738281e-01
4.807722568511962891e-02
5.307109355926513672e-01
5.151587724685668945e-02
7.243219614028930664e-01
2.488240003585815430e-01
4.238178730010986328e-01
9.682928919792175293e-01
9.663157463073730469e-01
1.841576993465423584e-01
5.091884136199951172e-01
2.839565277099609375e-04
8.934481143951416016e-01
9.668962359428405762e-01
2.437630593776702881e-01
9.771662950515747070e-01
2.029442787170410156e-02
2.932748794555664062e-01
1.637736558914184570e-01
3.693748712539672852e-01
7.670103311538696289e-01
1.664506494998931885e-01
4.771225452423095703e-01
2.121266424655914307e-01
4.345611929893493652e-01
3.324404358863830566e-02
2.336606383323669434e-02
2.928081750869750977e-01
6.659080386161804199e-01
2.307482957839965820e-01
7.478526234626770020e-02
1.490654051303863525e-01
7.451790571212768555e-02
2.161264419555664062e-04
9.336128234863281250e-01
5.451121926307678223e-02
9.211465716361999512e-02
6.119493842124938965e-01
2.737253904342651367e-03
7.006826996803283691e-02
2.997442483901977539e-01
9.993848800659179688e-01
1.919535696506500244e-01
1.155793666839599609e-02
2.053718566894531250e-01
2.234133780002593994e-01
2.973072826862335205e-01
3.042871952056884766e-01
7.558149099349975586e-02
7.627869844436645508e-01
8.054697513580322266e-02
5.941522121429443359e-02
1.985769867897033691e-01
6.246766448020935059e-02
4.700528085231781006e-01
9.999467134475708008e-01
2.181075215339660645e-01
3.073517084121704102e-01
2.626180648803710938e-04
5.231606364250183105e-01
1.930108666419982910e-02
3.568989038467407227e-02
1.877647042274475098e-01
2.802892327308654785e-01
3.493666648864746094e-02
6.710398197174072266e-02
3.393241167068481445e-01
3.830418288707733154e-01
9.762287139892578125e-03
2.309538424015045166e-01
6.633749604225158691e-02
1.747975647449493408e-01
