0.000000000000000000e+00
1.061571125265392762e-03
3.322717622080679223e-01
3.322717622080679223e-01
3.619957537154989136e-01
3.619957537154989136e-01
3.641188959660296987e-01
3.641188959660296987e-01
3.949044585987261380e-01
3.949044585987261380e-01
3.959660297239915305e-01
3.959660297239915305e-01
3.980891719745223156e-01
3.980891719745223156e-01
4.065817409766454560e-01
4.065817409766454560e-01
4.097664543524416336e-01
4.097664543524416336e-01
4.171974522292993814e-01
4.171974522292993814e-01
4.309978768577494845e-01
4.309978768577494845e-01
4.363057324840764473e-01
4.363057324840764473e-01
4.617834394904458684e-01
4.617834394904458684e-01
4.745222929936305789e-01
4.745222929936305789e-01
4.798301486199575416e-01
4.798301486199575416e-01
4.968152866242038224e-01
4.968152866242038224e-01
5.021231422505307851e-01
5.021231422505307851e-01
5.053078556263269627e-01
5.053078556263269627e-01
5.095541401273885329e-01
5.095541401273885329e-01
5.201698513800424584e-01
5.201698513800424584e-01
5.212314225053078509e-01
5.212314225053078509e-01
5.254777070063694211e-01
5.254777070063694211e-01
5.371549893842887391e-01
5.371549893842887391e-01
5.467091295116772720e-01
5.467091295116772720e-01
5.647558386411889453e-01
5.647558386411889453e-01
5.658174097664543378e-01
5.658174097664543378e-01
5.743099787685774782e-01
5.743099787685774782e-01
5.753715498938428707e-01
5.753715498938428707e-01
5.849256900212314036e-01
5.849256900212314036e-01
5.870488322717621887e-01
5.870488322717621887e-01
5.902335456475583664e-01
5.902335456475583664e-01
6.146496815286623949e-01
6.146496815286623949e-01
6.273885350318471055e-01
6.273885350318471055e-01
6.411889596602972086e-01
6.411889596602972086e-01
6.464968152866241713e-01
6.464968152866241713e-01
6.486199575371549564e-01
6.486199575371549564e-01
6.518046709129511340e-01
6.518046709129511340e-01
6.528662420382165266e-01
6.528662420382165266e-01
6.560509554140127042e-01
6.560509554140127042e-01
6.571125265392780967e-01
6.571125265392780967e-01
6.581740976645434893e-01
6.581740976645434893e-01
6.613588110403396669e-01
6.613588110403396669e-01
6.624203821656050595e-01
6.624203821656050595e-01
6.634819532908704520e-01
6.634819532908704520e-01
6.656050955414012371e-01
6.656050955414012371e-01
6.677282377919320222e-01
6.677282377919320222e-01
6.687898089171974148e-01
6.687898089171974148e-01
6.698513800424628073e-01
6.698513800424628073e-01
6.719745222929935924e-01
6.719745222929935924e-01
6.740976645435243775e-01
6.740976645435243775e-01
6.783439490445859477e-01
6.783439490445859477e-01
6.794055201698513402e-01
6.794055201698513402e-01
6.804670912951167328e-01
6.804670912951167328e-01
6.847133757961783029e-01
6.847133757961783029e-01
6.878980891719744806e-01
6.878980891719744806e-01
6.889596602972398731e-01
6.889596602972398731e-01
6.900212314225052657e-01
6.900212314225052657e-01
6.921443736730360508e-01
6.921443736730360508e-01
6.932059447983014433e-01
6.932059447983014433e-01
6.974522292993630135e-01
6.974522292993630135e-01
6.985138004246284060e-01
6.985138004246284060e-01
6.995753715498937986e-01
6.995753715498937986e-01
7.006369426751591911e-01
7.006369426751591911e-01
7.016985138004245837e-01
7.016985138004245837e-01
7.038216560509553688e-01
7.038216560509553688e-01
7.048832271762207613e-01
7.048832271762207613e-01
7.059447983014861538e-01
7.059447983014861538e-01
7.070063694267515464e-01
7.070063694267515464e-01
7.080679405520169389e-01
7.080679405520169389e-01
7.091295116772823315e-01
7.091295116772823315e-01
7.101910828025477240e-01
7.101910828025477240e-01
7.154989384288746868e-01
7.154989384288746868e-01
7.176220806794054718e-01
7.176220806794054718e-01
7.208067940552016495e-01
7.208067940552016495e-01
7.218683651804670420e-01
7.218683651804670420e-01
7.229299363057324346e-01
7.229299363057324346e-01
7.239915074309978271e-01
7.239915074309978271e-01
7.250530785562632197e-01
7.250530785562632197e-01
7.261146496815286122e-01
7.261146496815286122e-01
7.271762208067940048e-01
7.271762208067940048e-01
7.282377919320593973e-01
7.282377919320593973e-01
7.314225053078555749e-01
7.314225053078555749e-01
7.335456475583863600e-01
7.335456475583863600e-01
7.346072186836517526e-01
7.346072186836517526e-01
7.367303609341825377e-01
7.367303609341825377e-01
7.377919320594479302e-01
7.377919320594479302e-01
7.388535031847133228e-01
7.388535031847133228e-01
7.399150743099787153e-01
7.399150743099787153e-01
7.409766454352441079e-01
7.409766454352441079e-01
7.420382165605095004e-01
7.420382165605095004e-01
7.441613588110402855e-01
7.441613588110402855e-01
7.462845010615710706e-01
7.462845010615710706e-01
7.494692144373672482e-01
7.494692144373672482e-01
7.505307855626327518e-01
7.505307855626327518e-01
7.515923566878981443e-01
7.515923566878981443e-01
7.526539278131635369e-01
7.526539278131635369e-01
7.537154989384289294e-01
7.537154989384289294e-01
7.547770700636943220e-01
7.547770700636943220e-01
7.558386411889597145e-01
7.558386411889597145e-01
7.569002123142251071e-01
7.569002123142251071e-01
7.590233545647558921e-01
7.590233545647558921e-01
7.600849256900212847e-01
7.600849256900212847e-01
7.611464968152866772e-01
7.611464968152866772e-01
7.643312101910828549e-01
7.643312101910828549e-01
7.653927813163482474e-01
7.653927813163482474e-01
7.664543524416136400e-01
7.664543524416136400e-01
7.675159235668790325e-01
7.675159235668790325e-01
7.685774946921444251e-01
7.685774946921444251e-01
7.696390658174098176e-01
7.696390658174098176e-01
7.707006369426752102e-01
7.707006369426752102e-01
7.738853503184713878e-01
7.738853503184713878e-01
7.749469214437367803e-01
7.749469214437367803e-01
7.760084925690021729e-01
7.760084925690021729e-01
7.781316348195329580e-01
7.781316348195329580e-01
7.813163481953291356e-01
7.813163481953291356e-01
7.823779193205945282e-01
7.823779193205945282e-01
7.845010615711253132e-01
7.845010615711253132e-01
7.866242038216560983e-01
7.866242038216560983e-01
7.887473460721868834e-01
7.887473460721868834e-01
7.908704883227176685e-01
7.908704883227176685e-01
7.919320594479830611e-01
7.919320594479830611e-01
7.929936305732484536e-01
7.929936305732484536e-01
7.940552016985138462e-01
7.940552016985138462e-01
7.961783439490446312e-01
7.961783439490446312e-01
7.972399150743100238e-01
7.972399150743100238e-01
7.983014861995754163e-01
7.983014861995754163e-01
7.993630573248408089e-01
7.993630573248408089e-01
8.004246284501062014e-01
8.004246284501062014e-01
8.014861995753715940e-01
8.014861995753715940e-01
8.025477707006369865e-01
8.025477707006369865e-01
8.036093418259023791e-01
8.036093418259023791e-01
8.046709129511677716e-01
8.046709129511677716e-01
8.057324840764331642e-01
8.057324840764331642e-01
8.067940552016985567e-01
8.067940552016985567e-01
8.078556263269639492e-01
8.078556263269639492e-01
8.089171974522293418e-01
8.089171974522293418e-01
8.099787685774947343e-01
8.099787685774947343e-01
8.131634819532909120e-01
8.131634819532909120e-01
8.142250530785563045e-01
8.142250530785563045e-01
8.152866242038216971e-01
8.152866242038216971e-01
8.163481953290870896e-01
8.163481953290870896e-01
8.174097664543524822e-01
8.174097664543524822e-01
8.195329087048832672e-01
8.195329087048832672e-01
8.205944798301486598e-01
8.205944798301486598e-01
8.216560509554140523e-01
8.216560509554140523e-01
8.227176220806794449e-01
8.227176220806794449e-01
8.259023354564756225e-01
8.259023354564756225e-01
8.269639065817410151e-01
8.269639065817410151e-01
8.301486199575371927e-01
8.301486199575371927e-01
8.322717622080679778e-01
8.322717622080679778e-01
8.333333333333333703e-01
8.333333333333333703e-01
8.343949044585987629e-01
8.343949044585987629e-01
8.386411889596603331e-01
8.386411889596603331e-01
8.397027600849257256e-01
8.397027600849257256e-01
8.407643312101911182e-01
8.407643312101911182e-01
8.418259023354565107e-01
8.418259023354565107e-01
8.450106157112526883e-01
8.450106157112526883e-01
8.471337579617834734e-01
8.471337579617834734e-01
8.481953290870488660e-01
8.481953290870488660e-01
8.492569002123142585e-01
8.492569002123142585e-01
8.513800424628450436e-01
8.513800424628450436e-01
8.524416135881104362e-01
8.524416135881104362e-01
8.535031847133758287e-01
8.535031847133758287e-01
8.566878980891720063e-01
8.566878980891720063e-01
8.577494692144373989e-01
8.577494692144373989e-01
8.588110403397027914e-01
8.588110403397027914e-01
8.609341825902335765e-01
8.609341825902335765e-01
8.619957537154989691e-01
8.619957537154989691e-01
8.630573248407643616e-01
8.630573248407643616e-01
8.641188959660297542e-01
8.641188959660297542e-01
8.651804670912951467e-01
8.651804670912951467e-01
8.662420382165605393e-01
8.662420382165605393e-01
8.673036093418259318e-01
8.673036093418259318e-01
8.694267515923567169e-01
8.694267515923567169e-01
8.704883227176221094e-01
8.704883227176221094e-01
8.726114649681528945e-01
8.726114649681528945e-01
8.736730360934182871e-01
8.736730360934182871e-01
8.747346072186836796e-01
8.747346072186836796e-01
8.757961783439490722e-01
8.757961783439490722e-01
8.768577494692144647e-01
8.768577494692144647e-01
8.779193205944798573e-01
8.779193205944798573e-01
8.800424628450106423e-01
8.800424628450106423e-01
8.811040339702760349e-01
8.811040339702760349e-01
8.832271762208068200e-01
8.832271762208068200e-01
8.842887473460722125e-01
8.842887473460722125e-01
8.853503184713376051e-01
8.853503184713376051e-01
8.864118895966029976e-01
8.864118895966029976e-01
8.874734607218683902e-01
8.874734607218683902e-01
8.885350318471337827e-01
8.885350318471337827e-01
8.895966029723991753e-01
8.895966029723991753e-01
8.906581740976645678e-01
8.906581740976645678e-01
8.917197452229299603e-01
8.917197452229299603e-01
8.927813163481953529e-01
8.927813163481953529e-01
8.938428874734607454e-01
8.938428874734607454e-01
8.949044585987261380e-01
8.949044585987261380e-01
8.970276008492569231e-01
8.970276008492569231e-01
8.980891719745223156e-01
8.980891719745223156e-01
9.002123142250531007e-01
9.002123142250531007e-01
9.012738853503184933e-01
9.012738853503184933e-01
9.023354564755838858e-01
9.023354564755838858e-01
9.044585987261146709e-01
9.044585987261146709e-01
9.055201698513800634e-01
9.055201698513800634e-01
9.065817409766454560e-01
9.065817409766454560e-01
9.087048832271762411e-01
9.087048832271762411e-01
9.097664543524416336e-01
9.097664543524416336e-01
9.118895966029724187e-01
9.118895966029724187e-01
9.129511677282378113e-01
9.129511677282378113e-01
9.140127388535032038e-01
9.140127388535032038e-01
9.161358811040339889e-01
9.161358811040339889e-01
9.171974522292993814e-01
9.171974522292993814e-01
9.193205944798301665e-01
9.193205944798301665e-01
9.203821656050955591e-01
9.203821656050955591e-01
9.214437367303609516e-01
9.214437367303609516e-01
9.225053078556263442e-01
9.225053078556263442e-01
9.246284501061571293e-01
9.246284501061571293e-01
9.256900212314225218e-01
9.256900212314225218e-01
9.267515923566879144e-01
9.267515923566879144e-01
9.278131634819533069e-01
9.278131634819533069e-01
9.288747346072186994e-01
9.288747346072186994e-01
9.299363057324840920e-01
9.299363057324840920e-01
9.309978768577494845e-01
9.309978768577494845e-01
9.320594479830148771e-01
9.320594479830148771e-01
9.331210191082802696e-01
9.331210191082802696e-01
9.363057324840764473e-01
9.363057324840764473e-01
9.373673036093418398e-01
9.373673036093418398e-01
9.384288747346072324e-01
9.384288747346072324e-01
9.405520169851380174e-01
9.405520169851380174e-01
9.416135881104034100e-01
9.416135881104034100e-01
9.426751592356688025e-01
9.426751592356688025e-01
9.437367303609341951e-01
9.437367303609341951e-01
9.447983014861995876e-01
9.447983014861995876e-01
9.469214437367303727e-01
9.469214437367303727e-01
9.479830148619957653e-01
9.479830148619957653e-01
9.490445859872611578e-01
9.490445859872611578e-01
9.501061571125265504e-01
9.501061571125265504e-01
9.511677282377919429e-01
9.511677282377919429e-01
9.522292993630573354e-01
9.522292993630573354e-01
9.532908704883227280e-01
9.532908704883227280e-01
9.543524416135881205e-01
9.543524416135881205e-01
9.554140127388535131e-01
9.554140127388535131e-01
9.575371549893842982e-01
9.575371549893842982e-01
9.585987261146496907e-01
9.585987261146496907e-01
9.596602972399150833e-01
9.596602972399150833e-01
9.607218683651804758e-01
9.607218683651804758e-01
9.617834394904458684e-01
9.617834394904458684e-01
9.628450106157112609e-01
9.628450106157112609e-01
9.639065817409766534e-01
9.639065817409766534e-01
9.649681528662420460e-01
9.649681528662420460e-01
9.660297239915074385e-01
9.660297239915074385e-01
9.670912951167728311e-01
9.670912951167728311e-01
9.702760084925690087e-01
9.702760084925690087e-01
9.713375796178344013e-01
9.713375796178344013e-01
9.723991507430997938e-01
9.723991507430997938e-01
9.734607218683651864e-01
9.734607218683651864e-01
9.745222929936305789e-01
9.745222929936305789e-01
9.755838641188959715e-01
9.755838641188959715e-01
9.766454352441613640e-01
9.766454352441613640e-01
9.777070063694267565e-01
9.777070063694267565e-01
9.787685774946921491e-01
9.787685774946921491e-01
9.798301486199575416e-01
9.798301486199575416e-01
9.808917197452229342e-01
9.808917197452229342e-01
9.819532908704883267e-01
9.819532908704883267e-01
9.830148619957537193e-01
9.830148619957537193e-01
9.840764331210191118e-01
9.840764331210191118e-01
9.851380042462845044e-01
9.851380042462845044e-01
9.861995753715498969e-01
9.861995753715498969e-01
9.872611464968152895e-01
9.872611464968152895e-01
9.893842887473460745e-01
9.893842887473460745e-01
9.904458598726114671e-01
9.904458598726114671e-01
9.915074309978768596e-01
9.915074309978768596e-01
9.925690021231422522e-01
9.925690021231422522e-01
9.936305732484076447e-01
9.936305732484076447e-01
9.946921443736730373e-01
9.946921443736730373e-01
9.957537154989384298e-01
9.957537154989384298e-01
9.968152866242038224e-01
9.968152866242038224e-01
9.978768577494692149e-01
9.978768577494692149e-01
1.000000000000000000e+00
1.000000000000000000e+00
