0.000000000000000000e+00
0.000000000000000000e+00
0.000000000000000000e+00
1.044932079414838139e-03
1.044932079414838139e-03
2.089864158829676279e-03
2.089864158829676279e-03
3.134796238244513984e-03
3.134796238244513984e-03
4.179728317659352557e-03
4.179728317659352557e-03
5.224660397074190263e-03
5.224660397074190263e-03
6.269592476489027968e-03
6.269592476489027968e-03
7.314524555903866541e-03
7.314524555903866541e-03
8.359456635318705114e-03
8.359456635318705114e-03
9.404388714733542820e-03
9.404388714733542820e-03
1.044932079414838053e-02
1.044932079414838053e-02
1.149425287356321823e-02
1.149425287356321823e-02
1.253918495297805594e-02
1.253918495297805594e-02
1.358411703239289364e-02
1.358411703239289364e-02
1.462904911180773308e-02
1.462904911180773308e-02
1.567398119122256905e-02
1.567398119122256905e-02
1.671891327063741023e-02
1.671891327063741023e-02
1.776384535005224793e-02
1.776384535005224793e-02
1.880877742946708564e-02
1.880877742946708564e-02
1.985370950888192335e-02
1.985370950888192335e-02
2.089864158829676105e-02
2.089864158829676105e-02
2.194357366771159876e-02
2.194357366771159876e-02
2.298850574712643646e-02
2.298850574712643646e-02
2.507836990595611187e-02
2.507836990595611187e-02
2.716823406478578729e-02
2.716823406478578729e-02
2.821316614420062846e-02
2.821316614420062846e-02
2.925809822361546617e-02
2.925809822361546617e-02
3.030303030303030387e-02
3.030303030303030387e-02
3.134796238244513811e-02
3.134796238244513811e-02
3.343782654127482046e-02
3.343782654127482046e-02
3.448275862068965469e-02
3.448275862068965469e-02
3.552769070010449587e-02
3.552769070010449587e-02
3.657262277951933011e-02
3.657262277951933011e-02
3.866248693834900552e-02
3.866248693834900552e-02
3.970741901776384669e-02
3.970741901776384669e-02
4.075235109717868093e-02
4.075235109717868093e-02
4.597701149425287293e-02
4.597701149425287293e-02
4.702194357366771410e-02
4.702194357366771410e-02
4.806687565308254834e-02
4.806687565308254834e-02
5.329153605015674033e-02
5.329153605015674033e-02
5.538140020898641575e-02
5.538140020898641575e-02
5.642633228840125692e-02
5.642633228840125692e-02
6.060606060606060774e-02
6.060606060606060774e-02
6.374085684430512433e-02
6.374085684430512433e-02
6.478578892371995857e-02
6.478578892371995857e-02
6.583072100313479280e-02
6.583072100313479280e-02
6.792058516196447515e-02
6.792058516196447515e-02
7.001044932079414362e-02
7.001044932079414362e-02
7.105538140020899174e-02
7.105538140020899174e-02
7.419017763845349445e-02
7.419017763845349445e-02
7.628004179728317680e-02
7.628004179728317680e-02
7.732497387669801103e-02
7.732497387669801103e-02
8.045977011494252762e-02
8.045977011494252762e-02
8.150470219435736186e-02
8.150470219435736186e-02
8.359456635318704421e-02
8.359456635318704421e-02
8.463949843260187844e-02
8.463949843260187844e-02
8.568443051201671268e-02
8.568443051201671268e-02
8.777429467084639503e-02
8.777429467084639503e-02
8.881922675026122926e-02
8.881922675026122926e-02
9.090909090909091161e-02
9.090909090909091161e-02
9.195402298850574585e-02
9.195402298850574585e-02
9.299895506792058009e-02
9.299895506792058009e-02
9.508881922675026244e-02
9.508881922675026244e-02
9.717868338557993091e-02
9.717868338557993091e-02
9.822361546499477902e-02
9.822361546499477902e-02
1.013584117032392956e-01
1.013584117032392956e-01
1.034482758620689641e-01
1.034482758620689641e-01
1.076280041797283149e-01
1.076280041797283149e-01
1.086729362591431491e-01
1.086729362591431491e-01
1.107628004179728315e-01
1.107628004179728315e-01
1.118077324973876657e-01
1.118077324973876657e-01
1.149425287356321823e-01
1.149425287356321823e-01
1.170323928944618647e-01
1.170323928944618647e-01
1.191222570532915331e-01
1.191222570532915331e-01
1.201671891327063674e-01
1.201671891327063674e-01
1.233019853709508840e-01
1.233019853709508840e-01
1.243469174503657321e-01
1.243469174503657321e-01
1.253918495297805524e-01
1.253918495297805524e-01
1.264367816091954144e-01
1.264367816091954144e-01
1.274817136886102487e-01
1.274817136886102487e-01
1.306165099268547514e-01
1.306165099268547514e-01
1.316614420062695856e-01
1.316614420062695856e-01
1.379310344827586188e-01
1.379310344827586188e-01
1.389759665621734530e-01
1.389759665621734530e-01
1.400208986415882872e-01
1.400208986415882872e-01
1.462904911180773204e-01
1.462904911180773204e-01
1.494252873563218509e-01
1.494252873563218509e-01
1.504702194357366851e-01
1.504702194357366851e-01
1.525600835945663536e-01
1.525600835945663536e-01
1.536050156739811878e-01
1.536050156739811878e-01
1.556948798328108563e-01
1.556948798328108563e-01
1.577847439916405525e-01
1.577847439916405525e-01
1.588296760710553868e-01
1.588296760710553868e-01
1.609195402298850552e-01
1.609195402298850552e-01
1.661442006269592542e-01
1.661442006269592542e-01
1.671891327063740884e-01
1.671891327063740884e-01
1.682340647857889226e-01
1.682340647857889226e-01
1.703239289446185911e-01
1.703239289446185911e-01
1.724137931034482873e-01
1.724137931034482873e-01
1.755485893416927901e-01
1.755485893416927901e-01
1.765935214211076243e-01
1.765935214211076243e-01
1.786833855799372928e-01
1.786833855799372928e-01
1.807732497387669890e-01
1.807732497387669890e-01
1.818181818181818232e-01
1.818181818181818232e-01
1.880877742946708564e-01
1.880877742946708564e-01
1.891327063740856906e-01
1.891327063740856906e-01
1.901776384535005249e-01
1.901776384535005249e-01
1.912225705329153591e-01
1.912225705329153591e-01
1.933124346917450276e-01
1.933124346917450276e-01
1.943573667711598618e-01
1.943573667711598618e-01
1.974921630094043923e-01
1.974921630094043923e-01
1.985370950888192265e-01
1.985370950888192265e-01
2.006269592476488950e-01
2.006269592476488950e-01
2.048066875653082597e-01
2.048066875653082597e-01
2.058516196447230939e-01
2.058516196447230939e-01
2.068965517241379282e-01
2.068965517241379282e-01
2.089864158829675966e-01
2.089864158829675966e-01
2.110762800417972929e-01
2.110762800417972929e-01
2.131661442006269613e-01
2.131661442006269613e-01
2.173458725182862983e-01
2.173458725182862983e-01
2.204806687565308287e-01
2.204806687565308287e-01
2.257053291536050277e-01
2.257053291536050277e-01
2.267502612330198619e-01
2.267502612330198619e-01
2.277951933124346962e-01
2.277951933124346962e-01
2.298850574712643646e-01
2.298850574712643646e-01
2.319749216300940331e-01
2.319749216300940331e-01
2.340647857889237293e-01
2.340647857889237293e-01
2.351097178683385636e-01
2.351097178683385636e-01
2.392894461859979005e-01
2.392894461859979005e-01
2.413793103448275967e-01
2.413793103448275967e-01
2.424242424242424310e-01
2.424242424242424310e-01
2.466039707419017679e-01
2.466039707419017679e-01
2.476489028213166022e-01
2.476489028213166022e-01
2.486938349007314641e-01
2.486938349007314641e-01
2.549634273772204973e-01
2.549634273772204973e-01
2.580982236154649723e-01
2.580982236154649723e-01
2.591431556948798343e-01
2.591431556948798343e-01
2.664576802507837017e-01
2.664576802507837017e-01
2.675026123301985637e-01
2.675026123301985637e-01
2.685475444096133701e-01
2.685475444096133701e-01
2.695924764890282321e-01
2.695924764890282321e-01
2.716823406478579006e-01
2.716823406478579006e-01
2.727272727272727071e-01
2.727272727272727071e-01
2.737722048066875691e-01
2.737722048066875691e-01
2.831765935214211050e-01
2.831765935214211050e-01
2.863113897596656354e-01
2.863113897596656354e-01
2.884012539184953039e-01
2.884012539184953039e-01
2.894461859979101104e-01
2.894461859979101104e-01
2.915360501567398344e-01
2.915360501567398344e-01
2.957157784743991713e-01
2.957157784743991713e-01
2.967607105538139778e-01
2.967607105538139778e-01
2.978056426332288398e-01
2.978056426332288398e-01
2.998955067920585082e-01
2.998955067920585082e-01
3.040752351097178452e-01
3.040752351097178452e-01
3.092998955067920441e-01
3.092998955067920441e-01
3.103448275862069061e-01
3.103448275862069061e-01
3.176593521421107735e-01
3.176593521421107735e-01
3.249738766980146409e-01
3.249738766980146409e-01
3.312434691745036464e-01
3.312434691745036464e-01
3.322884012539185083e-01
3.322884012539185083e-01
3.375130616509927073e-01
3.375130616509927073e-01
3.385579937304075138e-01
3.385579937304075138e-01
3.396029258098223758e-01
3.396029258098223758e-01
3.427377220480668507e-01
3.427377220480668507e-01
3.469174503657262432e-01
3.469174503657262432e-01
3.479623824451410496e-01
3.479623824451410496e-01
3.490073145245559116e-01
3.490073145245559116e-01
3.500522466039707181e-01
3.500522466039707181e-01
3.563218390804597790e-01
3.563218390804597790e-01
3.594566353187043095e-01
3.594566353187043095e-01
3.636363636363636465e-01
3.636363636363636465e-01
3.678160919540229834e-01
3.678160919540229834e-01
3.688610240334378454e-01
3.688610240334378454e-01
3.740856844305120443e-01
3.740856844305120443e-01
3.772204806687565193e-01
3.772204806687565193e-01
3.855799373040752487e-01
3.855799373040752487e-01
3.876698014629049172e-01
3.876698014629049172e-01
3.908045977011494476e-01
3.908045977011494476e-01
3.918495297805642541e-01
3.918495297805642541e-01
3.928944618599791161e-01
3.928944618599791161e-01
4.012539184952977900e-01
4.012539184952977900e-01
4.085684430512016574e-01
4.085684430512016574e-01
4.096133751306165194e-01
4.096133751306165194e-01
4.127481713688610498e-01
4.127481713688610498e-01
4.148380355276907183e-01
4.148380355276907183e-01
4.169278996865203868e-01
4.169278996865203868e-01
4.200626959247649173e-01
4.200626959247649173e-01
4.211076280041797237e-01
4.211076280041797237e-01
4.221525600835945857e-01
4.221525600835945857e-01
4.284221525600835911e-01
4.284221525600835911e-01
4.315569487983281216e-01
4.315569487983281216e-01
4.326018808777429281e-01
4.326018808777429281e-01
4.378265412748171270e-01
4.378265412748171270e-01
4.493207941483803314e-01
4.493207941483803314e-01
4.524555903866248618e-01
4.524555903866248618e-01
4.555903866248693923e-01
4.555903866248693923e-01
4.608150470219435912e-01
4.608150470219435912e-01
4.691745036572622651e-01
4.691745036572622651e-01
4.712643678160919336e-01
4.712643678160919336e-01
4.743991640543364641e-01
4.743991640543364641e-01
4.764890282131661325e-01
4.764890282131661325e-01
4.796238244514106630e-01
4.796238244514106630e-01
4.806687565308254695e-01
4.806687565308254695e-01
4.900731452455590609e-01
4.900731452455590609e-01
4.921630094043887294e-01
4.921630094043887294e-01
4.994775339602925968e-01
4.994775339602925968e-01
5.047021943573667402e-01
5.047021943573667402e-01
5.057471264367816577e-01
5.057471264367816577e-01
5.120167189132706076e-01
5.120167189132706076e-01
5.130616509926855251e-01
5.130616509926855251e-01
5.151515151515151381e-01
5.151515151515151381e-01
5.245559038662487295e-01
5.245559038662487295e-01
5.297805642633228729e-01
5.297805642633228729e-01
5.339602925809822098e-01
5.339602925809822098e-01
5.381400208986415468e-01
5.381400208986415468e-01
5.433646812957158012e-01
5.433646812957158012e-01
5.454545454545454142e-01
5.454545454545454142e-01
5.506792058516196686e-01
5.506792058516196686e-01
5.517241379310344751e-01
5.517241379310344751e-01
5.538140020898641991e-01
5.538140020898641991e-01
5.590386624869383425e-01
5.590386624869383425e-01
5.653082549634274034e-01
5.653082549634274034e-01
5.736677115987460773e-01
5.736677115987460773e-01
5.778474399164054143e-01
5.778474399164054143e-01
5.788923719958202208e-01
5.788923719958202208e-01
5.851619644723092817e-01
5.851619644723092817e-01
5.872518286311390057e-01
5.872518286311390057e-01
5.882967607105538121e-01
5.882967607105538121e-01
5.977011494252874035e-01
5.977011494252874035e-01
6.008359456635318230e-01
6.008359456635318230e-01
6.091954022988506079e-01
6.091954022988506079e-01
6.123301985370951384e-01
6.123301985370951384e-01
6.175548589341692818e-01
6.175548589341692818e-01
6.185997910135840883e-01
6.185997910135840883e-01
6.342737722048067406e-01
6.342737722048067406e-01
6.353187042842215471e-01
6.353187042842215471e-01
6.436781609195402210e-01
6.436781609195402210e-01
6.708463949843259666e-01
6.708463949843259666e-01
6.729362591431556906e-01
6.729362591431556906e-01
6.750261233019854146e-01
6.750261233019854146e-01
6.812957157784743645e-01
6.812957157784743645e-01
6.886102403343782319e-01
6.886102403343782319e-01
7.011494252873563537e-01
7.011494252873563537e-01
7.304075235109718234e-01
7.304075235109718234e-01
7.554858934169278450e-01
7.554858934169278450e-01
7.565308254963427625e-01
7.565308254963427625e-01
7.586206896551723755e-01
7.586206896551723755e-01
7.617554858934169060e-01
7.617554858934169060e-01
7.795193312434691713e-01
7.795193312434691713e-01
7.805642633228839777e-01
7.805642633228839777e-01
7.889237199582027626e-01
7.889237199582027626e-01
7.931034482758620996e-01
7.931034482758620996e-01
7.951933124346917126e-01
7.951933124346917126e-01
8.025078369905955800e-01
8.025078369905955800e-01
8.213166144200626517e-01
8.213166144200626517e-01
8.234064785788923757e-01
8.234064785788923757e-01
8.317659352142110496e-01
8.317659352142110496e-01
8.328108672936259671e-01
8.328108672936259671e-01
8.443051201671891715e-01
8.443051201671891715e-01
8.474399164054337019e-01
8.474399164054337019e-01
8.537095088819226518e-01
8.537095088819226518e-01
8.610240334378265192e-01
8.610240334378265192e-01
8.787878787878787845e-01
8.787878787878787845e-01
8.840125391849529279e-01
8.840125391849529279e-01
8.934169278996865193e-01
8.934169278996865193e-01
8.996865203761755803e-01
8.996865203761755803e-01
9.090909090909090606e-01
9.090909090909090606e-01
9.247648902821317130e-01
9.247648902821317130e-01
9.258098223615465194e-01
9.258098223615465194e-01
9.320794148380355804e-01
9.320794148380355804e-01
9.519331243469174586e-01
9.519331243469174586e-01
9.832810867293625412e-01
9.832810867293625412e-01
9.853709508881922652e-01
9.853709508881922652e-01
9.905956112852664086e-01
9.905956112852664086e-01
9.937304075235109391e-01
9.937304075235109391e-01
9.989550679205851935e-01
9.989550679205851935e-01
1.000000000000000000e+00
