0.000000000000000000e+00
8.359456635318705114e-03
8.359456635318705114e-03
8.359456635318705114e-03
8.359456635318705114e-03
8.359456635318705114e-03
8.359456635318705114e-03
8.359456635318705114e-03
8.359456635318705114e-03
8.359456635318705114e-03
8.359456635318705114e-03
8.359456635318705114e-03
8.359456635318705114e-03
8.359456635318705114e-03
8.359456635318705114e-03
8.359456635318705114e-03
8.359456635318705114e-03
8.359456635318705114e-03
8.359456635318705114e-03
9.404388714733542820e-03
9.404388714733542820e-03
1.044932079414838053e-02
1.044932079414838053e-02
1.044932079414838053e-02
1.044932079414838053e-02
1.253918495297805594e-02
1.253918495297805594e-02
1.358411703239289364e-02
1.358411703239289364e-02
1.462904911180773308e-02
1.462904911180773308e-02
1.567398119122256905e-02
1.567398119122256905e-02
1.567398119122256905e-02
1.567398119122256905e-02
1.776384535005224793e-02
1.776384535005224793e-02
1.880877742946708564e-02
1.880877742946708564e-02
1.985370950888192335e-02
1.985370950888192335e-02
2.089864158829676105e-02
2.089864158829676105e-02
2.298850574712643646e-02
2.298850574712643646e-02
2.403343782654127417e-02
2.403343782654127417e-02
2.716823406478578729e-02
2.716823406478578729e-02
2.821316614420062846e-02
2.821316614420062846e-02
2.925809822361546617e-02
2.925809822361546617e-02
3.030303030303030387e-02
3.030303030303030387e-02
3.134796238244513811e-02
3.134796238244513811e-02
3.239289446185997928e-02
3.239289446185997928e-02
3.343782654127482046e-02
3.343782654127482046e-02
3.448275862068965469e-02
3.448275862068965469e-02
3.552769070010449587e-02
3.552769070010449587e-02
3.657262277951933011e-02
3.657262277951933011e-02
3.761755485893417128e-02
3.761755485893417128e-02
3.866248693834900552e-02
3.866248693834900552e-02
4.075235109717868093e-02
4.075235109717868093e-02
4.284221525600835634e-02
4.284221525600835634e-02
4.388714733542319751e-02
4.388714733542319751e-02
4.597701149425287293e-02
4.597701149425287293e-02
4.911180773249738951e-02
4.911180773249738951e-02
5.015673981191222375e-02
5.015673981191222375e-02
5.120167189132706492e-02
5.120167189132706492e-02
5.433646812957157457e-02
5.433646812957157457e-02
5.538140020898641575e-02
5.538140020898641575e-02
5.642633228840125692e-02
5.642633228840125692e-02
5.747126436781609116e-02
5.747126436781609116e-02
5.851619644723093233e-02
5.851619644723093233e-02
6.060606060606060774e-02
6.060606060606060774e-02
6.374085684430512433e-02
6.374085684430512433e-02
6.478578892371995857e-02
6.478578892371995857e-02
6.583072100313479280e-02
6.583072100313479280e-02
6.896551724137930939e-02
6.896551724137930939e-02
7.001044932079414362e-02
7.001044932079414362e-02
7.105538140020899174e-02
7.105538140020899174e-02
7.210031347962382597e-02
7.210031347962382597e-02
7.314524555903866021e-02
7.314524555903866021e-02
7.419017763845349445e-02
7.419017763845349445e-02
7.523510971786834256e-02
7.523510971786834256e-02
7.628004179728317680e-02
7.628004179728317680e-02
8.150470219435736186e-02
8.150470219435736186e-02
8.359456635318704421e-02
8.359456635318704421e-02
8.672936259143156079e-02
8.672936259143156079e-02
8.777429467084639503e-02
8.777429467084639503e-02
8.881922675026122926e-02
8.881922675026122926e-02
8.986415882967607738e-02
8.986415882967607738e-02
9.090909090909091161e-02
9.090909090909091161e-02
9.195402298850574585e-02
9.195402298850574585e-02
9.299895506792058009e-02
9.299895506792058009e-02
9.404388714733542820e-02
9.404388714733542820e-02
9.508881922675026244e-02
9.508881922675026244e-02
9.717868338557993091e-02
9.717868338557993091e-02
9.926854754440961326e-02
9.926854754440961326e-02
1.013584117032392956e-01
1.013584117032392956e-01
1.024033437826541298e-01
1.024033437826541298e-01
1.086729362591431491e-01
1.086729362591431491e-01
1.128526645768025138e-01
1.128526645768025138e-01
1.138975966562173481e-01
1.138975966562173481e-01
1.159874608150470165e-01
1.159874608150470165e-01
1.191222570532915331e-01
1.191222570532915331e-01
1.222570532915360497e-01
1.222570532915360497e-01
1.264367816091954144e-01
1.264367816091954144e-01
1.285266457680250829e-01
1.285266457680250829e-01
1.306165099268547514e-01
1.306165099268547514e-01
1.316614420062695856e-01
1.316614420062695856e-01
1.327063740856844198e-01
1.327063740856844198e-01
1.337513061650992818e-01
1.337513061650992818e-01
1.347962382445141161e-01
1.347962382445141161e-01
1.358411703239289503e-01
1.358411703239289503e-01
1.400208986415882872e-01
1.400208986415882872e-01
1.410658307210031215e-01
1.410658307210031215e-01
1.421107628004179835e-01
1.421107628004179835e-01
1.473354231974921547e-01
1.473354231974921547e-01
1.483803552769069889e-01
1.483803552769069889e-01
1.494252873563218509e-01
1.494252873563218509e-01
1.525600835945663536e-01
1.525600835945663536e-01
1.536050156739811878e-01
1.536050156739811878e-01
1.556948798328108563e-01
1.556948798328108563e-01
1.567398119122257183e-01
1.567398119122257183e-01
1.598746081504702210e-01
1.598746081504702210e-01
1.609195402298850552e-01
1.609195402298850552e-01
1.724137931034482873e-01
1.724137931034482873e-01
1.776384535005224585e-01
1.776384535005224585e-01
1.786833855799372928e-01
1.786833855799372928e-01
1.818181818181818232e-01
1.818181818181818232e-01
1.828631138975966575e-01
1.828631138975966575e-01
1.859979101358411602e-01
1.859979101358411602e-01
1.880877742946708564e-01
1.880877742946708564e-01
1.891327063740856906e-01
1.891327063740856906e-01
1.933124346917450276e-01
1.933124346917450276e-01
1.943573667711598618e-01
1.943573667711598618e-01
2.173458725182862983e-01
2.173458725182862983e-01
2.183908045977011603e-01
2.183908045977011603e-01
2.215256008359456630e-01
2.215256008359456630e-01
2.236154649947753315e-01
2.236154649947753315e-01
2.246603970741901657e-01
2.246603970741901657e-01
2.277951933124346962e-01
2.277951933124346962e-01
2.319749216300940331e-01
2.319749216300940331e-01
2.330198537095088951e-01
2.330198537095088951e-01
2.351097178683385636e-01
2.351097178683385636e-01
2.361546499477533978e-01
2.361546499477533978e-01
2.413793103448275967e-01
2.413793103448275967e-01
2.455590386624869337e-01
2.455590386624869337e-01
2.466039707419017679e-01
2.466039707419017679e-01
2.476489028213166022e-01
2.476489028213166022e-01
2.486938349007314641e-01
2.486938349007314641e-01
2.507836990595611049e-01
2.507836990595611049e-01
2.528735632183908288e-01
2.528735632183908288e-01
2.570532915360501658e-01
2.570532915360501658e-01
2.601880877742946963e-01
2.601880877742946963e-01
2.643678160919540332e-01
2.643678160919540332e-01
2.654127481713688397e-01
2.654127481713688397e-01
2.706374085684430386e-01
2.706374085684430386e-01
2.716823406478579006e-01
2.716823406478579006e-01
2.748171368861024311e-01
2.748171368861024311e-01
2.769070010449320995e-01
2.769070010449320995e-01
2.810867293625914365e-01
2.810867293625914365e-01
2.852664576802507734e-01
2.852664576802507734e-01
2.873563218390804419e-01
2.873563218390804419e-01
2.915360501567398344e-01
2.915360501567398344e-01
2.988505747126437018e-01
2.988505747126437018e-01
3.040752351097178452e-01
3.040752351097178452e-01
3.113897596656217126e-01
3.113897596656217126e-01
3.145245559038662431e-01
3.145245559038662431e-01
3.197492163009404420e-01
3.197492163009404420e-01
3.218390804597701105e-01
3.218390804597701105e-01
3.228840125391849725e-01
3.228840125391849725e-01
3.239289446185997789e-01
3.239289446185997789e-01
3.249738766980146409e-01
3.249738766980146409e-01
3.270637408568443094e-01
3.270637408568443094e-01
3.291536050156739779e-01
3.291536050156739779e-01
3.312434691745036464e-01
3.312434691745036464e-01
3.322884012539185083e-01
3.322884012539185083e-01
3.521421107628004421e-01
3.521421107628004421e-01
3.584117032392894475e-01
3.584117032392894475e-01
3.605015673981191160e-01
3.605015673981191160e-01
3.688610240334378454e-01
3.688610240334378454e-01
3.699059561128526519e-01
3.699059561128526519e-01
3.730407523510971823e-01
3.730407523510971823e-01
3.772204806687565193e-01
3.772204806687565193e-01
3.855799373040752487e-01
3.855799373040752487e-01
4.012539184952977900e-01
4.012539184952977900e-01
4.033437826541274585e-01
4.033437826541274585e-01
4.085684430512016574e-01
4.085684430512016574e-01
4.106583072100313259e-01
4.106583072100313259e-01
4.117032392894461879e-01
4.117032392894461879e-01
4.137931034482758563e-01
4.137931034482758563e-01
4.148380355276907183e-01
4.148380355276907183e-01
4.158829676071055248e-01
4.158829676071055248e-01
4.242424242424242542e-01
4.242424242424242542e-01
4.315569487983281216e-01
4.315569487983281216e-01
4.388714733542319890e-01
4.388714733542319890e-01
4.440961337513061880e-01
4.440961337513061880e-01
4.608150470219435912e-01
4.608150470219435912e-01
4.618599791013583977e-01
4.618599791013583977e-01
4.639498432601880662e-01
4.639498432601880662e-01
4.670846394984325967e-01
4.670846394984325967e-01
4.827586206896551935e-01
4.827586206896551935e-01
4.890282131661441989e-01
4.890282131661441989e-01
4.900731452455590609e-01
4.900731452455590609e-01
4.921630094043887294e-01
4.921630094043887294e-01
5.015673981191222097e-01
5.015673981191222097e-01
5.026123301985371272e-01
5.026123301985371272e-01
5.036572622779519337e-01
5.036572622779519337e-01
5.078369905956112706e-01
5.078369905956112706e-01
5.266457680250783424e-01
5.266457680250783424e-01
5.287356321839080664e-01
5.287356321839080664e-01
5.297805642633228729e-01
5.297805642633228729e-01
5.381400208986415468e-01
5.381400208986415468e-01
5.412748171368860772e-01
5.412748171368860772e-01
5.433646812957158012e-01
5.433646812957158012e-01
5.464994775339603317e-01
5.464994775339603317e-01
5.475444096133751382e-01
5.475444096133751382e-01
5.611285266457680665e-01
5.611285266457680665e-01
5.653082549634274034e-01
5.653082549634274034e-01
5.715778474399163533e-01
5.715778474399163533e-01
5.747126436781608838e-01
5.747126436781608838e-01
5.841170323928944752e-01
5.841170323928944752e-01
5.862068965517240882e-01
5.862068965517240882e-01
5.882967607105538121e-01
5.882967607105538121e-01
5.914315569487983426e-01
5.914315569487983426e-01
5.945663531870428731e-01
5.945663531870428731e-01
6.039707419017763534e-01
6.039707419017763534e-01
6.112852664576802209e-01
6.112852664576802209e-01
6.185997910135840883e-01
6.185997910135840883e-01
6.259143155694879557e-01
6.259143155694879557e-01
6.384535005224660775e-01
6.384535005224660775e-01
6.530825496342738123e-01
6.530825496342738123e-01
6.541274817136886188e-01
6.541274817136886188e-01
6.551724137931034253e-01
6.551724137931034253e-01
6.583072100313479558e-01
6.583072100313479558e-01
6.698014629049111601e-01
6.698014629049111601e-01
6.729362591431556906e-01
6.729362591431556906e-01
6.802507836990595580e-01
6.802507836990595580e-01
6.844305120167188949e-01
6.844305120167188949e-01
6.886102403343782319e-01
6.886102403343782319e-01
6.907001044932079559e-01
6.907001044932079559e-01
7.011494252873563537e-01
7.011494252873563537e-01
7.063740856844304972e-01
7.063740856844304972e-01
7.074190177638453036e-01
7.074190177638453036e-01
7.189132706374086190e-01
7.189132706374086190e-01
7.220480668756530385e-01
7.220480668756530385e-01
7.398119122257053037e-01
7.398119122257053037e-01
7.450365726227795582e-01
7.450365726227795582e-01
7.460815047021943647e-01
7.460815047021943647e-01
7.492163009404388951e-01
7.492163009404388951e-01
7.575757575757575690e-01
7.575757575757575690e-01
7.638453500522466300e-01
7.638453500522466300e-01
7.680250783699059669e-01
7.680250783699059669e-01
7.701149425287355799e-01
7.701149425287355799e-01
7.711598746081504974e-01
7.711598746081504974e-01
7.742946708463950278e-01
7.742946708463950278e-01
7.763845350052246408e-01
7.763845350052246408e-01
7.878787878787878451e-01
7.878787878787878451e-01
8.014629049111807735e-01
8.014629049111807735e-01
8.098223615464994474e-01
8.098223615464994474e-01
8.119122257053291714e-01
8.119122257053291714e-01
8.129571577847439778e-01
8.129571577847439778e-01
8.192267502612330388e-01
8.192267502612330388e-01
8.213166144200626517e-01
8.213166144200626517e-01
8.254963427377220997e-01
8.254963427377220997e-01
8.286311389759665191e-01
8.286311389759665191e-01
8.338557993730407736e-01
8.338557993730407736e-01
8.349007314524555801e-01
8.349007314524555801e-01
8.401253918495298345e-01
8.401253918495298345e-01
8.422152560083594475e-01
8.422152560083594475e-01
8.432601880877742540e-01
8.432601880877742540e-01
8.443051201671891715e-01
8.443051201671891715e-01
8.463949843260187844e-01
8.463949843260187844e-01
8.537095088819226518e-01
8.537095088819226518e-01
8.547544409613374583e-01
8.547544409613374583e-01
8.568443051201671823e-01
8.568443051201671823e-01
8.599791013584117128e-01
8.599791013584117128e-01
8.641588296760710497e-01
8.641588296760710497e-01
8.672936259143155802e-01
8.672936259143155802e-01
8.714733542319749171e-01
8.714733542319749171e-01
8.725182863113897236e-01
8.725182863113897236e-01
8.756530825496342541e-01
8.756530825496342541e-01
8.766980146290490605e-01
8.766980146290490605e-01
8.798328108672935910e-01
8.798328108672935910e-01
8.829676071055381215e-01
8.829676071055381215e-01
8.881922675026123759e-01
8.881922675026123759e-01
8.902821316614419889e-01
8.902821316614419889e-01
8.913270637408567953e-01
8.913270637408567953e-01
8.996865203761755803e-01
8.996865203761755803e-01
9.017763845350051932e-01
9.017763845350051932e-01
9.164054336468129280e-01
9.164054336468129280e-01
9.205851619644722650e-01
9.205851619644722650e-01
9.216300940438871825e-01
9.216300940438871825e-01
9.299895506792058564e-01
9.299895506792058564e-01
9.320794148380355804e-01
9.320794148380355804e-01
9.331243469174503868e-01
9.331243469174503868e-01
9.373040752351097238e-01
9.373040752351097238e-01
9.393939393939394478e-01
9.393939393939394478e-01
9.446185997910135912e-01
9.446185997910135912e-01
9.613375130616509390e-01
9.613375130616509390e-01
9.634273772204806630e-01
9.634273772204806630e-01
9.707419017763845304e-01
9.707419017763845304e-01
9.749216300940438673e-01
9.749216300940438673e-01
9.770114942528735913e-01
9.770114942528735913e-01
9.791013584117032043e-01
9.791013584117032043e-01
9.801462904911181218e-01
9.801462904911181218e-01
9.811912225705329282e-01
9.811912225705329282e-01
9.853709508881922652e-01
9.853709508881922652e-01
9.895506792058516021e-01
9.895506792058516021e-01
9.926854754440961326e-01
9.926854754440961326e-01
9.937304075235109391e-01
9.937304075235109391e-01
9.947753396029258566e-01
9.947753396029258566e-01
9.958202716823406631e-01
9.958202716823406631e-01
9.989550679205851935e-01
9.989550679205851935e-01
1.000000000000000000e+00
1.000000000000000000e+00
1.000000000000000000e+00
