2.000000000000000000e+00
1.000000000000000000e+00
9.999998807907104492e-01
9.999998211860656738e-01
9.999997615814208984e-01
9.999997019767761230e-01
9.999995827674865723e-01
9.999995231628417969e-01
9.999994039535522461e-01
9.999992251396179199e-01
9.999988079071044922e-01
9.999984502792358398e-01
9.999982118606567383e-01
9.999979734420776367e-01
9.999941587448120117e-01
9.999940395355224609e-01
9.999924898147583008e-01
9.999922513961791992e-01
9.999874234199523926e-01
9.999870061874389648e-01
9.999850392341613770e-01
9.999819993972778320e-01
9.999734759330749512e-01
9.999734163284301758e-01
9.999563097953796387e-01
9.999538660049438477e-01
9.997717142105102539e-01
9.997611045837402344e-01
9.997540116310119629e-01
9.997471570968627930e-01
9.996991753578186035e-01
9.996920824050903320e-01
9.995005130767822266e-01
9.994789361953735352e-01
9.974941015243530273e-01
9.971541166305541992e-01
9.962110519409179688e-01
9.961365461349487305e-01
9.953991770744323730e-01
9.950001239776611328e-01
9.917134642601013184e-01
9.917086362838745117e-01
9.905328750610351562e-01
9.902160167694091797e-01
9.895573854446411133e-01
9.893978834152221680e-01
9.830602407455444336e-01
9.813532829284667969e-01
9.788220524787902832e-01
9.772241115570068359e-01
9.737215042114257812e-01
9.726800918579101562e-01
9.643430709838867188e-01
9.631071686744689941e-01
9.606548547744750977e-01
9.599695205688476562e-01
9.522676467895507812e-01
9.515424966812133789e-01
9.427101612091064453e-01
9.391691088676452637e-01
9.311949014663696289e-01
9.299343824386596680e-01
9.296526312828063965e-01
9.272917509078979492e-01
9.263808727264404297e-01
9.259047508239746094e-01
9.101778268814086914e-01
9.097614288330078125e-01
9.040476679801940918e-01
9.039758443832397461e-01
8.969238996505737305e-01
8.958055377006530762e-01
8.805622458457946777e-01
8.752535581588745117e-01
8.700317144393920898e-01
8.670621514320373535e-01
8.644534349441528320e-01
8.634110689163208008e-01
8.599615693092346191e-01
8.541649580001831055e-01
8.509178161621093750e-01
8.502256870269775391e-01
8.153814077377319336e-01
8.151349425315856934e-01
8.137523531913757324e-01
8.031047582626342773e-01
7.994686961174011230e-01
7.991933822631835938e-01
7.987767457962036133e-01
7.984981536865234375e-01
7.969629168510437012e-01
7.957315444946289062e-01
7.935205698013305664e-01
7.925555706024169922e-01
7.889140248298645020e-01
7.859833240509033203e-01
7.856454849243164062e-01
7.819209098815917969e-01
7.808917164802551270e-01
7.793840765953063965e-01
7.764520645141601562e-01
7.761116027832031250e-01
7.704768180847167969e-01
7.661573886871337891e-01
7.651187181472778320e-01
7.562268972396850586e-01
7.548472881317138672e-01
7.547010183334350586e-01
7.542586326599121094e-01
7.531306743621826172e-01
7.518436908721923828e-01
7.507458329200744629e-01
7.506833076477050781e-01
7.486539483070373535e-01
7.477949857711791992e-01
7.440304756164550781e-01
7.385318279266357422e-01
7.325997352600097656e-01
7.222923040390014648e-01
6.995288133621215820e-01
6.947119832038879395e-01
6.843888163566589355e-01
6.842069625854492188e-01
6.786485910415649414e-01
6.779807806015014648e-01
6.772742271423339844e-01
6.720108985900878906e-01
6.720046997070312500e-01
6.716904640197753906e-01
6.695750951766967773e-01
6.646107435226440430e-01
6.574432253837585449e-01
6.554764509201049805e-01
6.519211530685424805e-01
6.510312557220458984e-01
6.493570804595947266e-01
6.483006477355957031e-01
6.467663049697875977e-01
6.458368301391601562e-01
6.456273198127746582e-01
6.431699991226196289e-01
6.371456980705261230e-01
6.278736591339111328e-01
6.267936229705810547e-01
6.227656602859497070e-01
6.129488348960876465e-01
6.110025048255920410e-01
6.102676391601562500e-01
6.094976663589477539e-01
5.989611744880676270e-01
5.972842574119567871e-01
5.930262207984924316e-01
5.849912166595458984e-01
5.846695303916931152e-01
5.830051898956298828e-01
5.789639949798583984e-01
5.764244198799133301e-01
5.695224404335021973e-01
5.687927007675170898e-01
5.659894943237304688e-01
5.628107786178588867e-01
5.474049448966979980e-01
5.473530888557434082e-01
5.449995398521423340e-01
5.411728024482727051e-01
5.376582145690917969e-01
5.304652452468872070e-01
5.303779840469360352e-01
5.288676619529724121e-01
5.272642970085144043e-01
5.260844230651855469e-01
5.238934159278869629e-01
5.217170715332031250e-01
5.215923786163330078e-01
5.205718874931335449e-01
5.179224610328674316e-01
5.155302286148071289e-01
5.104977488517761230e-01
5.093080997467041016e-01
5.090604424476623535e-01
5.080926418304443359e-01
5.077605843544006348e-01
5.050873756408691406e-01
4.936765432357788086e-01
4.919048249721527100e-01
4.917570352554321289e-01
4.902491271495819092e-01
4.888484776020050049e-01
4.873180687427520752e-01
4.844882786273956299e-01
4.830529391765594482e-01
4.778516292572021484e-01
4.774611592292785645e-01
4.753377735614776611e-01
4.745758771896362305e-01
4.744057953357696533e-01
4.741367697715759277e-01
4.712117612361907959e-01
4.685438871383666992e-01
4.684418737888336182e-01
4.682629704475402832e-01
4.551646709442138672e-01
4.549945592880249023e-01
4.477584362030029297e-01
4.439875483512878418e-01
4.429622292518615723e-01
4.424780607223510742e-01
4.422272145748138428e-01
4.415144920349121094e-01
4.399213194847106934e-01
4.380830228328704834e-01
4.357028007507324219e-01
4.351852536201477051e-01
4.327689707279205322e-01
4.326485097408294678e-01
4.318791329860687256e-01
4.315592646598815918e-01
4.296066761016845703e-01
4.292902052402496338e-01
4.289299249649047852e-01
4.285245239734649658e-01
4.096465110778808594e-01
4.092008471488952637e-01
4.081336855888366699e-01
4.076432585716247559e-01
4.039331376552581787e-01
4.037379324436187744e-01
3.999070525169372559e-01
3.971136212348937988e-01
3.963025212287902832e-01
3.962531387805938721e-01
3.941350579261779785e-01
3.912587761878967285e-01
3.852612972259521484e-01
3.844975829124450684e-01
3.839586973190307617e-01
3.835284411907196045e-01
3.826192021369934082e-01
3.825132846832275391e-01
3.803478777408599854e-01
3.788362741470336914e-01
3.731224238872528076e-01
3.730602860450744629e-01
3.691904544830322266e-01
3.689187765121459961e-01
3.687645792961120605e-01
3.677912056446075439e-01
3.677242100238800049e-01
3.666904568672180176e-01
3.665371537208557129e-01
3.641986548900604248e-01
3.630021214485168457e-01
3.621116876602172852e-01
3.608858287334442139e-01
3.607118129730224609e-01
3.555004000663757324e-01
3.552135527133941650e-01
3.526691198348999023e-01
3.514257371425628662e-01
3.502462506294250488e-01
3.501060903072357178e-01
3.499537110328674316e-01
3.471482992172241211e-01
3.428229391574859619e-01
3.427054882049560547e-01
3.426454663276672363e-01
3.413809537887573242e-01
3.397094607353210449e-01
3.380128741264343262e-01
3.372405469417572021e-01
3.352171480655670166e-01
3.303953409194946289e-01
3.260963559150695801e-01
3.230294585227966309e-01
3.226282596588134766e-01
3.202613592147827148e-01
3.201335072517395020e-01
3.136406242847442627e-01
3.133445978164672852e-01
3.107940852642059326e-01
3.085488379001617432e-01
3.057742118835449219e-01
3.048645257949829102e-01
3.017389774322509766e-01
3.016375005245208740e-01
2.989276051521301270e-01
2.983288168907165527e-01
2.960240244865417480e-01
2.935076653957366943e-01
2.911394834518432617e-01
2.897386550903320312e-01
2.893470823764801025e-01
2.893171310424804688e-01
2.892299294471740723e-01
2.877662181854248047e-01
2.856634557247161865e-01
2.854608297348022461e-01
2.851451635360717773e-01
2.844331860542297363e-01
2.834822833538055420e-01
2.831239402294158936e-01
2.816908359527587891e-01
2.816574275493621826e-01
2.809340953826904297e-01
2.806562483310699463e-01
2.609705924987792969e-01
2.591367661952972412e-01
2.556349039077758789e-01
2.545106410980224609e-01
2.540035843849182129e-01
2.532899975776672363e-01
2.506933808326721191e-01
2.506724596023559570e-01
2.500296533107757568e-01
2.497428059577941895e-01
2.490267157554626465e-01
2.488802671432495117e-01
2.463102340698242188e-01
2.456472814083099365e-01
2.417019307613372803e-01
2.389516830444335938e-01
2.286150157451629639e-01
2.283965647220611572e-01
2.268231213092803955e-01
2.267024517059326172e-01
2.249598205089569092e-01
2.247934043407440186e-01
2.232417464256286621e-01
2.224786579608917236e-01
2.220117151737213135e-01
2.219222784042358398e-01
2.211988568305969238e-01
2.205646634101867676e-01
2.205636799335479736e-01
2.204257249832153320e-01
2.202417850494384766e-01
2.199867665767669678e-01
2.119398117065429688e-01
2.110539376735687256e-01
2.090096771717071533e-01
2.088135182857513428e-01
2.069343924522399902e-01
2.064194977283477783e-01
2.045124769210815430e-01
2.040606737136840820e-01
1.944441497325897217e-01
1.938263475894927979e-01
1.935764253139495850e-01
1.935212314128875732e-01
1.933556795120239258e-01
1.924564838409423828e-01
1.917328238487243652e-01
1.916115880012512207e-01
1.804590821266174316e-01
1.786694526672363281e-01
1.739145815372467041e-01
1.734602153301239014e-01
1.728690862655639648e-01
1.724772751331329346e-01
1.715533733367919922e-01
1.715454459190368652e-01
1.673938930034637451e-01
1.669754385948181152e-01
1.662886738777160645e-01
1.658143401145935059e-01
1.651859879493713379e-01
1.647665500640869141e-01
1.637079715728759766e-01
1.636037826538085938e-01
1.566149294376373291e-01
1.559855043888092041e-01
1.556212007999420166e-01
1.554783582687377930e-01
1.547482907772064209e-01
1.547077000141143799e-01
1.508632898330688477e-01
1.506289243698120117e-01
1.496509909629821777e-01
1.477987766265869141e-01
1.471022963523864746e-01
1.468765437602996826e-01
1.446801424026489258e-01
1.434078216552734375e-01
1.431353688240051270e-01
1.425890922546386719e-01
1.386913359165191650e-01
1.382113993167877197e-01
1.362985968589782715e-01
1.362039744853973389e-01
1.340374350547790527e-01
1.340101957321166992e-01
1.323297023773193359e-01
1.309333145618438721e-01
1.281787455081939697e-01
1.280441284179687500e-01
1.268181204795837402e-01
1.263833045959472656e-01
1.251910626888275146e-01
1.240663826465606689e-01
1.213726699352264404e-01
1.212084293365478516e-01
1.193542778491973877e-01
1.192750334739685059e-01
1.147570610046386719e-01
1.137101054191589355e-01
1.124164760112762451e-01
1.120339632034301758e-01
1.106126308441162109e-01
1.105755567550659180e-01
1.086717545986175537e-01
1.084527671337127686e-01
1.022610068321228027e-01
1.014757752418518066e-01
9.689679741859436035e-02
9.636917710304260254e-02
9.612765908241271973e-02
9.567284584045410156e-02
9.508332610130310059e-02
9.478443861007690430e-02
9.435859322547912598e-02
9.418469667434692383e-02
9.287717938423156738e-02
9.268766641616821289e-02
8.864772319793701172e-02
8.823496103286743164e-02
8.450949192047119141e-02
8.370813727378845215e-02
8.190277218818664551e-02
8.171758055686950684e-02
7.910013198852539062e-02
7.903599739074707031e-02
7.863262295722961426e-02
7.709637284278869629e-02
7.220283150672912598e-02
7.084339857101440430e-02
6.917765736579895020e-02
6.905373930931091309e-02
6.866124272346496582e-02
6.831806898117065430e-02
6.342184543609619141e-02
6.311342120170593262e-02
6.257715821266174316e-02
6.231144070625305176e-02
5.662089586257934570e-02
5.627846717834472656e-02
5.496737360954284668e-02
5.475771427154541016e-02
5.452904105186462402e-02
5.347660183906555176e-02
5.258741974830627441e-02
5.141019821166992188e-02
4.828318953514099121e-02
4.805186390876770020e-02
4.597750306129455566e-02
4.591244459152221680e-02
4.519605636596679688e-02
4.509720206260681152e-02
4.468068480491638184e-02
4.457008838653564453e-02
4.438564181327819824e-02
4.436406493186950684e-02
4.378494620323181152e-02
4.373428225517272949e-02
4.342082142829895020e-02
4.321119189262390137e-02
4.046314954757690430e-02
4.022005200386047363e-02
3.689005970954895020e-02
3.671699762344360352e-02
3.372108936309814453e-02
3.343144059181213379e-02
3.274857997894287109e-02
3.236833214759826660e-02
3.228259086608886719e-02
3.216332197189331055e-02
3.105056285858154297e-02
3.099063038825988770e-02
3.058069944381713867e-02
3.047317266464233398e-02
2.991902828216552734e-02
2.980586886405944824e-02
2.869811654090881348e-02
2.798670530319213867e-02
2.714079618453979492e-02
2.671685814857482910e-02
2.660360932350158691e-02
2.621465921401977539e-02
2.513331174850463867e-02
2.481824159622192383e-02
2.425938844680786133e-02
2.394038438796997070e-02
2.378588914871215820e-02
2.371269464492797852e-02
2.312809228897094727e-02
2.306383848190307617e-02
2.271720767021179199e-02
2.267286181449890137e-02
2.149763703346252441e-02
2.136975526809692383e-02
2.100118994712829590e-02
2.096492052078247070e-02
1.980373263359069824e-02
1.971566677093505859e-02
1.900976896286010742e-02
1.878732442855834961e-02
1.738256216049194336e-02
1.718246936798095703e-02
1.649916172027587891e-02
1.628962159156799316e-02
1.544848084449768066e-02
1.536929607391357422e-02
1.502612233161926270e-02
1.413717865943908691e-02
1.356869935989379883e-02
1.328670978546142578e-02
1.316925883293151855e-02
1.310202479362487793e-02
1.258105039596557617e-02
1.249846816062927246e-02
1.175186038017272949e-02
1.168835163116455078e-02
1.072314381599426270e-02
1.071551442146301270e-02
1.058354973793029785e-02
1.013138890266418457e-02
9.900540113449096680e-03
9.568989276885986328e-03
7.977545261383056641e-03
7.874637842178344727e-03
7.468879222869873047e-03
7.235884666442871094e-03
5.248874425888061523e-03
5.204916000366210938e-03
4.689157009124755859e-03
4.685372114181518555e-03
4.609376192092895508e-03
4.602551460266113281e-03
3.807634115219116211e-03
3.679990768432617188e-03
3.622531890869140625e-03
3.564953804016113281e-03
3.559559583663940430e-03
3.408282995223999023e-03
2.947866916656494141e-03
2.802878618240356445e-03
2.568364143371582031e-03
2.509027719497680664e-03
2.091348171234130859e-03
2.071291208267211914e-03
1.033216714859008789e-03
9.859800338745117188e-04
7.725656032562255859e-04
7.568597793579101562e-04
5.269944667816162109e-04
3.994703292846679688e-04
2.934336662292480469e-04
2.801120281219482422e-04
2.588033676147460938e-04
2.539455890655517578e-04
2.142190933227539062e-04
1.836419105529785156e-04
1.782178878784179688e-04
1.626610755920410156e-04
1.410841941833496094e-04
1.351237297058105469e-04
7.540790102211758494e-05
6.250080332392826676e-05
3.207046029274351895e-05
2.980434328492265195e-05
2.724571277212817222e-05
1.469807193643646315e-05
1.426045855623669922e-05
1.287624945689458400e-05
6.915196536283474416e-06
1.371426037621858995e-06
3.649086295354209142e-07
3.357902187417494133e-07
7.167825799569982337e-08
6.546052588873862987e-08
6.080586700818457757e-08
8.353056526848633928e-22
0.000000000000000000e+00
