1.720800399780273438e-01
2.646523118019104004e-01
3.084257841110229492e-01
5.548610687255859375e-01
9.161452054977416992e-01
7.886924743652343750e-01
8.947701454162597656e-01
4.793262183666229248e-01
8.645260334014892578e-01
2.747788429260253906e-01
2.113467454910278320e-01
9.161626100540161133e-01
4.755799174308776855e-01
9.155647754669189453e-01
4.116566181182861328e-01
2.983693480491638184e-01
2.624603509902954102e-01
2.511887550354003906e-01
9.129787087440490723e-01
2.896530628204345703e-01
2.156063318252563477e-01
9.132105708122253418e-01
9.156731367111206055e-01
8.883385658264160156e-01
9.099216461181640625e-01
4.490231573581695557e-01
9.154716730117797852e-01
2.238815426826477051e-01
9.161590337753295898e-01
9.155180454254150391e-01
2.076758146286010742e-01
2.798024415969848633e-01
2.275744974613189697e-01
9.082116484642028809e-01
2.173490524291992188e-01
9.158928394317626953e-01
5.986822247505187988e-01
2.718046903610229492e-01
9.144899845123291016e-01
1.854192316532135010e-01
9.087781906127929688e-01
2.089648544788360596e-01
2.924797534942626953e-01
7.070406675338745117e-01
8.670911192893981934e-01
8.786259889602661133e-01
9.141471982002258301e-01
2.915601134300231934e-01
7.129551172256469727e-01
9.161390662193298340e-01
9.155449867248535156e-01
2.223474681377410889e-01
9.158338308334350586e-01
9.029736518859863281e-01
2.775955200195312500e-01
4.155127704143524170e-01
9.118543863296508789e-01
9.137809872627258301e-01
9.161328077316284180e-01
9.115791320800781250e-01
8.176072835922241211e-01
9.143593311309814453e-01
9.128019213676452637e-01
9.060240983963012695e-01
2.624869346618652344e-01
5.897466540336608887e-01
9.160964488983154297e-01
9.074297547340393066e-01
2.388290464878082275e-01
7.199463844299316406e-01
2.523221373558044434e-01
2.214552164077758789e-01
9.155566692352294922e-01
9.100695848464965820e-01
7.766972184181213379e-01
9.158961176872253418e-01
2.631910741329193115e-01
3.031410574913024902e-01
9.062681794166564941e-01
9.161359071731567383e-01
2.512302398681640625e-01
4.333043098449707031e-01
7.994064092636108398e-01
6.570292711257934570e-01
9.161604642868041992e-01
9.160897135734558105e-01
9.161562919616699219e-01
9.146309494972229004e-01
9.161109924316406250e-01
9.161287546157836914e-01
9.064935445785522461e-01
7.054745554924011230e-01
9.161492586135864258e-01
3.197833895683288574e-01
9.157693386077880859e-01
8.471925854682922363e-01
9.081701040267944336e-01
9.145503044128417969e-01
2.459428608417510986e-01
2.769727110862731934e-01
9.161429405212402344e-01
7.295334935188293457e-01
3.031843900680541992e-01
9.161152243614196777e-01
4.780912101268768311e-01
9.160889387130737305e-01
2.748076915740966797e-01
9.161655902862548828e-01
3.196310102939605713e-01
3.015369772911071777e-01
8.039000630378723145e-01
9.157953262329101562e-01
9.161050319671630859e-01
2.855900228023529053e-01
9.158251285552978516e-01
8.969277739524841309e-01
2.849079072475433350e-01
2.517516911029815674e-01
9.161176085472106934e-01
9.161586165428161621e-01
9.153144359588623047e-01
2.649747133255004883e-01
2.525274455547332764e-01
8.315622210502624512e-01
2.445870637893676758e-01
2.935197055339813232e-01
3.141779899597167969e-01
9.161190986633300781e-01
9.157642126083374023e-01
9.160724282264709473e-01
2.914965152740478516e-01
3.052943944931030273e-01
2.627630233764648438e-01
9.161503314971923828e-01
2.654449939727783203e-01
9.160610437393188477e-01
7.277861237525939941e-01
9.161438941955566406e-01
9.154547452926635742e-01
9.160791635513305664e-01
2.560738921165466309e-01
9.112643003463745117e-01
9.161280393600463867e-01
9.119920730590820312e-01
2.520809173583984375e-01
5.307294130325317383e-01
2.173161804676055908e-01
9.144838452339172363e-01
3.049603402614593506e-01
6.763198375701904297e-01
7.329260110855102539e-01
6.068695783615112305e-01
9.161652326583862305e-01
5.839917659759521484e-01
9.139512777328491211e-01
2.112777829170227051e-01
9.158650040626525879e-01
2.441495656967163086e-01
2.894355654716491699e-01
2.921103239059448242e-01
8.845405578613281250e-01
8.119654655456542969e-01
9.161508083343505859e-01
2.110030949115753174e-01
2.835567891597747803e-01
3.033590316772460938e-01
7.257056236267089844e-01
9.161282777786254883e-01
9.132993221282958984e-01
2.193806171417236328e-01
2.596942186355590820e-01
2.992716133594512939e-01
9.160327315330505371e-01
9.051676392555236816e-01
2.900706529617309570e-01
2.522077560424804688e-01
9.067193269729614258e-01
2.451750636100769043e-01
8.946784734725952148e-01
3.963785171508789062e-01
9.161216020584106445e-01
2.771404683589935303e-01
9.147430658340454102e-01
9.158071279525756836e-01
7.757761478424072266e-01
9.161655902862548828e-01
7.680232524871826172e-01
9.120397567749023438e-01
2.830602824687957764e-01
2.862070202827453613e-01
3.183598220348358154e-01
9.121870994567871094e-01
2.500142455101013184e-01
2.418971657752990723e-01
9.153113365173339844e-01
9.072592258453369141e-01
3.796467483043670654e-01
9.154399633407592773e-01
6.371770501136779785e-01
9.106624722480773926e-01
2.787423431873321533e-01
7.141038179397583008e-01
2.840830981731414795e-01
6.656485795974731445e-01
8.759822845458984375e-01
2.113401591777801514e-01
8.366013169288635254e-01
9.135836362838745117e-01
3.399013876914978027e-01
9.061269760131835938e-01
2.708463668823242188e-01
3.099426031112670898e-01
8.991953134536743164e-01
6.973388195037841797e-01
9.160077571868896484e-01
6.366726160049438477e-01
6.635071039199829102e-01
9.160222411155700684e-01
9.160519242286682129e-01
9.017145037651062012e-01
8.370153307914733887e-01
6.142506599426269531e-01
9.054919481277465820e-01
3.127268552780151367e-01
9.009153246879577637e-01
2.417652606964111328e-01
9.161614179611206055e-01
8.820008039474487305e-01
8.853018283843994141e-01
9.161037206649780273e-01
9.160919785499572754e-01
7.965105772018432617e-01
9.099532365798950195e-01
4.004622697830200195e-01
3.195035457611083984e-01
7.281079292297363281e-01
9.104192852973937988e-01
8.379504680633544922e-01
9.122310876846313477e-01
9.153329730033874512e-01
2.436126172542572021e-01
7.910972833633422852e-01
2.699136734008789062e-01
5.291966795921325684e-01
9.160809516906738281e-01
9.112068414688110352e-01
2.201666235923767090e-01
9.159682989120483398e-01
4.917999505996704102e-01
9.161493778228759766e-01
8.939483165740966797e-01
8.069818019866943359e-01
9.161486029624938965e-01
9.125275611877441406e-01
8.990375995635986328e-01
8.557576537132263184e-01
2.077913284301757812e-01
2.734808325767517090e-01
7.854446172714233398e-01
2.561154365539550781e-01
9.139249324798583984e-01
9.154279232025146484e-01
8.929989337921142578e-01
8.964557051658630371e-01
8.804854154586791992e-01
9.097434282302856445e-01
9.128408432006835938e-01
9.140345454216003418e-01
8.198466897010803223e-01
2.109310030937194824e-01
8.951136469841003418e-01
3.010653257369995117e-01
2.894941866397857666e-01
8.763022422790527344e-01
9.153908491134643555e-01
9.157468676567077637e-01
8.689765930175781250e-01
5.682501196861267090e-01
4.134444594383239746e-01
6.106526851654052734e-01
4.053751230239868164e-01
9.161251783370971680e-01
3.033439517021179199e-01
6.243238449096679688e-01
8.828350305557250977e-01
2.670889794826507568e-01
9.066125154495239258e-01
8.625937700271606445e-01
8.096603751182556152e-01
8.993201255798339844e-01
8.982555866241455078e-01
9.149397015571594238e-01
2.744622230529785156e-01
7.767666578292846680e-01
9.160557985305786133e-01
9.155712127685546875e-01
9.161612987518310547e-01
2.854583859443664551e-01
8.912851810455322266e-01
9.161373376846313477e-01
9.161583185195922852e-01
9.160357117652893066e-01
8.293278813362121582e-01
8.976233005523681641e-01
4.201893210411071777e-01
9.156613349914550781e-01
8.757398128509521484e-01
8.853210210800170898e-01
9.103451967239379883e-01
7.832268476486206055e-01
7.418115735054016113e-01
9.160238504409790039e-01
8.317160606384277344e-01
5.492759943008422852e-01
7.331886887550354004e-01
9.159109592437744141e-01
7.517471313476562500e-01
8.979223966598510742e-01
4.698374867439270020e-01
8.961332440376281738e-01
2.521646618843078613e-01
7.365989685058593750e-01
2.834988534450531006e-01
7.584673166275024414e-01
2.825083136558532715e-01
8.655855655670166016e-01
2.113613188266754150e-01
2.381005585193634033e-01
9.148390293121337891e-01
1.799773573875427246e-01
8.997586965560913086e-01
7.823368906974792480e-01
9.039998054504394531e-01
8.837271928787231445e-01
9.161625504493713379e-01
2.640691995620727539e-01
9.154064655303955078e-01
2.685195803642272949e-01
7.207148075103759766e-01
3.088228702545166016e-01
3.612282574176788330e-01
3.306193947792053223e-01
2.904837727546691895e-01
8.878587484359741211e-01
6.414000391960144043e-01
2.726885676383972168e-01
5.946880578994750977e-01
9.143068790435791016e-01
2.614712715148925781e-01
9.044220447540283203e-01
9.161654114723205566e-01
9.136543273925781250e-01
2.218139171600341797e-01
9.058156013488769531e-01
9.141133427619934082e-01
6.861438751220703125e-01
9.153122901916503906e-01
9.157555699348449707e-01
9.159959554672241211e-01
2.439720630645751953e-01
4.823895096778869629e-01
2.502479553222656250e-01
3.041605949401855469e-01
2.844575643539428711e-01
2.428887188434600830e-01
8.379002809524536133e-01
2.166869044303894043e-01
2.120090126991271973e-01
1.938256323337554932e-01
9.161056280136108398e-01
3.905485272407531738e-01
8.945587873458862305e-01
9.114228487014770508e-01
5.939099788665771484e-01
9.160972833633422852e-01
9.010771512985229492e-01
9.077987670898437500e-01
2.576675415039062500e-01
5.944662094116210938e-01
2.199456095695495605e-01
9.134262800216674805e-01
9.135895967483520508e-01
7.367830276489257812e-01
9.161618947982788086e-01
2.223756611347198486e-01
3.076508045196533203e-01
9.156652092933654785e-01
8.546241521835327148e-01
3.054209351539611816e-01
2.114699780941009521e-01
8.485243916511535645e-01
9.161301851272583008e-01
9.161078929901123047e-01
5.233142375946044922e-01
2.794275283813476562e-01
6.050645112991333008e-01
9.140083789825439453e-01
9.095016717910766602e-01
3.426563143730163574e-01
2.614471316337585449e-01
2.906208336353302002e-01
2.452434897422790527e-01
2.991021573543548584e-01
9.161565303802490234e-01
7.127163410186767578e-01
9.143853783607482910e-01
9.154524803161621094e-01
9.160977005958557129e-01
8.460118770599365234e-01
9.143178462982177734e-01
1.930687725543975830e-01
3.031202852725982666e-01
3.270438313484191895e-01
9.104614853858947754e-01
2.329229414463043213e-01
3.550599813461303711e-01
2.854537367820739746e-01
3.037104308605194092e-01
9.115163087844848633e-01
2.611361742019653320e-01
9.161620140075683594e-01
9.161355495452880859e-01
4.064889252185821533e-01
9.158701896667480469e-01
2.056323587894439697e-01
9.149895906448364258e-01
9.133597612380981445e-01
9.161324501037597656e-01
8.135008811950683594e-01
2.523551583290100098e-01
2.846465110778808594e-01
7.187878489494323730e-01
8.064000606536865234e-01
9.157425165176391602e-01
6.101343035697937012e-01
9.127261638641357422e-01
5.110350251197814941e-01
2.706792056560516357e-01
4.035924375057220459e-01
2.957417070865631104e-01
2.523458898067474365e-01
2.632001340389251709e-01
9.161463975906372070e-01
1.597940325736999512e-01
2.513416409492492676e-01
2.524375319480895996e-01
4.701926112174987793e-01
8.940896987915039062e-01
7.135810256004333496e-01
9.159523248672485352e-01
2.462147474288940430e-01
2.768095135688781738e-01
2.495231628417968750e-01
8.572835922241210938e-01
4.216341972351074219e-01
1.697652041912078857e-01
8.712283372879028320e-01
2.113046944141387939e-01
9.160981178283691406e-01
2.625148892402648926e-01
9.147391915321350098e-01
9.146706461906433105e-01
9.028506875038146973e-01
3.220963180065155029e-01
9.048261046409606934e-01
9.159214496612548828e-01
9.161595702171325684e-01
6.089111566543579102e-01
9.161623716354370117e-01
6.137917637825012207e-01
8.787175416946411133e-01
9.160945415496826172e-01
2.966218292713165283e-01
9.133350849151611328e-01
9.161609411239624023e-01
8.874552249908447266e-01
4.067713320255279541e-01
2.928320765495300293e-01
2.910682857036590576e-01
2.518575787544250488e-01
8.261497616767883301e-01
9.160537123680114746e-01
3.131749629974365234e-01
1.992900669574737549e-01
2.566775083541870117e-01
2.828969061374664307e-01
9.161422252655029297e-01
2.781160771846771240e-01
3.032062947750091553e-01
2.724348306655883789e-01
8.245997428894042969e-01
7.490287423133850098e-01
9.159747362136840820e-01
8.259637355804443359e-01
8.547204732894897461e-01
9.160510897636413574e-01
7.824136614799499512e-01
8.846513628959655762e-01
9.161353111267089844e-01
4.113960564136505127e-01
2.543231248855590820e-01
2.775728702545166016e-01
2.890187501907348633e-01
3.002092838287353516e-01
2.864679098129272461e-01
3.047937154769897461e-01
2.202799916267395020e-01
2.781403660774230957e-01
9.142931103706359863e-01
2.452310621738433838e-01
2.990587353706359863e-01
2.545371651649475098e-01
8.395662307739257812e-01
3.014009892940521240e-01
2.445552051067352295e-01
2.685773968696594238e-01
2.903442382812500000e-01
2.926288247108459473e-01
2.827464640140533447e-01
3.071701526641845703e-01
2.241671979427337646e-01
5.651290416717529297e-01
2.189886868000030518e-01
6.071768999099731445e-01
9.160357117652893066e-01
2.984806299209594727e-01
2.955790758132934570e-01
9.028506875038146973e-01
2.445369064807891846e-01
2.828525900840759277e-01
2.248557806015014648e-01
2.650899291038513184e-01
2.769092321395874023e-01
2.102739810943603516e-01
7.827636003494262695e-01
3.136304616928100586e-01
2.834966778755187988e-01
3.138604760169982910e-01
2.886050045490264893e-01
2.421503961086273193e-01
6.898337006568908691e-01
3.015989065170288086e-01
2.814228534698486328e-01
4.781517684459686279e-01
2.396200001239776611e-01
2.244282364845275879e-01
2.850092053413391113e-01
2.284883558750152588e-01
2.085894346237182617e-01
2.719857096672058105e-01
3.962989449501037598e-01
2.237588465213775635e-01
9.146217703819274902e-01
3.036312162876129150e-01
3.000247478485107422e-01
2.140284776687622070e-01
2.139641940593719482e-01
2.866711616516113281e-01
3.060761690139770508e-01
2.913458347320556641e-01
2.920892834663391113e-01
2.714944481849670410e-01
5.886883139610290527e-01
2.163092494010925293e-01
3.943148553371429443e-01
2.220254838466644287e-01
2.540597021579742432e-01
2.899449169635772705e-01
2.300501763820648193e-01
2.478588521480560303e-01
2.516429424285888672e-01
2.878025472164154053e-01
3.110626339912414551e-01
2.766756415367126465e-01
3.084478974342346191e-01
2.890003919601440430e-01
2.102113366127014160e-01
2.922850847244262695e-01
2.115072607994079590e-01
2.928789854049682617e-01
9.076799154281616211e-01
3.200630247592926025e-01
2.945381402969360352e-01
3.080398142337799072e-01
2.639832198619842529e-01
2.960080504417419434e-01
3.057629466056823730e-01
2.256500422954559326e-01
2.499757707118988037e-01
2.400948107242584229e-01
4.265953004360198975e-01
2.963785529136657715e-01
2.785235345363616943e-01
3.006560802459716797e-01
2.942050397396087646e-01
8.274879455566406250e-01
7.222402095794677734e-01
4.128810763359069824e-01
8.967200517654418945e-01
2.186596095561981201e-01
2.847751975059509277e-01
2.836001515388488770e-01
2.693325877189636230e-01
2.939797043800354004e-01
6.414102911949157715e-01
3.570466637611389160e-01
2.094304263591766357e-01
8.967299461364746094e-01
2.879545688629150391e-01
6.074577569961547852e-01
8.641194105148315430e-01
3.129145503044128418e-01
5.019848942756652832e-01
2.421409487724304199e-01
3.085318803787231445e-01
9.161115288734436035e-01
2.853010892868041992e-01
9.140707850456237793e-01
3.202199935913085938e-01
3.029332160949707031e-01
4.514687955379486084e-01
2.881488800048828125e-01
2.720121145248413086e-01
4.185055494308471680e-01
2.185356020927429199e-01
2.199151217937469482e-01
2.765516638755798340e-01
2.424956560134887695e-01
3.000717759132385254e-01
2.995342612266540527e-01
2.693607807159423828e-01
2.937071621417999268e-01
9.160127639770507812e-01
9.161292910575866699e-01
2.507397532463073730e-01
2.933857440948486328e-01
2.340890467166900635e-01
3.214598894119262695e-01
2.299508452415466309e-01
5.876622796058654785e-01
3.068044185638427734e-01
2.731459140777587891e-01
2.962936460971832275e-01
2.925144433975219727e-01
2.939806580543518066e-01
2.525935173034667969e-01
2.629263997077941895e-01
9.160219430923461914e-01
2.780490815639495850e-01
3.234269022941589355e-01
2.795190811157226562e-01
3.066385388374328613e-01
2.880310416221618652e-01
2.838994860649108887e-01
2.174720466136932373e-01
2.882741093635559082e-01
3.050363957881927490e-01
2.517103254795074463e-01
2.943157553672790527e-01
2.507616281509399414e-01
2.936917841434478760e-01
2.794035375118255615e-01
3.001214861869812012e-01
9.161500930786132812e-01
2.217044830322265625e-01
2.131239175796508789e-01
2.913452386856079102e-01
2.981410026550292969e-01
3.284059762954711914e-01
9.160369634628295898e-01
2.082130014896392822e-01
3.053151965141296387e-01
2.974489331245422363e-01
9.160061478614807129e-01
2.447742819786071777e-01
3.347896337509155273e-01
2.538508176803588867e-01
9.154716730117797852e-01
2.164629399776458740e-01
2.442391514778137207e-01
8.895990848541259766e-01
3.836582005023956299e-01
2.529450058937072754e-01
2.188292443752288818e-01
1.771933138370513916e-01
2.103977799415588379e-01
3.433557748794555664e-01
5.294919013977050781e-01
2.495006620883941650e-01
2.701039910316467285e-01
4.528369307518005371e-01
2.160618603229522705e-01
8.917276859283447266e-01
2.519651055335998535e-01
2.847521305084228516e-01
2.998884916305541992e-01
9.089953899383544922e-01
2.901526689529418945e-01
2.559337019920349121e-01
2.295622825622558594e-01
2.798582017421722412e-01
3.498910963535308838e-01
2.887787222862243652e-01
2.897632122039794922e-01
4.434101581573486328e-01
2.262199819087982178e-01
2.879970073699951172e-01
2.368780374526977539e-01
2.978869676589965820e-01
3.360469341278076172e-01
2.955618500709533691e-01
3.283645510673522949e-01
2.435617148876190186e-01
2.821587920188903809e-01
2.078508138656616211e-01
9.015448093414306641e-01
2.702817916870117188e-01
2.480814158916473389e-01
7.315942049026489258e-01
2.690591514110565186e-01
3.101863265037536621e-01
5.084573030471801758e-01
2.768350243568420410e-01
2.948095798492431641e-01
4.867168962955474854e-01
3.127388954162597656e-01
2.488646209239959717e-01
2.741561532020568848e-01
2.145304679870605469e-01
2.867079675197601318e-01
2.787495255470275879e-01
2.773057818412780762e-01
2.787255346775054932e-01
4.062408804893493652e-01
2.744142711162567139e-01
2.923938035964965820e-01
2.946773469448089600e-01
2.807894051074981689e-01
4.233359098434448242e-01
6.378030180931091309e-01
2.811413407325744629e-01
2.431729733943939209e-01
3.023036122322082520e-01
2.684568166732788086e-01
3.033367395401000977e-01
2.935844361782073975e-01
2.779018878936767578e-01
3.200830221176147461e-01
2.923831343650817871e-01
2.735104560852050781e-01
3.279985189437866211e-01
2.103655636310577393e-01
2.886862158775329590e-01
2.853505611419677734e-01
2.873444855213165283e-01
3.285412192344665527e-01
2.270822525024414062e-01
2.749786674976348877e-01
3.030536770820617676e-01
2.419779598712921143e-01
4.200406074523925781e-01
2.959526777267456055e-01
2.273810207843780518e-01
4.820394217967987061e-01
2.576320171356201172e-01
2.567206919193267822e-01
2.991600930690765381e-01
2.846867442131042480e-01
2.795480191707611084e-01
2.907029390335083008e-01
2.891843318939208984e-01
2.839644551277160645e-01
2.749497890472412109e-01
2.821480035781860352e-01
3.503146767616271973e-01
2.610612511634826660e-01
5.966628789901733398e-01
8.805604577064514160e-01
3.205234408378601074e-01
2.271128296852111816e-01
2.450638711452484131e-01
3.053755760192871094e-01
2.872327864170074463e-01
2.211417257785797119e-01
2.835094332695007324e-01
2.952415049076080322e-01
2.865340709686279297e-01
2.886321842670440674e-01
2.852410376071929932e-01
2.221114337444305420e-01
2.427647709846496582e-01
2.424517571926116943e-01
4.369927644729614258e-01
2.806924581527709961e-01
3.031109571456909180e-01
2.650815546512603760e-01
2.835556268692016602e-01
8.405183553695678711e-01
2.467886507511138916e-01
2.177481055259704590e-01
2.787384390830993652e-01
2.982444167137145996e-01
2.910143733024597168e-01
3.329607844352722168e-01
2.965043187141418457e-01
9.135320186614990234e-01
2.100403308868408203e-01
2.281764745712280273e-01
2.913700342178344727e-01
8.360552191734313965e-01
6.654750108718872070e-01
2.444865107536315918e-01
1.839272379875183105e-01
2.852147519588470459e-01
2.174655795097351074e-01
3.645017743110656738e-01
5.300092697143554688e-01
2.650797963142395020e-01
3.558201193809509277e-01
2.135347425937652588e-01
2.526422142982482910e-01
2.952170372009277344e-01
9.160910844802856445e-01
5.489024519920349121e-01
2.855112254619598389e-01
2.810115516185760498e-01
2.925227582454681396e-01
2.894579768180847168e-01
3.625147044658660889e-01
1.991809904575347900e-01
2.838475704193115234e-01
2.092868685722351074e-01
2.174801230430603027e-01
2.922686934471130371e-01
2.787418365478515625e-01
3.241633772850036621e-01
2.885596752166748047e-01
2.840026915073394775e-01
2.925271391868591309e-01
2.194883227348327637e-01
2.794795334339141846e-01
1.871326863765716553e-01
3.326783776283264160e-01
2.570556700229644775e-01
8.944586515426635742e-01
2.132998108863830566e-01
9.161128997802734375e-01
6.635071039199829102e-01
2.653861641883850098e-01
2.594373226165771484e-01
2.639488577842712402e-01
3.129729032516479492e-01
2.556856870651245117e-01
5.989086031913757324e-01
3.113061487674713135e-01
2.929712235927581787e-01
8.985466957092285156e-01
2.613154649734497070e-01
2.989585995674133301e-01
3.001900911331176758e-01
2.291076183319091797e-01
2.591361403465270996e-01
2.986308932304382324e-01
2.687162160873413086e-01
8.762952089309692383e-01
3.001590967178344727e-01
2.696031928062438965e-01
2.961543202400207520e-01
7.257117033004760742e-01
3.213092982769012451e-01
2.338946461677551270e-01
2.519055008888244629e-01
7.965105772018432617e-01
3.235428333282470703e-01
2.769210636615753174e-01
2.931402027606964111e-01
2.396734058856964111e-01
2.935101091861724854e-01
4.382243156433105469e-01
2.721061110496520996e-01
2.883186340332031250e-01
2.491024136543273926e-01
2.960440218448638916e-01
3.039725422859191895e-01
3.095564842224121094e-01
2.948660552501678467e-01
3.056051135063171387e-01
2.573649287223815918e-01
2.973258495330810547e-01
8.984285593032836914e-01
2.701531052589416504e-01
4.141333699226379395e-01
2.803372144699096680e-01
2.476257085800170898e-01
2.058792710304260254e-01
3.093839287757873535e-01
2.148313522338867188e-01
2.555366754531860352e-01
2.868121564388275146e-01
2.992478609085083008e-01
2.538377046585083008e-01
2.954437136650085449e-01
4.226501286029815674e-01
4.038723409175872803e-01
2.629171013832092285e-01
9.160557985305786133e-01
4.512456059455871582e-01
3.016660213470458984e-01
2.940631508827209473e-01
2.524122595787048340e-01
2.968114912509918213e-01
2.398100197315216064e-01
1.813879907131195068e-01
2.802856862545013428e-01
2.945544719696044922e-01
2.854406833648681641e-01
4.755851924419403076e-01
1.666370034217834473e-01
2.795983552932739258e-01
2.380604445934295654e-01
1.524483859539031982e-01
4.135824739933013916e-01
3.107790648937225342e-01
3.103480637073516846e-01
2.475718855857849121e-01
3.039521574974060059e-01
2.727814018726348877e-01
2.725105881690979004e-01
8.972518444061279297e-01
2.590578198432922363e-01
2.216256856918334961e-01
2.525112628936767578e-01
2.884342074394226074e-01
2.583241462707519531e-01
2.879073619842529297e-01
2.620159685611724854e-01
2.807318568229675293e-01
2.843111753463745117e-01
2.901167273521423340e-01
4.067421257495880127e-01
2.657231092453002930e-01
3.013933300971984863e-01
2.599338293075561523e-01
2.956032156944274902e-01
3.266449272632598877e-01
2.208529710769653320e-01
3.028644919395446777e-01
2.031432390213012695e-01
2.571714520454406738e-01
2.859548628330230713e-01
2.100615203380584717e-01
2.348690927028656006e-01
2.861337065696716309e-01
3.049418032169342041e-01
2.933166623115539551e-01
2.732028365135192871e-01
2.783001661300659180e-01
2.478307783603668213e-01
1.752579808235168457e-01
2.506705522537231445e-01
2.204185128211975098e-01
2.231880724430084229e-01
2.586085796356201172e-01
2.880571484565734863e-01
2.470591366291046143e-01
6.065586805343627930e-01
2.812018096446990967e-01
2.431602776050567627e-01
2.909037470817565918e-01
3.156035542488098145e-01
2.931377589702606201e-01
2.185706496238708496e-01
3.018920421600341797e-01
2.752275466918945312e-01
3.170040249824523926e-01
2.903643846511840820e-01
2.906213998794555664e-01
2.181226611137390137e-01
2.868922948837280273e-01
2.411044836044311523e-01
4.692036509513854980e-01
2.874667048454284668e-01
2.625579237937927246e-01
5.016806125640869141e-01
3.269487619400024414e-01
2.429781854152679443e-01
2.605696320533752441e-01
6.689663529396057129e-01
2.835590243339538574e-01
2.353282868862152100e-01
3.699561357498168945e-01
2.651690542697906494e-01
2.607616782188415527e-01
5.948010087013244629e-01
3.186287879943847656e-01
2.744787335395812988e-01
1.603541672229766846e-01
2.643449008464813232e-01
2.178747355937957764e-01
2.093209028244018555e-01
