0.000000000000000000e+00
1.818181818181818180e-03
3.127272727272727426e-01
3.127272727272727426e-01
3.145454545454545725e-01
3.145454545454545725e-01
3.236363636363636109e-01
3.236363636363636109e-01
3.290909090909091006e-01
3.290909090909091006e-01
3.381818181818181945e-01
3.381818181818181945e-01
3.400000000000000244e-01
3.400000000000000244e-01
3.545454545454545525e-01
3.545454545454545525e-01
3.727272727272727404e-01
3.727272727272727404e-01
3.745454545454545703e-01
3.745454545454545703e-01
3.818181818181818343e-01
3.818181818181818343e-01
3.890909090909090984e-01
3.890909090909090984e-01
3.927272727272727026e-01
3.927272727272727026e-01
3.945454545454545325e-01
3.945454545454545325e-01
4.000000000000000222e-01
4.000000000000000222e-01
4.018181818181817966e-01
4.018181818181817966e-01
4.054545454545454564e-01
4.054545454545454564e-01
4.072727272727272863e-01
4.072727272727272863e-01
4.090909090909091161e-01
4.090909090909091161e-01
4.109090909090908905e-01
4.109090909090908905e-01
4.145454545454545503e-01
4.145454545454545503e-01
4.218181818181818143e-01
4.218181818181818143e-01
4.236363636363636442e-01
4.236363636363636442e-01
4.272727272727272485e-01
4.272727272727272485e-01
4.290909090909090784e-01
4.290909090909090784e-01
4.327272727272727382e-01
4.327272727272727382e-01
4.345454545454545681e-01
4.345454545454545681e-01
4.363636363636363424e-01
4.363636363636363424e-01
4.381818181818181723e-01
4.381818181818181723e-01
4.436363636363636620e-01
4.436363636363636620e-01
4.454545454545454364e-01
4.454545454545454364e-01
4.472727272727272663e-01
4.472727272727272663e-01
4.490909090909090962e-01
4.490909090909090962e-01
4.509090909090909260e-01
4.509090909090909260e-01
4.581818181818181901e-01
4.581818181818181901e-01
4.618181818181817944e-01
4.618181818181817944e-01
4.636363636363636243e-01
4.636363636363636243e-01
4.672727272727272840e-01
4.672727272727272840e-01
4.690909090909091139e-01
4.690909090909091139e-01
4.709090909090908883e-01
4.709090909090908883e-01
4.745454545454545481e-01
4.745454545454545481e-01
4.763636363636363780e-01
4.763636363636363780e-01
4.781818181818182079e-01
4.781818181818182079e-01
4.799999999999999822e-01
4.799999999999999822e-01
4.854545454545454719e-01
4.854545454545454719e-01
4.872727272727272463e-01
4.872727272727272463e-01
4.890909090909090762e-01
4.890909090909090762e-01
4.963636363636363402e-01
4.963636363636363402e-01
5.000000000000000000e-01
5.000000000000000000e-01
5.018181818181818299e-01
5.018181818181818299e-01
5.036363636363636598e-01
5.036363636363636598e-01
5.054545454545454897e-01
5.054545454545454897e-01
5.072727272727273196e-01
5.072727272727273196e-01
5.090909090909090384e-01
5.090909090909090384e-01
5.145454545454545281e-01
5.145454545454545281e-01
5.163636363636363580e-01
5.163636363636363580e-01
5.200000000000000178e-01
5.200000000000000178e-01
5.218181818181818477e-01
5.218181818181818477e-01
5.236363636363636775e-01
5.236363636363636775e-01
5.254545454545455074e-01
5.254545454545455074e-01
5.327272727272727160e-01
5.327272727272727160e-01
5.345454545454545459e-01
5.345454545454545459e-01
5.363636363636363757e-01
5.363636363636363757e-01
5.400000000000000355e-01
5.400000000000000355e-01
5.490909090909090740e-01
5.490909090909090740e-01
5.509090909090909038e-01
5.509090909090909038e-01
5.527272727272727337e-01
5.527272727272727337e-01
5.545454545454545636e-01
5.545454545454545636e-01
5.563636363636363935e-01
5.563636363636363935e-01
5.581818181818182234e-01
5.581818181818182234e-01
5.600000000000000533e-01
5.600000000000000533e-01
5.618181818181817722e-01
5.618181818181817722e-01
5.672727272727272618e-01
5.672727272727272618e-01
5.690909090909090917e-01
5.690909090909090917e-01
5.709090909090909216e-01
5.709090909090909216e-01
5.727272727272727515e-01
5.727272727272727515e-01
5.745454545454545814e-01
5.745454545454545814e-01
5.763636363636364113e-01
5.763636363636364113e-01
5.799999999999999600e-01
5.799999999999999600e-01
5.818181818181817899e-01
5.818181818181817899e-01
5.836363636363636198e-01
5.836363636363636198e-01
5.872727272727272796e-01
5.872727272727272796e-01
5.890909090909091095e-01
5.890909090909091095e-01
5.909090909090909394e-01
5.909090909090909394e-01
5.927272727272727693e-01
5.927272727272727693e-01
5.999999999999999778e-01
5.999999999999999778e-01
6.018181818181818077e-01
6.018181818181818077e-01
6.036363636363636376e-01
6.036363636363636376e-01
6.072727272727272974e-01
6.072727272727272974e-01
6.109090909090909571e-01
6.109090909090909571e-01
6.127272727272726760e-01
6.127272727272726760e-01
6.145454545454545059e-01
6.145454545454545059e-01
6.181818181818181657e-01
6.181818181818181657e-01
6.199999999999999956e-01
6.199999999999999956e-01
6.218181818181818254e-01
6.218181818181818254e-01
6.236363636363636553e-01
6.236363636363636553e-01
6.309090909090908639e-01
6.309090909090908639e-01
6.363636363636363535e-01
6.363636363636363535e-01
6.381818181818181834e-01
6.381818181818181834e-01
6.400000000000000133e-01
6.400000000000000133e-01
6.418181818181818432e-01
6.418181818181818432e-01
6.436363636363636731e-01
6.436363636363636731e-01
6.563636363636363713e-01
6.563636363636363713e-01
6.581818181818182012e-01
6.581818181818182012e-01
6.600000000000000311e-01
6.600000000000000311e-01
6.672727272727272396e-01
6.672727272727272396e-01
6.690909090909090695e-01
6.690909090909090695e-01
6.727272727272727293e-01
6.727272727272727293e-01
6.763636363636363891e-01
6.763636363636363891e-01
6.800000000000000488e-01
6.800000000000000488e-01
6.818181818181817677e-01
6.818181818181817677e-01
6.836363636363635976e-01
6.836363636363635976e-01
6.872727272727272574e-01
6.872727272727272574e-01
6.890909090909090873e-01
6.890909090909090873e-01
6.909090909090909172e-01
6.909090909090909172e-01
6.927272727272727471e-01
6.927272727272727471e-01
6.945454545454545769e-01
6.945454545454545769e-01
6.999999999999999556e-01
6.999999999999999556e-01
7.036363636363636154e-01
7.036363636363636154e-01
7.054545454545454453e-01
7.054545454545454453e-01
7.090909090909091050e-01
7.090909090909091050e-01
7.127272727272727648e-01
7.127272727272727648e-01
7.199999999999999734e-01
7.199999999999999734e-01
7.309090909090909527e-01
7.309090909090909527e-01
7.345454545454545014e-01
7.345454545454545014e-01
7.363636363636363313e-01
7.363636363636363313e-01
7.399999999999999911e-01
7.399999999999999911e-01
7.472727272727273107e-01
7.472727272727273107e-01
7.490909090909091406e-01
7.490909090909091406e-01
7.509090909090908594e-01
7.509090909090908594e-01
7.527272727272726893e-01
7.527272727272726893e-01
7.563636363636363491e-01
7.563636363636363491e-01
7.581818181818181790e-01
7.581818181818181790e-01
7.600000000000000089e-01
7.600000000000000089e-01
7.618181818181818388e-01
7.618181818181818388e-01
7.636363636363636687e-01
7.636363636363636687e-01
7.654545454545454986e-01
7.654545454545454986e-01
7.672727272727272174e-01
7.672727272727272174e-01
7.690909090909090473e-01
7.690909090909090473e-01
7.709090909090908772e-01
7.709090909090908772e-01
7.745454545454545370e-01
7.745454545454545370e-01
7.781818181818181968e-01
7.800000000000000266e-01
7.800000000000000266e-01
7.836363636363636864e-01
7.836363636363636864e-01
7.854545454545454053e-01
7.854545454545454053e-01
7.872727272727272352e-01
7.872727272727272352e-01
7.890909090909090651e-01
7.890909090909090651e-01
7.909090909090908950e-01
7.909090909090908950e-01
7.927272727272727249e-01
7.927272727272727249e-01
7.945454545454545547e-01
7.945454545454545547e-01
7.963636363636363846e-01
7.963636363636363846e-01
7.981818181818182145e-01
7.981818181818182145e-01
8.000000000000000444e-01
8.000000000000000444e-01
8.036363636363635932e-01
8.036363636363635932e-01
8.090909090909090828e-01
8.090909090909090828e-01
8.127272727272727426e-01
8.127272727272727426e-01
8.145454545454545725e-01
8.145454545454545725e-01
8.163636363636364024e-01
8.163636363636364024e-01
8.181818181818182323e-01
8.181818181818182323e-01
8.218181818181817810e-01
8.218181818181817810e-01
8.254545454545454408e-01
8.254545454545454408e-01
8.272727272727272707e-01
8.272727272727272707e-01
8.290909090909091006e-01
8.290909090909091006e-01
8.309090909090909305e-01
8.309090909090909305e-01
8.327272727272727604e-01
8.327272727272727604e-01
8.345454545454545903e-01
8.345454545454545903e-01
8.363636363636363091e-01
8.363636363636363091e-01
8.381818181818181390e-01
8.381818181818181390e-01
8.399999999999999689e-01
8.399999999999999689e-01
8.418181818181817988e-01
8.418181818181817988e-01
8.454545454545454586e-01
8.454545454545454586e-01
8.490909090909091184e-01
8.490909090909091184e-01
8.509090909090909483e-01
8.509090909090909483e-01
8.527272727272727781e-01
8.527272727272727781e-01
8.545454545454544970e-01
8.545454545454544970e-01
8.563636363636363269e-01
8.563636363636363269e-01
8.618181818181818166e-01
8.618181818181818166e-01
8.654545454545454763e-01
8.654545454545454763e-01
8.672727272727273062e-01
8.672727272727273062e-01
8.690909090909091361e-01
8.690909090909091361e-01
8.727272727272726849e-01
8.727272727272726849e-01
8.745454545454545148e-01
8.745454545454545148e-01
8.800000000000000044e-01
8.800000000000000044e-01
8.854545454545454941e-01
8.854545454545454941e-01
8.890909090909090429e-01
8.890909090909090429e-01
8.927272727272727026e-01
8.927272727272727026e-01
8.981818181818181923e-01
8.981818181818181923e-01
9.018181818181818521e-01
9.018181818181818521e-01
9.072727272727272307e-01
9.072727272727272307e-01
9.090909090909090606e-01
9.090909090909090606e-01
9.109090909090908905e-01
9.109090909090908905e-01
9.163636363636363802e-01
9.163636363636363802e-01
9.181818181818182101e-01
9.181818181818182101e-01
9.200000000000000400e-01
9.200000000000000400e-01
9.236363636363635887e-01
9.236363636363635887e-01
9.254545454545454186e-01
9.254545454545454186e-01
9.309090909090909083e-01
9.309090909090909083e-01
9.327272727272727382e-01
9.327272727272727382e-01
9.345454545454545681e-01
9.345454545454545681e-01
9.381818181818182278e-01
9.381818181818182278e-01
9.399999999999999467e-01
9.399999999999999467e-01
9.418181818181817766e-01
9.418181818181817766e-01
9.436363636363636065e-01
9.436363636363636065e-01
9.454545454545454364e-01
9.454545454545454364e-01
9.509090909090909260e-01
9.509090909090909260e-01
9.527272727272727559e-01
9.527272727272727559e-01
9.563636363636364157e-01
9.563636363636364157e-01
9.709090909090909438e-01
9.709090909090909438e-01
9.745454545454544926e-01
9.745454545454544926e-01
9.763636363636363225e-01
9.763636363636363225e-01
9.781818181818181523e-01
9.781818181818181523e-01
9.799999999999999822e-01
9.799999999999999822e-01
9.872727272727273018e-01
9.872727272727273018e-01
9.890909090909091317e-01
9.890909090909091317e-01
9.927272727272726804e-01
9.927272727272726804e-01
9.963636363636363402e-01
9.963636363636363402e-01
9.981818181818181701e-01
9.981818181818181701e-01
1.000000000000000000e+00
1.000000000000000000e+00
