3.524405062198638916e-01
3.593472540378570557e-01
4.059963524341583252e-01
6.428612470626831055e-01
4.225467443466186523e-01
3.681197762489318848e-01
9.911280870437622070e-01
3.435645401477813721e-01
8.665869235992431641e-01
3.311905860900878906e-01
3.569779992103576660e-01
3.652650713920593262e-01
4.170533716678619385e-01
3.340175747871398926e-01
9.906206130981445312e-01
5.379210114479064941e-01
3.402591943740844727e-01
4.822079539299011230e-01
4.076771438121795654e-01
9.837822914123535156e-01
3.359384834766387939e-01
3.156054019927978516e-01
3.994098901748657227e-01
9.672248363494873047e-01
9.745632410049438477e-01
3.746286928653717041e-01
3.498246073722839355e-01
3.512917160987854004e-01
9.896805286407470703e-01
9.928761720657348633e-01
9.656649827957153320e-01
2.879485487937927246e-01
3.687478303909301758e-01
3.630268275737762451e-01
9.791570901870727539e-01
3.370404839515686035e-01
3.514605462551116943e-01
9.896532893180847168e-01
9.908897876739501953e-01
4.519132673740386963e-01
3.726555109024047852e-01
9.829891920089721680e-01
3.468915820121765137e-01
3.702979683876037598e-01
3.672129213809967041e-01
3.697857260704040527e-01
2.926392555236816406e-01
4.497673511505126953e-01
3.728991150856018066e-01
3.547726571559906006e-01
7.135778665542602539e-01
2.892760038375854492e-01
3.562048971652984619e-01
9.689279794692993164e-01
3.704745769500732422e-01
9.772785902023315430e-01
3.617762625217437744e-01
3.562613129615783691e-01
3.583510518074035645e-01
9.927163124084472656e-01
9.838938117027282715e-01
3.403069674968719482e-01
9.776819944381713867e-01
9.739798307418823242e-01
3.748426437377929688e-01
9.726657271385192871e-01
7.595881819725036621e-01
3.792054057121276855e-01
9.716188907623291016e-01
7.053006887435913086e-01
3.284929096698760986e-01
9.465252161026000977e-01
3.253726959228515625e-01
2.911871075630187988e-01
9.425027370452880859e-01
3.374915122985839844e-01
3.552641868591308594e-01
6.952221393585205078e-01
6.475738286972045898e-01
3.785338401794433594e-01
3.848553001880645752e-01
3.550038933753967285e-01
3.815567195415496826e-01
4.021232128143310547e-01
4.657346010208129883e-01
3.276751041412353516e-01
3.819591104984283447e-01
9.786474704742431641e-01
4.229879975318908691e-01
3.622594475746154785e-01
4.120907485485076904e-01
7.176028490066528320e-01
5.429028272628784180e-01
9.623824357986450195e-01
7.198153734207153320e-01
9.898372292518615723e-01
9.788518548011779785e-01
9.737628698348999023e-01
9.860174655914306641e-01
3.228352665901184082e-01
3.082934916019439697e-01
3.767471909523010254e-01
3.706105053424835205e-01
3.911869525909423828e-01
7.563776969909667969e-01
4.224110841751098633e-01
9.734829664230346680e-01
3.100511431694030762e-01
3.287045955657958984e-01
3.777644038200378418e-01
7.917681932449340820e-01
2.956262230873107910e-01
3.674010038375854492e-01
7.930814623832702637e-01
4.152511358261108398e-01
9.764509201049804688e-01
2.521044611930847168e-01
4.668275713920593262e-01
4.362716376781463623e-01
4.436583518981933594e-01
9.677142500877380371e-01
3.582879900932312012e-01
9.917926788330078125e-01
4.984425604343414307e-01
1.477191448211669922e-01
6.896210312843322754e-01
3.293341994285583496e-01
3.607527911663055420e-01
3.353031277656555176e-01
3.986019492149353027e-01
3.399334251880645752e-01
4.690540432929992676e-01
9.806379079818725586e-01
3.606064319610595703e-01
3.552190363407135010e-01
4.697615206241607666e-01
3.379796147346496582e-01
3.314717113971710205e-01
9.630439281463623047e-01
3.743809461593627930e-01
3.475776612758636475e-01
3.928652405738830566e-01
9.770902991294860840e-01
3.226276040077209473e-01
4.326576590538024902e-01
3.696174025535583496e-01
3.704845309257507324e-01
3.501542210578918457e-01
9.867217540740966797e-01
4.460685253143310547e-01
9.752730131149291992e-01
3.449323773384094238e-01
9.741946458816528320e-01
3.495975136756896973e-01
9.770192503929138184e-01
4.538274407386779785e-01
3.431775569915771484e-01
9.641768336296081543e-01
8.877083659172058105e-01
9.924716949462890625e-01
4.478180706501007080e-01
9.750964045524597168e-01
9.185156822204589844e-01
4.839293360710144043e-01
4.335587024688720703e-01
3.583862781524658203e-01
9.795445203781127930e-01
3.144897222518920898e-01
9.844133853912353516e-01
9.654489755630493164e-01
5.285961031913757324e-01
9.853528738021850586e-01
5.509650707244873047e-01
9.887826442718505859e-01
4.139855504035949707e-01
5.014764070510864258e-01
3.452404141426086426e-01
4.378056228160858154e-01
9.767703413963317871e-01
9.747384190559387207e-01
3.033389151096343994e-01
8.942242860794067383e-01
4.255674183368682861e-01
9.761968851089477539e-01
9.910709261894226074e-01
9.980105757713317871e-01
3.560307621955871582e-01
9.737322330474853516e-01
9.782148003578186035e-01
3.042891025543212891e-01
6.567490100860595703e-01
3.380704522132873535e-01
3.816205859184265137e-01
3.582274317741394043e-01
3.681170940399169922e-01
3.826199769973754883e-01
3.274803757667541504e-01
6.520371437072753906e-01
3.198183178901672363e-01
3.652232885360717773e-01
9.828737378120422363e-01
3.779335319995880127e-01
9.808508157730102539e-01
3.620334863662719727e-01
9.797603487968444824e-01
3.658812046051025391e-01
3.501542210578918457e-01
9.796712994575500488e-01
7.779480218887329102e-01
7.627481222152709961e-01
6.079574823379516602e-01
9.803852438926696777e-01
2.899752259254455566e-01
9.773844480514526367e-01
3.412023186683654785e-01
9.460060000419616699e-01
3.729095458984375000e-01
3.976660966873168945e-01
8.995117545127868652e-01
2.932593822479248047e-01
3.770197033882141113e-01
9.827743768692016602e-01
7.932758927345275879e-01
9.714554548263549805e-01
9.881632924079895020e-01
3.498174548149108887e-01
4.181417226791381836e-01
3.468222022056579590e-01
3.821946382522583008e-01
3.714689612388610840e-01
6.899395585060119629e-01
9.748625755310058594e-01
3.349049687385559082e-01
3.649746775627136230e-01
4.406551122665405273e-01
9.309061765670776367e-01
4.572245180606842041e-01
3.467536568641662598e-01
4.647898674011230469e-01
9.892891049385070801e-01
7.009946703910827637e-01
7.188123464584350586e-01
3.582777976989746094e-01
9.908210039138793945e-01
4.470858871936798096e-01
9.721598625183105469e-01
3.906990885734558105e-01
9.754161238670349121e-01
9.686395525932312012e-01
8.154100179672241211e-01
3.225466012954711914e-01
9.755885601043701172e-01
3.486151099205017090e-01
3.971302509307861328e-01
3.905725479125976562e-01
8.771387338638305664e-01
9.782958030700683594e-01
9.771527051925659180e-01
3.372083902359008789e-01
3.947566747665405273e-01
3.844099640846252441e-01
4.566192030906677246e-01
3.070734441280364990e-01
3.704486489295959473e-01
9.708938002586364746e-01
3.345683217048645020e-01
8.151510953903198242e-01
9.820371270179748535e-01
3.545101284980773926e-01
5.975781083106994629e-01
9.649990797042846680e-01
8.317695856094360352e-01
3.351368606090545654e-01
3.537723422050476074e-01
9.785307645797729492e-01
3.938707113265991211e-01
8.366266489028930664e-01
9.628347158432006836e-01
5.598841905593872070e-01
9.886540174484252930e-01
2.332088947296142578e-01
3.222391605377197266e-01
9.872263073921203613e-01
9.588384628295898438e-01
9.889878034591674805e-01
3.667603135108947754e-01
2.555446922779083252e-01
3.504867255687713623e-01
9.842360019683837891e-01
2.392817437648773193e-01
3.506389856338500977e-01
9.614160060882568359e-01
6.383117437362670898e-01
9.480516910552978516e-01
7.642177343368530273e-01
8.381237983703613281e-01
8.540868163108825684e-01
5.978597402572631836e-01
8.803781867027282715e-01
4.045476317405700684e-01
9.658575057983398438e-01
2.827461361885070801e-01
9.615330696105957031e-01
9.877088069915771484e-01
4.068003892898559570e-01
9.658859372138977051e-01
5.776096582412719727e-01
9.758507013320922852e-01
3.254890143871307373e-01
5.828554630279541016e-01
8.050200939178466797e-01
3.464328646659851074e-01
9.676868915557861328e-01
3.319560587406158447e-01
9.140698909759521484e-01
3.688909411430358887e-01
9.792163372039794922e-01
9.859544634819030762e-01
2.862890362739562988e-01
9.829530715942382812e-01
6.423042416572570801e-01
6.490637063980102539e-01
3.733396828174591064e-01
3.649877607822418213e-01
3.968142271041870117e-01
3.469205796718597412e-01
3.742244541645050049e-01
3.576792478561401367e-01
2.915556430816650391e-01
9.870136976242065430e-01
3.596271574497222900e-01
3.492113351821899414e-01
9.869508743286132812e-01
9.878580570220947266e-01
3.299387693405151367e-01
5.115668773651123047e-01
6.819995641708374023e-01
9.742653965950012207e-01
4.053374528884887695e-01
3.617871701717376709e-01
3.273046612739562988e-01
2.876299619674682617e-01
3.043787777423858643e-01
9.722203612327575684e-01
9.733875989913940430e-01
9.452881813049316406e-01
3.493602871894836426e-01
3.665114045143127441e-01
5.449629426002502441e-01
9.624056220054626465e-01
7.663565874099731445e-01
3.361809253692626953e-01
3.446566462516784668e-01
2.906855940818786621e-01
3.758172690868377686e-01
5.697706341743469238e-01
4.180222153663635254e-01
4.541721642017364502e-01
7.485391497611999512e-01
4.345292448997497559e-01
3.213605582714080811e-01
9.650226831436157227e-01
9.609260559082031250e-01
8.138316869735717773e-01
5.881062150001525879e-01
5.488101243972778320e-01
6.024406552314758301e-01
9.659963250160217285e-01
4.664005339145660400e-01
5.583378672599792480e-01
3.706398010253906250e-01
7.811666727066040039e-01
7.547411918640136719e-01
4.459546506404876709e-01
7.541674375534057617e-01
9.682654142379760742e-01
2.117591202259063721e-01
9.664535522460937500e-01
5.329630970954895020e-01
3.729541897773742676e-01
3.356003165245056152e-01
4.192183315753936768e-01
3.099159598350524902e-01
3.050895333290100098e-01
4.115809202194213867e-01
3.878394663333892822e-01
9.905529022216796875e-01
2.385559082031250000e-01
9.690521955490112305e-01
3.407493829727172852e-01
9.116886854171752930e-01
2.770931720733642578e-01
3.466545939445495605e-01
3.494780063629150391e-01
6.327387094497680664e-01
5.055376887321472168e-01
3.767963051795959473e-01
2.834793627262115479e-01
3.691897392272949219e-01
9.562414884567260742e-01
3.622353076934814453e-01
8.700147867202758789e-01
3.782097995281219482e-01
3.023097217082977295e-01
4.669823050498962402e-01
2.543602585792541504e-01
9.659904241561889648e-01
3.401075899600982666e-01
9.537789821624755859e-01
3.779614567756652832e-01
9.749506711959838867e-01
9.895020723342895508e-01
9.765758514404296875e-01
9.588366746902465820e-01
3.893325030803680420e-01
9.906171560287475586e-01
3.428053259849548340e-01
9.737763404846191406e-01
3.590081036090850830e-01
4.424969255924224854e-01
4.072989225387573242e-01
5.310310721397399902e-01
9.691852331161499023e-01
3.337460160255432129e-01
9.680286645889282227e-01
5.163140892982482910e-01
3.741765022277832031e-01
5.970207452774047852e-01
4.118782579898834229e-01
9.704337120056152344e-01
9.845092296600341797e-01
9.770218729972839355e-01
3.511464893817901611e-01
3.686650991439819336e-01
3.737398386001586914e-01
3.557112812995910645e-01
9.883872866630554199e-01
9.836789369583129883e-01
3.834656178951263428e-01
9.922215342521667480e-01
3.588230609893798828e-01
7.572867870330810547e-01
9.620727300643920898e-01
3.540375828742980957e-01
3.595948815345764160e-01
3.483728766441345215e-01
3.202058076858520508e-01
9.738249778747558594e-01
9.913334846496582031e-01
3.505741953849792480e-01
2.722878456115722656e-01
4.078873395919799805e-01
9.545224905014038086e-01
9.570561647415161133e-01
3.796614408493041992e-01
3.462570905685424805e-01
8.518494963645935059e-01
4.240856766700744629e-01
7.276210784912109375e-01
3.499569892883300781e-01
9.887140393257141113e-01
9.557190537452697754e-01
2.770870625972747803e-01
7.358022332191467285e-01
3.971996009349822998e-01
4.006775915622711182e-01
3.177631795406341553e-01
5.547273159027099609e-01
9.784948825836181641e-01
4.963013827800750732e-01
3.481062650680541992e-01
3.683207929134368896e-01
4.384351372718811035e-01
4.095509946346282959e-01
8.825963139533996582e-01
4.580892026424407959e-01
3.477265834808349609e-01
3.705722689628601074e-01
3.362879753112792969e-01
9.736012220382690430e-01
9.909713268280029297e-01
9.896125197410583496e-01
4.086981415748596191e-01
3.999300301074981689e-01
9.841712117195129395e-01
3.509034216403961182e-01
3.926747739315032959e-01
5.452320575714111328e-01
3.273162841796875000e-01
3.582754731178283691e-01
6.502126455307006836e-01
3.668664097785949707e-01
3.447475433349609375e-01
7.407037019729614258e-01
2.767107486724853516e-01
9.774994850158691406e-01
4.121491312980651855e-01
9.915221929550170898e-01
3.586627840995788574e-01
9.763922691345214844e-01
9.860416650772094727e-01
8.416709899902343750e-01
5.384117960929870605e-01
4.383790493011474609e-01
9.892933368682861328e-01
6.113334894180297852e-01
2.941851019859313965e-01
3.819402754306793213e-01
9.912667870521545410e-01
9.877970218658447266e-01
4.771480560302734375e-01
2.593825459480285645e-01
3.540405929088592529e-01
3.400365710258483887e-01
3.353036642074584961e-01
5.821654796600341797e-01
3.101671934127807617e-01
9.408501386642456055e-01
3.444754779338836670e-01
3.614040613174438477e-01
8.221310377120971680e-01
2.941563725471496582e-01
3.437479734420776367e-01
4.853200018405914307e-01
4.258874654769897461e-01
3.578723669052124023e-01
3.272687196731567383e-01
4.290836751461029053e-01
2.519799470901489258e-01
3.312430381774902344e-01
4.011766612529754639e-01
3.114184737205505371e-01
3.642179667949676514e-01
9.741472005844116211e-01
9.642266035079956055e-01
3.150907158851623535e-01
3.294107913970947266e-01
3.520088791847229004e-01
9.603567719459533691e-01
9.673473834991455078e-01
9.691766500473022461e-01
3.710500001907348633e-01
9.788550138473510742e-01
2.230496108531951904e-01
3.199645280838012695e-01
2.174915671348571777e-01
3.339408636093139648e-01
9.874951839447021484e-01
9.705914258956909180e-01
9.880849123001098633e-01
3.938637077808380127e-01
6.309808492660522461e-01
3.833913803100585938e-01
3.618187606334686279e-01
2.164299190044403076e-01
3.872961401939392090e-01
4.007152318954467773e-01
4.747231602668762207e-01
5.658794641494750977e-01
3.975493907928466797e-01
3.532663583755493164e-01
1.353000700473785400e-01
4.359525144100189209e-01
4.009879827499389648e-01
3.708265721797943115e-01
3.663557767868041992e-01
3.642655313014984131e-01
4.493564069271087646e-01
4.257079660892486572e-01
3.638865947723388672e-01
5.062890648841857910e-01
3.209380209445953369e-01
5.137243270874023438e-01
3.651952147483825684e-01
7.848129272460937500e-01
3.369518220424652100e-01
3.951238393783569336e-01
3.792886137962341309e-01
4.292287528514862061e-01
3.208147883415222168e-01
3.173899948596954346e-01
3.430811166763305664e-01
3.510762453079223633e-01
2.444362342357635498e-01
3.459925055503845215e-01
3.154550194740295410e-01
4.229976832866668701e-01
4.170563817024230957e-01
3.434156775474548340e-01
3.614237606525421143e-01
3.341052234172821045e-01
5.736027956008911133e-01
3.035042583942413330e-01
3.828769624233245850e-01
3.284852504730224609e-01
3.512223958969116211e-01
5.862792134284973145e-01
3.798306584358215332e-01
2.646127939224243164e-01
3.681288957595825195e-01
3.324941396713256836e-01
3.849291503429412842e-01
3.137768507003784180e-01
4.101781845092773438e-01
3.377476036548614502e-01
5.188662409782409668e-01
3.702014684677124023e-01
3.877719640731811523e-01
4.251759052276611328e-01
3.108669221401214600e-01
3.879817426204681396e-01
3.212137818336486816e-01
4.284516274929046631e-01
3.468376100063323975e-01
3.330133557319641113e-01
8.226348161697387695e-01
4.282174408435821533e-01
3.701171278953552246e-01
6.045098900794982910e-01
3.713768720626831055e-01
3.524088561534881592e-01
2.555467188358306885e-01
3.929849565029144287e-01
4.102459549903869629e-01
2.822279632091522217e-01
3.583906292915344238e-01
2.822326719760894775e-01
3.544831275939941406e-01
3.598024547100067139e-01
3.931074738502502441e-01
3.043745160102844238e-01
8.282036185264587402e-01
3.459529578685760498e-01
3.515841662883758545e-01
3.580602407455444336e-01
3.751679360866546631e-01
3.675879240036010742e-01
3.986048996448516846e-01
3.929006457328796387e-01
3.548460006713867188e-01
3.079999685287475586e-01
6.074314117431640625e-01
2.659443616867065430e-01
3.537983894348144531e-01
4.727456569671630859e-01
4.830142557621002197e-01
3.409629166126251221e-01
5.430246591567993164e-01
3.538241982460021973e-01
3.522502779960632324e-01
3.728997707366943359e-01
3.170271515846252441e-01
3.029659390449523926e-01
1.372998058795928955e-01
3.513178229331970215e-01
3.063143193721771240e-01
3.871606886386871338e-01
4.026059508323669434e-01
4.074864685535430908e-01
5.871286392211914062e-01
3.079785704612731934e-01
4.223780035972595215e-01
3.616105020046234131e-01
3.237400650978088379e-01
3.391228020191192627e-01
2.825165390968322754e-01
3.627005219459533691e-01
6.168951392173767090e-01
3.760866224765777588e-01
3.536560535430908203e-01
3.439476490020751953e-01
3.695383667945861816e-01
2.980951070785522461e-01
2.929129600524902344e-01
4.473511874675750732e-01
2.910364270210266113e-01
3.630716800689697266e-01
2.606307268142700195e-01
5.085340142250061035e-01
4.429633021354675293e-01
3.120747804641723633e-01
6.659904718399047852e-01
3.448199331760406494e-01
3.250998854637145996e-01
4.417573511600494385e-01
3.271015882492065430e-01
4.823170304298400879e-01
2.984734773635864258e-01
3.434523940086364746e-01
3.804890513420104980e-01
3.241853713989257812e-01
5.715594887733459473e-01
3.821179866790771484e-01
3.176188468933105469e-01
3.930987119674682617e-01
3.447405993938446045e-01
3.231944441795349121e-01
3.175517916679382324e-01
3.476907908916473389e-01
3.236449360847473145e-01
5.279695391654968262e-01
3.260635733604431152e-01
5.947782397270202637e-01
3.461751639842987061e-01
3.671450614929199219e-01
3.644815087318420410e-01
2.979851961135864258e-01
3.919839859008789062e-01
3.190392851829528809e-01
3.802743554115295410e-01
3.576622307300567627e-01
3.242813944816589355e-01
3.603833019733428955e-01
3.370536565780639648e-01
3.551150560379028320e-01
3.972550034523010254e-01
4.009568989276885986e-01
3.995129168033599854e-01
7.620022296905517578e-01
5.245572924613952637e-01
4.418447613716125488e-01
3.291321396827697754e-01
3.497579097747802734e-01
2.770073413848876953e-01
3.448320627212524414e-01
3.608160614967346191e-01
3.459938466548919678e-01
3.506072461605072021e-01
2.956572771072387695e-01
3.384186029434204102e-01
3.648531436920166016e-01
4.479368925094604492e-01
4.667561948299407959e-01
3.517417311668395996e-01
3.220186233520507812e-01
3.484225869178771973e-01
3.603709936141967773e-01
4.635292887687683105e-01
3.972642719745635986e-01
3.392812609672546387e-01
3.330411016941070557e-01
3.364760577678680420e-01
3.399077057838439941e-01
3.837469220161437988e-01
3.319455385208129883e-01
6.269762516021728516e-01
4.510699510574340820e-01
4.095609188079833984e-01
4.289644956588745117e-01
5.349531173706054688e-01
3.241049051284790039e-01
2.755561470985412598e-01
3.162115812301635742e-01
2.644501924514770508e-01
3.802064061164855957e-01
4.229916334152221680e-01
3.532752096652984619e-01
3.446949720382690430e-01
3.842474520206451416e-01
3.824602365493774414e-01
2.710533440113067627e-01
4.085603058338165283e-01
3.792903423309326172e-01
3.539140522480010986e-01
4.400456845760345459e-01
3.541094064712524414e-01
4.331555366516113281e-01
7.271130084991455078e-01
3.685672581195831299e-01
4.641869664192199707e-01
4.538772404193878174e-01
4.012315571308135986e-01
3.805398643016815186e-01
3.486976027488708496e-01
3.660981059074401855e-01
3.398669958114624023e-01
3.744519650936126709e-01
3.118766546249389648e-01
4.248133003711700439e-01
3.217710256576538086e-01
3.192456960678100586e-01
5.588304400444030762e-01
3.103137016296386719e-01
4.187541007995605469e-01
3.466104865074157715e-01
3.925959467887878418e-01
4.435977339744567871e-01
3.282267451286315918e-01
3.248294591903686523e-01
4.240787625312805176e-01
3.262767791748046875e-01
3.678763508796691895e-01
4.796483218669891357e-01
3.992528617382049561e-01
2.783093154430389404e-01
8.266220092773437500e-01
3.933541178703308105e-01
4.950608313083648682e-01
6.192663908004760742e-01
3.497968912124633789e-01
5.420445203781127930e-01
4.212408363819122314e-01
3.208887577056884766e-01
3.623043298721313477e-01
3.158777952194213867e-01
3.007264137268066406e-01
3.479718565940856934e-01
6.545474529266357422e-01
3.568435609340667725e-01
5.057177543640136719e-01
3.039073348045349121e-01
3.356015086174011230e-01
4.032627344131469727e-01
3.442789316177368164e-01
2.915859222412109375e-01
2.947904467582702637e-01
3.779259622097015381e-01
4.466176033020019531e-01
3.364216387271881104e-01
3.948484063148498535e-01
3.721714019775390625e-01
3.699671626091003418e-01
4.147780239582061768e-01
3.999491631984710693e-01
3.671631813049316406e-01
3.843400478363037109e-01
3.453502058982849121e-01
3.362450003623962402e-01
3.483027815818786621e-01
4.195768237113952637e-01
3.899205625057220459e-01
3.769496381282806396e-01
3.683989048004150391e-01
2.752192914485931396e-01
3.413122892379760742e-01
3.546276986598968506e-01
2.982005476951599121e-01
3.983356654644012451e-01
3.541378378868103027e-01
3.755685687065124512e-01
3.643529713153839111e-01
3.652229905128479004e-01
3.744482994079589844e-01
3.973856270313262939e-01
4.862861633300781250e-01
3.773362636566162109e-01
3.848572969436645508e-01
4.318558275699615479e-01
3.340820670127868652e-01
3.580958247184753418e-01
4.389550983905792236e-01
3.669139146804809570e-01
3.728590607643127441e-01
4.634635448455810547e-01
3.898590803146362305e-01
3.521120548248291016e-01
3.394788801670074463e-01
3.160657882690429688e-01
3.574038743972778320e-01
3.330674469470977783e-01
3.398916721343994141e-01
3.310201764106750488e-01
3.396688401699066162e-01
3.396947979927062988e-01
4.648091495037078857e-01
4.137852191925048828e-01
3.310783803462982178e-01
3.779054284095764160e-01
3.291687369346618652e-01
3.492604196071624756e-01
3.584588766098022461e-01
3.781400024890899658e-01
3.429542183876037598e-01
3.318580687046051025e-01
3.570474684238433838e-01
3.407503366470336914e-01
3.352373838424682617e-01
3.918725848197937012e-01
4.403728544712066650e-01
3.575985133647918701e-01
3.315536379814147949e-01
3.401884436607360840e-01
3.402658402919769287e-01
3.399689793586730957e-01
3.400686979293823242e-01
3.400447964668273926e-01
3.651911616325378418e-01
3.448790907859802246e-01
3.454997539520263672e-01
3.408546447753906250e-01
3.521290421485900879e-01
3.494088053703308105e-01
3.393650650978088379e-01
3.491933941841125488e-01
3.702895045280456543e-01
3.654181361198425293e-01
3.455515503883361816e-01
3.494575619697570801e-01
3.495305180549621582e-01
4.110676646232604980e-01
2.916368246078491211e-01
3.927990198135375977e-01
3.483416140079498291e-01
3.448668420314788818e-01
3.441615104675292969e-01
3.486270606517791748e-01
3.409470617771148682e-01
4.801766574382781982e-01
3.509255647659301758e-01
3.549816012382507324e-01
3.512670993804931641e-01
3.428540229797363281e-01
4.171977043151855469e-01
3.388152718544006348e-01
3.709858059883117676e-01
3.908068537712097168e-01
3.503656685352325439e-01
3.501682579517364502e-01
3.399328887462615967e-01
3.498389124870300293e-01
3.360345363616943359e-01
3.422033190727233887e-01
3.416468501091003418e-01
3.346029520034790039e-01
3.523617088794708252e-01
3.665367662906646729e-01
4.168893098831176758e-01
3.548555374145507812e-01
3.447338342666625977e-01
3.368268013000488281e-01
3.564748466014862061e-01
5.680024623870849609e-01
2.974615693092346191e-01
2.730233371257781982e-01
3.865321278572082520e-01
6.137252449989318848e-01
3.661770224571228027e-01
3.727862834930419922e-01
3.585305213928222656e-01
3.806251883506774902e-01
4.961513280868530273e-01
3.720224499702453613e-01
7.979702949523925781e-01
3.962105214595794678e-01
4.022240638732910156e-01
5.985617637634277344e-01
3.734053969383239746e-01
4.080080687999725342e-01
3.608068227767944336e-01
3.766644895076751709e-01
3.708806335926055908e-01
4.782008230686187744e-01
3.224301040172576904e-01
5.920844674110412598e-01
4.110501408576965332e-01
3.011385798454284668e-01
3.657788336277008057e-01
3.655086159706115723e-01
3.600347042083740234e-01
4.128950536251068115e-01
3.519884049892425537e-01
1.705778837203979492e-01
3.696442544460296631e-01
3.536264598369598389e-01
3.498804271221160889e-01
3.431471586227416992e-01
3.386182785034179688e-01
3.540692925453186035e-01
4.003712236881256104e-01
4.561870396137237549e-01
3.761166334152221680e-01
3.573793470859527588e-01
3.586151003837585449e-01
3.545525670051574707e-01
4.351224005222320557e-01
1.566602289676666260e-01
3.871307969093322754e-01
3.469584584236145020e-01
3.698177933692932129e-01
6.120537519454956055e-01
1.435210108757019043e-01
4.811477661132812500e-01
3.924718499183654785e-01
4.399586617946624756e-01
6.052560210227966309e-01
3.406274616718292236e-01
2.491677701473236084e-01
3.494925498962402344e-01
3.625811338424682617e-01
3.363926708698272705e-01
3.415563702583312988e-01
3.653936386108398438e-01
3.595851063728332520e-01
5.023604631423950195e-01
3.988047838211059570e-01
3.876205384731292725e-01
4.222871661186218262e-01
4.237779974937438965e-01
5.524379611015319824e-01
3.964866697788238525e-01
2.981638312339782715e-01
6.233758926391601562e-01
3.801635801792144775e-01
4.253546595573425293e-01
3.543876409530639648e-01
3.630685806274414062e-01
3.756193220615386963e-01
3.832283020019531250e-01
3.514932394027709961e-01
5.328777432441711426e-01
3.273990750312805176e-01
4.953548908233642578e-01
2.694937884807586670e-01
3.864844441413879395e-01
2.285286784172058105e-01
3.177434802055358887e-01
2.629917860031127930e-01
6.464430093765258789e-01
3.560922145843505859e-01
2.713558077812194824e-01
3.426779508590698242e-01
3.987852931022644043e-01
3.093305826187133789e-01
8.346382975578308105e-01
2.670859694480895996e-01
5.315034985542297363e-01
3.758871555328369141e-01
3.916913866996765137e-01
4.829985499382019043e-01
6.211916804313659668e-01
3.343704342842102051e-01
3.414531350135803223e-01
2.768217921257019043e-01
3.176328241825103760e-01
3.943110406398773193e-01
3.748333454132080078e-01
3.302258849143981934e-01
2.389924228191375732e-01
3.529616296291351318e-01
3.482935726642608643e-01
4.244484305381774902e-01
3.449889421463012695e-01
4.571762681007385254e-01
4.155109822750091553e-01
3.493481874465942383e-01
3.617065548896789551e-01
4.090690016746520996e-01
5.128944516181945801e-01
4.650637507438659668e-01
4.845524430274963379e-01
3.537003397941589355e-01
3.929649591445922852e-01
6.443604230880737305e-01
4.037544727325439453e-01
3.628233969211578369e-01
3.898937702178955078e-01
4.794187545776367188e-01
3.580114245414733887e-01
7.578321695327758789e-01
3.159283995628356934e-01
3.618786633014678955e-01
5.239550471305847168e-01
4.922125637531280518e-01
3.362720012664794922e-01
4.013448953628540039e-01
5.331827998161315918e-01
4.547299742698669434e-01
3.485659956932067871e-01
3.696740865707397461e-01
3.649850189685821533e-01
3.628435134887695312e-01
3.519647419452667236e-01
2.686201035976409912e-01
3.339824676513671875e-01
3.533331155776977539e-01
3.461769223213195801e-01
2.974309623241424561e-01
8.335961103439331055e-01
1.290114820003509521e-01
3.341464698314666748e-01
3.506366312503814697e-01
3.567358851432800293e-01
3.791439235210418701e-01
3.630627393722534180e-01
3.709118664264678955e-01
3.622980117797851562e-01
5.243378877639770508e-01
4.565439820289611816e-01
4.110847413539886475e-01
3.484655022621154785e-01
3.616067171096801758e-01
3.320035338401794434e-01
3.507433235645294189e-01
4.243066608905792236e-01
5.781238675117492676e-01
3.712357282638549805e-01
3.634877800941467285e-01
4.918077290058135986e-01
3.644459843635559082e-01
3.852747976779937744e-01
3.623660802841186523e-01
