1.998010635375976562e+00
9.980105757713317871e-01
8.366266489028930664e-01
8.335961103439331055e-01
8.317695856094360352e-01
8.226348161697387695e-01
8.050200939178466797e-01
7.979702949523925781e-01
7.917681932449340820e-01
7.848129272460937500e-01
7.627481222152709961e-01
7.620022296905517578e-01
7.595881819725036621e-01
7.578321695327758789e-01
7.276210784912109375e-01
7.271130084991455078e-01
6.819995641708374023e-01
6.659904718399047852e-01
6.567490100860595703e-01
6.545474529266357422e-01
6.475738286972045898e-01
6.443604230880737305e-01
6.327387094497680664e-01
6.120537519454956055e-01
6.079574823379516602e-01
6.045098900794982910e-01
6.024406552314758301e-01
5.985617637634277344e-01
5.970207452774047852e-01
5.920844674110412598e-01
5.881062150001525879e-01
5.862792134284973145e-01
5.821654796600341797e-01
5.781238675117492676e-01
5.776096582412719727e-01
5.715594887733459473e-01
5.697706341743469238e-01
5.658794641494750977e-01
5.598841905593872070e-01
5.588304400444030762e-01
5.547273159027099609e-01
5.524379611015319824e-01
5.449629426002502441e-01
5.430246591567993164e-01
5.429028272628784180e-01
5.420445203781127930e-01
5.379210114479064941e-01
5.331827998161315918e-01
5.329630970954895020e-01
5.315034985542297363e-01
5.285961031913757324e-01
5.188662409782409668e-01
5.163140892982482910e-01
5.128944516181945801e-01
5.115668773651123047e-01
5.057177543640136719e-01
5.055376887321472168e-01
5.023604631423950195e-01
4.963013827800750732e-01
4.862861633300781250e-01
4.853200018405914307e-01
4.845524430274963379e-01
4.839293360710144043e-01
4.823170304298400879e-01
4.822079539299011230e-01
4.782008230686187744e-01
4.771480560302734375e-01
4.727456569671630859e-01
4.668275713920593262e-01
4.667561948299407959e-01
4.657346010208129883e-01
4.648091495037078857e-01
4.647898674011230469e-01
4.634635448455810547e-01
4.572245180606842041e-01
4.571762681007385254e-01
4.566192030906677246e-01
4.547299742698669434e-01
4.541721642017364502e-01
4.538772404193878174e-01
4.519132673740386963e-01
4.510699510574340820e-01
4.497673511505126953e-01
4.479368925094604492e-01
4.478180706501007080e-01
4.473511874675750732e-01
4.470858871936798096e-01
4.466176033020019531e-01
4.436583518981933594e-01
4.429633021354675293e-01
4.424969255924224854e-01
4.417573511600494385e-01
4.406551122665405273e-01
4.389550983905792236e-01
4.362716376781463623e-01
4.351224005222320557e-01
4.335587024688720703e-01
4.331555366516113281e-01
4.326576590538024902e-01
4.292287528514862061e-01
4.290836751461029053e-01
4.282174408435821533e-01
4.258874654769897461e-01
4.257079660892486572e-01
4.255674183368682861e-01
4.243066608905792236e-01
4.240856766700744629e-01
4.229916334152221680e-01
4.224110841751098633e-01
4.195768237113952637e-01
4.192183315753936768e-01
4.187541007995605469e-01
4.180222153663635254e-01
4.170563817024230957e-01
4.170533716678619385e-01
4.155109822750091553e-01
4.152511358261108398e-01
4.147780239582061768e-01
4.139855504035949707e-01
4.128950536251068115e-01
4.115809202194213867e-01
4.095609188079833984e-01
4.095509946346282959e-01
4.090690016746520996e-01
4.086981415748596191e-01
4.080080687999725342e-01
4.076771438121795654e-01
4.074864685535430908e-01
4.045476317405700684e-01
4.022240638732910156e-01
4.021232128143310547e-01
4.012315571308135986e-01
4.011766612529754639e-01
4.007152318954467773e-01
4.006775915622711182e-01
3.999491631984710693e-01
3.999300301074981689e-01
3.995129168033599854e-01
3.994098901748657227e-01
3.986048996448516846e-01
3.986019492149353027e-01
3.983356654644012451e-01
3.976660966873168945e-01
3.972550034523010254e-01
3.968142271041870117e-01
3.948484063148498535e-01
3.947566747665405273e-01
3.943110406398773193e-01
3.938707113265991211e-01
3.929006457328796387e-01
3.928652405738830566e-01
3.927990198135375977e-01
3.926747739315032959e-01
3.916913866996765137e-01
3.911869525909423828e-01
3.908068537712097168e-01
3.905725479125976562e-01
3.898590803146362305e-01
3.893325030803680420e-01
3.879817426204681396e-01
3.878394663333892822e-01
3.848572969436645508e-01
3.844099640846252441e-01
3.837469220161437988e-01
3.834656178951263428e-01
3.828769624233245850e-01
3.826199769973754883e-01
3.824602365493774414e-01
3.821946382522583008e-01
3.821179866790771484e-01
3.815567195415496826e-01
3.798306584358215332e-01
3.796614408493041992e-01
3.792886137962341309e-01
3.792054057121276855e-01
3.791439235210418701e-01
3.782097995281219482e-01
3.781400024890899658e-01
3.779335319995880127e-01
3.779054284095764160e-01
3.777644038200378418e-01
3.773362636566162109e-01
3.770197033882141113e-01
3.769496381282806396e-01
3.767471909523010254e-01
3.758871555328369141e-01
3.758172690868377686e-01
3.751679360866546631e-01
3.748426437377929688e-01
3.748333454132080078e-01
3.746286928653717041e-01
3.744482994079589844e-01
3.737398386001586914e-01
3.734053969383239746e-01
3.729095458984375000e-01
3.728997707366943359e-01
3.728991150856018066e-01
3.727862834930419922e-01
3.726555109024047852e-01
3.720224499702453613e-01
3.714689612388610840e-01
3.712357282638549805e-01
3.710500001907348633e-01
3.708265721797943115e-01
3.702979683876037598e-01
3.698177933692932129e-01
3.697857260704040527e-01
3.696442544460296631e-01
3.696174025535583496e-01
3.695383667945861816e-01
3.686650991439819336e-01
3.683989048004150391e-01
3.683207929134368896e-01
3.681288957595825195e-01
3.681170940399169922e-01
3.675879240036010742e-01
3.672129213809967041e-01
3.669139146804809570e-01
3.667603135108947754e-01
3.665367662906646729e-01
3.665114045143127441e-01
3.660981059074401855e-01
3.658812046051025391e-01
3.653936386108398438e-01
3.652232885360717773e-01
3.651911616325378418e-01
3.649877607822418213e-01
3.649850189685821533e-01
3.649746775627136230e-01
3.642655313014984131e-01
3.642179667949676514e-01
3.630627393722534180e-01
3.630268275737762451e-01
3.622980117797851562e-01
3.620334863662719727e-01
3.618187606334686279e-01
3.617762625217437744e-01
3.614237606525421143e-01
3.614040613174438477e-01
3.608068227767944336e-01
3.606064319610595703e-01
3.598024547100067139e-01
3.595948815345764160e-01
3.595851063728332520e-01
3.586627840995788574e-01
3.583906292915344238e-01
3.582274317741394043e-01
3.580114245414733887e-01
3.576792478561401367e-01
3.570474684238433838e-01
3.569779992103576660e-01
3.564748466014862061e-01
3.562048971652984619e-01
3.560922145843505859e-01
3.552190363407135010e-01
3.551150560379028320e-01
3.550038933753967285e-01
3.548460006713867188e-01
3.547726571559906006e-01
3.545525670051574707e-01
3.545101284980773926e-01
3.540692925453186035e-01
3.540375828742980957e-01
3.537983894348144531e-01
3.537723422050476074e-01
3.529616296291351318e-01
3.524405062198638916e-01
3.521120548248291016e-01
3.520088791847229004e-01
3.514932394027709961e-01
3.514605462551116943e-01
3.513178229331970215e-01
3.512917160987854004e-01
3.512223958969116211e-01
3.511464893817901611e-01
3.509255647659301758e-01
3.509034216403961182e-01
3.507433235645294189e-01
3.506389856338500977e-01
3.506072461605072021e-01
3.504867255687713623e-01
3.501682579517364502e-01
3.501542210578918457e-01
3.499569892883300781e-01
3.498389124870300293e-01
3.498174548149108887e-01
3.497579097747802734e-01
3.495975136756896973e-01
3.494925498962402344e-01
3.494780063629150391e-01
3.494088053703308105e-01
3.493602871894836426e-01
3.492604196071624756e-01
3.492113351821899414e-01
3.486270606517791748e-01
3.486151099205017090e-01
3.484225869178771973e-01
3.483728766441345215e-01
3.482935726642608643e-01
3.481062650680541992e-01
3.479718565940856934e-01
3.477265834808349609e-01
3.476907908916473389e-01
3.475776612758636475e-01
3.469584584236145020e-01
3.468915820121765137e-01
3.468376100063323975e-01
3.466545939445495605e-01
3.466104865074157715e-01
3.462570905685424805e-01
3.453502058982849121e-01
3.452404141426086426e-01
3.449889421463012695e-01
3.449323773384094238e-01
3.448199331760406494e-01
3.447475433349609375e-01
3.446949720382690430e-01
3.444754779338836670e-01
3.439476490020751953e-01
3.435645401477813721e-01
3.434156775474548340e-01
3.431775569915771484e-01
3.428540229797363281e-01
3.428053259849548340e-01
3.413122892379760742e-01
3.412023186683654785e-01
3.407503366470336914e-01
3.407493829727172852e-01
3.406274616718292236e-01
3.403069674968719482e-01
3.402658402919769287e-01
3.402591943740844727e-01
3.401884436607360840e-01
3.401075899600982666e-01
3.400447964668273926e-01
3.400365710258483887e-01
3.399689793586730957e-01
3.399334251880645752e-01
3.384186029434204102e-01
3.379796147346496582e-01
3.377476036548614502e-01
3.372083902359008789e-01
3.370536565780639648e-01
3.370404839515686035e-01
3.363926708698272705e-01
3.362879753112792969e-01
3.362450003623962402e-01
3.361809253692626953e-01
3.360345363616943359e-01
3.359384834766387939e-01
3.356015086174011230e-01
3.353031277656555176e-01
3.352373838424682617e-01
3.349049687385559082e-01
3.346029520034790039e-01
3.345683217048645020e-01
3.340820670127868652e-01
3.340175747871398926e-01
3.339824676513671875e-01
3.337460160255432129e-01
3.320035338401794434e-01
3.319560587406158447e-01
3.315536379814147949e-01
3.311905860900878906e-01
3.302258849143981934e-01
3.293341994285583496e-01
3.291321396827697754e-01
3.284929096698760986e-01
3.282267451286315918e-01
3.274803757667541504e-01
3.273990750312805176e-01
3.272687196731567383e-01
3.260635733604431152e-01
3.253726959228515625e-01
3.231944441795349121e-01
3.225466012954711914e-01
3.224301040172576904e-01
3.222391605377197266e-01
3.217710256576538086e-01
3.213605582714080811e-01
3.208147883415222168e-01
3.198183178901672363e-01
3.190392851829528809e-01
3.177631795406341553e-01
3.158777952194213867e-01
3.156054019927978516e-01
3.154550194740295410e-01
3.144897222518920898e-01
3.118766546249389648e-01
3.114184737205505371e-01
3.103137016296386719e-01
3.099159598350524902e-01
3.093305826187133789e-01
3.082934916019439697e-01
3.079785704612731934e-01
3.070734441280364990e-01
3.063143193721771240e-01
3.043787777423858643e-01
3.043745160102844238e-01
3.042891025543212891e-01
3.035042583942413330e-01
3.033389151096343994e-01
3.029659390449523926e-01
3.023097217082977295e-01
2.956572771072387695e-01
2.956262230873107910e-01
2.947904467582702637e-01
2.932593822479248047e-01
2.929129600524902344e-01
2.926392555236816406e-01
2.915859222412109375e-01
2.911871075630187988e-01
2.910364270210266113e-01
2.827461361885070801e-01
2.783093154430389404e-01
2.770870625972747803e-01
2.768217921257019043e-01
2.767107486724853516e-01
2.730233371257781982e-01
2.722878456115722656e-01
2.606307268142700195e-01
2.593825459480285645e-01
2.555467188358306885e-01
2.519799470901489258e-01
2.444362342357635498e-01
2.392817437648773193e-01
2.389924228191375732e-01
2.332088947296142578e-01
2.285286784172058105e-01
2.174915671348571777e-01
2.164299190044403076e-01
2.117591202259063721e-01
1.566602289676666260e-01
1.477191448211669922e-01
1.290114820003509521e-01
