3.422549366950988770e-01
5.691462159156799316e-01
9.020634889602661133e-01
6.467648148536682129e-01
7.699221372604370117e-01
8.040999174118041992e-01
7.477970719337463379e-01
9.525863528251647949e-01
9.493659734725952148e-01
6.759488582611083984e-01
6.688008308410644531e-01
4.422907531261444092e-01
3.444740176200866699e-01
6.997716426849365234e-01
8.411231040954589844e-01
6.821515560150146484e-01
9.014902114868164062e-01
8.207519054412841797e-01
8.586201667785644531e-01
8.774760961532592773e-01
2.968670725822448730e-01
9.678020477294921875e-01
9.897297024726867676e-01
7.138395905494689941e-01
5.597586035728454590e-01
6.893171072006225586e-01
8.027434349060058594e-01
9.740850925445556641e-01
6.933755278587341309e-01
6.092570424079895020e-01
6.017732024192810059e-01
9.246298074722290039e-01
8.835194110870361328e-01
9.632333517074584961e-01
6.915301084518432617e-01
8.701990842819213867e-01
8.757286071777343750e-01
4.180167913436889648e-01
4.590190052986145020e-01
8.488845229148864746e-01
7.199898362159729004e-01
7.072715759277343750e-01
9.604673981666564941e-01
7.437649369239807129e-01
6.807605028152465820e-01
9.128136634826660156e-01
8.812787532806396484e-01
8.173855543136596680e-01
7.120783329010009766e-01
8.580738306045532227e-01
9.081232547760009766e-01
3.274053037166595459e-01
2.833388447761535645e-01
9.395503997802734375e-01
3.485223352909088135e-01
2.825049459934234619e-01
7.795702219009399414e-01
5.676141381263732910e-01
7.064040899276733398e-01
6.734823584556579590e-01
8.491690754890441895e-01
7.225440144538879395e-01
7.590132951736450195e-01
7.604787945747375488e-01
7.224237918853759766e-01
5.208757519721984863e-01
8.991090059280395508e-01
7.749296426773071289e-01
6.398181915283203125e-01
9.499580860137939453e-01
8.782258629798889160e-01
9.567948579788208008e-01
7.113779187202453613e-01
7.231314182281494141e-01
8.917671442031860352e-01
9.089499115943908691e-01
7.084360122680664062e-01
7.014802694320678711e-01
6.486741304397583008e-01
3.805013298988342285e-01
3.137035667896270752e-01
5.012361407279968262e-01
6.175054311752319336e-01
4.475448429584503174e-01
8.069242238998413086e-01
7.998808622360229492e-01
9.754209518432617188e-01
9.583582878112792969e-01
9.544955492019653320e-01
7.141539454460144043e-01
3.299977779388427734e-01
8.243340849876403809e-01
7.749732732772827148e-01
8.049212694168090820e-01
2.814826369285583496e-01
9.456069469451904297e-01
7.949064373970031738e-01
4.112120270729064941e-01
3.260273039340972900e-01
6.534686088562011719e-01
4.104771614074707031e-01
2.911887764930725098e-01
6.612002849578857422e-01
8.196588754653930664e-01
6.538134813308715820e-01
7.827230691909790039e-01
2.213508486747741699e-01
8.760982751846313477e-01
7.046633362770080566e-01
6.652942895889282227e-01
9.753917455673217773e-01
5.673409104347229004e-01
7.270125150680541992e-01
6.840142607688903809e-01
6.083476543426513672e-01
6.014873981475830078e-01
9.265793561935424805e-01
6.455498933792114258e-01
6.184195876121520996e-01
6.673836112022399902e-01
7.595254182815551758e-01
7.919199466705322266e-01
7.067607045173645020e-01
8.415939807891845703e-01
6.462402343750000000e-01
8.158122301101684570e-01
9.563218355178833008e-01
8.662347197532653809e-01
8.490871191024780273e-01
7.554228305816650391e-01
5.045467019081115723e-01
6.857028007507324219e-01
9.562996029853820801e-01
7.438098788261413574e-01
7.384857535362243652e-01
3.102177977561950684e-01
6.526064872741699219e-01
7.582138180732727051e-01
7.013729810714721680e-01
9.326212406158447266e-01
9.622948169708251953e-01
9.656331539154052734e-01
6.506690382957458496e-01
8.252903223037719727e-01
8.815280795097351074e-01
6.169656515121459961e-01
7.592320442199707031e-01
8.923617005348205566e-01
7.213082313537597656e-01
6.057754158973693848e-01
7.086029648780822754e-01
9.179265499114990234e-01
9.557117223739624023e-01
8.564634323120117188e-01
2.988610267639160156e-01
9.475530982017517090e-01
9.458872079849243164e-01
5.979993343353271484e-01
7.547063827514648438e-01
9.659665822982788086e-01
9.470673799514770508e-01
6.939781904220581055e-01
6.791763305664062500e-01
9.605867862701416016e-01
4.786930084228515625e-01
4.080725312232971191e-01
7.557100057601928711e-01
7.902445197105407715e-01
5.324290990829467773e-01
3.453994691371917725e-01
6.660524606704711914e-01
2.719296216964721680e-01
7.915644645690917969e-01
8.409141302108764648e-01
6.994403600692749023e-01
6.518059372901916504e-01
6.576390862464904785e-01
6.216800808906555176e-01
6.583921909332275391e-01
9.710470438003540039e-01
8.613795042037963867e-01
6.854555010795593262e-01
6.709057688713073730e-01
7.275809049606323242e-01
6.394267082214355469e-01
6.140120029449462891e-01
4.162414669990539551e-01
4.830607175827026367e-01
6.492868065834045410e-01
8.134739398956298828e-01
5.837658643722534180e-01
9.018391370773315430e-01
6.238033771514892578e-01
6.617823839187622070e-01
9.906922578811645508e-01
5.592564344406127930e-01
9.137676954269409180e-01
6.643540859222412109e-01
9.816617965698242188e-01
8.476967215538024902e-01
9.310659170150756836e-01
5.202791690826416016e-01
9.760402441024780273e-01
3.244047164916992188e-01
9.246351122856140137e-01
7.904902100563049316e-01
6.239622235298156738e-01
6.740245819091796875e-01
5.631383061408996582e-01
8.181875944137573242e-01
9.455941319465637207e-01
2.904092371463775635e-01
7.788895964622497559e-01
4.143836796283721924e-01
9.890056252479553223e-01
7.566682696342468262e-01
7.264346480369567871e-01
2.354631423950195312e-01
9.635004997253417969e-01
6.818348169326782227e-01
3.046865463256835938e-01
6.818255782127380371e-01
6.753265857696533203e-01
9.523354172706604004e-01
3.051732480525970459e-01
9.686864018440246582e-01
7.640229463577270508e-01
6.875386238098144531e-01
9.640180468559265137e-01
7.261558175086975098e-01
7.156013250350952148e-01
3.114157021045684814e-01
3.405160307884216309e-01
6.399428844451904297e-01
9.370353817939758301e-01
9.926041364669799805e-01
6.822637319564819336e-01
6.393109560012817383e-01
9.624249935150146484e-01
7.847907543182373047e-01
6.086811423301696777e-01
6.968361139297485352e-01
8.104487657546997070e-01
6.717054843902587891e-01
9.723223447799682617e-01
7.506754994392395020e-01
5.190821290016174316e-01
1.694922149181365967e-01
6.541440486907958984e-01
2.973590493202209473e-01
5.336278676986694336e-01
8.566451668739318848e-01
6.379353404045104980e-01
6.304359436035156250e-01
5.687330365180969238e-01
3.259274065494537354e-01
9.608135223388671875e-01
9.273408651351928711e-01
9.695599079132080078e-01
2.131298780441284180e-01
9.776088595390319824e-01
5.318540930747985840e-01
3.173623383045196533e-01
2.657047510147094727e-01
5.296940803527832031e-01
9.572798013687133789e-01
5.316319465637207031e-01
1.525056362152099609e-01
9.326537251472473145e-01
8.347592949867248535e-01
2.802855372428894043e-01
3.337226510047912598e-01
2.547704279422760010e-01
2.848649919033050537e-01
7.286553978919982910e-01
7.627021074295043945e-01
7.335741519927978516e-01
9.556145668029785156e-01
6.008817553520202637e-01
9.696974754333496094e-01
7.092412710189819336e-01
9.922138452529907227e-01
9.627808332443237305e-01
9.050141572952270508e-01
9.848493337631225586e-01
9.782087802886962891e-01
9.668761491775512695e-01
6.274552345275878906e-01
7.128900885581970215e-01
3.359854221343994141e-01
3.987027406692504883e-01
3.681328296661376953e-01
4.954479038715362549e-01
9.693331718444824219e-01
3.441748023033142090e-01
4.620449542999267578e-01
3.063299059867858887e-01
5.838637948036193848e-01
7.252991795539855957e-01
8.053089380264282227e-01
6.926727890968322754e-01
6.317262053489685059e-01
8.849964141845703125e-01
3.349006474018096924e-01
4.561925828456878662e-01
6.427847146987915039e-01
8.195791244506835938e-01
2.672136425971984863e-01
9.900949001312255859e-01
6.843745112419128418e-01
7.066379785537719727e-01
7.859162688255310059e-01
6.861959695816040039e-01
9.528048634529113770e-01
7.510768771171569824e-01
7.176455855369567871e-01
8.153443336486816406e-01
8.677264451980590820e-01
4.495369493961334229e-01
9.479031562805175781e-01
4.789606332778930664e-01
8.567711114883422852e-01
9.486334323883056641e-01
7.450574040412902832e-01
5.545104742050170898e-01
8.380263447761535645e-01
6.832686662673950195e-01
6.967682242393493652e-01
9.242527484893798828e-01
9.299106597900390625e-01
5.763164758682250977e-01
9.236207008361816406e-01
9.234206676483154297e-01
8.052138090133666992e-01
7.547708749771118164e-01
5.680494904518127441e-01
8.895231485366821289e-01
8.847085833549499512e-01
9.077973365783691406e-01
9.391250610351562500e-01
8.940845727920532227e-01
3.102278113365173340e-01
6.850122809410095215e-01
2.851252555847167969e-01
8.199755549430847168e-01
3.980863690376281738e-01
7.275804877281188965e-01
7.179090976715087891e-01
4.935247302055358887e-01
3.293432593345642090e-01
6.868976354598999023e-01
7.557982206344604492e-01
9.584203958511352539e-01
9.384845495223999023e-01
2.732464671134948730e-01
3.989451825618743896e-01
9.689401984214782715e-01
8.750317096710205078e-01
8.000004291534423828e-01
7.671006917953491211e-01
4.845333397388458252e-01
5.467941761016845703e-01
2.501995265483856201e-01
7.206958532333374023e-01
9.352480769157409668e-01
7.273869514465332031e-01
5.603325366973876953e-01
9.541683793067932129e-01
7.074496150016784668e-01
9.445667862892150879e-01
7.081999778747558594e-01
7.104530334472656250e-01
8.218629956245422363e-01
9.726289510726928711e-01
3.110339343547821045e-01
9.777183532714843750e-01
7.177239060401916504e-01
4.337455034255981445e-01
7.081016898155212402e-01
8.883308172225952148e-01
6.635149121284484863e-01
3.090463876724243164e-01
5.849615335464477539e-01
9.927179217338562012e-01
9.467973709106445312e-01
9.475476741790771484e-01
8.429175615310668945e-01
3.058728575706481934e-01
6.683881878852844238e-01
3.409013748168945312e-01
6.964697837829589844e-01
8.252769708633422852e-01
6.846066713333129883e-01
6.595773696899414062e-01
8.608030080795288086e-01
7.106043100357055664e-01
3.051270246505737305e-01
6.699757575988769531e-01
6.594350934028625488e-01
6.762846708297729492e-01
3.199707567691802979e-01
6.832532882690429688e-01
5.681475400924682617e-01
8.631403446197509766e-01
8.645008206367492676e-01
9.288758635520935059e-01
9.566477537155151367e-01
2.885331511497497559e-01
6.873321533203125000e-01
6.761295795440673828e-01
9.421420097351074219e-01
5.152465701103210449e-01
6.740256547927856445e-01
6.595574617385864258e-01
7.137845754623413086e-01
9.232987165451049805e-01
5.260668992996215820e-01
5.577373504638671875e-01
2.497180104255676270e-01
9.560547471046447754e-01
5.067153573036193848e-01
6.699535846710205078e-01
4.770734012126922607e-01
7.045276761054992676e-01
7.986350059509277344e-01
2.487590610980987549e-01
7.464880347251892090e-01
4.511349797248840332e-01
7.531640529632568359e-01
9.142807722091674805e-01
9.668115377426147461e-01
3.537688851356506348e-01
3.571959137916564941e-01
2.327380180358886719e-01
3.585197925567626953e-01
2.148323655128479004e-01
9.755270481109619141e-01
3.012493848800659180e-01
1.827684044837951660e-01
9.893338680267333984e-01
2.362884879112243652e-01
7.182422280311584473e-01
6.389125585556030273e-01
9.087872505187988281e-01
7.467589378356933594e-01
9.777654409408569336e-01
3.495572209358215332e-01
9.799463748931884766e-01
3.311647176742553711e-01
6.805560588836669922e-01
7.137662172317504883e-01
2.890231609344482422e-01
8.809052705764770508e-01
9.286077022552490234e-01
4.661467969417572021e-01
5.659734010696411133e-01
3.281342387199401855e-01
2.864805161952972412e-01
4.441864788532257080e-01
5.522668957710266113e-01
7.676535844802856445e-01
2.308599650859832764e-01
2.549147009849548340e-01
7.765177488327026367e-01
6.659704446792602539e-01
6.767493486404418945e-01
9.411269426345825195e-01
9.452003240585327148e-01
2.327227294445037842e-01
7.023934721946716309e-01
9.321192502975463867e-01
6.859769821166992188e-01
8.456338644027709961e-01
8.900045752525329590e-01
7.791703939437866211e-01
9.748593568801879883e-01
7.836134433746337891e-01
8.179923295974731445e-01
6.961655020713806152e-01
5.942343473434448242e-01
6.854130625724792480e-01
3.371745347976684570e-01
5.598144531250000000e-01
9.671449661254882812e-01
8.607206940650939941e-01
9.515390396118164062e-01
7.553213834762573242e-01
7.548050880432128906e-01
6.796160936355590820e-01
6.999718546867370605e-01
7.016298174858093262e-01
8.245148658752441406e-01
9.788446426391601562e-01
3.404564857482910156e-01
8.373873233795166016e-01
8.481780886650085449e-01
7.291904091835021973e-01
7.242944836616516113e-01
2.806091904640197754e-01
7.013841867446899414e-01
7.751664519309997559e-01
4.061516523361206055e-01
8.342619538307189941e-01
7.221495509147644043e-01
9.735429286956787109e-01
9.685791730880737305e-01
7.260080575942993164e-01
7.953585386276245117e-01
6.198549270629882812e-01
7.418024539947509766e-01
2.950623035430908203e-01
9.440577626228332520e-01
7.353389859199523926e-01
6.930695772171020508e-01
3.688357472419738770e-01
9.147837162017822266e-01
9.447532296180725098e-01
9.667741060256958008e-01
9.005108475685119629e-01
8.684928417205810547e-01
3.547399640083312988e-01
6.752280592918395996e-01
7.919231653213500977e-01
7.376922965049743652e-01
8.876211047172546387e-01
2.969145774841308594e-01
9.766506552696228027e-01
3.447413444519042969e-01
6.440134048461914062e-01
7.190407514572143555e-01
7.367528676986694336e-01
6.316041350364685059e-01
8.877061009407043457e-01
9.451681375503540039e-01
6.614913344383239746e-01
9.518267512321472168e-01
9.391555190086364746e-01
3.213424682617187500e-01
3.080126941204071045e-01
6.704094409942626953e-01
9.164750576019287109e-01
3.193533420562744141e-01
8.735869526863098145e-01
6.039582490921020508e-01
6.346397399902343750e-01
7.434321045875549316e-01
4.586992561817169189e-01
8.258668184280395508e-01
9.579254388809204102e-01
7.060868144035339355e-01
7.106657028198242188e-01
7.940611839294433594e-01
6.802184581756591797e-01
9.189643859863281250e-01
8.182350397109985352e-01
6.656080484390258789e-01
7.926864027976989746e-01
8.221759200096130371e-01
6.934432387351989746e-01
6.748057603836059570e-01
4.280169606208801270e-01
5.271537899971008301e-01
9.357810020446777344e-01
7.581384778022766113e-01
7.826305627822875977e-01
5.659903883934020996e-01
7.568151354789733887e-01
3.055489957332611084e-01
9.344433546066284180e-01
5.838008522987365723e-01
8.669353723526000977e-01
8.283495903015136719e-01
3.303242623805999756e-01
9.368696808815002441e-01
8.982245922088623047e-01
8.837361335754394531e-01
9.611706733703613281e-01
9.496494531631469727e-01
3.806891441345214844e-01
7.181438207626342773e-01
8.447035551071166992e-01
8.258485198020935059e-01
9.491137862205505371e-01
9.585148096084594727e-01
7.316879034042358398e-01
9.416814446449279785e-01
9.642454385757446289e-01
6.346752643585205078e-01
6.848274469375610352e-01
5.345640778541564941e-01
5.257045626640319824e-01
8.306101560592651367e-01
5.278175473213195801e-01
6.423553228378295898e-01
8.410574197769165039e-01
7.369194030761718750e-01
9.583554863929748535e-01
6.904888749122619629e-01
2.924030423164367676e-01
7.597637176513671875e-01
7.326584458351135254e-01
9.412841796875000000e-01
8.800733685493469238e-01
9.575870037078857422e-01
5.456075072288513184e-01
9.480746984481811523e-01
9.457480907440185547e-01
6.382263898849487305e-01
6.503798365592956543e-01
5.980116128921508789e-01
3.596428334712982178e-01
7.208462357521057129e-01
9.204585552215576172e-01
9.298067092895507812e-01
8.807149529457092285e-01
9.226659536361694336e-01
2.582361102104187012e-01
9.478448629379272461e-01
4.359820485115051270e-01
3.673647046089172363e-01
6.674930453300476074e-01
7.520834207534790039e-01
7.576382160186767578e-01
8.876519203186035156e-01
9.549701213836669922e-01
9.612463712692260742e-01
7.606774568557739258e-01
2.621994018554687500e-01
7.436304688453674316e-01
9.257813096046447754e-01
7.999874353408813477e-01
9.676777124404907227e-01
7.121421694755554199e-01
8.015037775039672852e-01
7.528944015502929688e-01
8.008579611778259277e-01
6.867163181304931641e-01
8.498163223266601562e-01
9.356750845909118652e-01
8.725378513336181641e-01
4.917504489421844482e-01
9.096686840057373047e-01
6.259670853614807129e-01
9.367200732231140137e-01
8.790105581283569336e-01
7.549705505371093750e-01
2.831942737102508545e-01
9.696412086486816406e-01
8.004559278488159180e-01
9.396350979804992676e-01
8.672486543655395508e-01
2.757252454757690430e-01
9.660124182701110840e-01
9.455087184906005859e-01
9.264737367630004883e-01
9.650926589965820312e-01
4.585843384265899658e-01
7.662870883941650391e-01
6.932985782623291016e-01
9.054831266403198242e-01
4.514471590518951416e-01
7.475568056106567383e-01
7.244561314582824707e-01
3.031271100044250488e-01
9.406116008758544922e-01
9.455330371856689453e-01
6.969535946846008301e-01
9.436594247817993164e-01
6.567954421043395996e-01
3.015692830085754395e-01
7.092757821083068848e-01
6.811175942420959473e-01
6.808080077171325684e-01
4.509149193763732910e-01
5.128976106643676758e-01
7.597144842147827148e-01
6.538185477256774902e-01
8.143887519836425781e-01
7.045725584030151367e-01
3.614176511764526367e-01
3.146155774593353271e-01
2.696097195148468018e-01
6.436176300048828125e-01
3.389035761356353760e-01
9.660698175430297852e-01
3.643150031566619873e-01
9.901170730590820312e-01
6.657547950744628906e-01
2.827536463737487793e-01
6.747608780860900879e-01
2.374335825443267822e-01
2.262078523635864258e-01
3.024565577507019043e-01
3.452284634113311768e-01
3.334864974021911621e-01
3.020077347755432129e-01
9.685082435607910156e-01
2.540298700332641602e-01
3.459259271621704102e-01
7.140400409698486328e-01
8.792990446090698242e-01
8.688253164291381836e-01
8.610309362411499023e-01
7.064979076385498047e-01
6.944949626922607422e-01
6.636429429054260254e-01
6.089240312576293945e-01
5.050489306449890137e-01
5.597546696662902832e-01
8.953410983085632324e-01
7.919021844863891602e-01
7.305791378021240234e-01
6.610643267631530762e-01
2.867199182510375977e-01
3.691412806510925293e-01
5.819262266159057617e-01
4.766163527965545654e-01
6.545964479446411133e-01
3.348481655120849609e-01
2.445507645606994629e-01
9.578202962875366211e-01
3.433155417442321777e-01
2.650088667869567871e-01
3.564181327819824219e-01
9.854500889778137207e-01
4.066998660564422607e-01
2.530086636543273926e-01
9.876941442489624023e-01
3.445484042167663574e-01
2.898650765419006348e-01
3.244848847389221191e-01
3.479205071926116943e-01
2.385082840919494629e-01
2.121710479259490967e-01
3.437789976596832275e-01
4.946485757827758789e-01
4.557110965251922607e-01
7.780594825744628906e-01
9.548534154891967773e-01
4.074832797050476074e-01
3.160942792892456055e-01
5.731615424156188965e-01
3.370094895362854004e-01
9.557524919509887695e-01
3.554318547248840332e-01
6.981247067451477051e-01
6.452356576919555664e-01
9.536517858505249023e-01
6.307776570320129395e-01
6.821016073226928711e-01
7.887182235717773438e-01
6.593022346496582031e-01
8.118423223495483398e-01
8.005405664443969727e-01
9.036093354225158691e-01
4.798797369003295898e-01
6.715129017829895020e-01
6.317531466484069824e-01
6.761780977249145508e-01
5.920776128768920898e-01
1.446860134601593018e-01
6.327257156372070312e-01
6.972031593322753906e-01
5.949082374572753906e-01
3.211645781993865967e-01
6.676154732704162598e-01
9.283843040466308594e-01
8.908444643020629883e-01
2.735751271247863770e-01
3.878780901432037354e-01
9.396939873695373535e-01
2.257187664508819580e-01
8.083527088165283203e-01
9.133934974670410156e-01
9.883629679679870605e-01
3.847154974937438965e-01
5.476130843162536621e-01
6.672059893608093262e-01
6.593867540359497070e-01
6.481425762176513672e-01
8.821929693222045898e-01
9.586191773414611816e-01
6.060122847557067871e-01
6.437734961509704590e-01
3.207591772079467773e-01
2.262420356273651123e-01
2.480958104133605957e-01
6.365169882774353027e-01
9.508489966392517090e-01
6.327415704727172852e-01
4.909687936305999756e-01
7.068632841110229492e-01
3.258159160614013672e-01
3.199932277202606201e-01
4.257886111736297607e-01
7.524438500404357910e-01
3.718063831329345703e-01
2.835408449172973633e-01
2.491070032119750977e-01
7.384537458419799805e-01
2.840447425842285156e-01
9.165180921554565430e-01
6.475484967231750488e-01
6.115851402282714844e-01
9.314414262771606445e-01
7.153992652893066406e-01
8.855415582656860352e-01
5.682396888732910156e-01
7.435659170150756836e-01
4.215831756591796875e-01
4.740713834762573242e-01
4.584352672100067139e-01
6.773343682289123535e-01
8.494025468826293945e-01
7.348331809043884277e-01
9.757450819015502930e-01
6.394572854042053223e-01
2.993380427360534668e-01
8.669535517692565918e-01
4.692318737506866455e-01
8.137387037277221680e-01
7.744678258895874023e-01
6.725535392761230469e-01
8.024665117263793945e-01
5.353576540946960449e-01
3.006078004837036133e-01
9.625426530838012695e-01
9.410816431045532227e-01
6.662044525146484375e-01
5.218713879585266113e-01
6.076215505599975586e-01
6.130495071411132812e-01
7.199151515960693359e-01
2.546818256378173828e-01
3.224458694458007812e-01
6.816791892051696777e-01
5.117102861404418945e-01
7.582014799118041992e-01
9.717118740081787109e-01
5.742564797401428223e-01
5.801246762275695801e-01
9.535229206085205078e-01
5.656830072402954102e-01
9.446511268615722656e-01
9.512543082237243652e-01
6.012679934501647949e-01
6.270589828491210938e-01
3.078266978263854980e-01
8.901945352554321289e-01
4.215750694274902344e-01
2.691001296043395996e-01
3.250125050544738770e-01
9.779642820358276367e-01
3.567142486572265625e-01
5.440515279769897461e-01
2.822258472442626953e-01
2.388104796409606934e-01
3.631203770637512207e-01
2.055833637714385986e-01
6.576605439186096191e-01
3.882438540458679199e-01
9.717172384262084961e-01
2.704659402370452881e-01
7.225252985954284668e-01
2.848672270774841309e-01
8.118223547935485840e-01
4.321324825286865234e-01
2.737361788749694824e-01
2.921933531761169434e-01
3.762368559837341309e-01
8.699433803558349609e-01
2.705208063125610352e-01
9.449143409729003906e-01
6.970031261444091797e-01
9.611128568649291992e-01
3.184971213340759277e-01
9.625212550163269043e-01
3.054297566413879395e-01
7.727524042129516602e-01
4.967414736747741699e-01
2.701497077941894531e-01
7.813659906387329102e-01
3.337323665618896484e-01
2.455953359603881836e-01
6.208627820014953613e-01
5.823981761932373047e-01
9.421243071556091309e-01
2.861145138740539551e-01
2.505896687507629395e-01
2.403612434864044189e-01
8.143569231033325195e-01
7.258471250534057617e-01
9.523066282272338867e-01
6.631639003753662109e-01
3.526061177253723145e-01
9.375715255737304688e-01
6.125943660736083984e-01
6.119099855422973633e-01
5.566536188125610352e-01
2.514091730117797852e-01
9.903669357299804688e-01
2.607226967811584473e-01
5.172714591026306152e-01
9.736702442169189453e-01
2.922745347023010254e-01
8.285841941833496094e-01
4.278753399848937988e-01
3.704636096954345703e-01
7.305041551589965820e-01
9.486268162727355957e-01
8.016799092292785645e-01
7.348448038101196289e-01
2.689110636711120605e-01
5.473734736442565918e-01
9.745095968246459961e-01
6.687248349189758301e-01
8.157413601875305176e-01
2.647545039653778076e-01
8.424953818321228027e-01
7.112719416618347168e-01
9.457982182502746582e-01
8.839151859283447266e-01
6.280800104141235352e-01
6.376920342445373535e-01
3.239036798477172852e-01
2.242579758167266846e-01
9.724334478378295898e-01
6.665965914726257324e-01
7.530380487442016602e-01
6.924288272857666016e-01
6.364855170249938965e-01
9.725353717803955078e-01
2.320276796817779541e-01
7.550199031829833984e-01
8.449370861053466797e-01
9.734712839126586914e-01
2.262817025184631348e-01
2.991389930248260498e-01
4.538246691226959229e-01
2.754305303096771240e-01
3.953162431716918945e-01
9.560457468032836914e-01
2.570237517356872559e-01
1.957169771194458008e-01
9.605783224105834961e-01
6.651058197021484375e-01
2.529034018516540527e-01
4.019691944122314453e-01
5.604439973831176758e-01
6.923831105232238770e-01
2.744009494781494141e-01
9.333021640777587891e-01
8.987143635749816895e-01
3.128695487976074219e-01
9.775649309158325195e-01
9.531468152999877930e-01
2.786069512367248535e-01
2.272009551525115967e-01
9.872191548347473145e-01
9.749752283096313477e-01
3.752950429916381836e-01
9.870418906211853027e-01
2.214417457580566406e-01
2.246614992618560791e-01
6.515891551971435547e-01
3.568473458290100098e-01
3.297322988510131836e-01
3.468807637691497803e-01
2.977229356765747070e-01
9.654006958007812500e-01
2.491965293884277344e-01
2.653844952583312988e-01
2.439221739768981934e-01
8.314278125762939453e-01
9.504117965698242188e-01
7.747523784637451172e-01
9.722039103507995605e-01
9.693499803543090820e-01
4.284755885601043701e-01
3.440923988819122314e-01
6.345813870429992676e-01
2.765612602233886719e-01
9.637644290924072266e-01
9.570520520210266113e-01
6.309295892715454102e-01
3.096544146537780762e-01
2.788936495780944824e-01
9.885855913162231445e-01
3.443225026130676270e-01
9.647996425628662109e-01
2.854924201965332031e-01
9.544275999069213867e-01
9.577305316925048828e-01
2.906184494495391846e-01
9.872716665267944336e-01
7.125790119171142578e-01
8.491334319114685059e-01
7.863416671752929688e-01
2.726604342460632324e-01
3.783928453922271729e-01
9.877468347549438477e-01
6.069789528846740723e-01
6.660925149917602539e-01
3.843881487846374512e-01
9.896590709686279297e-01
3.353718519210815430e-01
7.821316123008728027e-01
6.002228260040283203e-01
4.960954785346984863e-01
9.597515463829040527e-01
9.900417327880859375e-01
2.949439287185668945e-01
4.188840687274932861e-01
3.548272550106048584e-01
9.831000566482543945e-01
8.183442950248718262e-01
8.775102496147155762e-01
6.016263365745544434e-01
9.241251945495605469e-01
2.283779382705688477e-01
3.168168663978576660e-01
7.753733396530151367e-01
9.713976383209228516e-01
6.741304993629455566e-01
5.320436358451843262e-01
6.913890838623046875e-01
8.236265778541564941e-01
8.093819022178649902e-01
8.522464036941528320e-01
9.770538806915283203e-01
6.685543656349182129e-01
6.733058094978332520e-01
9.680458307266235352e-01
9.219983816146850586e-01
6.488350629806518555e-01
5.764307975769042969e-01
5.802151560783386230e-01
2.985785007476806641e-01
6.935092210769653320e-01
9.535622000694274902e-01
8.803997039794921875e-01
5.017154812812805176e-01
6.826828122138977051e-01
2.634044885635375977e-01
9.933790564537048340e-01
3.327917456626892090e-01
3.195778727531433105e-01
2.387377619743347168e-01
9.716761112213134766e-01
9.605914354324340820e-01
3.027524948120117188e-01
6.722820401191711426e-01
7.042000889778137207e-01
3.649816513061523438e-01
9.625597000122070312e-01
8.329290151596069336e-01
5.631957650184631348e-01
3.627390861511230469e-01
8.751121759414672852e-01
6.791225075721740723e-01
8.643705844879150391e-01
8.786128759384155273e-01
5.634961724281311035e-01
5.120055675506591797e-01
7.765707969665527344e-01
4.585989117622375488e-01
9.761554002761840820e-01
2.748150229454040527e-01
7.112545371055603027e-01
6.355271339416503906e-01
2.433011233806610107e-01
3.320240378379821777e-01
3.699086904525756836e-01
8.813018798828125000e-01
9.546606540679931641e-01
7.518541216850280762e-01
2.519475817680358887e-01
9.907819032669067383e-01
7.775243520736694336e-01
9.097623229026794434e-01
4.208999872207641602e-01
6.362165212631225586e-01
6.793012022972106934e-01
8.885508775711059570e-01
8.532857894897460938e-01
6.096544265747070312e-01
6.569484472274780273e-01
4.000955224037170410e-01
8.609640598297119141e-01
9.849321246147155762e-01
6.429616808891296387e-01
2.881403565406799316e-01
7.192068099975585938e-01
5.130115151405334473e-01
8.417553305625915527e-01
5.076820850372314453e-01
9.166809320449829102e-01
6.735205054283142090e-01
6.289553642272949219e-01
8.334950804710388184e-01
9.910833835601806641e-01
8.232306241989135742e-01
6.348912119865417480e-01
5.277419090270996094e-01
8.809756040573120117e-01
2.552775144577026367e-01
6.852156519889831543e-01
9.915313720703125000e-01
2.833605706691741943e-01
6.434174180030822754e-01
4.001130461692810059e-01
9.749402999877929688e-01
6.561313867568969727e-01
2.932646870613098145e-01
6.146180033683776855e-01
4.065347313880920410e-01
6.664097905158996582e-01
3.279166221618652344e-01
3.043062686920166016e-01
3.872511982917785645e-01
5.044364929199218750e-01
3.648902475833892822e-01
7.750011086463928223e-01
4.002532958984375000e-01
4.139626324176788330e-01
9.280496835708618164e-01
6.984314918518066406e-01
6.890937685966491699e-01
6.196905374526977539e-01
5.990613102912902832e-01
8.177053928375244141e-01
6.887571811676025391e-01
9.488827586174011230e-01
3.001471757888793945e-01
6.540272235870361328e-01
8.462320566177368164e-01
2.744154930114746094e-01
6.441999673843383789e-01
3.829811215400695801e-01
5.966276526451110840e-01
7.123074531555175781e-01
7.750603556632995605e-01
9.660066366195678711e-01
2.906476259231567383e-01
6.236673593521118164e-01
9.889090061187744141e-01
4.090822935104370117e-01
9.719050526618957520e-01
9.722957611083984375e-01
3.779307007789611816e-01
3.483863174915313721e-01
4.356585144996643066e-01
9.911737442016601562e-01
3.858251571655273438e-01
9.739573001861572266e-01
2.641091346740722656e-01
4.873279035091400146e-01
6.467995047569274902e-01
9.704284071922302246e-01
8.571765422821044922e-01
6.274151802062988281e-01
2.167885601520538330e-01
4.082875847816467285e-01
2.667628824710845947e-01
3.578961491584777832e-01
2.766003906726837158e-01
7.535749673843383789e-01
3.817083835601806641e-01
9.392678737640380859e-01
6.494666337966918945e-01
2.881904244422912598e-01
3.124377131462097168e-01
5.453135967254638672e-01
8.517928123474121094e-01
2.829882502555847168e-01
3.515270948410034180e-01
6.865205168724060059e-01
9.879471659660339355e-01
9.639474153518676758e-01
6.768788099288940430e-01
7.280608415603637695e-01
9.551799893379211426e-01
5.242171287536621094e-01
2.523843646049499512e-01
2.676539719104766846e-01
8.414450883865356445e-01
9.907323122024536133e-01
7.199873924255371094e-01
2.904716730117797852e-01
6.152158379554748535e-01
6.954690814018249512e-01
7.483779191970825195e-01
9.512560963630676270e-01
8.372030258178710938e-01
9.525515437126159668e-01
3.460792899131774902e-01
9.776431322097778320e-01
4.685322046279907227e-01
3.224661350250244141e-01
9.673268795013427734e-01
9.631626605987548828e-01
4.621930420398712158e-01
7.397042512893676758e-01
5.096007585525512695e-01
6.889035701751708984e-01
9.243564009666442871e-01
4.739176034927368164e-01
9.577478170394897461e-01
9.708187580108642578e-01
5.984939336776733398e-01
9.561653137207031250e-01
6.392811536788940430e-01
5.886657238006591797e-01
6.367278099060058594e-01
6.299851536750793457e-01
9.578668475151062012e-01
2.616575062274932861e-01
4.632061123847961426e-01
8.116792440414428711e-01
1.368833184242248535e-01
6.735641956329345703e-01
5.424378514289855957e-01
8.002096414566040039e-01
9.522266387939453125e-01
7.284263968467712402e-01
6.750886440277099609e-01
7.413638830184936523e-01
7.169070243835449219e-01
7.155614495277404785e-01
7.057358026504516602e-01
6.343924999237060547e-01
3.757281303405761719e-01
4.874658584594726562e-01
9.613303542137145996e-01
9.898107051849365234e-01
5.365607142448425293e-01
6.767122149467468262e-01
8.011360168457031250e-01
6.163088679313659668e-01
3.798320293426513672e-01
6.865394115447998047e-01
6.875923871994018555e-01
4.055315852165222168e-01
4.058764278888702393e-01
8.757174015045166016e-01
3.940995633602142334e-01
9.291814565658569336e-01
6.769113540649414062e-01
4.836640357971191406e-01
8.538258075714111328e-01
9.094054698944091797e-01
9.556857347488403320e-01
6.335217356681823730e-01
6.772917509078979492e-01
9.302584528923034668e-01
3.314190208911895752e-01
6.411663293838500977e-01
3.283762633800506592e-01
4.884063899517059326e-01
5.203257799148559570e-01
7.608079910278320312e-01
7.120616436004638672e-01
5.633178949356079102e-01
4.957304894924163818e-01
6.295597553253173828e-01
7.037612199783325195e-01
5.662593245506286621e-01
7.700263261795043945e-01
8.420463800430297852e-01
6.920888423919677734e-01
5.175140500068664551e-01
7.650245428085327148e-01
9.796162247657775879e-01
3.814882934093475342e-01
9.000656604766845703e-01
9.530470371246337891e-01
9.528166055679321289e-01
6.380541324615478516e-01
5.901687145233154297e-01
7.752572894096374512e-01
9.679745435714721680e-01
8.185412883758544922e-01
4.324401617050170898e-01
9.737052917480468750e-01
3.163926005363464355e-01
9.686905145645141602e-01
2.939782440662384033e-01
2.449232935905456543e-01
9.602746963500976562e-01
9.802012443542480469e-01
9.650675654411315918e-01
1.971706449985504150e-01
2.058254480361938477e-01
2.832859754562377930e-01
9.769493341445922852e-01
6.777046918869018555e-01
2.702193260192871094e-01
3.468363881111145020e-01
2.730737924575805664e-01
5.590359568595886230e-01
2.438369989395141602e-01
3.267961740493774414e-01
2.788810729980468750e-01
9.904366731643676758e-01
3.413248062133789062e-01
2.286381721496582031e-01
2.852716147899627686e-01
9.673528671264648438e-01
9.824981689453125000e-01
3.651984333992004395e-01
6.693424582481384277e-01
9.187581539154052734e-01
7.157588005065917969e-01
4.745971858501434326e-01
3.625801205635070801e-01
9.750068187713623047e-01
3.329022228717803955e-01
3.338935971260070801e-01
9.701743721961975098e-01
2.836274504661560059e-01
2.432109117507934570e-01
9.673953652381896973e-01
9.588323235511779785e-01
2.137495279312133789e-01
2.149930298328399658e-01
3.786103725433349609e-01
3.861809670925140381e-01
9.584246277809143066e-01
9.887275695800781250e-01
3.437003493309020996e-01
2.822359800338745117e-01
3.371284008026123047e-01
9.574271440505981445e-01
7.035726904869079590e-01
3.210070729255676270e-01
7.263439893722534180e-01
2.520677447319030762e-01
9.628680944442749023e-01
9.634256958961486816e-01
9.878075122833251953e-01
9.870645999908447266e-01
3.150970339775085449e-01
9.908294677734375000e-01
9.601101875305175781e-01
7.200099229812622070e-01
3.171777129173278809e-01
2.848176360130310059e-01
5.330957174301147461e-01
3.318045735359191895e-01
2.471148371696472168e-01
3.162434101104736328e-01
2.637950181961059570e-01
4.259757101535797119e-01
2.338221371173858643e-01
2.239435911178588867e-01
2.236107885837554932e-01
2.236023545265197754e-01
2.242208123207092285e-01
2.181417644023895264e-01
2.235977053642272949e-01
2.279711365699768066e-01
2.256910204887390137e-01
2.372466921806335449e-01
2.227142155170440674e-01
2.144098579883575439e-01
2.532483935356140137e-01
2.236510813236236572e-01
2.236701250076293945e-01
2.373627424240112305e-01
2.236471474170684814e-01
2.376550436019897461e-01
2.288423776626586914e-01
2.201925516128540039e-01
2.236360907554626465e-01
2.296598553657531738e-01
8.634316921234130859e-01
2.934204339981079102e-01
3.666178584098815918e-01
3.482380509376525879e-01
5.035141110420227051e-01
3.877061903476715088e-01
4.466319680213928223e-01
1.987831592559814453e-01
3.887127339839935303e-01
2.766377925872802734e-01
2.268713116645812988e-01
2.235503494739532471e-01
2.267062962055206299e-01
2.430222928524017334e-01
2.235649228096008301e-01
2.572771310806274414e-01
2.922403216361999512e-01
3.325273692607879639e-01
4.204795658588409424e-01
3.109588027000427246e-01
2.232854962348937988e-01
2.238179147243499756e-01
2.428624927997589111e-01
2.280087471008300781e-01
2.238380610942840576e-01
2.237969338893890381e-01
2.237898707389831543e-01
2.242770195007324219e-01
2.238092124462127686e-01
2.329523563385009766e-01
2.238842248916625977e-01
2.263073921203613281e-01
2.267276942729949951e-01
2.229414880275726318e-01
2.238988578319549561e-01
2.275431752204895020e-01
2.153523266315460205e-01
2.249646484851837158e-01
2.238750159740447998e-01
2.243068814277648926e-01
2.426339387893676758e-01
2.256015539169311523e-01
2.237216532230377197e-01
2.271261215209960938e-01
2.132694423198699951e-01
2.236836254596710205e-01
2.236745059490203857e-01
2.190816700458526611e-01
2.245166003704071045e-01
2.268762588500976562e-01
2.237689197063446045e-01
2.242245376110076904e-01
2.187027037143707275e-01
2.350103557109832764e-01
2.205697596073150635e-01
2.237392365932464600e-01
2.249653935432434082e-01
2.237438857555389404e-01
2.339495122432708740e-01
2.240972220897674561e-01
7.177566289901733398e-01
3.101413249969482422e-01
3.109455704689025879e-01
4.708338379859924316e-01
9.406444430351257324e-02
3.386610150337219238e-01
4.811933934688568115e-01
4.128232598304748535e-01
2.810798287391662598e-01
9.566513299942016602e-01
3.391341567039489746e-01
3.038512766361236572e-01
4.130854010581970215e-01
3.508551716804504395e-01
4.242500662803649902e-01
2.294631898403167725e-01
3.117143213748931885e-01
7.270535826683044434e-01
5.023292899131774902e-01
2.605847716331481934e-01
2.260243296623229980e-01
2.968636751174926758e-01
3.648377954959869385e-01
3.076599240303039551e-01
3.343572616577148438e-01
2.673676013946533203e-01
3.294314146041870117e-01
3.006440997123718262e-01
7.060412168502807617e-01
2.573157846927642822e-01
2.664423286914825439e-01
3.882355093955993652e-01
1.945722699165344238e-01
2.565604448318481445e-01
2.425460219383239746e-01
2.725318074226379395e-01
3.135983347892761230e-01
4.217400550842285156e-01
3.854550719261169434e-01
3.883925676345825195e-01
5.413194298744201660e-01
3.947020173072814941e-01
3.155466914176940918e-01
5.395870208740234375e-01
5.531197786331176758e-01
5.206820368766784668e-01
4.387929439544677734e-01
2.794021368026733398e-01
3.041290342807769775e-01
2.785939574241638184e-01
2.888796329498291016e-01
2.563598155975341797e-01
3.278248012065887451e-01
2.805522680282592773e-01
3.268160223960876465e-01
4.298416972160339355e-01
5.899175405502319336e-01
3.435944616794586182e-01
3.897690773010253906e-01
2.780525684356689453e-01
3.727711439132690430e-01
2.731247544288635254e-01
2.482948005199432373e-01
8.533497452735900879e-01
2.618240714073181152e-01
7.731844782829284668e-01
5.926793813705444336e-01
2.644791007041931152e-01
2.912779152393341064e-01
2.370468676090240479e-01
2.777388095855712891e-01
2.698460817337036133e-01
3.153414726257324219e-01
2.629969716072082520e-01
3.486906886100769043e-01
2.826198339462280273e-01
2.683358192443847656e-01
2.932601273059844971e-01
1.856548488140106201e-01
3.561292290687561035e-01
2.729699015617370605e-01
3.192472457885742188e-01
2.964461445808410645e-01
3.878535330295562744e-01
5.819891095161437988e-01
2.818907201290130615e-01
3.086550831794738770e-01
6.247118711471557617e-01
2.377744019031524658e-01
2.742189764976501465e-01
3.257296085357666016e-01
2.769200205802917480e-01
3.245062232017517090e-01
2.832951545715332031e-01
2.486937940120697021e-01
2.337438762187957764e-01
3.394573330879211426e-01
6.030548810958862305e-01
2.521418929100036621e-01
2.994156181812286377e-01
3.030900955200195312e-01
4.837634265422821045e-01
3.914486765861511230e-01
3.088070750236511230e-01
3.232339620590209961e-01
3.490335345268249512e-01
5.323952436447143555e-01
2.802003026008605957e-01
3.070735335350036621e-01
2.655498981475830078e-01
2.595851421356201172e-01
2.407876849174499512e-01
3.228312730789184570e-01
2.551050186157226562e-01
3.750966191291809082e-01
6.182565689086914062e-01
4.584452807903289795e-01
3.006197214126586914e-01
2.802381813526153564e-01
4.625812470912933350e-01
2.570796012878417969e-01
3.206727504730224609e-01
3.200895190238952637e-01
2.922910451889038086e-01
8.412083387374877930e-01
3.786477744579315186e-01
4.313505589962005615e-01
3.522168993949890137e-01
4.524803161621093750e-01
2.776880860328674316e-01
3.267561793327331543e-01
3.606721758842468262e-01
3.310209512710571289e-01
2.728800177574157715e-01
2.484081983566284180e-01
2.867584824562072754e-01
2.632981538772583008e-01
8.614583015441894531e-01
1.337650120258331299e-01
4.604629576206207275e-01
1.954132616519927979e-01
2.803053855895996094e-01
2.533184587955474854e-01
4.010052084922790527e-01
2.617202401161193848e-01
2.882996201515197754e-01
2.194061875343322754e-01
2.976992726325988770e-01
3.860199749469757080e-01
2.929349541664123535e-01
2.252487838268280029e-01
3.055123090744018555e-01
3.397952914237976074e-01
2.488884329795837402e-01
3.495370149612426758e-01
1.954830288887023926e-01
3.845677971839904785e-01
1.944455504417419434e-01
2.972698211669921875e-01
2.965715527534484863e-01
3.101326823234558105e-01
2.240827977657318115e-01
2.202947735786437988e-01
2.240782082080841064e-01
2.285222113132476807e-01
2.325063645839691162e-01
2.274836003780364990e-01
2.296906709671020508e-01
2.525291442871093750e-01
2.240691781044006348e-01
2.240623831748962402e-01
2.241563796997070312e-01
2.274383306503295898e-01
2.275557816028594971e-01
2.333103418350219727e-01
2.272176146507263184e-01
2.185432910919189453e-01
2.315300703048706055e-01
2.217478454113006592e-01
2.633034288883209229e-01
2.203340530395507812e-01
2.958279252052307129e-01
2.239554226398468018e-01
2.239429950714111328e-01
2.319391071796417236e-01
2.155486047267913818e-01
2.347025573253631592e-01
2.309519350528717041e-01
2.103953063488006592e-01
2.239316701889038086e-01
2.262476384639739990e-01
2.221926152706146240e-01
2.369602322578430176e-01
2.262254357337951660e-01
2.240364551544189453e-01
2.249559462070465088e-01
2.396723031997680664e-01
2.239869832992553711e-01
2.239782214164733887e-01
2.240005135536193848e-01
2.239995598793029785e-01
2.267698645591735840e-01
2.954597771167755127e-01
4.121041893959045410e-01
2.393318712711334229e-01
2.509272694587707520e-01
3.778719007968902588e-01
1.446327567100524902e-01
4.227877855300903320e-01
2.052541971206665039e-01
2.028128802776336670e-01
3.274106681346893311e-01
2.994039654731750488e-01
8.210270404815673828e-01
4.148977398872375488e-01
5.141335725784301758e-01
2.625522613525390625e-01
7.627383470535278320e-01
2.556990385055541992e-01
2.430503070354461670e-01
2.762048840522766113e-01
3.315770626068115234e-01
4.219619333744049072e-01
2.567637860774993896e-01
2.459761798381805420e-01
2.450521886348724365e-01
5.478670001029968262e-01
2.241868078708648682e-01
2.279952168464660645e-01
2.405557036399841309e-01
3.766216039657592773e-01
2.181247174739837646e-01
3.639205098152160645e-01
4.306592345237731934e-01
3.036351799964904785e-01
3.771982192993164062e-01
3.292520344257354736e-01
7.614138126373291016e-01
2.760789394378662109e-01
3.785047829151153564e-01
2.958815693855285645e-01
2.992247939109802246e-01
5.263115763664245605e-01
2.662485241889953613e-01
3.627083301544189453e-01
4.903472363948822021e-01
2.809991240501403809e-01
2.279026508331298828e-01
3.882419764995574951e-01
3.124524950981140137e-01
2.245971858501434326e-01
2.447493970394134521e-01
2.454135119915008545e-01
2.600581049919128418e-01
3.401569724082946777e-01
6.660714149475097656e-01
3.536975979804992676e-01
2.769603133201599121e-01
2.270888388156890869e-01
2.827947139739990234e-01
2.359958291053771973e-01
2.993574440479278564e-01
6.252323389053344727e-01
3.456137478351593018e-01
3.292497694492340088e-01
3.182512521743774414e-01
2.455573976039886475e-01
2.402673661708831787e-01
3.451242446899414062e-01
1.700646877288818359e-01
1.681938469409942627e-01
2.203961014747619629e-01
3.997218310832977295e-01
3.114442825317382812e-01
6.938582658767700195e-01
2.743421792984008789e-01
3.459816575050354004e-01
1.983399391174316406e-01
6.302258372306823730e-01
2.869959175586700439e-01
2.443379759788513184e-01
4.207285344600677490e-01
2.541989684104919434e-01
2.485027909278869629e-01
3.986372649669647217e-01
3.372380733489990234e-01
3.342534005641937256e-01
2.649593949317932129e-01
7.891669273376464844e-01
6.504398584365844727e-01
3.224644660949707031e-01
7.323979735374450684e-01
2.316876351833343506e-01
2.779748737812042236e-01
2.598078846931457520e-01
2.575390338897705078e-01
2.613513469696044922e-01
3.733646273612976074e-01
2.865083813667297363e-01
2.973239123821258545e-01
3.026944398880004883e-01
2.686753869056701660e-01
2.891556322574615479e-01
4.356625080108642578e-01
3.125457763671875000e-01
2.355867326259613037e-01
3.399713635444641113e-01
2.547532916069030762e-01
3.201425075531005859e-01
3.451129794120788574e-01
3.546320796012878418e-01
2.582155764102935791e-01
3.115646839141845703e-01
2.798280417919158936e-01
2.795380353927612305e-01
2.854512929916381836e-01
3.308992087841033936e-01
3.723845481872558594e-01
2.242940366268157959e-01
3.167413771152496338e-01
2.535413503646850586e-01
3.650798797607421875e-01
8.249025344848632812e-01
3.061941862106323242e-01
3.728172779083251953e-01
2.963441014289855957e-01
2.721498906612396240e-01
1.852977275848388672e-01
3.350746631622314453e-01
3.441524505615234375e-01
3.487725257873535156e-01
3.387554883956909180e-01
3.218299150466918945e-01
2.612634897232055664e-01
3.456838130950927734e-01
3.582579195499420166e-01
3.138431012630462646e-01
3.326849043369293213e-01
3.031368255615234375e-01
3.006722629070281982e-01
3.198082447052001953e-01
2.897419929504394531e-01
2.927016019821166992e-01
2.236523032188415527e-01
2.271227836608886719e-01
2.935449481010437012e-01
2.287136912345886230e-01
2.587603926658630371e-01
2.251138985157012939e-01
2.245325744152069092e-01
2.288269996643066406e-01
2.219432294368743896e-01
2.240576148033142090e-01
2.682535350322723389e-01
2.766854465007781982e-01
3.964684009552001953e-01
3.458855748176574707e-01
4.125230312347412109e-01
1.824921369552612305e-01
3.503994643688201904e-01
8.924382925033569336e-01
3.557760715484619141e-01
7.340272665023803711e-01
2.199331223964691162e-01
2.931624650955200195e-01
3.700084090232849121e-01
3.120538294315338135e-01
2.800039052963256836e-01
3.328250348567962646e-01
4.773527383804321289e-01
3.383808135986328125e-01
7.364270687103271484e-01
2.604358792304992676e-01
2.667351365089416504e-01
2.536725401878356934e-01
3.496615290641784668e-01
2.989895939826965332e-01
3.323843181133270264e-01
3.322016298770904541e-01
2.977535426616668701e-01
2.381004393100738525e-01
3.162465095520019531e-01
2.849845886230468750e-01
3.467701673507690430e-01
2.156113088130950928e-01
3.797370791435241699e-01
3.629492521286010742e-01
2.030902206897735596e-01
5.965749025344848633e-01
2.955042123794555664e-01
3.226104676723480225e-01
2.379468679428100586e-01
5.746851563453674316e-01
4.419304728507995605e-01
3.008342981338500977e-01
1.940915286540985107e-01
2.798590064048767090e-01
3.414114713668823242e-01
2.263576090335845947e-01
3.840566873550415039e-01
4.079895317554473877e-01
3.321650624275207520e-01
3.366851210594177246e-01
2.606708407402038574e-01
3.007240295410156250e-01
3.331638574600219727e-01
3.054079711437225342e-01
3.799037635326385498e-01
2.758100032806396484e-01
6.276260018348693848e-01
2.902210652828216553e-01
2.201538681983947754e-01
2.598664760589599609e-01
3.357060551643371582e-01
2.738932967185974121e-01
2.688938975334167480e-01
3.420862555503845215e-01
3.967484533786773682e-01
3.617163896560668945e-01
3.239609003067016602e-01
5.967214107513427734e-01
3.874062597751617432e-01
2.751245498657226562e-01
1.797253787517547607e-01
1.968549191951751709e-01
4.119737148284912109e-01
4.742581844329833984e-01
3.499418497085571289e-01
3.400942087173461914e-01
2.176059186458587646e-01
5.447956323623657227e-01
3.182974457740783691e-01
2.341857850551605225e-01
3.165841400623321533e-01
2.663548588752746582e-01
3.501094281673431396e-01
9.539096355438232422e-01
5.072502493858337402e-01
3.469419479370117188e-01
3.460190296173095703e-01
2.775321602821350098e-01
2.909234762191772461e-01
2.409071028232574463e-01
4.128061830997467041e-01
3.146452605724334717e-01
3.832142055034637451e-01
4.346402585506439209e-01
3.625300526618957520e-01
2.907552123069763184e-01
2.569431364536285400e-01
2.412889897823333740e-01
2.543897926807403564e-01
2.023219168186187744e-01
3.240903913974761963e-01
4.831266701221466064e-01
2.980333268642425537e-01
3.687984943389892578e-01
2.487265467643737793e-01
6.124137043952941895e-01
2.440563440322875977e-01
2.165325880050659180e-01
4.864424765110015869e-01
5.519101023674011230e-01
2.349262237548828125e-01
3.757711648941040039e-01
2.856485247611999512e-01
3.238961994647979736e-01
3.336826562881469727e-01
3.095459342002868652e-01
2.696825563907623291e-01
2.245435714721679688e-01
1.995334327220916748e-01
3.201199769973754883e-01
4.133313596248626709e-01
3.365588188171386719e-01
3.672926425933837891e-01
3.476516902446746826e-01
3.967204988002777100e-01
2.306306064128875732e-01
4.137851595878601074e-01
2.255477905273437500e-01
2.916050553321838379e-01
2.311077117919921875e-01
3.426972627639770508e-01
3.484185338020324707e-01
2.198150157928466797e-01
4.818875789642333984e-01
3.332462012767791748e-01
3.329201936721801758e-01
2.508090436458587646e-01
3.779059648513793945e-01
2.451949417591094971e-01
3.183741569519042969e-01
2.943395972251892090e-01
2.982941269874572754e-01
3.315382003784179688e-01
2.484607398509979248e-01
2.186118960380554199e-01
2.943859398365020752e-01
2.724802196025848389e-01
2.921694517135620117e-01
6.110006570816040039e-01
2.380948662757873535e-01
3.141288161277770996e-01
3.041686415672302246e-01
1.974555552005767822e-01
2.545880675315856934e-01
3.046369552612304688e-01
2.329253256320953369e-01
2.723595798015594482e-01
2.678365707397460938e-01
8.741797208786010742e-01
4.178220033645629883e-01
2.686488032341003418e-01
2.793602347373962402e-01
3.188676834106445312e-01
3.006161451339721680e-01
2.862403988838195801e-01
2.938489317893981934e-01
2.710502743721008301e-01
3.153895139694213867e-01
2.362933158874511719e-01
1.914302706718444824e-01
5.934221148490905762e-01
2.468300163745880127e-01
2.262072861194610596e-01
1.861820220947265625e-01
2.724708318710327148e-01
3.631954491138458252e-01
2.301521003246307373e-01
2.674030065536499023e-01
5.260683298110961914e-01
1.737197637557983398e-01
2.907717823982238770e-01
3.005940616130828857e-01
2.891072034835815430e-01
2.660570144653320312e-01
2.313119471073150635e-01
3.209944367408752441e-01
2.937492132186889648e-01
3.564779162406921387e-01
3.611188530921936035e-01
3.116226792335510254e-01
2.791102528572082520e-01
1.218392252922058105e-01
2.496980428695678711e-01
3.717831969261169434e-01
5.631754994392395020e-01
3.069624006748199463e-01
2.367311120033264160e-01
2.505352497100830078e-01
2.323366403579711914e-01
2.132263779640197754e-01
3.925164341926574707e-01
2.905692458152770996e-01
2.420756816864013672e-01
3.438145220279693604e-01
3.292120695114135742e-01
2.549181282520294189e-01
3.040801286697387695e-01
2.232040762901306152e-01
3.341821730136871338e-01
3.567140698432922363e-01
2.576115131378173828e-01
4.306659102439880371e-01
5.680713057518005371e-01
2.933028936386108398e-01
3.324671387672424316e-01
3.062270879745483398e-01
5.191587209701538086e-01
2.687405347824096680e-01
4.570563137531280518e-01
3.195763826370239258e-01
3.401780724525451660e-01
3.901006579399108887e-01
3.652237653732299805e-01
3.141776919364929199e-01
3.819885849952697754e-01
3.233775198459625244e-01
3.035679757595062256e-01
4.362552165985107422e-01
3.317756056785583496e-01
2.691484689712524414e-01
4.399132728576660156e-01
2.719967961311340332e-01
2.636938691139221191e-01
3.599995374679565430e-01
2.312117218971252441e-01
2.336983084678649902e-01
2.359810769557952881e-01
2.339104115962982178e-01
2.391889989376068115e-01
2.335744500160217285e-01
2.335668504238128662e-01
2.634698450565338135e-01
2.307155728340148926e-01
2.361779212951660156e-01
2.513709664344787598e-01
2.828114628791809082e-01
2.665204405784606934e-01
2.893319427967071533e-01
5.973240137100219727e-01
3.940190672874450684e-01
4.745333492755889893e-01
2.339978814125061035e-01
2.259177267551422119e-01
3.751592636108398438e-01
3.724712133407592773e-01
3.329930305480957031e-01
2.753520011901855469e-01
2.756772339344024658e-01
3.195675611495971680e-01
2.427343726158142090e-01
2.093354463577270508e-01
3.668995499610900879e-01
2.327140271663665771e-01
4.422260820865631104e-01
2.815597653388977051e-01
2.291773855686187744e-01
3.939474523067474365e-01
4.600838422775268555e-01
3.257844448089599609e-01
2.672266364097595215e-01
4.798317849636077881e-01
3.042857050895690918e-01
6.561623811721801758e-01
6.788904666900634766e-01
3.218904733657836914e-01
2.739484310150146484e-01
5.430707931518554688e-01
2.983959019184112549e-01
3.191420435905456543e-01
3.737977147102355957e-01
3.093453049659729004e-01
4.221117496490478516e-01
2.916993200778961182e-01
3.448676168918609619e-01
3.712330162525177002e-01
3.565889596939086914e-01
3.373500704765319824e-01
3.125113546848297119e-01
2.587808370590209961e-01
3.835688829421997070e-01
8.288469314575195312e-01
2.782167792320251465e-01
2.308927476406097412e-01
2.796464562416076660e-01
5.271222591400146484e-01
3.402019441127777100e-01
4.186879992485046387e-01
1.871286034584045410e-01
2.707830071449279785e-01
4.227241575717926025e-01
9.273862838745117188e-01
2.799134254455566406e-01
3.779246509075164795e-01
2.483878731727600098e-01
3.295466303825378418e-01
8.659272193908691406e-01
7.449825406074523926e-01
3.429388999938964844e-01
2.818371653556823730e-01
5.924325585365295410e-01
5.354405641555786133e-01
2.630158364772796631e-01
2.317603826522827148e-01
2.459642887115478516e-01
2.307592928409576416e-01
2.364590466022491455e-01
2.341261506080627441e-01
2.319719195365905762e-01
2.317391932010650635e-01
2.925403118133544922e-01
2.668940424919128418e-01
2.493400275707244873e-01
2.317827641963958740e-01
3.001751899719238281e-01
3.288059234619140625e-01
2.295429110527038574e-01
2.661975026130676270e-01
8.758451938629150391e-01
2.441968619823455811e-01
2.314849495887756348e-01
3.569356203079223633e-01
2.014243304729461670e-01
4.755933582782745361e-01
2.607406973838806152e-01
4.206340312957763672e-01
3.191841542720794678e-01
3.122683763504028320e-01
3.473449051380157471e-01
3.185608386993408203e-01
2.988426983356475830e-01
2.369944155216217041e-01
2.773562073707580566e-01
2.807661592960357666e-01
2.330015897750854492e-01
7.241961359977722168e-01
4.665610790252685547e-01
2.365110218524932861e-01
2.080983519554138184e-01
2.287599444389343262e-01
2.467586994171142578e-01
2.223885357379913330e-01
2.327417433261871338e-01
2.145972549915313721e-01
4.452334344387054443e-01
2.328340709209442139e-01
2.415682971477508545e-01
2.286199629306793213e-01
2.426266968250274658e-01
2.387025356292724609e-01
2.333142757415771484e-01
2.339540123939514160e-01
2.907488942146301270e-01
2.268003523349761963e-01
2.331626415252685547e-01
2.388900220394134521e-01
2.332269251346588135e-01
2.322729229927062988e-01
2.364821732044219971e-01
2.269901633262634277e-01
2.341333627700805664e-01
2.352892458438873291e-01
2.323248088359832764e-01
2.322694063186645508e-01
2.322945594787597656e-01
2.320966124534606934e-01
2.445469498634338379e-01
2.385061681270599365e-01
2.275816798210144043e-01
2.321411669254302979e-01
2.155016064643859863e-01
2.782644033432006836e-01
2.323625683784484863e-01
2.819771766662597656e-01
2.184561192989349365e-01
2.324585914611816406e-01
2.216881513595581055e-01
2.227948307991027832e-01
2.331568598747253418e-01
2.337101697921752930e-01
2.324562370777130127e-01
3.135778903961181641e-01
3.254656195640563965e-01
3.395219743251800537e-01
2.604186832904815674e-01
2.856659293174743652e-01
2.056496441364288330e-01
2.770231962203979492e-01
3.003521561622619629e-01
2.535538673400878906e-01
3.508787155151367188e-01
3.524919152259826660e-01
3.575310111045837402e-01
5.386677980422973633e-01
2.704566717147827148e-01
2.955356240272521973e-01
3.275286853313446045e-01
6.562717556953430176e-01
8.748590946197509766e-01
2.003222107887268066e-01
3.052847981452941895e-01
3.729518651962280273e-01
2.713924944400787354e-01
4.375667572021484375e-01
4.131897687911987305e-01
3.080965876579284668e-01
2.710010409355163574e-01
3.540588319301605225e-01
3.808943629264831543e-01
2.342282235622406006e-01
4.264048039913177490e-01
2.759643495082855225e-01
3.402035236358642578e-01
2.638992071151733398e-01
4.019714593887329102e-01
3.593404889106750488e-01
4.267040491104125977e-01
2.580104470252990723e-01
2.705751359462738037e-01
2.857946455478668213e-01
3.068059086799621582e-01
2.166593670845031738e-01
3.381164669990539551e-01
2.564869523048400879e-01
3.062660694122314453e-01
2.799908518791198730e-01
3.132837414741516113e-01
2.363104224205017090e-01
2.921080589294433594e-01
3.184785246849060059e-01
2.735806107521057129e-01
7.521677613258361816e-01
2.754987478256225586e-01
2.904044985771179199e-01
2.441825270652770996e-01
2.811583280563354492e-01
2.792829275131225586e-01
5.481074452400207520e-01
3.053340315818786621e-01
3.924927711486816406e-01
3.168911337852478027e-01
3.200902938842773438e-01
2.797574400901794434e-01
3.876707553863525391e-01
2.639352679252624512e-01
3.488229513168334961e-01
2.583010792732238770e-01
2.867923676967620850e-01
2.343635857105255127e-01
3.046948313713073730e-01
3.167932033538818359e-01
3.663026094436645508e-01
3.096738159656524658e-01
7.635898590087890625e-01
2.214258611202239990e-01
6.331059336662292480e-01
2.964693009853363037e-01
3.463089466094970703e-01
3.309956490993499756e-01
6.562712192535400391e-01
3.959212303161621094e-01
2.858959436416625977e-01
3.543101549148559570e-01
6.089116334915161133e-01
3.770807683467864990e-01
5.971521735191345215e-01
3.823778033256530762e-01
2.358726561069488525e-01
2.567120194435119629e-01
3.198623061180114746e-01
3.647945523262023926e-01
2.813758254051208496e-01
3.385484218597412109e-01
5.757457613945007324e-01
2.591469883918762207e-01
3.629125356674194336e-01
2.657797932624816895e-01
3.041068613529205322e-01
2.755798101425170898e-01
2.953102588653564453e-01
8.838143348693847656e-01
8.377574682235717773e-01
3.486292362213134766e-01
3.005521893501281738e-01
3.323552012443542480e-01
4.127722084522247314e-01
3.722365498542785645e-01
2.775988280773162842e-01
2.494457364082336426e-01
2.790800034999847412e-01
8.438512086868286133e-01
3.281002640724182129e-01
2.558803558349609375e-01
1.942812204360961914e-01
3.366068899631500244e-01
4.442483484745025635e-01
3.253653943538665771e-01
2.488794624805450439e-01
3.118684887886047363e-01
3.381821513175964355e-01
2.664558291435241699e-01
3.995111882686614990e-01
3.695250749588012695e-01
2.823025286197662354e-01
2.215790152549743652e-01
2.537990212440490723e-01
2.334501147270202637e-01
2.613238692283630371e-01
3.095991313457489014e-01
4.055804014205932617e-01
5.199624300003051758e-01
2.743875980377197266e-01
3.949442505836486816e-01
6.297224760055541992e-01
2.573667764663696289e-01
2.476781010627746582e-01
3.353850245475769043e-01
2.623285949230194092e-01
2.916907072067260742e-01
3.681081533432006836e-01
4.713963568210601807e-01
2.781685888767242432e-01
3.098185360431671143e-01
3.075349330902099609e-01
4.333254098892211914e-01
3.637959361076354980e-01
2.830280959606170654e-01
8.225862979888916016e-01
4.549222290515899658e-01
3.790068030357360840e-01
3.198586106300354004e-01
3.245479762554168701e-01
3.338826298713684082e-01
3.020708858966827393e-01
2.981583476066589355e-01
3.088393807411193848e-01
2.478132247924804688e-01
2.865507602691650391e-01
3.943969607353210449e-01
3.135069310665130615e-01
6.553404331207275391e-01
3.568187355995178223e-01
3.008222877979278564e-01
5.795453190803527832e-01
1.436728239059448242e-01
2.926746010780334473e-01
2.712467908859252930e-01
4.408436417579650879e-01
2.646346688270568848e-01
3.122572600841522217e-01
5.224024653434753418e-01
3.475965261459350586e-01
2.189224958419799805e-01
4.176001548767089844e-01
3.952014446258544922e-01
4.074669480323791504e-01
2.818520069122314453e-01
4.464571774005889893e-01
3.832300305366516113e-01
2.611363232135772705e-01
2.978816926479339600e-01
2.227506339550018311e-01
2.259668111801147461e-01
2.245543301105499268e-01
2.480739057064056396e-01
2.265031933784484863e-01
2.218277156352996826e-01
2.264029085636138916e-01
2.197890877723693848e-01
2.125035226345062256e-01
2.264204919338226318e-01
2.264385521411895752e-01
2.289450764656066895e-01
2.296211421489715576e-01
2.266284823417663574e-01
2.266586720943450928e-01
2.316000759601593018e-01
2.309092283248901367e-01
2.265557944774627686e-01
2.303775250911712646e-01
2.271022796630859375e-01
2.227157950401306152e-01
2.265695035457611084e-01
2.799710333347320557e-01
3.625532984733581543e-01
5.954014062881469727e-01
5.238024592399597168e-01
2.699492573738098145e-01
2.956265807151794434e-01
2.610614299774169922e-01
3.031607270240783691e-01
2.242092192173004150e-01
2.112343609333038330e-01
3.150054216384887695e-01
3.627454936504364014e-01
3.821150064468383789e-01
2.959074079990386963e-01
2.320999205112457275e-01
4.188928306102752686e-01
3.142507076263427734e-01
2.277315855026245117e-01
2.947918772697448730e-01
4.577853083610534668e-01
4.891622066497802734e-01
2.850376069545745850e-01
5.035200119018554688e-01
2.697636187076568604e-01
2.889682948589324951e-01
7.479535937309265137e-01
2.659765481948852539e-01
3.082355856895446777e-01
2.919171452522277832e-01
3.259338736534118652e-01
2.206136286258697510e-01
3.834819197654724121e-01
2.827569842338562012e-01
3.620887994766235352e-01
8.840127587318420410e-01
3.276143074035644531e-01
3.057807385921478271e-01
3.382884263992309570e-01
2.683446407318115234e-01
4.097328484058380127e-01
2.478146851062774658e-01
2.542203366756439209e-01
2.753139436244964600e-01
2.582600712776184082e-01
2.750802040100097656e-01
2.267563045024871826e-01
2.267419099807739258e-01
2.276922464370727539e-01
2.268027067184448242e-01
2.267737090587615967e-01
2.266831099987030029e-01
2.413775026798248291e-01
2.247407734394073486e-01
2.267208397388458252e-01
2.267149984836578369e-01
2.267118990421295166e-01
3.538922071456909180e-01
2.268770039081573486e-01
3.039591908454895020e-01
3.374440371990203857e-01
3.298621177673339844e-01
2.252699136734008789e-01
2.268405556678771973e-01
2.344751060009002686e-01
2.415292561054229736e-01
2.171420156955718994e-01
2.249712944030761719e-01
2.348219752311706543e-01
2.612478137016296387e-01
3.862434327602386475e-01
3.013820648193359375e-01
3.335377275943756104e-01
3.360329866409301758e-01
2.438724339008331299e-01
2.449429631233215332e-01
3.586070537567138672e-01
6.190451979637145996e-01
3.154757916927337646e-01
2.842451930046081543e-01
2.661509215831756592e-01
2.823970317840576172e-01
2.774619460105895996e-01
2.292173206806182861e-01
3.486903309822082520e-01
3.461584448814392090e-01
3.177571296691894531e-01
2.561972141265869141e-01
4.040542840957641602e-01
5.500112771987915039e-01
3.039763569831848145e-01
3.447591066360473633e-01
2.704340815544128418e-01
3.823398351669311523e-01
3.460051417350769043e-01
3.719267845153808594e-01
3.203503787517547607e-01
3.818940222263336182e-01
6.363831758499145508e-01
4.844219386577606201e-01
2.880614399909973145e-01
2.906162142753601074e-01
4.043689370155334473e-01
2.487011551856994629e-01
3.360033035278320312e-01
2.223992645740509033e-01
2.329294383525848389e-01
3.275135457515716553e-01
3.947678804397583008e-01
3.533817529678344727e-01
4.394980370998382568e-01
2.357104122638702393e-01
4.711188077926635742e-01
2.895613908767700195e-01
2.309511601924896240e-01
3.755907416343688965e-01
4.923408329486846924e-01
3.568307757377624512e-01
2.737399339675903320e-01
2.906890809535980225e-01
3.082873821258544922e-01
1.540807783603668213e-01
3.114753961563110352e-01
3.043536245822906494e-01
2.764053344726562500e-01
1.502741277217864990e-01
3.175054192543029785e-01
2.661103010177612305e-01
2.581723928451538086e-01
3.356903195381164551e-01
3.321477770805358887e-01
4.217656254768371582e-01
1.519646644592285156e-01
3.004119396209716797e-01
2.805177569389343262e-01
3.176882266998291016e-01
5.159808993339538574e-01
6.364970803260803223e-01
2.459217011928558350e-01
3.235105276107788086e-01
3.014772534370422363e-01
2.924160957336425781e-01
2.644379138946533203e-01
6.124341487884521484e-01
5.686782598495483398e-01
3.565453290939331055e-01
3.504655957221984863e-01
2.254028618335723877e-01
1.910692453384399414e-01
2.428915202617645264e-01
2.406664490699768066e-01
2.897425889968872070e-01
2.173148393630981445e-01
3.104581832885742188e-01
3.682271838188171387e-01
3.423516154289245605e-01
3.239666819572448730e-01
3.537051677703857422e-01
2.381610870361328125e-01
3.124253153800964355e-01
3.538058400154113770e-01
3.285813331604003906e-01
2.763984799385070801e-01
5.198026895523071289e-01
3.314777314662933350e-01
3.090468645095825195e-01
3.800415396690368652e-01
6.726272106170654297e-01
3.388694226741790771e-01
4.453867673873901367e-01
8.146952986717224121e-01
2.738581299781799316e-01
6.867688298225402832e-01
2.366863191127777100e-01
3.306727409362792969e-01
8.178541660308837891e-01
2.109929919242858887e-01
2.334008812904357910e-01
3.996311128139495850e-01
3.277347385883331299e-01
2.931976914405822754e-01
3.274383842945098877e-01
3.036204278469085693e-01
2.964296936988830566e-01
5.109270215034484863e-01
3.045543432235717773e-01
3.248539566993713379e-01
2.656738460063934326e-01
5.286517143249511719e-01
3.710693120956420898e-01
4.609473943710327148e-01
2.053354680538177490e-01
2.784538269042968750e-01
3.537235856056213379e-01
3.794748783111572266e-01
7.885502576828002930e-01
2.691990137100219727e-01
6.831410527229309082e-01
5.297989845275878906e-01
3.881088197231292725e-01
3.283203840255737305e-01
2.824879884719848633e-01
2.932794094085693359e-01
3.987571001052856445e-01
2.796420454978942871e-01
3.511265516281127930e-01
4.069304466247558594e-01
3.311028182506561279e-01
4.435338675975799561e-01
2.688210904598236084e-01
3.335380256175994873e-01
3.703054487705230713e-01
2.853298187255859375e-01
2.822163701057434082e-01
3.752144873142242432e-01
3.509341776371002197e-01
2.609463334083557129e-01
3.402867019176483154e-01
3.956782221794128418e-01
2.857736051082611084e-01
3.029767870903015137e-01
3.298784494400024414e-01
3.242000937461853027e-01
2.671641707420349121e-01
3.197590112686157227e-01
3.446009457111358643e-01
3.367416262626647949e-01
1.978820860385894775e-01
2.846048474311828613e-01
3.591883182525634766e-01
6.063985824584960938e-01
3.717493712902069092e-01
3.739395737648010254e-01
4.271925091743469238e-01
3.120723962783813477e-01
3.255698084831237793e-01
4.771999418735504150e-01
3.667683899402618408e-01
3.013512194156646729e-01
3.801361024379730225e-01
3.945103287696838379e-01
3.011777997016906738e-01
3.316977918148040771e-01
3.326954245567321777e-01
2.874462008476257324e-01
3.328990042209625244e-01
3.535796999931335449e-01
3.319136500358581543e-01
3.158700466156005859e-01
3.750009834766387939e-01
2.822118997573852539e-01
4.342353343963623047e-01
3.641502261161804199e-01
6.664198040962219238e-01
3.068659007549285889e-01
3.275740444660186768e-01
3.076716065406799316e-01
3.704009652137756348e-01
2.279433310031890869e-01
2.279672920703887939e-01
3.060963749885559082e-01
2.280088961124420166e-01
2.280015647411346436e-01
2.308607399463653564e-01
3.737908005714416504e-01
3.883576989173889160e-01
2.535182833671569824e-01
3.127298057079315186e-01
5.837140083312988281e-01
2.790409326553344727e-01
2.854024171829223633e-01
3.963004350662231445e-01
2.850576043128967285e-01
3.176797032356262207e-01
3.332385420799255371e-01
3.966972827911376953e-01
2.729833722114562988e-01
2.433609068393707275e-01
3.150912523269653320e-01
2.829899787902832031e-01
3.349801898002624512e-01
6.739896535873413086e-01
2.409701943397521973e-01
3.015185296535491943e-01
2.295533716678619385e-01
2.840721905231475830e-01
7.720780968666076660e-01
2.328261137008666992e-01
5.100084543228149414e-01
2.601456642150878906e-01
4.093238115310668945e-01
3.251668214797973633e-01
2.861576676368713379e-01
2.568901181221008301e-01
4.603261947631835938e-01
2.536535263061523438e-01
3.877133131027221680e-01
2.537143826484680176e-01
2.926678657531738281e-01
2.663641571998596191e-01
2.437088489532470703e-01
2.769016623497009277e-01
3.161324858665466309e-01
6.766141653060913086e-01
2.882723808288574219e-01
2.972239553928375244e-01
3.952341079711914062e-01
3.683694601058959961e-01
2.936286330223083496e-01
3.697735667228698730e-01
2.513169944286346436e-01
3.639804720878601074e-01
3.492154181003570557e-01
5.244256854057312012e-01
2.671755552291870117e-01
2.418310940265655518e-01
2.707377672195434570e-01
2.287928760051727295e-01
2.426728606224060059e-01
2.282364964485168457e-01
2.280662059783935547e-01
2.305413186550140381e-01
2.501888871192932129e-01
2.348159849643707275e-01
2.280909121036529541e-01
3.015159964561462402e-01
3.517302870750427246e-01
3.044596314430236816e-01
3.042617440223693848e-01
3.714214265346527100e-01
3.722306787967681885e-01
2.282913625240325928e-01
2.430469691753387451e-01
2.084988653659820557e-01
2.305152118206024170e-01
2.283125221729278564e-01
