0.000000000000000000e+00
1.316135825217162360e-04
2.053171887338773455e-02
2.053171887338773455e-02
4.501184522242695357e-02
4.527507238747038865e-02
5.448802316399052603e-02
5.448802316399052603e-02
6.396420110555409155e-02
6.396420110555409155e-02
6.567517767833640219e-02
6.593840484337983032e-02
6.593840484337983032e-02
7.093972097920504816e-02
7.120294814424849017e-02
8.923400894972360886e-02
8.949723611476705087e-02
1.021321400368518095e-01
1.023953672018952377e-01
1.089760463279810521e-01
1.092392734930244802e-01
1.130560673861542575e-01
1.133192945511976857e-01
1.163464069491971509e-01
1.166096341142405929e-01
1.266122663858910147e-01
1.268754935509344428e-01
1.283232429586733392e-01
1.285864701237167673e-01
1.384574888128454750e-01
1.387207159778889309e-01
1.388523295604106311e-01
1.391155567254540593e-01
1.395103974730192153e-01
1.397736246380626435e-01
1.521453013951039879e-01
1.524085285601474160e-01
1.584627533561463464e-01
1.587259805211897745e-01
1.742563832587523120e-01
1.742563832587523120e-01
1.751776783364043244e-01
1.754409055014477525e-01
1.797841537246643862e-01
1.800473808897078143e-01
1.845222426954461759e-01
1.850486970255330321e-01
1.920242168991840026e-01
1.922874440642274307e-01
2.042642800737036191e-01
2.045275072387470472e-01
2.070281653066596561e-01
2.072913924717030842e-01
2.187417741510923885e-01
2.187417741510923885e-01
2.242695446170044626e-01
2.245327717820479185e-01
2.907344037904711631e-01
2.909976309555146190e-01
2.948144248486443963e-01
2.948144248486443963e-01
3.127138720715977871e-01
3.129770992366412430e-01
3.270597525664648564e-01
3.270597525664648564e-01
3.392998157409844451e-01
3.392998157409844451e-01
3.429849960515925500e-01
3.429849960515925500e-01
3.587786259541984601e-01
3.587786259541984601e-01
3.873387733614108708e-01
3.873387733614108708e-01
3.957620426428007376e-01
3.957620426428007376e-01
4.251118715451434604e-01
4.251118715451434604e-01
4.284022111081863815e-01
4.284022111081863815e-01
4.328770729139247431e-01
4.328770729139247431e-01
4.430113187680968512e-01
4.430113187680968512e-01
4.432745459331403071e-01
4.432745459331403071e-01
4.441958410107922917e-01
4.441958410107922917e-01
4.476177941563569407e-01
4.476177941563569407e-01
4.566991313503553362e-01
4.566991313503553362e-01
4.582784943406159606e-01
4.585417215056593609e-01
4.607791524085285695e-01
4.607791524085285695e-01
4.652540142142669310e-01
4.652540142142669310e-01
4.918399578836535890e-01
4.921031850486970449e-01
4.976309555146091190e-01
4.976309555146091190e-01
5.000000000000000000e-01
5.000000000000000000e-01
5.330350092129507722e-01
5.330350092129507722e-01
5.331666227954724446e-01
5.331666227954724446e-01
5.365885759410371492e-01
5.365885759410371492e-01
5.373782574361674058e-01
5.373782574361674058e-01
5.390892340089497026e-01
5.390892340089497026e-01
5.396156883390366144e-01
5.396156883390366144e-01
5.404053698341668710e-01
5.404053698341668710e-01
5.435640958146881196e-01
5.435640958146881196e-01
5.436957093972097921e-01
5.436957093972097921e-01
5.471176625427743856e-01
5.471176625427743856e-01
5.511976836009475633e-01
5.511976836009475633e-01
5.577783627270334055e-01
5.577783627270334055e-01
5.586996578046854456e-01
5.586996578046854456e-01
5.590944985522505739e-01
5.590944985522505739e-01
5.663332455909450003e-01
5.663332455909450003e-01
5.776520136878126044e-01
5.776520136878126044e-01
5.785733087654646445e-01
5.785733087654646445e-01
5.833113977362464064e-01
5.833113977362464064e-01
5.858120558041589598e-01
5.858120558041589598e-01
5.867333508818109999e-01
5.867333508818109999e-01
5.875230323769412566e-01
5.875230323769412566e-01
5.898920768623321376e-01
5.898920768623321376e-01
5.966043695709397632e-01
5.966043695709397632e-01
5.967359831534614356e-01
5.967359831534614356e-01
5.975256646485916923e-01
5.975256646485916923e-01
5.981837325612002765e-01
5.981837325612002765e-01
5.993682548038957725e-01
5.993682548038957725e-01
5.997630955514609008e-01
5.997630955514609008e-01
6.005527770465911575e-01
6.005527770465911575e-01
6.037115030271124061e-01
6.037115030271124061e-01
6.105554093182415931e-01
6.105554093182415931e-01
6.116083179784154167e-01
6.116083179784154167e-01
6.133192945511977134e-01
6.133192945511977134e-01
6.159515662016320503e-01
6.159515662016320503e-01
6.171360884443274353e-01
6.171360884443274353e-01
6.187154514345880596e-01
6.187154514345880596e-01
6.242432219005000782e-01
6.242432219005000782e-01
6.250329033956304459e-01
6.250329033956304459e-01
6.256909713082390301e-01
6.256909713082390301e-01
6.276651750460647827e-01
6.276651750460647827e-01
6.299026059489338802e-01
6.299026059489338802e-01
6.342458541721505139e-01
6.342458541721505139e-01
6.351671492498025540e-01
6.351671492498025540e-01
6.374045801526717625e-01
6.374045801526717625e-01
6.401684653856277718e-01
6.401684653856277718e-01
6.420110555409318520e-01
6.420110555409318520e-01
6.449065543564095337e-01
6.449065543564095337e-01
6.455646222690181180e-01
6.455646222690181180e-01
6.459594630165833573e-01
6.459594630165833573e-01
6.464859173466701581e-01
6.464859173466701581e-01
6.484601210844959107e-01
6.484601210844959107e-01
6.534614372203211285e-01
6.534614372203211285e-01
6.537246643853645844e-01
6.537246643853645844e-01
6.571466175309291780e-01
6.571466175309291780e-01
6.614898657541458116e-01
6.614898657541458116e-01
6.635956830744932367e-01
6.635956830744932367e-01
6.646485917346670602e-01
6.646485917346670602e-01
6.647802053171887326e-01
6.647802053171887326e-01
6.662279547249275735e-01
6.662279547249275735e-01
6.714924980257962472e-01
6.714924980257962472e-01
6.730718610160568716e-01
6.730718610160568716e-01
6.753092919189260801e-01
6.753092919189260801e-01
6.797841537246643862e-01
6.797841537246643862e-01
6.813635167149250105e-01
6.816267438799684664e-01
6.820215846275335947e-01
6.820215846275335947e-01
6.822848117925769396e-01
6.822848117925769396e-01
6.825480389576203955e-01
6.825480389576203955e-01
6.845222426954461481e-01
6.845222426954461481e-01
6.859699921031851000e-01
6.859699921031851000e-01
6.871545143458804850e-01
6.871545143458804850e-01
6.891287180837062376e-01
6.891287180837062376e-01
6.905764674914450785e-01
6.905764674914450785e-01
6.916293761516189020e-01
6.916293761516189020e-01
6.939984206370097830e-01
6.939984206370097830e-01
6.941300342195314554e-01
6.941300342195314554e-01
6.947881021321400397e-01
6.947881021321400397e-01
6.957093972097920798e-01
6.957093972097920798e-01
6.966306922874440088e-01
6.966306922874440088e-01
6.978152145301395048e-01
6.978152145301395048e-01
6.986048960252697615e-01
6.986048960252697615e-01
7.037378257436167628e-01
7.037378257436167628e-01
7.041326664911818911e-01
7.041326664911818911e-01
7.050539615688339312e-01
7.050539615688339312e-01
7.057120294814425154e-01
7.057120294814425154e-01
7.083443011318768523e-01
7.083443011318768523e-01
7.091339826270071089e-01
7.091339826270071089e-01
7.133456172677020701e-01
7.133456172677020701e-01
7.142669123453539992e-01
7.142669123453539992e-01
7.171624111608317920e-01
7.171624111608317920e-01
7.178204790734403762e-01
7.178204790734403762e-01
7.188733877336140887e-01
7.188733877336140887e-01
7.196630692287444564e-01
7.196630692287444564e-01
7.203211371413530406e-01
7.203211371413530406e-01
7.205843643063963855e-01
7.205843643063963855e-01
7.250592261121348026e-01
7.250592261121348026e-01
7.278231113450908119e-01
7.278231113450908119e-01
7.280863385101342677e-01
7.280863385101342677e-01
7.287444064227428520e-01
7.287444064227428520e-01
7.294024743353514362e-01
7.294024743353514362e-01
7.303237694130034763e-01
7.303237694130034763e-01
7.354566991313503665e-01
7.354566991313503665e-01
7.363779942090024067e-01
7.363779942090024067e-01
7.370360621216109909e-01
7.370360621216109909e-01
7.378257436167412475e-01
7.378257436167412475e-01
7.403264016846538009e-01
7.403264016846538009e-01
7.411160831797841686e-01
7.411160831797841686e-01
7.438799684127401779e-01
7.438799684127401779e-01
7.449328770729138904e-01
7.449328770729138904e-01
7.451961042379573463e-01
7.451961042379573463e-01
7.458541721505659305e-01
7.458541721505659305e-01
7.478283758883916832e-01
7.478283758883916832e-01
7.479599894709133556e-01
7.479599894709133556e-01
7.483548302184785950e-01
7.483548302184785950e-01
7.490128981310871792e-01
7.490128981310871792e-01
7.525664648591734451e-01
7.525664648591734451e-01
7.538826006843906136e-01
7.538826006843906136e-01
7.548038957620426537e-01
7.548038957620426537e-01
7.554619636746512379e-01
7.554619636746512379e-01
7.555935772571729103e-01
7.555935772571729103e-01
7.574361674124769905e-01
7.574361674124769905e-01
7.580942353250855748e-01
7.580942353250855748e-01
7.600684390629113274e-01
7.600684390629113274e-01
7.608581205580415840e-01
7.608581205580415840e-01
7.613845748881284958e-01
7.613845748881284958e-01
7.621742563832587525e-01
7.621742563832587525e-01
7.625690971308238808e-01
7.625690971308238808e-01
7.627007107133456643e-01
7.627007107133456643e-01
7.634903922084759209e-01
7.634903922084759209e-01
7.637536193735193768e-01
7.637536193735193768e-01
7.641484601210845051e-01
7.641484601210845051e-01
7.653329823637798901e-01
7.653329823637798901e-01
7.666491181889970585e-01
7.666491181889970585e-01
7.669123453540405144e-01
7.669123453540405144e-01
7.674387996841274262e-01
7.674387996841274262e-01
7.675704132666490986e-01
7.675704132666490986e-01
7.677020268491708821e-01
7.677020268491708821e-01
7.680968675967360104e-01
7.680968675967360104e-01
7.683600947617794663e-01
7.683600947617794663e-01
7.690181626743880505e-01
7.690181626743880505e-01
7.691497762569097230e-01
7.691497762569097230e-01
7.694130034219531789e-01
7.694130034219531789e-01
7.699394577520399796e-01
7.699394577520399796e-01
7.702026849170834355e-01
7.702026849170834355e-01
7.705975256646485638e-01
7.705975256646485638e-01
7.708607528296920197e-01
7.708607528296920197e-01
7.712555935772571480e-01
7.712555935772571480e-01
7.734930244801263566e-01
7.734930244801263566e-01
7.738878652276914849e-01
7.738878652276914849e-01
7.754672282179521092e-01
7.754672282179521092e-01
7.774414319557778619e-01
7.774414319557778619e-01
7.778362727033429902e-01
7.778362727033429902e-01
7.788891813635167027e-01
7.788891813635167027e-01
7.794156356936036145e-01
7.794156356936036145e-01
7.803369307712555436e-01
7.803369307712555436e-01
7.806001579362989995e-01
7.806001579362989995e-01
7.807317715188207830e-01
7.807317715188207830e-01
7.828375888391682080e-01
7.828375888391682080e-01
7.829692024216898805e-01
7.829692024216898805e-01
7.831008160042116639e-01
7.831008160042116639e-01
7.832324295867333364e-01
7.832324295867333364e-01
7.848117925769939607e-01
7.848117925769939607e-01
7.853382469070807614e-01
7.853382469070807614e-01
7.854698604896025449e-01
7.854698604896025449e-01
7.857330876546460008e-01
7.857330876546460008e-01
7.858647012371676732e-01
7.858647012371676732e-01
7.874440642274282975e-01
7.874440642274282975e-01
7.875756778099499700e-01
7.875756778099499700e-01
7.883653593050803376e-01
7.883653593050803376e-01
7.887602000526454660e-01
7.887602000526454660e-01
7.891550408002105943e-01
7.891550408002105943e-01
7.899447222953408509e-01
7.899447222953408509e-01
7.902079494603843068e-01
7.902079494603843068e-01
7.912608581205580194e-01
7.912608581205580194e-01
7.913924717030798028e-01
7.913924717030798028e-01
7.915240852856014753e-01
7.915240852856014753e-01
7.920505396156883871e-01
7.920505396156883871e-01
7.938931297709923562e-01
7.938931297709923562e-01
7.941563569360358121e-01
7.941563569360358121e-01
7.942879705185574846e-01
7.942879705185574846e-01
7.945511976836009405e-01
7.945511976836009405e-01
7.950776520136878522e-01
7.950776520136878522e-01
7.956041063437746530e-01
7.956041063437746530e-01
7.970518557515136049e-01
7.970518557515136049e-01
7.971834693340352773e-01
7.971834693340352773e-01
7.974466964990787332e-01
7.974466964990787332e-01
7.977099236641221891e-01
7.977099236641221891e-01
7.978415372466438615e-01
7.978415372466438615e-01
7.990260594893392465e-01
7.990260594893392465e-01
7.991576730718610300e-01
7.991576730718610300e-01
7.995525138194261583e-01
7.995525138194261583e-01
7.998157409844696142e-01
7.998157409844696142e-01
8.002105817320347425e-01
8.002105817320347425e-01
8.008686496446433267e-01
8.008686496446433267e-01
8.010002632271649992e-01
8.010002632271649992e-01
8.015267175572519109e-01
8.015267175572519109e-01
8.016583311397735834e-01
8.016583311397735834e-01
8.020531718873388227e-01
8.020531718873388227e-01
8.023163990523821676e-01
8.023163990523821676e-01
8.025796262174256235e-01
8.025796262174256235e-01
8.028428533824690794e-01
8.028428533824690794e-01
8.035009212950776636e-01
8.035009212950776636e-01
8.038957620426427919e-01
8.038957620426427919e-01
8.042906027902079202e-01
8.042906027902079202e-01
8.045538299552513761e-01
8.045538299552513761e-01
8.054751250329034162e-01
8.054751250329034162e-01
8.090286917609896822e-01
8.090286917609896822e-01
8.092919189260331381e-01
8.092919189260331381e-01
8.096867596735982664e-01
8.096867596735982664e-01
8.099499868386417223e-01
8.099499868386417223e-01
8.115293498289023466e-01
8.115293498289023466e-01
8.132403264016846434e-01
8.132403264016846434e-01
8.138983943142932276e-01
8.138983943142932276e-01
8.142932350618583559e-01
8.142932350618583559e-01
8.148196893919452677e-01
8.148196893919452677e-01
8.150829165569887236e-01
8.150829165569887236e-01
8.156093708870755243e-01
8.156093708870755243e-01
8.169255067122926928e-01
8.169255067122926928e-01
8.181100289549881888e-01
8.181100289549881888e-01
8.182416425375098612e-01
8.182416425375098612e-01
8.191629376151619013e-01
8.191629376151619013e-01
8.194261647802053572e-01
8.194261647802053572e-01
8.198210055277704855e-01
8.198210055277704855e-01
8.202158462753356138e-01
8.202158462753356138e-01
8.207423006054225256e-01
8.207423006054225256e-01
8.215319821005527823e-01
8.215319821005527823e-01
8.229797315082916231e-01
8.229797315082916231e-01
8.231113450908134066e-01
8.231113450908134066e-01
8.236377994209002074e-01
8.236377994209002074e-01
8.239010265859436632e-01
8.239010265859436632e-01
8.241642537509871191e-01
8.241642537509871191e-01
8.249539352461173758e-01
8.249539352461173758e-01
8.250855488286391592e-01
8.250855488286391592e-01
8.256120031587259600e-01
8.256120031587259600e-01
8.261384574888128718e-01
8.261384574888128718e-01
8.265332982363780001e-01
8.265332982363780001e-01
8.267965254014214560e-01
8.267965254014214560e-01
8.273229797315082568e-01
8.273229797315082568e-01
8.274545933140300402e-01
8.274545933140300402e-01
8.275862068965517127e-01
8.275862068965517127e-01
8.282442748091602969e-01
8.282442748091602969e-01
8.290339563042905535e-01
8.290339563042905535e-01
8.291655698868123370e-01
8.291655698868123370e-01
8.292971834693340094e-01
8.292971834693340094e-01
8.295604106343774653e-01
8.295604106343774653e-01
8.296920242168991377e-01
8.296920242168991377e-01
8.299552513819425936e-01
8.299552513819425936e-01
8.304817057120295054e-01
8.304817057120295054e-01
8.306133192945511778e-01
8.306133192945511778e-01
8.314030007896815455e-01
8.314030007896815455e-01
8.317978415372466738e-01
8.317978415372466738e-01
8.320610687022901297e-01
8.320610687022901297e-01
8.321926822848118022e-01
8.321926822848118022e-01
8.323242958673334746e-01
8.323242958673334746e-01
8.324559094498552581e-01
8.324559094498552581e-01
8.328507501974203864e-01
8.328507501974203864e-01
8.336404316925506430e-01
8.336404316925506430e-01
8.340352724401157714e-01
8.340352724401157714e-01
8.341668860226375548e-01
8.341668860226375548e-01
8.342984996051592272e-01
8.342984996051592272e-01
8.344301131876810107e-01
8.344301131876810107e-01
8.346933403527243556e-01
8.346933403527243556e-01
8.350881811002895949e-01
8.350881811002895949e-01
8.352197946828112674e-01
8.352197946828112674e-01
8.353514082653329398e-01
8.353514082653329398e-01
8.358778625954198516e-01
8.358778625954198516e-01
8.361410897604633075e-01
8.361410897604633075e-01
8.367991576730718917e-01
8.367991576730718917e-01
8.369307712555935641e-01
8.369307712555935641e-01
8.370623848381153476e-01
8.370623848381153476e-01
8.373256120031586924e-01
8.373256120031586924e-01
8.374572255856804759e-01
8.374572255856804759e-01
8.375888391682021483e-01
8.375888391682021483e-01
8.377204527507238208e-01
8.377204527507238208e-01
8.378520663332456042e-01
8.378520663332456042e-01
8.390365885759409892e-01
8.390365885759409892e-01
8.392998157409844451e-01
8.392998157409844451e-01
8.395630429060279010e-01
8.395630429060279010e-01
8.398262700710713569e-01
8.398262700710713569e-01
8.399578836535930293e-01
8.399578836535930293e-01
8.400894972361148128e-01
8.400894972361148128e-01
8.402211108186364852e-01
8.402211108186364852e-01
8.408791787312450694e-01
8.408791787312450694e-01
8.411424058962885253e-01
8.411424058962885253e-01
8.414056330613319812e-01
8.414056330613319812e-01
8.416688602263753261e-01
8.416688602263753261e-01
8.419320873914187819e-01
8.419320873914187819e-01
8.420637009739405654e-01
8.420637009739405654e-01
8.424585417215056937e-01
8.424585417215056937e-01
8.427217688865490386e-01
8.427217688865490386e-01
8.431166096341142779e-01
8.431166096341142779e-01
8.432482232166359504e-01
8.432482232166359504e-01
8.433798367991576228e-01
8.433798367991576228e-01
8.435114503816794063e-01
8.435114503816794063e-01
8.436430639642010787e-01
8.436430639642010787e-01
8.441695182942879905e-01
8.441695182942879905e-01
8.445643590418531188e-01
8.445643590418531188e-01
8.448275862068965747e-01
8.448275862068965747e-01
8.453540405369833755e-01
8.453540405369833755e-01
8.457488812845486148e-01
8.457488812845486148e-01
8.460121084495919597e-01
8.460121084495919597e-01
8.462753356146354156e-01
8.462753356146354156e-01
8.469334035272439998e-01
8.469334035272439998e-01
8.470650171097657832e-01
8.470650171097657832e-01
8.475914714398525840e-01
8.475914714398525840e-01
8.478546986048960399e-01
8.478546986048960399e-01
8.485127665175046241e-01
8.485127665175046241e-01
8.486443801000262965e-01
8.486443801000262965e-01
8.487759936825480800e-01
8.487759936825480800e-01
8.489076072650697524e-01
8.489076072650697524e-01
8.493024480126348807e-01
8.493024480126348807e-01
8.494340615951566642e-01
8.494340615951566642e-01
8.503553566728085933e-01
8.503553566728085933e-01
8.506185838378520492e-01
8.506185838378520492e-01
8.508818110028955051e-01
8.508818110028955051e-01
8.511450381679389610e-01
8.511450381679389610e-01
8.512766517504606334e-01
8.512766517504606334e-01
8.514082653329824169e-01
8.514082653329824169e-01
8.515398789155040893e-01
8.515398789155040893e-01
8.519347196630692176e-01
8.519347196630692176e-01
8.520663332455908900e-01
8.520663332455908900e-01
8.523295604106343459e-01
8.523295604106343459e-01
8.524611739931561294e-01
8.524611739931561294e-01
8.532508554882863860e-01
8.532508554882863860e-01
8.533824690708080585e-01
8.533824690708080585e-01
8.536456962358515144e-01
8.536456962358515144e-01
8.539089234008949703e-01
8.539089234008949703e-01
8.544353777309818820e-01
8.544353777309818820e-01
8.550934456435904663e-01
8.550934456435904663e-01
8.554882863911555946e-01
8.554882863911555946e-01
8.558831271387207229e-01
8.558831271387207229e-01
8.560147407212423953e-01
8.560147407212423953e-01
8.561463543037641788e-01
8.561463543037641788e-01
8.564095814688076347e-01
8.564095814688076347e-01
8.565411950513293071e-01
8.565411950513293071e-01
8.568044222163727630e-01
8.568044222163727630e-01
8.569360357988944354e-01
8.569360357988944354e-01
8.571992629639378913e-01
8.571992629639378913e-01
8.574624901289813472e-01
8.574624901289813472e-01
8.575941037115030197e-01
8.575941037115030197e-01
8.577257172940246921e-01
8.577257172940246921e-01
8.578573308765464756e-01
8.578573308765464756e-01
8.579889444590681480e-01
8.579889444590681480e-01
8.583837852066332763e-01
8.583837852066332763e-01
8.585153987891550598e-01
8.585153987891550598e-01
8.591734667017636440e-01
8.591734667017636440e-01
8.594366938668070999e-01
8.594366938668070999e-01
8.595683074493287723e-01
8.595683074493287723e-01
8.598315346143722282e-01
8.598315346143722282e-01
8.600947617794156841e-01
8.600947617794156841e-01
8.603579889444590290e-01
8.603579889444590290e-01
8.604896025269808124e-01
8.604896025269808124e-01
8.607528296920242683e-01
8.607528296920242683e-01
8.608844432745459407e-01
8.608844432745459407e-01
8.611476704395893966e-01
8.611476704395893966e-01
8.614108976046328525e-01
8.614108976046328525e-01
8.615425111871545250e-01
8.615425111871545250e-01
8.616741247696761974e-01
8.616741247696761974e-01
8.618057383521979808e-01
8.618057383521979808e-01
8.620689655172413257e-01
8.620689655172413257e-01
8.622005790997631092e-01
8.622005790997631092e-01
8.624638062648065651e-01
8.624638062648065651e-01
8.625954198473282375e-01
8.625954198473282375e-01
8.629902605948933658e-01
8.629902605948933658e-01
8.631218741774151493e-01
8.631218741774151493e-01
8.632534877599368217e-01
8.632534877599368217e-01
8.633851013424584941e-01
8.633851013424584941e-01
8.639115556725454059e-01
8.639115556725454059e-01
8.641747828375888618e-01
8.641747828375888618e-01
8.644380100026323177e-01
8.644380100026323177e-01
8.645696235851539901e-01
8.645696235851539901e-01
8.647012371676756626e-01
8.647012371676756626e-01
8.650960779152409019e-01
8.650960779152409019e-01
8.652276914977625744e-01
8.652276914977625744e-01
8.653593050802842468e-01
8.653593050802842468e-01
8.654909186628060302e-01
8.654909186628060302e-01
8.656225322453277027e-01
8.656225322453277027e-01
8.657541458278494861e-01
8.657541458278494861e-01
8.658857594103711586e-01
8.658857594103711586e-01
8.660173729928928310e-01
8.660173729928928310e-01
8.661489865754146145e-01
8.661489865754146145e-01
8.664122137404580704e-01
8.664122137404580704e-01
8.665438273229797428e-01
8.665438273229797428e-01
8.666754409055014152e-01
8.666754409055014152e-01
8.668070544880231987e-01
8.668070544880231987e-01
8.670702816530665435e-01
8.670702816530665435e-01
8.672018952355883270e-01
8.672018952355883270e-01
8.674651224006317829e-01
8.674651224006317829e-01
8.675967359831534553e-01
8.675967359831534553e-01
8.677283495656751278e-01
8.677283495656751278e-01
8.678599631481969112e-01
8.678599631481969112e-01
8.681231903132403671e-01
8.681231903132403671e-01
8.683864174782837120e-01
8.683864174782837120e-01
8.685180310608054954e-01
8.685180310608054954e-01
8.686496446433271679e-01
8.686496446433271679e-01
8.687812582258489513e-01
8.687812582258489513e-01
8.689128718083706238e-01
8.689128718083706238e-01
8.690444853908922962e-01
8.690444853908922962e-01
8.694393261384575355e-01
8.694393261384575355e-01
8.695709397209792080e-01
8.695709397209792080e-01
8.698341668860226639e-01
8.698341668860226639e-01
8.699657804685443363e-01
8.699657804685443363e-01
8.700973940510661198e-01
8.700973940510661198e-01
8.702290076335877922e-01
8.702290076335877922e-01
8.703606212161094646e-01
8.703606212161094646e-01
8.704922347986312481e-01
8.704922347986312481e-01
8.706238483811529205e-01
8.706238483811529205e-01
8.710186891287180488e-01
8.710186891287180488e-01
8.712819162937615047e-01
8.712819162937615047e-01
8.715451434588049606e-01
8.715451434588049606e-01
8.716767570413266331e-01
8.716767570413266331e-01
8.718083706238484165e-01
8.718083706238484165e-01
8.724664385364570007e-01
8.724664385364570007e-01
8.727296657015003456e-01
8.727296657015003456e-01
8.728612792840221291e-01
8.728612792840221291e-01
8.735193471966307133e-01
8.735193471966307133e-01
8.736509607791523857e-01
8.736509607791523857e-01
8.740458015267175140e-01
8.740458015267175140e-01
8.745722558568044258e-01
8.745722558568044258e-01
8.748354830218478817e-01
8.748354830218478817e-01
8.749670966043695541e-01
8.749670966043695541e-01
8.750987101868913376e-01
8.750987101868913376e-01
8.753619373519346825e-01
8.753619373519346825e-01
8.754935509344564659e-01
8.754935509344564659e-01
8.756251645169781384e-01
8.756251645169781384e-01
8.762832324295867226e-01
8.762832324295867226e-01
8.764148460121083950e-01
8.764148460121083950e-01
8.765464595946301785e-01
8.765464595946301785e-01
8.766780731771518509e-01
8.766780731771518509e-01
8.769413003421953068e-01
8.769413003421953068e-01
8.770729139247169792e-01
8.770729139247169792e-01
8.772045275072387627e-01
8.772045275072387627e-01
8.774677546722822186e-01
8.774677546722822186e-01
8.775993682548038910e-01
8.775993682548038910e-01
8.779942090023690193e-01
8.779942090023690193e-01
8.781258225848908028e-01
8.781258225848908028e-01
8.783890497499341476e-01
8.783890497499341476e-01
8.785206633324559311e-01
8.785206633324559311e-01
8.786522769149776035e-01
8.786522769149776035e-01
8.787838904974993870e-01
8.787838904974993870e-01
8.789155040800210594e-01
8.789155040800210594e-01
8.790471176625427319e-01
8.790471176625427319e-01
8.793103448275861878e-01
8.793103448275861878e-01
8.794419584101079712e-01
8.794419584101079712e-01
8.795735719926296436e-01
8.795735719926296436e-01
8.797051855751513161e-01
8.797051855751513161e-01
8.798367991576730995e-01
8.798367991576730995e-01
8.802316399052382279e-01
8.802316399052382279e-01
8.803632534877599003e-01
8.803632534877599003e-01
8.804948670702816838e-01
8.804948670702816838e-01
8.806264806528033562e-01
8.806264806528033562e-01
8.807580942353251396e-01
8.807580942353251396e-01
8.808897078178468121e-01
8.808897078178468121e-01
8.810213214003684845e-01
8.810213214003684845e-01
8.811529349828902680e-01
8.811529349828902680e-01
8.812845485654119404e-01
8.812845485654119404e-01
8.816793893129770687e-01
8.816793893129770687e-01
8.818110028954988522e-01
8.818110028954988522e-01
8.819426164780205246e-01
8.819426164780205246e-01
8.820742300605421971e-01
8.820742300605421971e-01
8.822058436430639805e-01
8.822058436430639805e-01
8.824690708081074364e-01
8.824690708081074364e-01
8.827322979731507813e-01
8.827322979731507813e-01
8.828639115556725647e-01
8.828639115556725647e-01
8.829955251381942372e-01
8.829955251381942372e-01
8.831271387207160206e-01
8.831271387207160206e-01
8.833903658857593655e-01
8.833903658857593655e-01
8.835219794682811489e-01
8.835219794682811489e-01
8.836535930508028214e-01
8.836535930508028214e-01
8.840484337983679497e-01
8.840484337983679497e-01
8.841800473808897332e-01
8.841800473808897332e-01
8.843116609634114056e-01
8.843116609634114056e-01
8.844432745459331890e-01
8.844432745459331890e-01
8.845748881284548615e-01
8.845748881284548615e-01
8.847065017109765339e-01
8.847065017109765339e-01
8.848381152934983174e-01
8.848381152934983174e-01
8.849697288760199898e-01
8.849697288760199898e-01
8.851013424585417733e-01
8.851013424585417733e-01
8.852329560410634457e-01
8.852329560410634457e-01
8.854961832061069016e-01
8.854961832061069016e-01
8.856277967886285740e-01
8.856277967886285740e-01
8.857594103711503575e-01
8.857594103711503575e-01
8.858910239536720299e-01
8.858910239536720299e-01
8.861542511187154858e-01
8.861542511187154858e-01
8.865490918662806141e-01
8.865490918662806141e-01
8.866807054488022866e-01
8.866807054488022866e-01
8.872071597788891983e-01
8.872071597788891983e-01
8.873387733614108708e-01
8.873387733614108708e-01
8.876020005264543267e-01
8.876020005264543267e-01
8.877336141089759991e-01
8.877336141089759991e-01
8.877336141089759991e-01
8.878652276914977826e-01
8.878652276914977826e-01
8.881284548565412384e-01
8.881284548565412384e-01
8.882600684390629109e-01
8.882600684390629109e-01
8.883916820215845833e-01
8.883916820215845833e-01
8.885232956041063668e-01
8.885232956041063668e-01
8.886549091866280392e-01
8.886549091866280392e-01
8.887865227691498227e-01
8.887865227691498227e-01
8.889181363516714951e-01
8.889181363516714951e-01
8.890497499341931675e-01
8.890497499341931675e-01
8.891813635167149510e-01
8.891813635167149510e-01
8.893129770992366234e-01
8.893129770992366234e-01
8.895762042642800793e-01
8.895762042642800793e-01
8.897078178468017517e-01
8.897078178468017517e-01
8.899710450118452076e-01
8.899710450118452076e-01
8.901026585943669911e-01
8.901026585943669911e-01
8.902342721768886635e-01
8.902342721768886635e-01
8.904974993419321194e-01
8.904974993419321194e-01
8.907607265069755753e-01
8.907607265069755753e-01
8.910239536720189202e-01
8.910239536720189202e-01
8.912871808370623761e-01
8.912871808370623761e-01
8.916820215846275044e-01
8.916820215846275044e-01
8.918136351671492879e-01
8.918136351671492879e-01
8.919452487496709603e-01
8.919452487496709603e-01
8.922084759147144162e-01
8.922084759147144162e-01
8.923400894972360886e-01
8.923400894972360886e-01
8.924717030797578721e-01
8.924717030797578721e-01
8.926033166622795445e-01
8.926033166622795445e-01
8.927349302448012169e-01
8.927349302448012169e-01
8.929981574098446728e-01
8.929981574098446728e-01
8.931297709923664563e-01
8.931297709923664563e-01
8.932613845748881287e-01
8.932613845748881287e-01
8.933929981574098012e-01
8.933929981574098012e-01
8.935246117399315846e-01
8.935246117399315846e-01
8.936562253224532570e-01
8.936562253224532570e-01
8.937878389049750405e-01
8.937878389049750405e-01
8.939194524874967129e-01
8.939194524874967129e-01
8.940510660700183854e-01
8.940510660700183854e-01
8.941826796525401688e-01
8.941826796525401688e-01
8.943142932350618413e-01
8.943142932350618413e-01
8.945775204001052971e-01
8.945775204001052971e-01
8.948407475651487530e-01
8.948407475651487530e-01
8.949723611476704255e-01
8.949723611476704255e-01
8.951039747301922089e-01
8.951039747301922089e-01
8.953672018952355538e-01
8.953672018952355538e-01
8.956304290602790097e-01
8.956304290602790097e-01
8.957620426428006821e-01
8.957620426428006821e-01
8.960252698078441380e-01
8.960252698078441380e-01
8.961568833903659215e-01
8.961568833903659215e-01
8.965517241379310498e-01
8.965517241379310498e-01
8.969465648854961781e-01
8.969465648854961781e-01
8.970781784680178506e-01
8.970781784680178506e-01
8.972097920505396340e-01
8.972097920505396340e-01
8.973414056330613064e-01
8.974730192155830899e-01
8.974730192155830899e-01
8.976046327981047623e-01
8.976046327981047623e-01
8.977362463806264348e-01
8.977362463806264348e-01
8.979994735456698907e-01
8.979994735456698907e-01
8.982627007107133466e-01
8.982627007107133466e-01
8.983943142932350190e-01
8.983943142932350190e-01
8.985259278757568024e-01
8.985259278757568024e-01
8.986575414582784749e-01
8.986575414582784749e-01
8.990523822058436032e-01
8.990523822058436032e-01
8.991839957883653867e-01
8.991839957883653867e-01
8.993156093708870591e-01
8.993156093708870591e-01
8.994472229534088425e-01
8.994472229534088425e-01
8.995788365359305150e-01
8.995788365359305150e-01
8.999736772834956433e-01
8.999736772834956433e-01
9.001052908660174268e-01
9.001052908660174268e-01
9.005001316135825551e-01
9.005001316135825551e-01
9.006317451961042275e-01
9.006317451961042275e-01
9.007633587786259000e-01
9.007633587786259000e-01
9.008949723611476834e-01
9.008949723611476834e-01
9.010265859436693558e-01
9.010265859436693558e-01
9.011581995261911393e-01
9.011581995261911393e-01
9.012898131087128117e-01
9.012898131087128117e-01
9.015530402737562676e-01
9.015530402737562676e-01
9.016846538562779401e-01
9.016846538562779401e-01
9.019478810213213960e-01
9.019478810213213960e-01
9.020794946038430684e-01
9.020794946038430684e-01
9.022111081863648518e-01
9.022111081863648518e-01
9.023427217688865243e-01
9.023427217688865243e-01
9.024743353514083077e-01
9.024743353514083077e-01
9.026059489339299802e-01
9.026059489339299802e-01
9.028691760989734361e-01
9.028691760989734361e-01
9.030007896814951085e-01
9.030007896814951085e-01
9.031324032640168920e-01
9.031324032640168920e-01
9.033956304290602368e-01
9.033956304290602368e-01
9.035272440115820203e-01
9.035272440115820203e-01
9.036588575941036927e-01
9.036588575941036927e-01
9.037904711766254762e-01
9.037904711766254762e-01
9.040536983416688210e-01
9.040536983416688210e-01
9.041853119241906045e-01
9.041853119241906045e-01
9.043169255067122769e-01
9.043169255067122769e-01
9.045801526717557328e-01
9.045801526717557328e-01
9.047117662542774053e-01
9.047117662542774053e-01
9.048433798367991887e-01
9.048433798367991887e-01
9.049749934193208611e-01
9.049749934193208611e-01
9.052382205843643170e-01
9.052382205843643170e-01
9.055014477494077729e-01
9.055014477494077729e-01
9.056330613319294454e-01
9.056330613319294454e-01
9.057646749144511178e-01
9.057646749144511178e-01
9.060279020794945737e-01
9.060279020794945737e-01
9.062911292445380296e-01
9.062911292445380296e-01
9.064227428270597020e-01
9.064227428270597020e-01
9.066859699921031579e-01
9.066859699921031579e-01
9.069491971571466138e-01
9.069491971571466138e-01
9.070808107396682862e-01
9.070808107396682862e-01
9.074756514872335256e-01
9.074756514872335256e-01
9.078704922347986539e-01
9.078704922347986539e-01
9.080021058173203263e-01
9.080021058173203263e-01
9.081337193998421098e-01
9.081337193998421098e-01
9.082653329823637822e-01
9.082653329823637822e-01
9.083969465648854547e-01
9.083969465648854547e-01
9.085285601474072381e-01
9.085285601474072381e-01
9.086601737299289105e-01
9.086601737299289105e-01
9.087917873124506940e-01
9.087917873124506940e-01
9.089234008949723664e-01
9.089234008949723664e-01
9.090550144774940389e-01
9.090550144774940389e-01
9.091866280600158223e-01
9.091866280600158223e-01
9.094498552250592782e-01
9.094498552250592782e-01
9.095814688075809507e-01
9.095814688075809507e-01
9.097130823901026231e-01
9.097130823901026231e-01
9.098446959726244065e-01
9.098446959726244065e-01
9.099763095551460790e-01
9.099763095551460790e-01
9.101079231376678624e-01
9.101079231376678624e-01
9.102395367201895349e-01
9.102395367201895349e-01
9.103711503027112073e-01
9.103711503027112073e-01
9.105027638852329908e-01
9.105027638852329908e-01
9.106343774677546632e-01
9.106343774677546632e-01
9.107659910502763356e-01
9.107659910502763356e-01
9.108976046327981191e-01
9.108976046327981191e-01
9.111608317978415750e-01
9.111608317978415750e-01
9.112924453803632474e-01
9.112924453803632474e-01
9.114240589628849198e-01
9.114240589628849198e-01
9.115556725454067033e-01
9.115556725454067033e-01
9.116872861279283757e-01
9.116872861279283757e-01
9.118188997104501592e-01
9.118188997104501592e-01
9.119505132929718316e-01
9.119505132929718316e-01
9.120821268754935041e-01
9.120821268754935041e-01
9.122137404580152875e-01
9.122137404580152875e-01
9.124769676230587434e-01
9.124769676230587434e-01
9.126085812055804158e-01
9.126085812055804158e-01
9.127401947881020883e-01
9.127401947881020883e-01
9.128718083706238717e-01
9.128718083706238717e-01
9.130034219531455442e-01
9.130034219531455442e-01
9.131350355356673276e-01
9.131350355356673276e-01
9.132666491181890001e-01
9.132666491181890001e-01
9.133982627007106725e-01
9.133982627007106725e-01
9.135298762832324559e-01
9.135298762832324559e-01
9.136614898657541284e-01
9.136614898657541284e-01
9.137931034482759118e-01
9.137931034482759118e-01
9.139247170307975843e-01
9.139247170307975843e-01
9.140563306133192567e-01
9.140563306133192567e-01
9.141879441958410402e-01
9.141879441958410402e-01
9.143195577783627126e-01
9.143195577783627126e-01
9.144511713608844961e-01
9.144511713608844961e-01
9.145827849434061685e-01
9.145827849434061685e-01
9.147143985259278409e-01
9.147143985259278409e-01
9.148460121084496244e-01
9.148460121084496244e-01
9.149776256909712968e-01
9.149776256909712968e-01
9.151092392734929692e-01
9.151092392734929692e-01
9.152408528560147527e-01
9.152408528560147527e-01
9.153724664385364251e-01
9.153724664385364251e-01
9.155040800210582086e-01
9.155040800210582086e-01
9.156356936035798810e-01
9.156356936035798810e-01
9.157673071861015535e-01
9.157673071861015535e-01
9.158989207686233369e-01
9.158989207686233369e-01
9.160305343511450094e-01
9.160305343511450094e-01
9.161621479336667928e-01
9.161621479336667928e-01
9.162937615161884652e-01
9.162937615161884652e-01
9.165569886812319211e-01
9.165569886812319211e-01
9.168202158462753770e-01
9.168202158462753770e-01
9.169518294287970495e-01
9.169518294287970495e-01
9.170834430113187219e-01
9.170834430113187219e-01
9.172150565938405054e-01
9.172150565938405054e-01
9.173466701763621778e-01
9.173466701763621778e-01
9.174782837588839612e-01
9.174782837588839612e-01
9.176098973414056337e-01
9.176098973414056337e-01
9.177415109239273061e-01
9.177415109239273061e-01
9.178731245064490896e-01
9.178731245064490896e-01
9.180047380889707620e-01
9.180047380889707620e-01
9.181363516714925455e-01
9.181363516714925455e-01
9.182679652540142179e-01
9.182679652540142179e-01
9.183995788365358903e-01
9.183995788365358903e-01
9.185311924190576738e-01
9.185311924190576738e-01
9.186628060015793462e-01
9.186628060015793462e-01
9.187944195841011297e-01
9.187944195841011297e-01
9.189260331666228021e-01
9.189260331666228021e-01
9.191892603316662580e-01
9.191892603316662580e-01
9.193208739141879304e-01
9.193208739141879304e-01
9.194524874967097139e-01
9.194524874967097139e-01
9.195841010792313863e-01
9.195841010792313863e-01
9.197157146617530588e-01
9.197157146617530588e-01
9.198473282442748422e-01
9.198473282442748422e-01
9.199789418267965146e-01
9.199789418267965146e-01
9.201105554093181871e-01
9.201105554093181871e-01
9.202421689918399705e-01
9.202421689918399705e-01
9.203737825743616430e-01
9.203737825743616430e-01
9.205053961568834264e-01
9.205053961568834264e-01
9.206370097394050989e-01
9.206370097394050989e-01
9.209002369044485548e-01
9.209002369044485548e-01
9.210318504869702272e-01
9.210318504869702272e-01
9.211634640694920106e-01
9.211634640694920106e-01
9.212950776520136831e-01
9.212950776520136831e-01
9.214266912345353555e-01
9.214266912345353555e-01
9.216899183995788114e-01
9.216899183995788114e-01
9.218215319821005949e-01
9.218215319821005949e-01
9.219531455646222673e-01
9.219531455646222673e-01
9.220847591471439397e-01
9.220847591471439397e-01
9.222163727296657232e-01
9.222163727296657232e-01
9.223479863121873956e-01
9.223479863121873956e-01
9.224795998947091791e-01
9.224795998947091791e-01
9.226112134772308515e-01
9.226112134772308515e-01
9.228744406422743074e-01
9.228744406422743074e-01
9.230060542247959798e-01
9.230060542247959798e-01
9.231376678073177633e-01
9.231376678073177633e-01
9.232692813898394357e-01
9.232692813898394357e-01
9.234008949723611082e-01
9.234008949723611082e-01
9.235325085548828916e-01
9.235325085548828916e-01
9.236641221374045641e-01
9.236641221374045641e-01
9.237957357199263475e-01
9.237957357199263475e-01
9.239273493024480199e-01
9.239273493024480199e-01
9.240589628849696924e-01
9.240589628849696924e-01
9.241905764674914758e-01
9.241905764674914758e-01
9.243221900500131483e-01
9.243221900500131483e-01
9.244538036325349317e-01
9.244538036325349317e-01
9.245854172150566042e-01
9.245854172150566042e-01
9.247170307975782766e-01
9.247170307975782766e-01
9.248486443801000600e-01
9.248486443801000600e-01
9.249802579626217325e-01
9.249802579626217325e-01
9.251118715451434049e-01
9.251118715451434049e-01
9.252434851276651884e-01
9.252434851276651884e-01
9.253750987101868608e-01
9.253750987101868608e-01
9.255067122927086443e-01
9.255067122927086443e-01
9.256383258752303167e-01
9.256383258752303167e-01
9.257699394577519891e-01
9.257699394577519891e-01
9.259015530402737726e-01
9.259015530402737726e-01
9.260331666227954450e-01
9.260331666227954450e-01
9.261647802053172285e-01
9.261647802053172285e-01
9.262963937878389009e-01
9.262963937878389009e-01
9.264280073703605733e-01
9.264280073703605733e-01
9.266912345354040292e-01
9.266912345354040292e-01
9.268228481179258127e-01
9.268228481179258127e-01
9.269544617004474851e-01
9.269544617004474851e-01
9.270860752829691576e-01
9.270860752829691576e-01
9.272176888654909410e-01
9.272176888654909410e-01
9.273493024480126135e-01
9.273493024480126135e-01
9.274809160305343969e-01
9.274809160305343969e-01
9.276125296130560693e-01
9.276125296130560693e-01
9.277441431955777418e-01
9.277441431955777418e-01
9.278757567780995252e-01
9.278757567780995252e-01
9.280073703606211977e-01
9.280073703606211977e-01
9.281389839431429811e-01
9.281389839431429811e-01
9.282705975256646536e-01
9.282705975256646536e-01
9.284022111081863260e-01
9.284022111081863260e-01
9.285338246907081095e-01
9.285338246907081095e-01
9.286654382732297819e-01
9.286654382732297819e-01
9.287970518557515653e-01
9.287970518557515653e-01
9.289286654382732378e-01
9.289286654382732378e-01
9.290602790207949102e-01
9.290602790207949102e-01
9.291918926033166937e-01
9.291918926033166937e-01
9.293235061858383661e-01
9.293235061858383661e-01
9.294551197683601496e-01
9.294551197683601496e-01
9.295867333508818220e-01
9.295867333508818220e-01
9.297183469334034944e-01
9.297183469334034944e-01
9.298499605159252779e-01
9.298499605159252779e-01
9.299815740984469503e-01
9.299815740984469503e-01
9.301131876809686228e-01
9.301131876809686228e-01
9.302448012634904062e-01
9.302448012634904062e-01
9.303764148460120786e-01
9.303764148460120786e-01
9.305080284285338621e-01
9.305080284285338621e-01
9.306396420110555345e-01
9.306396420110555345e-01
9.309028691760989904e-01
9.309028691760989904e-01
9.310344827586206629e-01
9.310344827586206629e-01
9.311660963411424463e-01
9.311660963411424463e-01
9.312977099236641187e-01
9.312977099236641187e-01
9.314293235061857912e-01
9.314293235061857912e-01
9.315609370887075746e-01
9.315609370887075746e-01
9.316925506712292471e-01
9.316925506712292471e-01
9.318241642537510305e-01
9.318241642537510305e-01
9.319557778362727030e-01
9.319557778362727030e-01
9.320873914187943754e-01
9.320873914187943754e-01
9.322190050013161589e-01
9.322190050013161589e-01
9.324822321663596147e-01
9.324822321663596147e-01
9.326138457488812872e-01
9.326138457488812872e-01
9.327454593314029596e-01
9.327454593314029596e-01
9.328770729139247431e-01
9.328770729139247431e-01
9.330086864964464155e-01
9.330086864964464155e-01
9.331403000789681990e-01
9.331403000789681990e-01
9.332719136614898714e-01
9.332719136614898714e-01
9.334035272440115438e-01
9.334035272440115438e-01
9.335351408265333273e-01
9.335351408265333273e-01
9.336667544090549997e-01
9.336667544090549997e-01
9.337983679915767832e-01
9.337983679915767832e-01
9.339299815740984556e-01
9.339299815740984556e-01
9.341932087391419115e-01
9.341932087391419115e-01
9.343248223216635839e-01
9.343248223216635839e-01
9.344564359041853674e-01
9.344564359041853674e-01
9.345880494867070398e-01
9.345880494867070398e-01
9.347196630692287123e-01
9.347196630692287123e-01
9.348512766517504957e-01
9.348512766517504957e-01
9.349828902342721682e-01
9.349828902342721682e-01
9.351145038167938406e-01
9.351145038167938406e-01
9.352461173993156240e-01
9.352461173993156240e-01
9.353777309818372965e-01
9.353777309818372965e-01
9.355093445643590799e-01
9.355093445643590799e-01
9.356409581468807524e-01
9.356409581468807524e-01
9.360357988944458807e-01
9.360357988944458807e-01
9.361674124769676641e-01
9.361674124769676641e-01
9.362990260594893366e-01
9.362990260594893366e-01
9.364306396420110090e-01
9.364306396420110090e-01
9.365622532245327925e-01
9.365622532245327925e-01
9.368254803895762484e-01
9.368254803895762484e-01
9.369570939720979208e-01
9.369570939720979208e-01
9.370887075546195932e-01
9.370887075546195932e-01
9.372203211371413767e-01
9.372203211371413767e-01
9.373519347196630491e-01
9.373519347196630491e-01
9.374835483021848326e-01
9.374835483021848326e-01
9.376151618847065050e-01
9.376151618847065050e-01
9.377467754672281774e-01
9.377467754672281774e-01
9.378783890497499609e-01
9.378783890497499609e-01
9.382732297973150892e-01
9.382732297973150892e-01
9.384048433798367617e-01
9.384048433798367617e-01
9.385364569623585451e-01
9.385364569623585451e-01
9.386680705448802176e-01
9.386680705448802176e-01
9.387996841274020010e-01
9.387996841274020010e-01
9.389312977099236734e-01
9.389312977099236734e-01
9.390629112924453459e-01
9.390629112924453459e-01
9.391945248749671293e-01
9.391945248749671293e-01
9.393261384574888018e-01
9.393261384574888018e-01
9.394577520400104742e-01
9.394577520400104742e-01
9.395893656225322577e-01
9.395893656225322577e-01
9.397209792050539301e-01
9.397209792050539301e-01
9.398525927875757136e-01
9.398525927875757136e-01
9.399842063700973860e-01
9.399842063700973860e-01
9.401158199526190584e-01
9.401158199526190584e-01
9.402474335351408419e-01
9.402474335351408419e-01
9.403790471176625143e-01
9.403790471176625143e-01
9.405106607001842978e-01
9.405106607001842978e-01
9.406422742827059702e-01
9.406422742827059702e-01
9.407738878652276426e-01
9.407738878652276426e-01
9.410371150302710985e-01
9.410371150302710985e-01
9.411687286127928820e-01
9.411687286127928820e-01
9.413003421953145544e-01
9.413003421953145544e-01
9.414319557778362269e-01
9.414319557778362269e-01
9.415635693603580103e-01
9.415635693603580103e-01
9.416951829428796827e-01
9.416951829428796827e-01
9.418267965254014662e-01
9.418267965254014662e-01
9.419584101079231386e-01
9.419584101079231386e-01
9.420900236904448111e-01
9.420900236904448111e-01
9.422216372729665945e-01
9.422216372729665945e-01
9.424848644380100504e-01
9.424848644380100504e-01
9.426164780205317228e-01
9.426164780205317228e-01
9.427480916030533953e-01
9.427480916030533953e-01
9.428797051855751787e-01
9.428797051855751787e-01
9.430113187680968512e-01
9.430113187680968512e-01
9.431429323506186346e-01
9.431429323506186346e-01
9.432745459331403071e-01
9.432745459331403071e-01
9.434061595156619795e-01
9.434061595156619795e-01
9.435377730981837630e-01
9.435377730981837630e-01
9.436693866807054354e-01
9.436693866807054354e-01
9.438010002632272188e-01
9.438010002632272188e-01
9.439326138457488913e-01
9.439326138457488913e-01
9.440642274282705637e-01
9.440642274282705637e-01
9.441958410107923472e-01
9.441958410107923472e-01
9.443274545933140196e-01
9.443274545933140196e-01
9.444590681758356920e-01
9.444590681758356920e-01
9.444590681758356920e-01
9.444590681758356920e-01
9.445906817583574755e-01
9.445906817583574755e-01
9.447222953408791479e-01
9.447222953408791479e-01
9.448539089234009314e-01
9.448539089234009314e-01
9.451171360884442763e-01
9.451171360884442763e-01
9.453803632534877321e-01
9.453803632534877321e-01
9.455119768360095156e-01
9.455119768360095156e-01
9.457752040010528605e-01
9.457752040010528605e-01
9.459068175835746439e-01
9.459068175835746439e-01
9.460384311660963164e-01
9.460384311660963164e-01
9.461700447486180998e-01
9.461700447486180998e-01
9.463016583311397723e-01
9.463016583311397723e-01
9.464332719136614447e-01
9.464332719136614447e-01
9.465648854961832281e-01
9.465648854961832281e-01
9.466964990787049006e-01
9.466964990787049006e-01
9.468281126612266840e-01
9.468281126612266840e-01
9.469597262437483565e-01
9.469597262437483565e-01
9.470913398262700289e-01
9.470913398262700289e-01
9.472229534087918124e-01
9.472229534087918124e-01
9.473545669913134848e-01
9.473545669913134848e-01
9.474861805738352682e-01
9.474861805738352682e-01
9.476177941563569407e-01
9.476177941563569407e-01
9.477494077388786131e-01
9.477494077388786131e-01
9.480126349039220690e-01
9.480126349039220690e-01
9.481442484864438525e-01
9.481442484864438525e-01
9.482758620689655249e-01
9.482758620689655249e-01
9.484074756514871973e-01
9.484074756514871973e-01
9.485390892340089808e-01
9.485390892340089808e-01
9.486707028165306532e-01
9.486707028165306532e-01
9.489339299815741091e-01
9.489339299815741091e-01
9.490655435640957815e-01
9.490655435640957815e-01
9.491971571466175650e-01
9.491971571466175650e-01
9.493287707291392374e-01
9.493287707291392374e-01
9.494603843116609099e-01
9.494603843116609099e-01
9.495919978941826933e-01
9.495919978941826933e-01
9.497236114767043658e-01
9.497236114767043658e-01
9.498552250592261492e-01
9.498552250592261492e-01
9.499868386417478217e-01
9.499868386417478217e-01
9.501184522242694941e-01
9.501184522242694941e-01
9.503816793893129500e-01
9.503816793893129500e-01
9.505132929718347334e-01
9.505132929718347334e-01
9.506449065543564059e-01
9.506449065543564059e-01
9.507765201368780783e-01
9.507765201368780783e-01
9.510397473019215342e-01
9.510397473019215342e-01
9.511713608844433177e-01
9.511713608844433177e-01
9.513029744669649901e-01
9.513029744669649901e-01
9.515662016320084460e-01
9.515662016320084460e-01
9.516978152145301184e-01
9.516978152145301184e-01
9.518294287970519019e-01
9.518294287970519019e-01
9.519610423795735743e-01
9.519610423795735743e-01
9.520926559620952467e-01
9.520926559620952467e-01
9.522242695446170302e-01
9.522242695446170302e-01
9.523558831271387026e-01
9.523558831271387026e-01
9.524874967096604861e-01
9.524874967096604861e-01
9.526191102921821585e-01
9.526191102921821585e-01
9.527507238747038310e-01
9.527507238747038310e-01
9.528823374572256144e-01
9.528823374572256144e-01
9.530139510397472868e-01
9.530139510397472868e-01
9.531455646222690703e-01
9.531455646222690703e-01
9.532771782047907427e-01
9.532771782047907427e-01
9.534087917873124152e-01
9.534087917873124152e-01
9.536720189523558711e-01
9.536720189523558711e-01
9.538036325348776545e-01
9.538036325348776545e-01
9.539352461173993269e-01
9.539352461173993269e-01
9.540668596999209994e-01
9.540668596999209994e-01
9.541984732824427828e-01
9.541984732824427828e-01
9.543300868649644553e-01
9.543300868649644553e-01
9.544617004474861277e-01
9.544617004474861277e-01
9.545933140300079112e-01
9.545933140300079112e-01
9.547249276125295836e-01
9.547249276125295836e-01
9.548565411950513671e-01
9.548565411950513671e-01
9.549881547775730395e-01
9.549881547775730395e-01
9.551197683600947119e-01
9.551197683600947119e-01
9.552513819426164954e-01
9.552513819426164954e-01
9.553829955251381678e-01
9.553829955251381678e-01
9.555146091076599513e-01
9.555146091076599513e-01
9.556462226901816237e-01
9.556462226901816237e-01
9.557778362727032961e-01
9.557778362727032961e-01
9.559094498552250796e-01
9.559094498552250796e-01
9.560410634377467520e-01
9.560410634377467520e-01
9.561726770202685355e-01
9.561726770202685355e-01
9.563042906027902079e-01
9.563042906027902079e-01
9.564359041853118804e-01
9.564359041853118804e-01
9.565675177678336638e-01
9.565675177678336638e-01
9.566991313503553362e-01
9.566991313503553362e-01
9.568307449328771197e-01
9.568307449328771197e-01
9.569623585153987921e-01
9.569623585153987921e-01
9.570939720979204646e-01
9.570939720979204646e-01
9.572255856804422480e-01
9.572255856804422480e-01
9.573571992629639205e-01
9.573571992629639205e-01
9.574888128454857039e-01
9.574888128454857039e-01
9.576204264280073764e-01
9.576204264280073764e-01
9.577520400105290488e-01
9.577520400105290488e-01
9.578836535930508322e-01
9.578836535930508322e-01
9.580152671755725047e-01
9.580152671755725047e-01
9.581468807580942881e-01
9.581468807580942881e-01
9.582784943406159606e-01
9.582784943406159606e-01
9.584101079231376330e-01
9.584101079231376330e-01
9.585417215056594165e-01
9.585417215056594165e-01
9.586733350881810889e-01
9.586733350881810889e-01
9.588049486707027613e-01
9.588049486707027613e-01
9.589365622532245448e-01
9.589365622532245448e-01
9.590681758357462172e-01
9.590681758357462172e-01
9.591997894182680007e-01
9.591997894182680007e-01
9.593314030007896731e-01
9.593314030007896731e-01
9.594630165833113455e-01
9.594630165833113455e-01
9.595946301658331290e-01
9.595946301658331290e-01
9.597262437483548014e-01
9.597262437483548014e-01
9.598578573308765849e-01
9.598578573308765849e-01
9.599894709133982573e-01
9.599894709133982573e-01
9.601210844959199298e-01
9.601210844959199298e-01
9.602526980784417132e-01
9.602526980784417132e-01
9.603843116609633856e-01
9.603843116609633856e-01
9.605159252434851691e-01
9.605159252434851691e-01
9.606475388260068415e-01
9.606475388260068415e-01
9.607791524085285140e-01
9.607791524085285140e-01
9.609107659910502974e-01
9.609107659910502974e-01
9.610423795735719699e-01
9.610423795735719699e-01
9.611739931560937533e-01
9.611739931560937533e-01
9.613056067386154258e-01
9.613056067386154258e-01
9.614372203211370982e-01
9.614372203211370982e-01
9.615688339036588816e-01
9.615688339036588816e-01
9.617004474861805541e-01
9.617004474861805541e-01
9.618320610687023375e-01
9.618320610687023375e-01
9.619636746512240100e-01
9.619636746512240100e-01
9.620952882337456824e-01
9.620952882337456824e-01
9.622269018162674659e-01
9.622269018162674659e-01
9.623585153987891383e-01
9.623585153987891383e-01
9.624901289813109218e-01
9.624901289813109218e-01
9.626217425638325942e-01
9.626217425638325942e-01
9.627533561463542666e-01
9.627533561463542666e-01
9.628849697288760501e-01
9.628849697288760501e-01
9.630165833113977225e-01
9.630165833113977225e-01
9.631481968939195060e-01
9.631481968939195060e-01
9.632798104764411784e-01
9.632798104764411784e-01
9.634114240589628508e-01
9.634114240589628508e-01
9.635430376414846343e-01
9.635430376414846343e-01
9.636746512240063067e-01
9.636746512240063067e-01
9.638062648065279792e-01
9.638062648065279792e-01
9.639378783890497626e-01
9.639378783890497626e-01
9.640694919715714351e-01
9.640694919715714351e-01
9.642011055540932185e-01
9.642011055540932185e-01
9.643327191366148909e-01
9.643327191366148909e-01
9.644643327191365634e-01
9.644643327191365634e-01
9.645959463016583468e-01
9.645959463016583468e-01
9.647275598841800193e-01
9.647275598841800193e-01
9.648591734667018027e-01
9.648591734667018027e-01
9.648591734667018027e-01
9.648591734667018027e-01
9.649907870492234752e-01
9.649907870492234752e-01
9.651224006317451476e-01
9.651224006317451476e-01
9.653856277967886035e-01
9.653856277967886035e-01
9.655172413793103869e-01
9.655172413793103869e-01
9.656488549618320594e-01
9.656488549618320594e-01
9.659120821268755153e-01
9.659120821268755153e-01
9.660436957093971877e-01
9.660436957093971877e-01
9.661753092919189712e-01
9.661753092919189712e-01
9.663069228744406436e-01
9.663069228744406436e-01
9.664385364569623160e-01
9.664385364569623160e-01
9.665701500394840995e-01
9.665701500394840995e-01
9.669649907870492278e-01
9.669649907870492278e-01
9.670966043695709002e-01
9.670966043695709002e-01
9.672282179520926837e-01
9.672282179520926837e-01
9.673598315346143561e-01
9.673598315346143561e-01
9.674914451171361396e-01
9.674914451171361396e-01
9.676230586996578120e-01
9.676230586996578120e-01
9.677546722821794845e-01
9.677546722821794845e-01
9.678862858647012679e-01
9.678862858647012679e-01
9.680178994472229403e-01
9.680178994472229403e-01
9.681495130297447238e-01
9.681495130297447238e-01
9.682811266122663962e-01
9.682811266122663962e-01
9.684127401947880687e-01
9.684127401947880687e-01
9.685443537773098521e-01
9.685443537773098521e-01
9.688075809423531970e-01
9.688075809423531970e-01
9.689391945248749805e-01
9.689391945248749805e-01
9.690708081073966529e-01
9.690708081073966529e-01
9.692024216899184363e-01
9.692024216899184363e-01
9.693340352724401088e-01
9.693340352724401088e-01
9.694656488549617812e-01
9.694656488549617812e-01
9.695972624374835647e-01
9.695972624374835647e-01
9.697288760200052371e-01
9.697288760200052371e-01
9.698604896025270206e-01
9.698604896025270206e-01
9.699921031850486930e-01
9.699921031850486930e-01
9.701237167675703654e-01
9.701237167675703654e-01
9.702553303500921489e-01
9.702553303500921489e-01
9.703869439326138213e-01
9.703869439326138213e-01
9.707817846801789496e-01
9.707817846801789496e-01
9.709133982627007331e-01
9.709133982627007331e-01
9.710450118452224055e-01
9.710450118452224055e-01
9.711766254277441890e-01
9.711766254277441890e-01
9.713082390102658614e-01
9.713082390102658614e-01
9.714398525927875339e-01
9.714398525927875339e-01
9.715714661753093173e-01
9.715714661753093173e-01
9.717030797578309897e-01
9.717030797578309897e-01
9.718346933403527732e-01
9.718346933403527732e-01
9.720979205053961181e-01
9.720979205053961181e-01
9.722295340879179015e-01
9.722295340879179015e-01
9.723611476704395740e-01
9.723611476704395740e-01
9.724927612529613574e-01
9.724927612529613574e-01
9.726243748354830299e-01
9.726243748354830299e-01
9.727559884180047023e-01
9.727559884180047023e-01
9.728876020005264857e-01
9.728876020005264857e-01
9.730192155830481582e-01
9.730192155830481582e-01
9.731508291655699416e-01
9.731508291655699416e-01
9.732824427480916141e-01
9.732824427480916141e-01
9.734140563306132865e-01
9.734140563306132865e-01
9.736772834956567424e-01
9.736772834956567424e-01
9.738088970781784148e-01
9.738088970781784148e-01
9.739405106607001983e-01
9.739405106607001983e-01
9.740721242432218707e-01
9.740721242432218707e-01
9.742037378257436542e-01
9.742037378257436542e-01
9.743353514082653266e-01
9.743353514082653266e-01
9.745985785733087825e-01
9.745985785733087825e-01
9.747301921558304549e-01
9.747301921558304549e-01
9.748618057383522384e-01
9.748618057383522384e-01
9.749934193208739108e-01
9.749934193208739108e-01
9.751250329033955833e-01
9.751250329033955833e-01
9.752566464859173667e-01
9.752566464859173667e-01
9.753882600684390392e-01
9.753882600684390392e-01
9.755198736509608226e-01
9.755198736509608226e-01
9.755198736509608226e-01
9.755198736509608226e-01
9.756514872334824950e-01
9.756514872334824950e-01
9.757831008160041675e-01
9.757831008160041675e-01
9.759147143985259509e-01
9.759147143985259509e-01
9.760463279810476234e-01
9.760463279810476234e-01
9.761779415635694068e-01
9.761779415635694068e-01
9.763095551460910793e-01
9.763095551460910793e-01
9.764411687286127517e-01
9.764411687286127517e-01
9.765727823111345351e-01
9.765727823111345351e-01
9.767043958936562076e-01
9.767043958936562076e-01
9.768360094761779910e-01
9.768360094761779910e-01
9.769676230586996635e-01
9.769676230586996635e-01
9.770992366412213359e-01
9.770992366412213359e-01
9.772308502237431194e-01
9.772308502237431194e-01
9.773624638062647918e-01
9.773624638062647918e-01
9.774940773887865753e-01
9.774940773887865753e-01
9.776256909713082477e-01
9.776256909713082477e-01
9.777573045538299201e-01
9.777573045538299201e-01
9.778889181363517036e-01
9.778889181363517036e-01
9.780205317188733760e-01
9.780205317188733760e-01
9.781521453013951595e-01
9.781521453013951595e-01
9.782837588839168319e-01
9.782837588839168319e-01
9.784153724664385043e-01
9.784153724664385043e-01
9.785469860489602878e-01
9.785469860489602878e-01
9.786785996314819602e-01
9.786785996314819602e-01
9.788102132140036327e-01
9.788102132140036327e-01
9.789418267965254161e-01
9.789418267965254161e-01
9.790734403790470886e-01
9.790734403790470886e-01
9.792050539615688720e-01
9.792050539615688720e-01
9.793366675440905444e-01
9.793366675440905444e-01
9.794682811266122169e-01
9.794682811266122169e-01
9.795998947091340003e-01
9.795998947091340003e-01
9.797315082916556728e-01
9.797315082916556728e-01
9.798631218741774562e-01
9.798631218741774562e-01
9.799947354566991287e-01
9.799947354566991287e-01
9.801263490392208011e-01
9.801263490392208011e-01
9.802579626217425846e-01
9.802579626217425846e-01
9.803895762042642570e-01
9.803895762042642570e-01
9.805211897867860404e-01
9.805211897867860404e-01
9.806528033693077129e-01
9.806528033693077129e-01
9.807844169518293853e-01
9.807844169518293853e-01
9.809160305343511688e-01
9.809160305343511688e-01
9.810476441168728412e-01
9.810476441168728412e-01
9.811792576993946247e-01
9.811792576993946247e-01
9.813108712819162971e-01
9.813108712819162971e-01
9.814424848644379695e-01
9.814424848644379695e-01
9.815740984469597530e-01
9.815740984469597530e-01
9.817057120294814254e-01
9.817057120294814254e-01
9.818373256120032089e-01
9.818373256120032089e-01
9.819689391945248813e-01
9.819689391945248813e-01
9.823637799420900096e-01
9.823637799420900096e-01
9.824953935246117931e-01
9.824953935246117931e-01
9.826270071071334655e-01
9.826270071071334655e-01
9.827586206896551380e-01
9.827586206896551380e-01
9.828902342721769214e-01
9.828902342721769214e-01
9.830218478546985938e-01
9.830218478546985938e-01
9.831534614372202663e-01
9.831534614372202663e-01
9.832850750197420497e-01
9.832850750197420497e-01
9.834166886022637222e-01
9.834166886022637222e-01
9.835483021847855056e-01
9.835483021847855056e-01
9.836799157673071781e-01
9.836799157673071781e-01
9.838115293498288505e-01
9.838115293498288505e-01
9.839431429323506340e-01
9.839431429323506340e-01
9.840747565148723064e-01
9.840747565148723064e-01
9.842063700973940898e-01
9.842063700973940898e-01
9.843379836799157623e-01
9.843379836799157623e-01
9.844695972624374347e-01
9.844695972624374347e-01
9.846012108449592182e-01
9.846012108449592182e-01
9.847328244274808906e-01
9.847328244274808906e-01
9.848644380100026741e-01
9.848644380100026741e-01
9.849960515925243465e-01
9.849960515925243465e-01
9.851276651750460189e-01
9.851276651750460189e-01
9.852592787575678024e-01
9.852592787575678024e-01
9.853908923400894748e-01
9.853908923400894748e-01
9.856541195051329307e-01
9.856541195051329307e-01
9.857857330876546031e-01
9.857857330876546031e-01
9.859173466701763866e-01
9.859173466701763866e-01
9.860489602526980590e-01
9.860489602526980590e-01
9.860489602526980590e-01
9.860489602526980590e-01
9.861805738352198425e-01
9.861805738352198425e-01
9.863121874177415149e-01
9.863121874177415149e-01
9.864438010002631874e-01
9.864438010002631874e-01
9.867070281653066433e-01
9.867070281653066433e-01
9.868386417478284267e-01
9.868386417478284267e-01
9.869702553303500991e-01
9.869702553303500991e-01
9.871018689128717716e-01
9.871018689128717716e-01
9.872334824953935550e-01
9.872334824953935550e-01
9.873650960779152275e-01
9.873650960779152275e-01
9.874967096604370109e-01
9.874967096604370109e-01
9.876283232429586834e-01
9.876283232429586834e-01
9.877599368254803558e-01
9.877599368254803558e-01
9.878915504080021392e-01
9.878915504080021392e-01
9.880231639905238117e-01
9.880231639905238117e-01
9.881547775730454841e-01
9.881547775730454841e-01
9.882863911555672676e-01
9.882863911555672676e-01
9.884180047380889400e-01
9.884180047380889400e-01
9.885496183206107235e-01
9.885496183206107235e-01
9.886812319031323959e-01
9.886812319031323959e-01
9.888128454856540683e-01
9.888128454856540683e-01
9.889444590681758518e-01
9.889444590681758518e-01
9.890760726506975242e-01
9.890760726506975242e-01
9.892076862332193077e-01
9.892076862332193077e-01
9.893392998157409801e-01
9.893392998157409801e-01
9.894709133982626525e-01
9.894709133982626525e-01
9.896025269807844360e-01
9.896025269807844360e-01
9.897341405633061084e-01
9.897341405633061084e-01
9.898657541458278919e-01
9.898657541458278919e-01
9.899973677283495643e-01
9.899973677283495643e-01
9.901289813108712368e-01
9.901289813108712368e-01
9.902605948933930202e-01
9.902605948933930202e-01
9.903922084759146927e-01
9.903922084759146927e-01
9.905238220584364761e-01
9.905238220584364761e-01
9.906554356409581485e-01
9.906554356409581485e-01
9.907870492234798210e-01
9.907870492234798210e-01
9.909186628060016044e-01
9.909186628060016044e-01
9.910502763885232769e-01
9.910502763885232769e-01
9.913135035535667328e-01
9.913135035535667328e-01
9.914451171360884052e-01
9.914451171360884052e-01
9.915767307186101887e-01
9.915767307186101887e-01
9.917083443011318611e-01
9.917083443011318611e-01
9.919715714661753170e-01
9.919715714661753170e-01
9.921031850486969894e-01
9.921031850486969894e-01
9.922347986312187729e-01
9.922347986312187729e-01
9.923664122137404453e-01
9.923664122137404453e-01
9.924980257962622288e-01
9.924980257962622288e-01
9.926296393787839012e-01
9.926296393787839012e-01
9.927612529613055736e-01
9.927612529613055736e-01
9.928928665438273571e-01
9.928928665438273571e-01
9.930244801263490295e-01
9.930244801263490295e-01
9.931560937088707020e-01
9.931560937088707020e-01
9.932877072913924854e-01
9.932877072913924854e-01
9.934193208739141578e-01
9.934193208739141578e-01
9.935509344564359413e-01
9.935509344564359413e-01
9.936825480389576137e-01
9.936825480389576137e-01
9.938141616214792862e-01
9.938141616214792862e-01
9.939457752040010696e-01
9.939457752040010696e-01
9.942090023690445255e-01
9.942090023690445255e-01
9.943406159515661979e-01
9.943406159515661979e-01
9.944722295340878704e-01
9.944722295340878704e-01
9.946038431166096538e-01
9.946038431166096538e-01
9.947354566991313263e-01
9.947354566991313263e-01
9.948670702816531097e-01
9.948670702816531097e-01
9.949986838641747822e-01
9.949986838641747822e-01
9.951302974466964546e-01
9.951302974466964546e-01
9.952619110292182381e-01
9.952619110292182381e-01
9.953935246117399105e-01
9.953935246117399105e-01
9.955251381942616939e-01
9.955251381942616939e-01
9.956567517767833664e-01
9.956567517767833664e-01
9.957883653593050388e-01
9.957883653593050388e-01
9.959199789418268223e-01
9.959199789418268223e-01
9.960515925243484947e-01
9.960515925243484947e-01
9.961832061068702782e-01
9.961832061068702782e-01
9.963148196893919506e-01
9.963148196893919506e-01
9.964464332719136230e-01
9.964464332719136230e-01
9.965780468544354065e-01
9.965780468544354065e-01
9.965780468544354065e-01
9.965780468544354065e-01
9.967096604369570789e-01
9.967096604369570789e-01
9.968412740194788624e-01
9.968412740194788624e-01
9.968412740194788624e-01
9.968412740194788624e-01
9.969728876020005348e-01
9.969728876020005348e-01
9.971045011845222072e-01
9.971045011845222072e-01
9.973677283495656631e-01
9.973677283495656631e-01
9.974993419320874466e-01
9.974993419320874466e-01
9.976309555146091190e-01
9.976309555146091190e-01
9.977625690971307915e-01
9.977625690971307915e-01
9.978941826796525749e-01
9.978941826796525749e-01
9.980257962621742474e-01
9.980257962621742474e-01
9.981574098446959198e-01
9.981574098446959198e-01
9.982890234272177032e-01
9.982890234272177032e-01
9.984206370097393757e-01
9.984206370097393757e-01
9.985522505922611591e-01
9.985522505922611591e-01
9.986838641747828316e-01
9.986838641747828316e-01
9.988154777573045040e-01
9.988154777573045040e-01
9.989470913398262875e-01
9.989470913398262875e-01
9.990787049223479599e-01
9.990787049223479599e-01
9.993419320873914158e-01
9.993419320873914158e-01
9.996051592524348717e-01
9.996051592524348717e-01
9.997367728349565441e-01
9.997367728349565441e-01
9.998683864174783276e-01
9.998683864174783276e-01
1.000000000000000000e+00
1.000000000000000000e+00
