0.000000000000000000e+00
0.000000000000000000e+00
0.000000000000000000e+00
1.166725002916812483e-04
1.166725002916812483e-04
1.166725002916812483e-04
1.166725002916812483e-04
2.333450005833624967e-04
2.333450005833624967e-04
3.500175008750437450e-04
3.500175008750437450e-04
3.500175008750437450e-04
4.666900011667249933e-04
4.666900011667249933e-04
4.666900011667249933e-04
4.666900011667249933e-04
4.666900011667249933e-04
4.666900011667249933e-04
4.666900011667249933e-04
4.666900011667249933e-04
4.666900011667249933e-04
4.666900011667249933e-04
4.666900011667249933e-04
4.666900011667249933e-04
4.666900011667249933e-04
4.666900011667249933e-04
4.666900011667249933e-04
4.666900011667249933e-04
4.666900011667249933e-04
4.666900011667249933e-04
4.666900011667249933e-04
4.666900011667249933e-04
4.666900011667249933e-04
4.666900011667249933e-04
4.666900011667249933e-04
4.666900011667249933e-04
4.666900011667249933e-04
4.666900011667249933e-04
4.666900011667249933e-04
4.666900011667249933e-04
5.833625014584062959e-04
5.833625014584062959e-04
5.833625014584062959e-04
5.833625014584062959e-04
5.833625014584062959e-04
5.833625014584062959e-04
5.833625014584062959e-04
5.833625014584062959e-04
5.833625014584062959e-04
5.833625014584062959e-04
5.833625014584062959e-04
5.833625014584062959e-04
5.833625014584062959e-04
5.833625014584062959e-04
7.000350017500874900e-04
7.000350017500874900e-04
7.000350017500874900e-04
7.000350017500874900e-04
7.000350017500874900e-04
7.000350017500874900e-04
8.167075020417687925e-04
8.167075020417687925e-04
8.167075020417687925e-04
8.167075020417687925e-04
9.333800023334499867e-04
9.333800023334499867e-04
1.050052502625131289e-03
1.050052502625131289e-03
1.166725002916812592e-03
1.166725002916812592e-03
1.283397503208493677e-03
1.283397503208493677e-03
1.400070003500174980e-03
1.400070003500174980e-03
1.516742503791856283e-03
1.516742503791856283e-03
1.633415004083537585e-03
1.633415004083537585e-03
1.750087504375218671e-03
1.750087504375218671e-03
1.866760004666899973e-03
1.866760004666899973e-03
1.983432504958581276e-03
1.983432504958581276e-03
2.100105005250262578e-03
2.100105005250262578e-03
2.216777505541943881e-03
2.216777505541943881e-03
2.333450005833625183e-03
2.333450005833625183e-03
2.450122506125306052e-03
2.450122506125306052e-03
2.450122506125306052e-03
2.450122506125306052e-03
2.566795006416987355e-03
2.566795006416987355e-03
2.683467506708668657e-03
2.683467506708668657e-03
2.683467506708668657e-03
2.683467506708668657e-03
2.800140007000349960e-03
2.800140007000349960e-03
2.916812507292031263e-03
2.916812507292031263e-03
3.033485007583712565e-03
3.033485007583712565e-03
3.150157507875393868e-03
3.150157507875393868e-03
3.266830008167075170e-03
3.266830008167075170e-03
3.383502508458756473e-03
3.383502508458756473e-03
3.500175008750437342e-03
3.500175008750437342e-03
3.616847509042118644e-03
3.616847509042118644e-03
3.733520009333799947e-03
3.733520009333799947e-03
3.850192509625481249e-03
3.850192509625481249e-03
3.966865009917162552e-03
3.966865009917162552e-03
4.083537510208843854e-03
4.083537510208843854e-03
4.200210010500525157e-03
4.200210010500525157e-03
4.316882510792206459e-03
4.316882510792206459e-03
4.433555011083887762e-03
4.433555011083887762e-03
4.550227511375569064e-03
4.550227511375569064e-03
4.666900011667250367e-03
4.666900011667250367e-03
4.783572511958931670e-03
4.783572511958931670e-03
4.900245012250612105e-03
4.900245012250612105e-03
5.016917512542293407e-03
5.016917512542293407e-03
5.133590012833974710e-03
5.133590012833974710e-03
5.250262513125656012e-03
5.250262513125656012e-03
5.366935013417337315e-03
5.366935013417337315e-03
5.483607513709018617e-03
5.483607513709018617e-03
5.600280014000699920e-03
5.600280014000699920e-03
5.716952514292381222e-03
5.716952514292381222e-03
5.833625014584062525e-03
5.833625014584062525e-03
5.950297514875743828e-03
5.950297514875743828e-03
6.066970015167425130e-03
6.066970015167425130e-03
6.183642515459106433e-03
6.183642515459106433e-03
6.300315015750787735e-03
6.300315015750787735e-03
6.416987516042469038e-03
6.416987516042469038e-03
6.533660016334150340e-03
6.533660016334150340e-03
6.650332516625831643e-03
6.650332516625831643e-03
6.767005016917512945e-03
6.767005016917512945e-03
6.883677517209193381e-03
6.883677517209193381e-03
7.000350017500874683e-03
7.000350017500874683e-03
7.117022517792555986e-03
7.117022517792555986e-03
7.233695018084237288e-03
7.233695018084237288e-03
7.350367518375918591e-03
7.350367518375918591e-03
7.467040018667599893e-03
7.467040018667599893e-03
7.583712518959281196e-03
7.583712518959281196e-03
7.817057519542643801e-03
7.817057519542643801e-03
8.050402520126006406e-03
8.050402520126006406e-03
8.167075020417687709e-03
8.167075020417687709e-03
8.283747520709369011e-03
8.283747520709369011e-03
8.400420021001050314e-03
8.400420021001050314e-03
8.517092521292731616e-03
8.517092521292731616e-03
8.633765021584412919e-03
8.633765021584412919e-03
8.750437521876094221e-03
8.750437521876094221e-03
8.867110022167775524e-03
8.867110022167775524e-03
8.983782522459456826e-03
8.983782522459456826e-03
9.100455022751138129e-03
9.100455022751138129e-03
9.217127523042819431e-03
9.217127523042819431e-03
9.333800023334500734e-03
9.333800023334500734e-03
9.450472523626182036e-03
9.450472523626182036e-03
9.567145023917863339e-03
9.567145023917863339e-03
9.683817524209544642e-03
9.683817524209544642e-03
9.800490024501224209e-03
9.800490024501224209e-03
9.917162524792905512e-03
9.917162524792905512e-03
1.003383502508458681e-02
1.003383502508458681e-02
1.015050752537626812e-02
1.015050752537626812e-02
1.026718002566794942e-02
1.026718002566794942e-02
1.038385252595963072e-02
1.038385252595963072e-02
1.050052502625131202e-02
1.050052502625131202e-02
1.050052502625131202e-02
1.050052502625131202e-02
1.061719752654299333e-02
1.061719752654299333e-02
1.073387002683467463e-02
1.073387002683467463e-02
1.085054252712635593e-02
1.085054252712635593e-02
1.108388752770971854e-02
1.108388752770971854e-02
1.120056002800139984e-02
1.120056002800139984e-02
1.131723252829308114e-02
1.131723252829308114e-02
1.143390502858476244e-02
1.143390502858476244e-02
1.155057752887644375e-02
1.155057752887644375e-02
1.166725002916812505e-02
1.166725002916812505e-02
1.178392252945980635e-02
1.178392252945980635e-02
1.190059502975148766e-02
1.190059502975148766e-02
1.201726753004316896e-02
1.201726753004316896e-02
1.213394003033485026e-02
1.213394003033485026e-02
1.225061253062653156e-02
1.225061253062653156e-02
1.236728503091821287e-02
1.236728503091821287e-02
1.248395753120989417e-02
1.248395753120989417e-02
1.260063003150157547e-02
1.260063003150157547e-02
1.271730253179325677e-02
1.271730253179325677e-02
1.283397503208493808e-02
1.283397503208493808e-02
1.295064753237661938e-02
1.295064753237661938e-02
1.306732003266830068e-02
1.306732003266830068e-02
1.318399253295998198e-02
1.318399253295998198e-02
1.330066503325166329e-02
1.330066503325166329e-02
1.341733753354334459e-02
1.341733753354334459e-02
1.353401003383502589e-02
1.353401003383502589e-02
1.365068253412670719e-02
1.365068253412670719e-02
1.376735503441838676e-02
1.376735503441838676e-02
1.388402753471006806e-02
1.388402753471006806e-02
1.400070003500174937e-02
1.400070003500174937e-02
1.411737253529343067e-02
1.411737253529343067e-02
1.423404503558511197e-02
1.423404503558511197e-02
1.435071753587679327e-02
1.435071753587679327e-02
1.446739003616847458e-02
1.446739003616847458e-02
1.458406253646015588e-02
1.458406253646015588e-02
1.470073503675183718e-02
1.470073503675183718e-02
1.481740753704351848e-02
1.481740753704351848e-02
1.493408003733519979e-02
1.493408003733519979e-02
1.516742503791856239e-02
1.516742503791856239e-02
1.528409753821024369e-02
1.528409753821024369e-02
1.540077003850192500e-02
1.540077003850192500e-02
1.551744253879360630e-02
1.551744253879360630e-02
1.563411503908528760e-02
1.563411503908528760e-02
1.575078753937696890e-02
1.575078753937696890e-02
1.586746003966865021e-02
1.586746003966865021e-02
1.610080504025201281e-02
1.610080504025201281e-02
1.621747754054369411e-02
1.621747754054369411e-02
1.633415004083537542e-02
1.633415004083537542e-02
1.645082254112705672e-02
1.645082254112705672e-02
1.656749504141873802e-02
1.656749504141873802e-02
1.668416754171041932e-02
1.668416754171041932e-02
1.680084004200210063e-02
1.680084004200210063e-02
1.691751254229378193e-02
1.691751254229378193e-02
1.703418504258546323e-02
1.703418504258546323e-02
1.715085754287714453e-02
1.715085754287714453e-02
1.726753004316882584e-02
1.726753004316882584e-02
1.738420254346050714e-02
1.738420254346050714e-02
1.750087504375218844e-02
1.750087504375218844e-02
1.761754754404386974e-02
1.761754754404386974e-02
1.785089254462723235e-02
1.785089254462723235e-02
1.808423754521059496e-02
1.808423754521059496e-02
1.820091004550227626e-02
1.820091004550227626e-02
1.831758254579395756e-02
1.831758254579395756e-02
1.843425504608563886e-02
1.843425504608563886e-02
1.866760004666900147e-02
1.866760004666900147e-02
1.878427254696068277e-02
1.878427254696068277e-02
1.890094504725236407e-02
1.890094504725236407e-02
1.901761754754404538e-02
1.901761754754404538e-02
1.913429004783572668e-02
1.913429004783572668e-02
1.925096254812740798e-02
1.925096254812740798e-02
1.936763504841908928e-02
1.936763504841908928e-02
1.948430754871077059e-02
1.948430754871077059e-02
1.960098004900244842e-02
1.960098004900244842e-02
1.983432504958581102e-02
1.983432504958581102e-02
2.006767005016917363e-02
2.006767005016917363e-02
2.018434255046085493e-02
2.018434255046085493e-02
2.030101505075253623e-02
2.030101505075253623e-02
2.041768755104421754e-02
2.041768755104421754e-02
2.076770505191926144e-02
2.076770505191926144e-02
2.088437755221094275e-02
2.088437755221094275e-02
2.100105005250262405e-02
2.100105005250262405e-02
2.111772255279430535e-02
2.111772255279430535e-02
2.123439505308598665e-02
2.123439505308598665e-02
2.135106755337766796e-02
2.135106755337766796e-02
2.146774005366934926e-02
2.146774005366934926e-02
2.170108505425271186e-02
2.170108505425271186e-02
2.181775755454439317e-02
2.181775755454439317e-02
2.193443005483607447e-02
2.193443005483607447e-02
2.205110255512775577e-02
2.205110255512775577e-02
2.216777505541943707e-02
2.216777505541943707e-02
2.228444755571111838e-02
2.228444755571111838e-02
2.240112005600279968e-02
2.240112005600279968e-02
2.251779255629448098e-02
2.251779255629448098e-02
2.263446505658616228e-02
2.263446505658616228e-02
2.275113755687784359e-02
2.275113755687784359e-02
2.286781005716952489e-02
2.286781005716952489e-02
2.310115505775288750e-02
2.310115505775288750e-02
2.333450005833625010e-02
2.333450005833625010e-02
2.356784505891961271e-02
2.356784505891961271e-02
2.368451755921129401e-02
2.368451755921129401e-02
2.380119005950297531e-02
2.380119005950297531e-02
2.391786255979465661e-02
2.391786255979465661e-02
2.403453506008633792e-02
2.403453506008633792e-02
2.426788006066970052e-02
2.426788006066970052e-02
2.438455256096138182e-02
2.438455256096138182e-02
2.450122506125306313e-02
2.450122506125306313e-02
2.473457006183642573e-02
2.473457006183642573e-02
2.485124256212810703e-02
2.485124256212810703e-02
2.496791506241978834e-02
2.496791506241978834e-02
2.508458756271146964e-02
2.508458756271146964e-02
2.520126006300315094e-02
2.520126006300315094e-02
2.531793256329483224e-02
2.531793256329483224e-02
2.543460506358651355e-02
2.543460506358651355e-02
2.555127756387819485e-02
2.555127756387819485e-02
2.566795006416987615e-02
2.566795006416987615e-02
2.578462256446155745e-02
2.578462256446155745e-02
2.601796756504492006e-02
2.601796756504492006e-02
2.613464006533660136e-02
2.613464006533660136e-02
2.636798506591996397e-02
2.636798506591996397e-02
2.648465756621164527e-02
2.648465756621164527e-02
2.671800256679500787e-02
2.671800256679500787e-02
2.683467506708668918e-02
2.683467506708668918e-02
2.695134756737837048e-02
2.695134756737837048e-02
2.718469256796173308e-02
2.718469256796173308e-02
2.730136506825341439e-02
2.730136506825341439e-02
2.741803756854509222e-02
2.741803756854509222e-02
2.765138256912845482e-02
2.765138256912845482e-02
2.776805506942013613e-02
2.776805506942013613e-02
2.788472756971181743e-02
2.788472756971181743e-02
2.800140007000349873e-02
2.800140007000349873e-02
2.811807257029518003e-02
2.811807257029518003e-02
2.823474507058686134e-02
2.823474507058686134e-02
2.835141757087854264e-02
2.835141757087854264e-02
2.846809007117022394e-02
2.846809007117022394e-02
2.858476257146190525e-02
2.858476257146190525e-02
2.881810757204526785e-02
2.881810757204526785e-02
2.916812507292031176e-02
2.916812507292031176e-02
2.928479757321199306e-02
2.928479757321199306e-02
2.940147007350367436e-02
2.940147007350367436e-02
2.951814257379535567e-02
2.951814257379535567e-02
2.963481507408703697e-02
2.963481507408703697e-02
2.998483257496208088e-02
2.998483257496208088e-02
3.010150507525376218e-02
3.010150507525376218e-02
3.021817757554544348e-02
3.021817757554544348e-02
3.033485007583712478e-02
3.033485007583712478e-02
3.045152257612880609e-02
3.045152257612880609e-02
3.068486757671216869e-02
3.068486757671216869e-02
3.080154007700384999e-02
3.080154007700384999e-02
3.091821257729553130e-02
3.091821257729553130e-02
3.150157507875393781e-02
3.150157507875393781e-02
3.161824757904561911e-02
3.161824757904561911e-02
3.173492007933730041e-02
3.173492007933730041e-02
3.196826507992066302e-02
3.196826507992066302e-02
3.208493758021234432e-02
3.208493758021234432e-02
3.220161008050402562e-02
3.220161008050402562e-02
3.243495508108738823e-02
3.243495508108738823e-02
3.255162758137906953e-02
3.255162758137906953e-02
3.301831758254579474e-02
3.301831758254579474e-02
3.313499008283747604e-02
3.313499008283747604e-02
3.325166258312915735e-02
3.325166258312915735e-02
3.336833508342083865e-02
3.336833508342083865e-02
3.348500758371251995e-02
3.348500758371251995e-02
3.360168008400420125e-02
3.360168008400420125e-02
3.383502508458756386e-02
3.383502508458756386e-02
3.395169758487924516e-02
3.395169758487924516e-02
3.406837008517092646e-02
3.406837008517092646e-02
3.430171508575428907e-02
3.430171508575428907e-02
3.441838758604597037e-02
3.441838758604597037e-02
3.476840508692101428e-02
3.476840508692101428e-02
3.488507758721269558e-02
3.488507758721269558e-02
3.500175008750437688e-02
3.500175008750437688e-02
3.511842258779605819e-02
3.511842258779605819e-02
3.535176758837942079e-02
3.535176758837942079e-02
3.570178508925446470e-02
3.570178508925446470e-02
3.581845758954614600e-02
3.581845758954614600e-02
3.593513008983782731e-02
3.593513008983782731e-02
3.605180259012950861e-02
3.605180259012950861e-02
3.616847509042118991e-02
3.616847509042118991e-02
3.640182009100455252e-02
3.640182009100455252e-02
3.651849259129623382e-02
3.651849259129623382e-02
3.663516509158791512e-02
3.663516509158791512e-02
3.698518259246295903e-02
3.698518259246295903e-02
3.710185509275464033e-02
3.710185509275464033e-02
3.721852759304632163e-02
3.721852759304632163e-02
3.733520009333800294e-02
3.733520009333800294e-02
3.745187259362968424e-02
3.745187259362968424e-02
3.756854509392136554e-02
3.756854509392136554e-02
3.768521759421304684e-02
3.768521759421304684e-02
3.780189009450472815e-02
3.780189009450472815e-02
3.791856259479640945e-02
3.791856259479640945e-02
3.815190759537977205e-02
3.815190759537977205e-02
3.850192509625481596e-02
3.850192509625481596e-02
3.873527009683817857e-02
3.873527009683817857e-02
3.896861509742154117e-02
3.896861509742154117e-02
3.908528759771321553e-02
3.908528759771321553e-02
3.920196009800489684e-02
3.920196009800489684e-02
3.931863259829657814e-02
3.931863259829657814e-02
3.943530509858825944e-02
3.943530509858825944e-02
3.978532259946330335e-02
3.978532259946330335e-02
3.990199509975498465e-02
3.990199509975498465e-02
4.001866760004666596e-02
4.001866760004666596e-02
4.013534010033834726e-02
4.013534010033834726e-02
4.025201260063002856e-02
4.025201260063002856e-02
4.060203010150507247e-02
4.060203010150507247e-02
4.071870260179675377e-02
4.071870260179675377e-02
4.118539260296347898e-02
4.118539260296347898e-02
4.130206510325516028e-02
4.130206510325516028e-02
4.153541010383852289e-02
4.153541010383852289e-02
4.165208260413020419e-02
4.165208260413020419e-02
4.176875510442188549e-02
4.176875510442188549e-02
4.188542760471356680e-02
4.188542760471356680e-02
4.200210010500524810e-02
4.200210010500524810e-02
4.211877260529692940e-02
4.211877260529692940e-02
4.223544510558861070e-02
4.223544510558861070e-02
4.246879010617197331e-02
4.246879010617197331e-02
4.258546260646365461e-02
4.258546260646365461e-02
4.270213510675533591e-02
4.270213510675533591e-02
4.281880760704701722e-02
4.281880760704701722e-02
4.293548010733869852e-02
4.293548010733869852e-02
4.316882510792206112e-02
4.316882510792206112e-02
4.328549760821374243e-02
4.328549760821374243e-02
4.340217010850542373e-02
4.340217010850542373e-02
4.410220511025551154e-02
4.410220511025551154e-02
4.433555011083887415e-02
4.433555011083887415e-02
4.445222261113055545e-02
4.445222261113055545e-02
4.456889511142223675e-02
4.456889511142223675e-02
4.468556761171391806e-02
4.468556761171391806e-02
4.480224011200559936e-02
4.480224011200559936e-02
4.503558511258896196e-02
4.503558511258896196e-02
4.515225761288064327e-02
4.515225761288064327e-02
4.538560261346400587e-02
4.538560261346400587e-02
4.561894761404736848e-02
4.561894761404736848e-02
4.573562011433904978e-02
4.573562011433904978e-02
4.585229261463073108e-02
4.585229261463073108e-02
4.596896511492241238e-02
4.596896511492241238e-02
4.631898261579745629e-02
4.631898261579745629e-02
4.643565511608913760e-02
4.643565511608913760e-02
4.678567261696418150e-02
4.678567261696418150e-02
4.701901761754754411e-02
4.701901761754754411e-02
4.713569011783922541e-02
4.713569011783922541e-02
4.725236261813090671e-02
4.725236261813090671e-02
4.736903511842258802e-02
4.736903511842258802e-02
4.748570761871426932e-02
4.748570761871426932e-02
4.783572511958931323e-02
4.783572511958931323e-02
4.795239761988099453e-02
4.795239761988099453e-02
4.830241512075603844e-02
4.830241512075603844e-02
4.841908762104771974e-02
4.841908762104771974e-02
4.888577762221444495e-02
4.888577762221444495e-02
4.900245012250612625e-02
4.900245012250612625e-02
4.911912262279780755e-02
4.911912262279780755e-02
4.958581262396453276e-02
4.958581262396453276e-02
4.970248512425621407e-02
4.970248512425621407e-02
4.981915762454789537e-02
4.981915762454789537e-02
4.993583012483957667e-02
4.993583012483957667e-02
5.005250262513125797e-02
5.005250262513125797e-02
5.016917512542293928e-02
5.016917512542293928e-02
5.028584762571462058e-02
5.028584762571462058e-02
5.051919262629798318e-02
5.051919262629798318e-02
5.063586512658966449e-02
5.063586512658966449e-02
5.075253762688134579e-02
5.075253762688134579e-02
5.110255512775638970e-02
5.110255512775638970e-02
5.145257262863143360e-02
5.145257262863143360e-02
5.156924512892311491e-02
5.156924512892311491e-02
5.168591762921479621e-02
5.168591762921479621e-02
5.180259012950647751e-02
5.180259012950647751e-02
5.191926262979815881e-02
5.191926262979815881e-02
5.226928013067320272e-02
5.226928013067320272e-02
5.273597013183992793e-02
5.273597013183992793e-02
5.308598763271497184e-02
5.308598763271497184e-02
5.320266013300665314e-02
5.320266013300665314e-02
5.331933263329833445e-02
5.331933263329833445e-02
5.343600513359001575e-02
5.343600513359001575e-02
5.355267763388169705e-02
5.355267763388169705e-02
5.390269513475674096e-02
5.390269513475674096e-02
5.401936763504842226e-02
5.401936763504842226e-02
5.495274763738186574e-02
5.495274763738186574e-02
5.506942013767354704e-02
5.506942013767354704e-02
5.553611013884027225e-02
5.553611013884027225e-02
5.576945513942363486e-02
5.576945513942363486e-02
5.623614514059036007e-02
5.623614514059036007e-02
5.658616264146540398e-02
5.658616264146540398e-02
5.693618014234044789e-02
5.693618014234044789e-02
5.775288764438221700e-02
5.775288764438221700e-02
5.798623264496557961e-02
5.798623264496557961e-02
5.833625014584062352e-02
5.833625014584062352e-02
5.856959514642398612e-02
5.856959514642398612e-02
5.868626764671566742e-02
5.868626764671566742e-02
5.903628514759071133e-02
5.903628514759071133e-02
5.926963014817407394e-02
5.926963014817407394e-02
5.950297514875743654e-02
5.950297514875743654e-02
5.961964764904911784e-02
5.961964764904911784e-02
5.985299264963248045e-02
5.985299264963248045e-02
6.008633765021584305e-02
6.008633765021584305e-02
6.043635515109088696e-02
6.043635515109088696e-02
6.078637265196593087e-02
6.078637265196593087e-02
6.113639015284097478e-02
6.113639015284097478e-02
6.125306265313265608e-02
6.125306265313265608e-02
6.160308015400769999e-02
6.160308015400769999e-02
6.183642515459106259e-02
6.183642515459106259e-02
6.265313265663283171e-02
6.265313265663283171e-02
6.288647765721619431e-02
6.288647765721619431e-02
6.335316765838291952e-02
6.335316765838291952e-02
6.358651265896628213e-02
6.358651265896628213e-02
6.370318515925796343e-02
6.370318515925796343e-02
6.381985765954964474e-02
6.381985765954964474e-02
6.405320266013300734e-02
6.405320266013300734e-02
6.416987516042468864e-02
6.416987516042468864e-02
6.440322016100805125e-02
6.440322016100805125e-02
6.451989266129973255e-02
6.451989266129973255e-02
6.463656516159141385e-02
6.463656516159141385e-02
6.521992766304982037e-02
6.521992766304982037e-02
6.556994516392486427e-02
6.556994516392486427e-02
6.591996266479990818e-02
6.591996266479990818e-02
6.603663516509158948e-02
6.603663516509158948e-02
6.638665266596663339e-02
6.638665266596663339e-02
6.650332516625831469e-02
6.650332516625831469e-02
6.673667016684167730e-02
6.673667016684167730e-02
6.685334266713335860e-02
6.685334266713335860e-02
6.708668766771672121e-02
6.708668766771672121e-02
6.732003266830008381e-02
6.732003266830008381e-02
6.837008517092521553e-02
6.837008517092521553e-02
6.860343017150857814e-02
6.860343017150857814e-02
6.895344767238362205e-02
6.895344767238362205e-02
6.930346517325866595e-02
6.930346517325866595e-02
7.082020767705052289e-02
7.082020767705052289e-02
7.117022517792556680e-02
7.117022517792556680e-02
7.140357017850892940e-02
7.140357017850892940e-02
7.198693267996733591e-02
7.198693267996733591e-02
7.210360518025901722e-02
7.210360518025901722e-02
7.245362268113406112e-02
7.245362268113406112e-02
7.268696768171742373e-02
7.268696768171742373e-02
7.315365768288414894e-02
7.315365768288414894e-02
7.327033018317583024e-02
7.327033018317583024e-02
7.373702018434255545e-02
7.373702018434255545e-02
7.385369268463423675e-02
7.385369268463423675e-02
7.397036518492591806e-02
7.397036518492591806e-02
7.443705518609264327e-02
7.443705518609264327e-02
7.478707268696768717e-02
7.478707268696768717e-02
7.560378018900945629e-02
7.560378018900945629e-02
7.618714269046786280e-02
7.618714269046786280e-02
7.688717769221795062e-02
7.688717769221795062e-02
7.700385019250963192e-02
7.700385019250963192e-02
7.758721269396803843e-02
7.758721269396803843e-02
7.770388519425971974e-02
7.770388519425971974e-02
7.805390269513476365e-02
7.805390269513476365e-02
7.817057519542643107e-02
7.817057519542643107e-02
7.828724769571811237e-02
7.828724769571811237e-02
7.852059269630147498e-02
7.852059269630147498e-02
7.863726519659315628e-02
7.863726519659315628e-02
7.875393769688483758e-02
7.875393769688483758e-02
7.922062769805156279e-02
7.922062769805156279e-02
7.933730019834324410e-02
7.933730019834324410e-02
7.957064519892660670e-02
7.957064519892660670e-02
8.050402520126005712e-02
8.050402520126005712e-02
8.085404270213510103e-02
8.085404270213510103e-02
8.108738770271846363e-02
8.108738770271846363e-02
8.143740520359350754e-02
8.143740520359350754e-02
8.225411270563527666e-02
8.225411270563527666e-02
8.260413020651032057e-02
8.260413020651032057e-02
8.272080270680200187e-02
8.272080270680200187e-02
8.283747520709368317e-02
8.283747520709368317e-02
8.295414770738536447e-02
8.295414770738536447e-02
8.307082020767704578e-02
8.307082020767704578e-02
8.330416520826040838e-02
8.330416520826040838e-02
8.377085520942713359e-02
8.377085520942713359e-02
8.400420021001049620e-02
8.400420021001049620e-02
8.435421771088554010e-02
8.435421771088554010e-02
8.482090771205226531e-02
8.482090771205226531e-02
8.505425271263562792e-02
8.505425271263562792e-02
8.517092521292730922e-02
8.517092521292730922e-02
8.552094271380235313e-02
8.552094271380235313e-02
8.657099521642748485e-02
8.657099521642748485e-02
8.738770271846925397e-02
8.738770271846925397e-02
8.750437521876093527e-02
8.750437521876093527e-02
8.808773772021934179e-02
8.808773772021934179e-02
8.855442772138606700e-02
8.855442772138606700e-02
8.960448022401119872e-02
8.960448022401119872e-02
8.972115272430288002e-02
8.972115272430288002e-02
8.983782522459456132e-02
8.983782522459456132e-02
9.053786022634464914e-02
9.053786022634464914e-02
9.065453272663633044e-02
9.065453272663633044e-02
9.077120522692801174e-02
9.077120522692801174e-02
9.088787772721969305e-02
9.088787772721969305e-02
9.112122272780305565e-02
9.112122272780305565e-02
9.158791272896978086e-02
9.158791272896978086e-02
9.217127523042818737e-02
9.217127523042818737e-02
9.252129273130323128e-02
9.252129273130323128e-02
9.298798273246995649e-02
9.298798273246995649e-02
9.333800023334500040e-02
9.333800023334500040e-02
9.345467273363668170e-02
9.345467273363668170e-02
9.357134523392836301e-02
9.357134523392836301e-02
9.520476023801190124e-02
9.520476023801190124e-02
9.532143273830358254e-02
9.532143273830358254e-02
9.590479523976198906e-02
9.590479523976198906e-02
9.613814024034535166e-02
9.613814024034535166e-02
9.637148524092871427e-02
9.637148524092871427e-02
9.660483024151207687e-02
9.660483024151207687e-02
9.683817524209543948e-02
9.683817524209543948e-02
9.742153774355384599e-02
9.742153774355384599e-02
9.777155524442888990e-02
9.777155524442888990e-02
9.847159024617897771e-02
9.847159024617897771e-02
9.882160774705402162e-02
9.882160774705402162e-02
9.905495274763738422e-02
9.905495274763738422e-02
9.917162524792906553e-02
9.917162524792906553e-02
1.001050052502625159e-01
1.001050052502625159e-01
1.005716952514292412e-01
1.005716952514292412e-01
1.006883677517209225e-01
1.006883677517209225e-01
1.009217127523042851e-01
1.009217127523042851e-01
1.013884027534710103e-01
1.013884027534710103e-01
1.017384202543460542e-01
1.017384202543460542e-01
1.020884377552210981e-01
1.020884377552210981e-01
1.030218177575545485e-01
1.030218177575545485e-01
1.031384902578462298e-01
1.031384902578462298e-01
1.037218527593046363e-01
1.037218527593046363e-01
1.039551977598879989e-01
1.039551977598879989e-01
1.041885427604713615e-01
1.041885427604713615e-01
1.045385602613464054e-01
1.045385602613464054e-01
1.048885777622214494e-01
1.048885777622214494e-01
1.054719402636798559e-01
1.054719402636798559e-01
1.057052852642632185e-01
1.057052852642632185e-01
1.060553027651382624e-01
1.060553027651382624e-01
1.066386652665966689e-01
1.066386652665966689e-01
1.076887177692218006e-01
1.076887177692218006e-01
1.081554077703885258e-01
1.081554077703885258e-01
1.082720802706802071e-01
1.082720802706802071e-01
1.085054252712635697e-01
1.088554427721386136e-01
1.088554427721386136e-01
1.092054602730136575e-01
1.092054602730136575e-01
1.101388402753470941e-01
1.101388402753470941e-01
1.111888927779722258e-01
1.111888927779722258e-01
1.113055652782639071e-01
1.113055652782639071e-01
1.117722552794306323e-01
1.117722552794306323e-01
1.122389452805973575e-01
1.122389452805973575e-01
1.124722902811807201e-01
1.124722902811807201e-01
1.134056702835141706e-01
1.134056702835141706e-01
1.139890327849725771e-01
1.139890327849725771e-01
1.141057052852642584e-01
1.141057052852642584e-01
1.146890677867226649e-01
1.146890677867226649e-01
1.156224477890561153e-01
1.156224477890561153e-01
1.157391202893477966e-01
1.157391202893477966e-01
1.167891727919729283e-01
1.167891727919729283e-01
1.169058452922646096e-01
1.169058452922646096e-01
1.171391902928479722e-01
1.171391902928479722e-01
1.174892077937230161e-01
1.174892077937230161e-01
1.180725702951814227e-01
1.180725702951814227e-01
1.181892427954731040e-01
1.181892427954731040e-01
1.187726052969315105e-01
1.187726052969315105e-01
1.191226227978065544e-01
1.191226227978065544e-01
1.193559677983899170e-01
1.193559677983899170e-01
1.198226577995566422e-01
1.198226577995566422e-01
1.200560028001400048e-01
1.200560028001400048e-01
1.202893478007233674e-01
1.202893478007233674e-01
1.207560378018900926e-01
1.207560378018900926e-01
1.208727103021817739e-01
1.208727103021817739e-01
1.212227278030568178e-01
1.212227278030568178e-01
1.215727453039318617e-01
1.215727453039318617e-01
1.218060903045152243e-01
1.218060903045152243e-01
1.221561078053902683e-01
1.221561078053902683e-01
1.223894528059736309e-01
1.223894528059736309e-01
1.227394703068486748e-01
1.227394703068486748e-01
1.234395053085987626e-01
1.234395053085987626e-01
1.236728503091821252e-01
1.236728503091821252e-01
1.255396103138490260e-01
1.255396103138490260e-01
1.261229728153074325e-01
1.261229728153074325e-01
1.267063353167658390e-01
1.267063353167658390e-01
1.268230078170575204e-01
1.268230078170575204e-01
1.269396803173492017e-01
1.269396803173492017e-01
1.272896978182242456e-01
1.272896978182242456e-01
1.274063703185159269e-01
1.274063703185159269e-01
1.275230428188076082e-01
1.275230428188076082e-01
1.281064053202660147e-01
1.281064053202660147e-01
1.284564228211410586e-01
1.284564228211410586e-01
1.299731653249329155e-01
1.299731653249329155e-01
1.303231828258079594e-01
1.303231828258079594e-01
1.304398553260996407e-01
1.304398553260996407e-01
1.310232178275580472e-01
1.310232178275580472e-01
1.314899078287247725e-01
1.314899078287247725e-01
1.319565978298914977e-01
1.319565978298914977e-01
1.320732703301831790e-01
1.321899428304748603e-01
1.321899428304748603e-01
1.323066153307665416e-01
1.323066153307665416e-01
1.334733403336833546e-01
1.334733403336833546e-01
1.335900128339750359e-01
1.335900128339750359e-01
1.341733753354334424e-01
1.341733753354334424e-01
1.342900478357251237e-01
1.342900478357251237e-01
1.345233928363084863e-01
1.345233928363084863e-01
1.349900828374752115e-01
1.349900828374752115e-01
1.351067553377668928e-01
1.351067553377668928e-01
1.358067903395169806e-01
1.358067903395169806e-01
1.365068253412670685e-01
1.365068253412670685e-01
1.368568428421421124e-01
1.368568428421421124e-01
1.370901878427254750e-01
1.370901878427254750e-01
1.374402053436005189e-01
1.374402053436005189e-01
1.375568778438922002e-01
1.375568778438922002e-01
1.388402753471006945e-01
1.388402753471006945e-01
1.389569478473923758e-01
1.389569478473923758e-01
1.405903628514759141e-01
1.405903628514759141e-01
1.415237428538093645e-01
1.415237428538093645e-01
1.421071053552677710e-01
1.421071053552677710e-01
1.422237778555594523e-01
1.422237778555594523e-01
1.428071403570178588e-01
1.428071403570178588e-01
1.436238478590596279e-01
1.436238478590596279e-01
1.453739353634348475e-01
1.453739353634348475e-01
1.454906078637265288e-01
1.454906078637265288e-01
1.456072803640182101e-01
1.456072803640182101e-01
1.463073153657682979e-01
1.463073153657682979e-01
1.477073853692684735e-01
1.477073853692684735e-01
1.484074203710185613e-01
1.484074203710185613e-01
1.486407653716019239e-01
1.486407653716019239e-01
1.491074553727686491e-01
1.491074553727686491e-01
1.496908178742270557e-01
1.496908178742270557e-01
1.514409053786022752e-01
1.514409053786022752e-01
1.522576128806440443e-01
1.522576128806440443e-01
1.523742853809357256e-01
1.523742853809357256e-01
1.544743903861859891e-01
1.544743903861859891e-01
1.548244078870610330e-01
1.548244078870610330e-01
1.549410803873527143e-01
1.549410803873527143e-01
1.551744253879360769e-01
1.551744253879360769e-01
1.572745303931863126e-01
1.572745303931863126e-01
1.607747054019367516e-01
1.607747054019367516e-01
1.615914129039785208e-01
1.615914129039785208e-01
1.622914479057286086e-01
1.622914479057286086e-01
1.627581379068953338e-01
1.627581379068953338e-01
1.628748104071870151e-01
1.628748104071870151e-01
1.638081904095204655e-01
1.638081904095204655e-01
1.643915529109788720e-01
1.643915529109788720e-01
1.653249329133123224e-01
1.653249329133123224e-01
1.657916229144790476e-01
1.657916229144790476e-01
1.659082954147707289e-01
1.659082954147707289e-01
1.661416404153540916e-01
1.661416404153540916e-01
1.666083304165208168e-01
1.666083304165208168e-01
1.673083654182709046e-01
1.673083654182709046e-01
1.683584179208960363e-01
1.683584179208960363e-01
1.684750904211877176e-01
1.684750904211877176e-01
1.685917629214793989e-01
1.685917629214793989e-01
1.698751604246878932e-01
1.698751604246878932e-01
1.708085404270213437e-01
1.708085404270213437e-01
1.717419204293547941e-01
1.717419204293547941e-01
1.729086454322716071e-01
1.729086454322716071e-01
1.739586979348967388e-01
1.739586979348967388e-01
1.745420604363551453e-01
1.745420604363551453e-01
1.752420954381052332e-01
1.752420954381052332e-01
1.755921129389802771e-01
1.755921129389802771e-01
1.766421654416054088e-01
1.766421654416054088e-01
1.767588379418970901e-01
1.767588379418970901e-01
1.768755104421887714e-01
1.768755104421887714e-01
1.785089254462723096e-01
1.785089254462723096e-01
1.786255979465639909e-01
1.786255979465639909e-01
1.792089604480223974e-01
1.792089604480223974e-01
1.796756504491891226e-01
1.796756504491891226e-01
1.804923579512308918e-01
1.804923579512308918e-01
1.808423754521059357e-01
1.808423754521059357e-01
1.813090654532726609e-01
1.813090654532726609e-01
1.816590829541477048e-01
1.816590829541477048e-01
1.817757554544393861e-01
1.817757554544393861e-01
1.818924279547310674e-01
1.818924279547310674e-01
1.821257729553144300e-01
1.821257729553144300e-01
1.824757904561894739e-01
1.824757904561894739e-01
1.827091354567728365e-01
1.827091354567728365e-01
1.830591529576478804e-01
1.830591529576478804e-01
1.838758604596896495e-01
1.838758604596896495e-01
1.839925329599813308e-01
1.839925329599813308e-01
1.842258779605646934e-01
1.842258779605646934e-01
1.844592229611480561e-01
1.844592229611480561e-01
1.851592579628981439e-01
1.851592579628981439e-01
1.855092754637731878e-01
1.855092754637731878e-01
1.858592929646482317e-01
1.858592929646482317e-01
1.864426554661066382e-01
1.864426554661066382e-01
1.869093454672733634e-01
1.869093454672733634e-01
1.872593629681484073e-01
1.872593629681484073e-01
1.880760704701901764e-01
1.880760704701901764e-01
1.883094154707735390e-01
1.883094154707735390e-01
1.890094504725236269e-01
1.890094504725236269e-01
1.894761404736903521e-01
1.894761404736903521e-01
1.897094854742737147e-01
1.897094854742737147e-01
1.900595029751487586e-01
1.900595029751487586e-01
1.908762104771905277e-01
1.908762104771905277e-01
1.912262279780655716e-01
1.912262279780655716e-01
1.921596079803990220e-01
1.921596079803990220e-01
1.923929529809823846e-01
1.923929529809823846e-01
1.926262979815657472e-01
1.926262979815657472e-01
1.930929879827324724e-01
1.930929879827324724e-01
1.937930229844825603e-01
1.937930229844825603e-01
1.942597129856492855e-01
1.942597129856492855e-01
1.943763854859409668e-01
1.943763854859409668e-01
1.962431454906078676e-01
1.962431454906078676e-01
1.984599229961498124e-01
1.984599229961498124e-01
1.992766304981915815e-01
1.992766304981915815e-01
2.016100805040252075e-01
2.016100805040252075e-01
2.017267530043168888e-01
2.017267530043168888e-01
2.018434255046085701e-01
2.018434255046085701e-01
2.028934780072337019e-01
2.028934780072337019e-01
2.035935130089837897e-01
2.035935130089837897e-01
2.039435305098588336e-01
2.039435305098588336e-01
2.066269980165675035e-01
2.066269980165675035e-01
2.070936880177342287e-01
2.070936880177342287e-01
2.075603780189009540e-01
2.075603780189009540e-01
2.076770505191926353e-01
2.076770505191926353e-01
2.090771205226928109e-01
2.090771205226928109e-01
2.098938280247345800e-01
2.098938280247345800e-01
2.136273480340683817e-01
2.136273480340683817e-01
2.151440905378602386e-01
2.151440905378602386e-01
2.156107805390269638e-01
2.156107805390269638e-01
2.157274530393186451e-01
2.157274530393186451e-01
2.164274880410687329e-01
2.164274880410687329e-01
2.185275930463189964e-01
2.185275930463189964e-01
2.187609380469023312e-01
2.187609380469023312e-01
2.189942830474856938e-01
2.189942830474856938e-01
2.199276630498191443e-01
2.199276630498191443e-01
2.200443355501108256e-01
2.200443355501108256e-01
2.208610430521525947e-01
2.208610430521525947e-01
2.212110605530276386e-01
2.212110605530276386e-01
2.216777505541943638e-01
2.216777505541943638e-01
2.219110955547777264e-01
2.219110955547777264e-01
2.220277680550694077e-01
2.220277680550694077e-01
2.238945280597363086e-01
2.238945280597363086e-01
2.242445455606113525e-01
2.242445455606113525e-01
2.254112705635281655e-01
2.254112705635281655e-01
2.255279430638198468e-01
2.255279430638198468e-01
2.259946330649865720e-01
2.259946330649865720e-01
2.262279780655699346e-01
2.262279780655699346e-01
2.264613230661532972e-01
2.264613230661532972e-01
2.265779955664449785e-01
2.265779955664449785e-01
2.269280130673200224e-01
2.269280130673200224e-01
2.289114455722786046e-01
2.289114455722786046e-01
2.296114805740286924e-01
2.296114805740286924e-01
2.298448255746120550e-01
2.298448255746120550e-01
2.303115155757787802e-01
2.303115155757787802e-01
2.310115505775288680e-01
2.310115505775288680e-01
2.334616730836541754e-01
2.334616730836541754e-01
2.336950180842375380e-01
2.336950180842375380e-01
2.343950530859876258e-01
2.343950530859876258e-01
2.348617430871543510e-01
2.348617430871543510e-01
2.353284330883210762e-01
2.353284330883210762e-01
2.354451055886127575e-01
2.354451055886127575e-01
2.361451405903628453e-01
2.361451405903628453e-01
2.364951580912378892e-01
2.364951580912378892e-01
2.394119705985299218e-01
2.394119705985299218e-01
2.413954031034885039e-01
2.413954031034885039e-01
2.415120756037801852e-01
2.415120756037801852e-01
2.436121806090304487e-01
2.436121806090304487e-01
2.482790806206977008e-01
2.482790806206977008e-01
2.511958931279897334e-01
2.511958931279897334e-01
2.513125656282814147e-01
2.513125656282814147e-01
2.515459106288647773e-01
2.515459106288647773e-01
2.531793256329483155e-01
2.531793256329483155e-01
2.534126706335316781e-01
2.534126706335316781e-01
2.549294131373235350e-01
2.549294131373235350e-01
2.551627581379068976e-01
2.551627581379068976e-01
2.563294831408237107e-01
2.563294831408237107e-01
2.565628281414070733e-01
2.565628281414070733e-01
2.570295181425737985e-01
2.570295181425737985e-01
2.572628631431571611e-01
2.572628631431571611e-01
2.574962081437405237e-01
2.574962081437405237e-01
2.584295881460739741e-01
2.584295881460739741e-01
2.605296931513242376e-01
2.605296931513242376e-01
2.613464006533660067e-01
2.613464006533660067e-01
2.619297631548244132e-01
2.619297631548244132e-01
2.622797806556994571e-01
2.622797806556994571e-01
2.625131256562828197e-01
2.625131256562828197e-01
2.633298331583245888e-01
2.633298331583245888e-01
2.639131956597829953e-01
2.639131956597829953e-01
2.646132306615330831e-01
2.646132306615330831e-01
2.650799206626998084e-01
2.650799206626998084e-01
2.654299381635748523e-01
2.654299381635748523e-01
2.674133706685334344e-01
2.674133706685334344e-01
2.678800606697001596e-01
2.678800606697001596e-01
2.696301481740753792e-01
2.696301481740753792e-01
2.706802006767005109e-01
2.706802006767005109e-01
2.714969081787422800e-01
2.714969081787422800e-01
2.717302531793256426e-01
2.717302531793256426e-01
2.719635981799090052e-01
2.719635981799090052e-01
2.720802706802006865e-01
2.720802706802006865e-01
2.727803056819507743e-01
2.727803056819507743e-01
2.741803756854509500e-01
2.741803756854509500e-01
2.744137206860343126e-01
2.744137206860343126e-01
2.762804806907012134e-01
2.762804806907012134e-01
2.763971531909928947e-01
2.763971531909928947e-01
2.767471706918679386e-01
2.767471706918679386e-01
2.769805156924513012e-01
2.769805156924513012e-01
2.775638781939097077e-01
2.775638781939097077e-01
2.777972231944930703e-01
2.777972231944930703e-01
2.782639131956597955e-01
2.782639131956597955e-01
2.796639831991599712e-01
2.796639831991599712e-01
2.821141057052852785e-01
2.821141057052852785e-01
2.829308132073270476e-01
2.829308132073270476e-01
2.833975032084937729e-01
2.833975032084937729e-01
2.879477307198693437e-01
2.879477307198693437e-01
2.892311282230778380e-01
2.892311282230778380e-01
2.893478007233695193e-01
2.893478007233695193e-01
2.900478357251196071e-01
2.900478357251196071e-01
2.902811807257029697e-01
2.902811807257029697e-01
2.905145257262863323e-01
2.905145257262863323e-01
2.912145607280364201e-01
2.912145607280364201e-01
2.929646482324116397e-01
2.929646482324116397e-01
2.935480107338700462e-01
2.935480107338700462e-01
2.964648232411620787e-01
2.964648232411620787e-01
2.972815307432038479e-01
2.972815307432038479e-01
2.978648932446622544e-01
2.978648932446622544e-01
2.991482907478707487e-01
2.991482907478707487e-01
3.029984832574962317e-01
3.029984832574962317e-01
3.031151557577879130e-01
3.031151557577879130e-01
3.038151907595380008e-01
3.038151907595380008e-01
3.043985532609964073e-01
3.043985532609964073e-01
3.050985882627464951e-01
3.050985882627464951e-01
3.056819507642049016e-01
3.056819507642049016e-01
3.068486757671217147e-01
3.068486757671217147e-01
3.082487457706218903e-01
3.082487457706218903e-01
3.092987982732470220e-01
3.092987982732470220e-01
3.106988682767471976e-01
3.106988682767471976e-01
3.115155757787889668e-01
3.115155757787889668e-01
3.119822657799556920e-01
3.119822657799556920e-01
3.123322832808307359e-01
3.123322832808307359e-01
3.127989732819974056e-01
3.127989732819974056e-01
3.148990782872476690e-01
3.148990782872476690e-01
3.155991132889977568e-01
3.155991132889977568e-01
3.162991482907478447e-01
3.162991482907478447e-01
3.171158557927896138e-01
3.171158557927896138e-01
3.179325632948313829e-01
3.179325632948313829e-01
3.182825807957064268e-01
3.182825807957064268e-01
3.189826157974565146e-01
3.189826157974565146e-01
3.190992882977481959e-01
3.190992882977481959e-01
3.197993232994982837e-01
3.197993232994982837e-01
3.200326683000816463e-01
3.200326683000816463e-01
3.207327033018317342e-01
3.207327033018317342e-01
3.213160658032901407e-01
3.213160658032901407e-01
3.215494108038735033e-01
3.215494108038735033e-01
3.216660833041651846e-01
3.216660833041651846e-01
3.231828258079570415e-01
3.231828258079570415e-01
3.241162058102904919e-01
3.241162058102904919e-01
3.243495508108738545e-01
3.243495508108738545e-01
3.250495858126239423e-01
3.250495858126239423e-01
3.265663283164157993e-01
3.265663283164157993e-01
3.273830358184575684e-01
3.273830358184575684e-01
3.286664333216660627e-01
3.286664333216660627e-01
3.288997783222494253e-01
3.288997783222494253e-01
3.297164858242911945e-01
3.297164858242911945e-01
3.305331933263329636e-01
3.305331933263329636e-01
3.308832108272080075e-01
3.308832108272080075e-01
3.315832458289580953e-01
3.315832458289580953e-01
3.318165908295414579e-01
3.318165908295414579e-01
3.345000583362501279e-01
3.345000583362501279e-01
3.352000933380002157e-01
3.352000933380002157e-01
3.356667833391669409e-01
3.356667833391669409e-01
3.362501458406253474e-01
3.362501458406253474e-01
3.370668533426671165e-01
3.370668533426671165e-01
3.381169058452922482e-01
3.381169058452922482e-01
3.384669233461672921e-01
3.384669233461672921e-01
3.423171158557927751e-01
3.423171158557927751e-01
3.425504608563761377e-01
3.425504608563761377e-01
3.432504958581262255e-01
3.432504958581262255e-01
3.436005133590012695e-01
3.436005133590012695e-01
3.440672033601679947e-01
3.440672033601679947e-01
3.444172208610430386e-01
3.444172208610430386e-01
3.457006183642515329e-01
3.457006183642515329e-01
3.459339633648348955e-01
3.459339633648348955e-01
3.485007583712518842e-01
3.485007583712518842e-01
3.495508108738770159e-01
3.495508108738770159e-01
3.503675183759187850e-01
3.503675183759187850e-01
3.506008633765021476e-01
3.506008633765021476e-01
3.510675533776688728e-01
3.510675533776688728e-01
3.518842608797106419e-01
3.518842608797106419e-01
3.524676233811690484e-01
3.524676233811690484e-01
3.538676933846692241e-01
3.538676933846692241e-01
3.551510908878777184e-01
3.551510908878777184e-01
3.588846108972115201e-01
3.588846108972115201e-01
3.598179908995449705e-01
3.598179908995449705e-01
3.606346984015867396e-01
3.606346984015867396e-01
3.609847159024617835e-01
3.609847159024617835e-01
3.614514059036285087e-01
3.614514059036285087e-01
3.616847509042118713e-01
3.616847509042118713e-01
3.636681834091704535e-01
3.636681834091704535e-01
3.657682884144207169e-01
3.657682884144207169e-01
3.667016684167541674e-01
3.667016684167541674e-01
3.671683584179208926e-01
3.671683584179208926e-01
3.695018084237545186e-01
3.695018084237545186e-01
3.711352234278380569e-01
3.711352234278380569e-01
3.712518959281297382e-01
3.712518959281297382e-01
3.713685684284214195e-01
3.713685684284214195e-01
3.730019834325049577e-01
3.730019834325049577e-01
3.732353284330883203e-01
3.732353284330883203e-01
3.744020534360051333e-01
3.744020534360051333e-01
3.748687434371718585e-01
3.748687434371718585e-01
3.760354684400886716e-01
3.760354684400886716e-01
3.761521409403803529e-01
3.761521409403803529e-01
3.767355034418387594e-01
3.767355034418387594e-01
3.803523509508808798e-01
3.803523509508808798e-01
3.805856959514642424e-01
3.805856959514642424e-01
3.818690934546727367e-01
3.818690934546727367e-01
3.822191109555477806e-01
3.822191109555477806e-01
3.823357834558394619e-01
3.823357834558394619e-01
3.833858359584645936e-01
3.833858359584645936e-01
3.838525259596313188e-01
3.838525259596313188e-01
3.840858709602146814e-01
3.843192159607980440e-01
3.852525959631314945e-01
3.852525959631314945e-01
3.879360634698401644e-01
3.879360634698401644e-01
3.893361334733403400e-01
3.893361334733403400e-01
3.903861859759654718e-01
3.903861859759654718e-01
3.908528759771321970e-01
3.908528759771321970e-01
3.910862209777155596e-01
3.910862209777155596e-01
3.912028934780072409e-01
3.912028934780072409e-01
3.917862559794656474e-01
3.917862559794656474e-01
3.929529809823824604e-01
3.929529809823824604e-01
3.937696884844242295e-01
3.937696884844242295e-01
3.942363784855909548e-01
3.942363784855909548e-01
3.949364134873410426e-01
3.949364134873410426e-01
3.954031034885077678e-01
3.954031034885077678e-01
3.955197759887994491e-01
3.955197759887994491e-01
3.975032084937580312e-01
3.975032084937580312e-01
3.986699334966748443e-01
3.986699334966748443e-01
3.990199509975498882e-01
3.990199509975498882e-01
3.998366584995916573e-01
3.998366584995916573e-01
4.021701085054252833e-01
4.021701085054252833e-01
4.022867810057169646e-01
4.022867810057169646e-01
4.038035235095088216e-01
4.038035235095088216e-01
4.053202660133006785e-01
4.053202660133006785e-01
4.082370785205927111e-01
4.082370785205927111e-01
4.090537860226344802e-01
4.090537860226344802e-01
4.098704935246762493e-01
4.098704935246762493e-01
4.105705285264263371e-01
4.105705285264263371e-01
4.112705635281764249e-01
4.112705635281764249e-01
4.140707035351767762e-01
4.140707035351767762e-01
4.141873760354684575e-01
4.141873760354684575e-01
4.145373935363435014e-01
4.145373935363435014e-01
4.158207910395519957e-01
4.158207910395519957e-01
4.167541710418854461e-01
4.167541710418854461e-01
4.179208960448022592e-01
4.179208960448022592e-01
4.187376035468440283e-01
4.187376035468440283e-01
4.190876210477190722e-01
4.190876210477190722e-01
4.192042935480107535e-01
4.192042935480107535e-01
4.196709835491774787e-01
4.196709835491774787e-01
4.225877960564695113e-01
4.225877960564695113e-01
4.231711585579279178e-01
4.231711585579279178e-01
4.237545210593863243e-01
4.237545210593863243e-01
4.279547310698868512e-01
4.279547310698868512e-01
4.290047835725119829e-01
4.290047835725119829e-01
4.306381985765955211e-01
4.306381985765955211e-01
4.316882510792206529e-01
4.316882510792206529e-01
4.322716135806790594e-01
4.322716135806790594e-01
4.327383035818457846e-01
4.327383035818457846e-01
4.328549760821374659e-01
4.328549760821374659e-01
4.335550110838875537e-01
4.335550110838875537e-01
4.354217710885544546e-01
4.354217710885544546e-01
4.372885310932213554e-01
4.372885310932213554e-01
4.378718935946797064e-01
4.378718935946797064e-01
4.384552560961381129e-01
4.384552560961381129e-01
4.423054486057635959e-01
4.423054486057635959e-01
4.424221211060552772e-01
4.424221211060552772e-01
4.432388286080970463e-01
4.432388286080970463e-01
4.445222261113055406e-01
4.445222261113055406e-01
4.459222961148057163e-01
4.459222961148057163e-01
4.465056586162641228e-01
4.465056586162641228e-01
4.466223311165558041e-01
4.466223311165558041e-01
4.477890561194726171e-01
4.477890561194726171e-01
4.482557461206393423e-01
4.482557461206393423e-01
4.483724186209310236e-01
4.483724186209310236e-01
4.493057986232644740e-01
4.493057986232644740e-01
4.496558161241395180e-01
4.496558161241395180e-01
4.515225761288064188e-01
4.515225761288064188e-01
4.517559211293897814e-01
4.517559211293897814e-01
4.518725936296814627e-01
4.518725936296814627e-01
4.545560611363901327e-01
4.545560611363901327e-01
4.547894061369734953e-01
4.547894061369734953e-01
4.565394936413487148e-01
4.565394936413487148e-01
4.573562011433904839e-01
4.573562011433904839e-01
4.582895811457239343e-01
4.582895811457239343e-01
4.613230661533076482e-01
4.613230661533076482e-01
4.624897911562244612e-01
4.624897911562244612e-01
4.648232411620580873e-01
4.648232411620580873e-01
4.673900361684750759e-01
4.673900361684750759e-01
4.693734686734336581e-01
4.693734686734336581e-01
4.724069536810173719e-01
4.724069536810173719e-01
4.731069886827674598e-01
4.731069886827674598e-01
4.735736786839341850e-01
4.735736786839341850e-01
4.740403686851009102e-01
4.740403686851009102e-01
4.795239761988099314e-01
4.795239761988099314e-01
4.798739936996849753e-01
4.798739936996849753e-01
4.809240462023101070e-01
4.809240462023101070e-01
4.854742737136856778e-01
4.854742737136856778e-01
4.871076887177692161e-01
4.871076887177692161e-01
4.922412787306031934e-01
4.922412787306031934e-01
4.929413137323532812e-01
4.929413137323532812e-01
4.936413487341033690e-01
4.936413487341033690e-01
4.942247112355617755e-01
4.942247112355617755e-01
4.976082137440205333e-01
4.976082137440205333e-01
4.992416287481040715e-01
4.993583012483957528e-01
5.006416987516042472e-01
5.006416987516042472e-01
5.009917162524792911e-01
5.009917162524792911e-01
5.021584412553961041e-01
5.021584412553961041e-01
5.053085987632714993e-01
5.053085987632714993e-01
5.054252712635631806e-01
5.054252712635631806e-01
5.102088437755221140e-01
5.102088437755221140e-01
5.131256562828141465e-01
5.131256562828141465e-01
5.132423287831058278e-01
5.132423287831058278e-01
5.173258662933146734e-01
5.173258662933146734e-01
5.187259362968148491e-01
5.187259362968148491e-01
5.204760238011900686e-01
5.204760238011900686e-01
5.216427488041068816e-01
5.216427488041068816e-01
5.229261463073153759e-01
5.229261463073153759e-01
5.231594913078987386e-01
5.231594913078987386e-01
5.238595263096488264e-01
5.238595263096488264e-01
5.286430988216077598e-01
5.286430988216077598e-01
5.305098588262746606e-01
5.305098588262746606e-01
5.351767588379419127e-01
5.351767588379419127e-01
5.370435188426088136e-01
5.370435188426088136e-01
5.403103488507758900e-01
5.403103488507758900e-01
5.408937113522342965e-01
5.408937113522342965e-01
5.426437988566095161e-01
5.426437988566095161e-01
5.450939213627348234e-01
5.450939213627348234e-01
5.494108038735270316e-01
5.494108038735270316e-01
5.501108388752771194e-01
5.501108388752771194e-01
5.541943763854859650e-01
5.541943763854859650e-01
5.551277563878194155e-01
5.551277563878194155e-01
5.568778438921946350e-01
5.568778438921946350e-01
5.581612413954031293e-01
5.581612413954031293e-01
5.618947614047369310e-01
5.618947614047369310e-01
5.630614864076537440e-01
5.630614864076537440e-01
5.642282114105705570e-01
5.642282114105705570e-01
5.651615914129040075e-01
5.651615914129040075e-01
5.662116439155291392e-01
5.662116439155291392e-01
5.666783339166958644e-01
5.666783339166958644e-01
5.670283514175709083e-01
5.670283514175709083e-01
5.693618014234045344e-01
5.693618014234045344e-01
5.709952164274880726e-01
5.709952164274880726e-01
5.716952514292381604e-01
5.716952514292381604e-01
5.727453039318632921e-01
5.727453039318632921e-01
5.732119939330300173e-01
5.732119939330300173e-01
5.740287014350717865e-01
5.740287014350717865e-01
5.751954264379885995e-01
5.751954264379885995e-01
5.755454439388636434e-01
5.755454439388636434e-01
5.779955664449889507e-01
5.779955664449889507e-01
5.793956364484891264e-01
5.793956364484891264e-01
5.810290514525726646e-01
5.810290514525726646e-01
5.819624314549061150e-01
5.819624314549061150e-01
5.831291564578229281e-01
5.831291564578229281e-01
5.862793139656983232e-01
5.862793139656983232e-01
5.866293314665733671e-01
5.866293314665733671e-01
5.867460039668650484e-01
5.867460039668650484e-01
5.876793839691984989e-01
5.876793839691984989e-01
5.887294364718236306e-01
5.887294364718236306e-01
5.905961964764905314e-01
5.908295414770738940e-01
5.924629564811574323e-01
5.924629564811574323e-01
5.938630264846576079e-01
5.938630264846576079e-01
5.943297164858243331e-01
5.943297164858243331e-01
5.958464589896161900e-01
5.958464589896161900e-01
5.987632714969082226e-01
5.987632714969082226e-01
5.989966164974915852e-01
5.989966164974915852e-01
6.009800490024501674e-01
6.009800490024501674e-01
6.012133940030335300e-01
6.012133940030335300e-01
6.014467390036168926e-01
6.014467390036168926e-01
6.023801190059503430e-01
6.023801190059503430e-01
6.034301715085754747e-01
6.034301715085754747e-01
6.041302065103255625e-01
6.041302065103255625e-01
6.042468790106172438e-01
6.042468790106172438e-01
6.044802240112006064e-01
6.044802240112006064e-01
6.072803640182009577e-01
6.072803640182009577e-01
6.146307315365768797e-01
6.146307315365768797e-01
6.188309415470774066e-01
6.188309415470774066e-01
6.205810290514526262e-01
6.205810290514526262e-01
6.215144090537860766e-01
6.215144090537860766e-01
6.216310815540777579e-01
6.216310815540777579e-01
6.219810990549528018e-01
6.219810990549528018e-01
6.238478590596197026e-01
6.238478590596197026e-01
6.241978765604947466e-01
6.241978765604947466e-01
6.245478940613697905e-01
6.245478940613697905e-01
6.255979465639948112e-01
6.255979465639948112e-01
6.269980165674949868e-01
6.269980165674949868e-01
6.295648115739119755e-01
6.295648115739119755e-01
6.308482090771204698e-01
6.308482090771204698e-01
6.321316065803289641e-01
6.321316065803289641e-01
6.407653716019133805e-01
6.407653716019133805e-01
6.408820441022050618e-01
6.408820441022050618e-01
6.416987516042468309e-01
6.416987516042468309e-01
6.435655116089137318e-01
6.435655116089137318e-01
6.436821841092054131e-01
6.436821841092054131e-01
6.462489791156224017e-01
6.462489791156224017e-01
6.512658966281646977e-01
6.512658966281646977e-01
6.523159491307898294e-01
6.523159491307898294e-01
6.524326216310815107e-01
6.524326216310815107e-01
6.547660716369151368e-01
6.547660716369151368e-01
6.549994166374984994e-01
6.549994166374984994e-01
6.617664216544160150e-01
6.617664216544160150e-01
6.685334266713335305e-01
6.685334266713335305e-01
6.691167891727919370e-01
6.691167891727919370e-01
6.754171041885427273e-01
6.754171041885427273e-01
6.756504491891260900e-01
6.756504491891260900e-01
6.764671566911678591e-01
6.764671566911678591e-01
6.803173492007933421e-01
6.803173492007933421e-01
6.823007817057519242e-01
6.823007817057519242e-01
6.875510442188775828e-01
6.875510442188775828e-01
6.879010617197526267e-01
6.879010617197526267e-01
6.884844242212110332e-01
6.884844242212110332e-01
6.889511142223777584e-01
6.889511142223777584e-01
6.893011317232528024e-01
6.893011317232528024e-01
6.926846342317115601e-01
6.926846342317115601e-01
6.931513242328782853e-01
6.931513242328782853e-01
6.933846692334616479e-01
6.933846692334616479e-01
6.951347567378368675e-01
6.951347567378368675e-01
6.952514292381285488e-01
6.952514292381285488e-01
6.989849492474623505e-01
6.989849492474623505e-01
7.019017617547543830e-01
7.019017617547543830e-01
7.042352117605880091e-01
7.042352117605880091e-01
7.071520242678800416e-01
7.071520242678800416e-01
7.073853692684634042e-01
7.073853692684634042e-01
7.083187492707968547e-01
7.083187492707968547e-01
7.084354217710885360e-01
7.084354217710885360e-01
7.090187842725469425e-01
7.090187842725469425e-01
7.117022517792556124e-01
7.117022517792556124e-01
7.120522692801306563e-01
7.120522692801306563e-01
7.135690117839225133e-01
7.135690117839225133e-01
7.136856842842141946e-01
7.136856842842141946e-01
7.147357367868393263e-01
7.147357367868393263e-01
7.154357717885894141e-01
7.156691167891727767e-01
7.180025667950064028e-01
7.180025667950064028e-01
7.189359467973398532e-01
7.189359467973398532e-01
7.197526542993816223e-01
7.197526542993816223e-01
7.210360518025901166e-01
7.210360518025901166e-01
7.225527943063819736e-01
7.225527943063819736e-01
7.231361568078403801e-01
7.231361568078403801e-01
7.266363318165908192e-01
7.266363318165908192e-01
7.279197293197993135e-01
7.279197293197993135e-01
7.304865243262163021e-01
7.304865243262163021e-01
7.308365418270913461e-01
7.308365418270913461e-01
7.344533893361334664e-01
7.344533893361334664e-01
7.346867343367168290e-01
7.346867343367168290e-01
7.355034418387585982e-01
7.355034418387585982e-01
7.357367868393419608e-01
7.357367868393419608e-01
7.362034768405086860e-01
7.362034768405086860e-01
7.381869093454672681e-01
7.381869093454672681e-01
7.386535993466339933e-01
7.386535993466339933e-01
7.387702718469256746e-01
7.387702718469256746e-01
7.394703068486757624e-01
7.394703068486757624e-01
7.414537393536343446e-01
7.414537393536343446e-01
7.423871193559677950e-01
7.423871193559677950e-01
7.441372068603430145e-01
7.441372068603430145e-01
7.442538793606346958e-01
7.442538793606346958e-01
7.472873643682184097e-01
7.472873643682184097e-01
7.476373818690934536e-01
7.476373818690934536e-01
7.511375568778438927e-01
7.511375568778438927e-01
7.532376618830941561e-01
7.532376618830941561e-01
7.541710418854276066e-01
7.541710418854276066e-01
7.570878543927196391e-01
7.570878543927196391e-01
7.574378718935946830e-01
7.574378718935946830e-01
7.584879243962198148e-01
7.584879243962198148e-01
7.598879943997199904e-01
7.598879943997199904e-01
7.626881344067203417e-01
7.626881344067203417e-01
7.628048069070120230e-01
7.628048069070120230e-01
7.667716719169291872e-01
7.667716719169291872e-01
7.681717419204293629e-01
7.681717419204293629e-01
7.687551044218877694e-01
7.687551044218877694e-01
7.695718119239295385e-01
7.695718119239295385e-01
7.701551744253879450e-01
7.701551744253879450e-01
7.712052269280130767e-01
7.712052269280130767e-01
7.721386069303465272e-01
7.721386069303465272e-01
7.724886244312215711e-01
7.724886244312215711e-01
7.731886594329716589e-01
7.731886594329716589e-01
7.762221444405553727e-01
7.762221444405553727e-01
7.768055069420137793e-01
7.768055069420137793e-01
7.782055769455139549e-01
7.782055769455139549e-01
7.800723369501808557e-01
7.800723369501808557e-01
7.819390969548477566e-01
7.819390969548477566e-01
7.861393069653482835e-01
7.861393069653482835e-01
7.876560494691401404e-01
7.876560494691401404e-01
7.880060669700151843e-01
7.880060669700151843e-01
7.884727569711819095e-01
7.884727569711819095e-01
7.891727919729319973e-01
7.891727919729319973e-01
7.924396219810990738e-01
7.924396219810990738e-01
7.929063119822657990e-01
7.929063119822657990e-01
7.931396569828491616e-01
7.931396569828491616e-01
7.986232644965581828e-01
7.986232644965581828e-01
8.016567495041418967e-01
8.016567495041418967e-01
8.049235795123089732e-01
8.049235795123089732e-01
8.071403570178509179e-01
8.071403570178509179e-01
8.083070820207677309e-01
8.083070820207677309e-01
8.095904795239762253e-01
8.095904795239762253e-01
8.098238245245595879e-01
8.098238245245595879e-01
8.101738420254346318e-01
8.101738420254346318e-01
8.132073270330183457e-01
8.132073270330183457e-01
8.134406720336017083e-01
8.134406720336017083e-01
8.146073970365185213e-01
8.146073970365185213e-01
8.153074320382686091e-01
8.153074320382686091e-01
8.158907945397270156e-01
8.158907945397270156e-01
8.161241395403103782e-01
8.161241395403103782e-01
8.167075020417687847e-01
8.167075020417687847e-01
8.172908645432271912e-01
8.172908645432271912e-01
8.177575545443939165e-01
8.177575545443939165e-01
8.197409870493524986e-01
8.197409870493524986e-01
8.274413720686034646e-01
8.274413720686034646e-01
8.281414070703535524e-01
8.281414070703535524e-01
8.291914595729786841e-01
8.291914595729786841e-01
8.294248045735620467e-01
8.296581495741454093e-01
8.298914945747287719e-01
8.298914945747287719e-01
8.310582195776455849e-01
8.310582195776455849e-01
8.337416870843542549e-01
8.337416870843542549e-01
8.340917045852292988e-01
8.340917045852292988e-01
8.357251195893128370e-01
8.357251195893128370e-01
8.361918095904795623e-01
8.361918095904795623e-01
8.366584995916462875e-01
8.366584995916462875e-01
8.373585345933963753e-01
8.373585345933963753e-01
8.379418970948547818e-01
8.379418970948547818e-01
8.413253996033135396e-01
8.413253996033135396e-01
8.416754171041885835e-01
8.416754171041885835e-01
8.424921246062303526e-01
8.424921246062303526e-01
8.437755221094388469e-01
8.437755221094388469e-01
8.452922646132307039e-01
8.452922646132307039e-01
8.461089721152724730e-01
8.461089721152724730e-01
8.510092171275230877e-01
8.510092171275230877e-01
8.535760121339400763e-01
8.535760121339400763e-01
8.536926846342317576e-01
8.536926846342317576e-01
8.548594096371485707e-01
8.548594096371485707e-01
8.549760821374402520e-01
8.549760821374402520e-01
8.560261346400653837e-01
8.560261346400653837e-01
8.583595846458990097e-01
8.583595846458990097e-01
8.606930346517326358e-01
8.606930346517326358e-01
8.620931046552328114e-01
8.620931046552328114e-01
8.641932096604830749e-01
8.641932096604830749e-01
8.669933496674834261e-01
8.669933496674834261e-01
8.699101621747754587e-01
8.699101621747754587e-01
8.706101971765255465e-01
8.706101971765255465e-01
8.716602496791506782e-01
8.716602496791506782e-01
8.717769221794423595e-01
8.717769221794423595e-01
8.735270096838175791e-01
8.735270096838175791e-01
8.736436821841092604e-01
8.736436821841092604e-01
8.753937696884843689e-01
8.753937696884843689e-01
8.805273597013183462e-01
8.805273597013183462e-01
8.815774122039434779e-01
8.815774122039434779e-01
8.819274297048185218e-01
8.819274297048185218e-01
8.821607747054018844e-01
8.821607747054018844e-01
8.836775172091937414e-01
8.836775172091937414e-01
8.843775522109438292e-01
8.843775522109438292e-01
8.844942247112355105e-01
8.844942247112355105e-01
8.862443122156107300e-01
8.862443122156107300e-01
8.869443472173608178e-01
8.869443472173608178e-01
8.872943647182358617e-01
8.872943647182358617e-01
8.879943997199859496e-01
8.879943997199859496e-01
8.895111422237778065e-01
8.895111422237778065e-01
8.900945047252362130e-01
8.900945047252362130e-01
8.933613347334032895e-01
8.933613347334032895e-01
8.942947147357367399e-01
8.942947147357367399e-01
8.962781472406953220e-01
8.962781472406953220e-01
8.969781822424454099e-01
8.969781822424454099e-01
8.996616497491540798e-01
8.996616497491540798e-01
9.002450122506124863e-01
9.002450122506124863e-01
9.005950297514875302e-01
9.005950297514875302e-01
9.025784622564461124e-01
9.025784622564461124e-01
9.030451522576128376e-01
9.030451522576128376e-01
9.032784972581962002e-01
9.032784972581962002e-01
9.035118422587795628e-01
9.035118422587795628e-01
9.039785322599462880e-01
9.039785322599462880e-01
9.050285847625714197e-01
9.050285847625714197e-01
9.073620347684050458e-01
9.073620347684050458e-01
9.105121922762804410e-01
9.105121922762804410e-01
9.114455722786138914e-01
9.114455722786138914e-01
9.128456422821140670e-01
9.128456422821140670e-01
9.144790572861976052e-01
9.144790572861976052e-01
9.163458172908645061e-01
9.163458172908645061e-01
9.171625247929062752e-01
9.171625247929062752e-01
9.234628398086570655e-01
9.234628398086570655e-01
9.241628748104071533e-01
9.241628748104071533e-01
9.260296348150740542e-01
9.260296348150740542e-01
9.288297748220744054e-01
9.288297748220744054e-01
9.302298448255745811e-01
9.302298448255745811e-01
9.309298798273246689e-01
9.309298798273246689e-01
9.318632598296581193e-01
9.318632598296581193e-01
9.358301248395752836e-01
9.358301248395752836e-01
9.366468323416170527e-01
9.366468323416170527e-01
9.390969548477423601e-01
9.390969548477423601e-01
9.400303348500758105e-01
9.402636798506591731e-01
9.481974098704935017e-01
9.481974098704935017e-01
9.499474973748687212e-01
9.499474973748687212e-01
9.558977948897444676e-01
9.561311398903278302e-01
9.565978298914945555e-01
9.565978298914945555e-01
9.701318399253295865e-01
9.701318399253295865e-01
9.714152374285380809e-01
9.714152374285380809e-01
9.728153074320382565e-01
9.728153074320382565e-01
9.732819974332049817e-01
9.732819974332049817e-01
9.733986699334966630e-01
9.733986699334966630e-01
9.750320849375802013e-01
9.750320849375802013e-01
9.784155874460389590e-01
9.784155874460389590e-01
9.801656749504141786e-01
9.801656749504141786e-01
9.817990899544977168e-01
9.817990899544977168e-01
9.823824524559561233e-01
9.823824524559561233e-01
9.866993349667483315e-01
9.866993349667483315e-01
9.872826974682067380e-01
9.872826974682067380e-01
9.918329249795823088e-01
9.918329249795823088e-01
9.932329949830824845e-01
9.932329949830824845e-01
9.942830474857076162e-01
9.942830474857076162e-01
9.949830824874577040e-01
9.949830824874577040e-01
9.954497724886244292e-01
9.954497724886244292e-01
9.956831174892077918e-01
9.956831174892077918e-01
9.957997899894994731e-01
9.957997899894994731e-01
9.962664799906661983e-01
9.962664799906661983e-01
1.000000000000000000e+00
