0.000000000000000000e+00
0.000000000000000000e+00
0.000000000000000000e+00
4.000000000000000083e-03
4.000000000000000083e-03
6.000000000000000125e-03
6.000000000000000125e-03
8.000000000000000167e-03
8.000000000000000167e-03
1.000000000000000021e-02
1.000000000000000021e-02
1.400000000000000029e-02
1.400000000000000029e-02
1.600000000000000033e-02
1.600000000000000033e-02
2.000000000000000042e-02
2.000000000000000042e-02
2.199999999999999872e-02
2.199999999999999872e-02
2.400000000000000050e-02
2.400000000000000050e-02
2.800000000000000058e-02
2.800000000000000058e-02
3.200000000000000067e-02
3.200000000000000067e-02
3.400000000000000244e-02
3.400000000000000244e-02
3.599999999999999728e-02
3.599999999999999728e-02
3.799999999999999906e-02
3.799999999999999906e-02
4.000000000000000083e-02
4.000000000000000083e-02
4.200000000000000261e-02
4.200000000000000261e-02
4.399999999999999745e-02
4.399999999999999745e-02
4.599999999999999922e-02
4.599999999999999922e-02
4.800000000000000100e-02
4.800000000000000100e-02
5.000000000000000278e-02
5.000000000000000278e-02
5.199999999999999761e-02
5.199999999999999761e-02
5.600000000000000117e-02
5.600000000000000117e-02
5.800000000000000294e-02
5.800000000000000294e-02
6.199999999999999956e-02
6.199999999999999956e-02
6.600000000000000311e-02
6.600000000000000311e-02
7.199999999999999456e-02
7.199999999999999456e-02
7.399999999999999634e-02
7.399999999999999634e-02
8.599999999999999312e-02
8.799999999999999489e-02
8.799999999999999489e-02
8.999999999999999667e-02
8.999999999999999667e-02
9.199999999999999845e-02
9.199999999999999845e-02
9.400000000000000022e-02
9.400000000000000022e-02
9.600000000000000200e-02
9.600000000000000200e-02
9.800000000000000377e-02
9.800000000000000377e-02
1.000000000000000056e-01
1.000000000000000056e-01
1.019999999999999934e-01
1.019999999999999934e-01
1.120000000000000023e-01
1.120000000000000023e-01
1.179999999999999938e-01
1.179999999999999938e-01
1.199999999999999956e-01
1.199999999999999956e-01
1.219999999999999973e-01
1.219999999999999973e-01
1.280000000000000027e-01
1.280000000000000027e-01
1.320000000000000062e-01
1.320000000000000062e-01
1.340000000000000080e-01
1.360000000000000098e-01
1.360000000000000098e-01
1.380000000000000115e-01
1.380000000000000115e-01
1.419999999999999873e-01
1.600000000000000033e-01
1.600000000000000033e-01
1.660000000000000087e-01
1.660000000000000087e-01
1.680000000000000104e-01
1.680000000000000104e-01
1.819999999999999951e-01
1.819999999999999951e-01
1.839999999999999969e-01
1.839999999999999969e-01
1.859999999999999987e-01
1.859999999999999987e-01
1.900000000000000022e-01
1.900000000000000022e-01
1.920000000000000040e-01
1.920000000000000040e-01
1.940000000000000058e-01
1.940000000000000058e-01
1.960000000000000075e-01
1.960000000000000075e-01
1.980000000000000093e-01
1.980000000000000093e-01
2.000000000000000111e-01
2.000000000000000111e-01
2.020000000000000129e-01
2.020000000000000129e-01
2.039999999999999869e-01
2.039999999999999869e-01
2.079999999999999905e-01
2.079999999999999905e-01
2.099999999999999922e-01
2.099999999999999922e-01
2.119999999999999940e-01
2.119999999999999940e-01
2.139999999999999958e-01
2.139999999999999958e-01
2.159999999999999976e-01
2.159999999999999976e-01
2.240000000000000047e-01
2.240000000000000047e-01
2.280000000000000082e-01
2.280000000000000082e-01
2.340000000000000135e-01
2.340000000000000135e-01
2.500000000000000000e-01
2.500000000000000000e-01
2.540000000000000036e-01
2.540000000000000036e-01
2.600000000000000089e-01
2.600000000000000089e-01
2.620000000000000107e-01
2.620000000000000107e-01
2.660000000000000142e-01
2.660000000000000142e-01
2.680000000000000160e-01
2.680000000000000160e-01
2.720000000000000195e-01
2.720000000000000195e-01
2.780000000000000249e-01
2.780000000000000249e-01
2.800000000000000266e-01
2.800000000000000266e-01
2.819999999999999729e-01
2.819999999999999729e-01
2.859999999999999765e-01
2.859999999999999765e-01
2.899999999999999800e-01
2.899999999999999800e-01
2.919999999999999818e-01
2.919999999999999818e-01
2.939999999999999836e-01
2.939999999999999836e-01
2.959999999999999853e-01
2.959999999999999853e-01
2.979999999999999871e-01
2.979999999999999871e-01
3.039999999999999925e-01
3.039999999999999925e-01
3.059999999999999942e-01
3.059999999999999942e-01
3.079999999999999960e-01
3.079999999999999960e-01
3.160000000000000031e-01
3.160000000000000031e-01
3.180000000000000049e-01
3.180000000000000049e-01
3.200000000000000067e-01
3.200000000000000067e-01
3.220000000000000084e-01
3.220000000000000084e-01
3.260000000000000120e-01
3.260000000000000120e-01
3.280000000000000138e-01
3.280000000000000138e-01
3.300000000000000155e-01
3.300000000000000155e-01
3.380000000000000226e-01
3.380000000000000226e-01
3.459999999999999742e-01
3.459999999999999742e-01
3.479999999999999760e-01
3.479999999999999760e-01
3.499999999999999778e-01
3.499999999999999778e-01
3.519999999999999796e-01
3.519999999999999796e-01
3.539999999999999813e-01
3.539999999999999813e-01
3.559999999999999831e-01
3.559999999999999831e-01
3.599999999999999867e-01
3.599999999999999867e-01
3.619999999999999885e-01
3.619999999999999885e-01
3.639999999999999902e-01
3.639999999999999902e-01
3.760000000000000009e-01
3.760000000000000009e-01
3.900000000000000133e-01
3.900000000000000133e-01
3.920000000000000151e-01
3.920000000000000151e-01
3.960000000000000187e-01
3.960000000000000187e-01
4.000000000000000222e-01
4.000000000000000222e-01
4.020000000000000240e-01
4.020000000000000240e-01
4.219999999999999862e-01
4.219999999999999862e-01
4.239999999999999880e-01
4.239999999999999880e-01
4.420000000000000040e-01
4.420000000000000040e-01
4.440000000000000058e-01
4.440000000000000058e-01
4.480000000000000093e-01
4.480000000000000093e-01
4.540000000000000147e-01
4.540000000000000147e-01
4.580000000000000182e-01
4.580000000000000182e-01
4.680000000000000271e-01
4.680000000000000271e-01
4.759999999999999787e-01
4.759999999999999787e-01
4.779999999999999805e-01
4.779999999999999805e-01
4.879999999999999893e-01
4.879999999999999893e-01
4.939999999999999947e-01
4.939999999999999947e-01
5.000000000000000000e-01
5.000000000000000000e-01
5.020000000000000018e-01
5.020000000000000018e-01
5.100000000000000089e-01
5.100000000000000089e-01
5.120000000000000107e-01
5.120000000000000107e-01
5.220000000000000195e-01
5.220000000000000195e-01
5.240000000000000213e-01
5.240000000000000213e-01
5.320000000000000284e-01
5.320000000000000284e-01
5.420000000000000373e-01
5.420000000000000373e-01
5.440000000000000391e-01
5.440000000000000391e-01
5.500000000000000444e-01
5.500000000000000444e-01
5.540000000000000480e-01
5.540000000000000480e-01
5.560000000000000497e-01
5.560000000000000497e-01
5.580000000000000515e-01
5.580000000000000515e-01
5.639999999999999458e-01
5.639999999999999458e-01
5.679999999999999494e-01
5.679999999999999494e-01
5.699999999999999512e-01
5.699999999999999512e-01
5.759999999999999565e-01
5.759999999999999565e-01
5.779999999999999583e-01
5.779999999999999583e-01
5.799999999999999600e-01
5.799999999999999600e-01
5.859999999999999654e-01
5.859999999999999654e-01
5.899999999999999689e-01
5.899999999999999689e-01
5.959999999999999742e-01
5.959999999999999742e-01
5.979999999999999760e-01
5.979999999999999760e-01
5.999999999999999778e-01
5.999999999999999778e-01
6.079999999999999849e-01
6.079999999999999849e-01
6.139999999999999902e-01
6.139999999999999902e-01
6.179999999999999938e-01
6.179999999999999938e-01
6.199999999999999956e-01
6.199999999999999956e-01
6.340000000000000080e-01
6.340000000000000080e-01
6.360000000000000098e-01
6.360000000000000098e-01
6.440000000000000169e-01
6.440000000000000169e-01
6.520000000000000240e-01
6.520000000000000240e-01
6.580000000000000293e-01
6.580000000000000293e-01
6.620000000000000329e-01
6.620000000000000329e-01
6.660000000000000364e-01
6.660000000000000364e-01
6.720000000000000417e-01
6.720000000000000417e-01
6.740000000000000435e-01
6.740000000000000435e-01
6.780000000000000471e-01
6.780000000000000471e-01
6.800000000000000488e-01
6.800000000000000488e-01
6.999999999999999556e-01
6.999999999999999556e-01
7.039999999999999591e-01
7.039999999999999591e-01
7.059999999999999609e-01
7.059999999999999609e-01
7.079999999999999627e-01
7.079999999999999627e-01
7.159999999999999698e-01
7.159999999999999698e-01
7.219999999999999751e-01
7.219999999999999751e-01
7.279999999999999805e-01
7.279999999999999805e-01
7.339999999999999858e-01
7.339999999999999858e-01
7.379999999999999893e-01
7.379999999999999893e-01
7.419999999999999929e-01
7.419999999999999929e-01
7.439999999999999947e-01
7.439999999999999947e-01
7.500000000000000000e-01
7.500000000000000000e-01
7.540000000000000036e-01
7.540000000000000036e-01
7.640000000000000124e-01
7.640000000000000124e-01
7.700000000000000178e-01
7.700000000000000178e-01
7.720000000000000195e-01
7.720000000000000195e-01
7.820000000000000284e-01
7.820000000000000284e-01
7.840000000000000302e-01
7.840000000000000302e-01
7.960000000000000409e-01
7.960000000000000409e-01
8.060000000000000497e-01
8.060000000000000497e-01
8.080000000000000515e-01
8.080000000000000515e-01
8.100000000000000533e-01
8.100000000000000533e-01
8.139999999999999458e-01
8.139999999999999458e-01
8.179999999999999494e-01
8.179999999999999494e-01
8.199999999999999512e-01
8.199999999999999512e-01
8.239999999999999547e-01
8.239999999999999547e-01
8.279999999999999583e-01
8.279999999999999583e-01
8.359999999999999654e-01
8.359999999999999654e-01
8.519999999999999796e-01
8.519999999999999796e-01
8.579999999999999849e-01
8.579999999999999849e-01
8.679999999999999938e-01
8.679999999999999938e-01
8.699999999999999956e-01
8.699999999999999956e-01
8.840000000000000080e-01
8.840000000000000080e-01
8.860000000000000098e-01
8.860000000000000098e-01
8.960000000000000187e-01
8.960000000000000187e-01
9.140000000000000346e-01
9.140000000000000346e-01
9.160000000000000364e-01
9.160000000000000364e-01
9.399999999999999467e-01
9.399999999999999467e-01
9.519999999999999574e-01
9.519999999999999574e-01
9.559999999999999609e-01
9.559999999999999609e-01
9.639999999999999680e-01
9.639999999999999680e-01
9.779999999999999805e-01
9.779999999999999805e-01
9.819999999999999840e-01
9.819999999999999840e-01
9.959999999999999964e-01
9.959999999999999964e-01
1.000000000000000000e+00
