0.000000000000000000e+00
0.000000000000000000e+00
0.000000000000000000e+00
0.000000000000000000e+00
0.000000000000000000e+00
1.818181818181818180e-03
1.818181818181818180e-03
3.636363636363636360e-03
3.636363636363636360e-03
5.454545454545454974e-03
5.454545454545454974e-03
7.272727272727272721e-03
7.272727272727272721e-03
9.090909090909090468e-03
9.090909090909090468e-03
1.090909090909090995e-02
1.090909090909090995e-02
1.272727272727272770e-02
1.272727272727272770e-02
1.454545454545454544e-02
1.454545454545454544e-02
1.818181818181818094e-02
1.818181818181818094e-02
2.181818181818181990e-02
2.181818181818181990e-02
2.545454545454545539e-02
2.545454545454545539e-02
2.727272727272727140e-02
2.727272727272727140e-02
3.090909090909091037e-02
3.090909090909091037e-02
3.272727272727272985e-02
3.272727272727272985e-02
3.454545454545454586e-02
3.454545454545454586e-02
3.636363636363636187e-02
3.636363636363636187e-02
4.000000000000000083e-02
4.000000000000000083e-02
4.363636363636363980e-02
4.363636363636363980e-02
4.727272727272727182e-02
4.727272727272727182e-02
4.909090909090908783e-02
4.909090909090908783e-02
5.272727272727272679e-02
5.272727272727272679e-02
5.454545454545454281e-02
5.454545454545454281e-02
5.636363636363636576e-02
5.636363636363636576e-02
5.818181818181818177e-02
5.818181818181818177e-02
6.181818181818182073e-02
6.181818181818182073e-02
6.363636363636362980e-02
6.363636363636362980e-02
6.727272727272727570e-02
6.727272727272727570e-02
6.909090909090909172e-02
6.909090909090909172e-02
7.272727272727272374e-02
7.272727272727272374e-02
8.000000000000000167e-02
8.000000000000000167e-02
8.181818181818181768e-02
8.181818181818181768e-02
8.363636363636363369e-02
8.363636363636363369e-02
8.545454545454544970e-02
8.545454545454544970e-02
8.909090909090909560e-02
8.909090909090909560e-02
9.090909090909091161e-02
9.090909090909091161e-02
9.636363636363635965e-02
9.636363636363635965e-02
1.018181818181818216e-01
1.018181818181818216e-01
1.036363636363636376e-01
1.036363636363636376e-01
1.054545454545454536e-01
1.054545454545454536e-01
1.072727272727272696e-01
1.072727272727272696e-01
1.109090909090909155e-01
1.109090909090909155e-01
1.127272727272727315e-01
1.127272727272727315e-01
1.145454545454545475e-01
1.145454545454545475e-01
1.199999999999999956e-01
1.199999999999999956e-01
1.254545454545454575e-01
1.254545454545454575e-01
1.272727272727272596e-01
1.272727272727272596e-01
1.381818181818181834e-01
1.381818181818181834e-01
1.400000000000000133e-01
1.400000000000000133e-01
1.418181818181818155e-01
1.418181818181818155e-01
1.472727272727272774e-01
1.472727272727272774e-01
1.509090909090909094e-01
1.509090909090909094e-01
1.527272727272727393e-01
1.527272727272727393e-01
1.545454545454545414e-01
1.545454545454545414e-01
1.600000000000000033e-01
1.600000000000000033e-01
1.618181818181818055e-01
1.618181818181818055e-01
1.636363636363636354e-01
1.636363636363636354e-01
1.763636363636363613e-01
1.763636363636363613e-01
1.799999999999999933e-01
1.799999999999999933e-01
1.854545454545454553e-01
1.854545454545454553e-01
1.872727272727272851e-01
1.872727272727272851e-01
1.909090909090909172e-01
1.909090909090909172e-01
1.981818181818181812e-01
1.981818181818181812e-01
2.018181818181818132e-01
2.018181818181818132e-01
2.145454545454545392e-01
2.145454545454545392e-01
2.163636363636363691e-01
2.163636363636363691e-01
2.200000000000000011e-01
2.200000000000000011e-01
2.236363636363636331e-01
2.236363636363636331e-01
2.272727272727272652e-01
2.272727272727272652e-01
2.290909090909090950e-01
2.290909090909090950e-01
2.363636363636363591e-01
2.363636363636363591e-01
2.381818181818181890e-01
2.381818181818181890e-01
2.418181818181818210e-01
2.418181818181818210e-01
2.436363636363636231e-01
2.436363636363636231e-01
2.490909090909090851e-01
2.490909090909090851e-01
2.509090909090909149e-01
2.509090909090909149e-01
2.527272727272727448e-01
2.527272727272727448e-01
2.545454545454545192e-01
2.545454545454545192e-01
2.600000000000000089e-01
2.600000000000000089e-01
2.618181818181818388e-01
2.618181818181818388e-01
2.654545454545454430e-01
2.654545454545454430e-01
2.672727272727272729e-01
2.672727272727272729e-01
2.690909090909091028e-01
2.690909090909091028e-01
2.709090909090909327e-01
2.709090909090909327e-01
2.763636363636363669e-01
2.763636363636363669e-01
2.818181818181818010e-01
2.818181818181818010e-01
2.872727272727272907e-01
2.872727272727272907e-01
2.890909090909090651e-01
2.890909090909090651e-01
2.909090909090908950e-01
2.909090909090908950e-01
2.945454545454545547e-01
2.945454545454545547e-01
2.963636363636363846e-01
2.963636363636363846e-01
2.981818181818181590e-01
2.981818181818181590e-01
3.090909090909090828e-01
3.090909090909090828e-01
3.109090909090909127e-01
3.109090909090909127e-01
3.145454545454545725e-01
3.145454545454545725e-01
3.181818181818181768e-01
3.181818181818181768e-01
3.290909090909091006e-01
3.290909090909091006e-01
3.309090909090909305e-01
3.309090909090909305e-01
3.327272727272727049e-01
3.327272727272727049e-01
3.345454545454545348e-01
3.345454545454545348e-01
3.381818181818181945e-01
3.381818181818181945e-01
3.418181818181817988e-01
3.418181818181817988e-01
3.509090909090908927e-01
3.509090909090908927e-01
3.527272727272727226e-01
3.527272727272727226e-01
3.563636363636363824e-01
3.563636363636363824e-01
3.581818181818181568e-01
3.581818181818181568e-01
3.690909090909090806e-01
3.690909090909090806e-01
3.763636363636363447e-01
3.763636363636363447e-01
3.781818181818181746e-01
3.781818181818181746e-01
3.800000000000000044e-01
3.800000000000000044e-01
3.854545454545454386e-01
3.854545454545454386e-01
3.890909090909090984e-01
3.890909090909090984e-01
3.927272727272727026e-01
3.927272727272727026e-01
4.000000000000000222e-01
4.000000000000000222e-01
4.054545454545454564e-01
4.054545454545454564e-01
4.163636363636363802e-01
4.163636363636363802e-01
4.199999999999999845e-01
4.199999999999999845e-01
4.218181818181818143e-01
4.218181818181818143e-01
4.254545454545454741e-01
4.254545454545454741e-01
4.345454545454545681e-01
4.345454545454545681e-01
4.400000000000000022e-01
4.400000000000000022e-01
4.418181818181818321e-01
4.418181818181818321e-01
4.436363636363636620e-01
4.436363636363636620e-01
4.472727272727272663e-01
4.472727272727272663e-01
4.527272727272727004e-01
4.527272727272727004e-01
4.545454545454545303e-01
4.545454545454545303e-01
4.654545454545454541e-01
4.654545454545454541e-01
4.745454545454545481e-01
4.745454545454545481e-01
4.763636363636363780e-01
4.763636363636363780e-01
4.781818181818182079e-01
4.781818181818182079e-01
4.799999999999999822e-01
4.799999999999999822e-01
4.818181818181818121e-01
4.818181818181818121e-01
4.854545454545454719e-01
4.854545454545454719e-01
4.890909090909090762e-01
4.890909090909090762e-01
4.963636363636363402e-01
4.963636363636363402e-01
5.018181818181818299e-01
5.018181818181818299e-01
5.036363636363636598e-01
5.036363636363636598e-01
5.145454545454545281e-01
5.145454545454545281e-01
5.163636363636363580e-01
5.163636363636363580e-01
5.181818181818181879e-01
5.181818181818181879e-01
5.290909090909090562e-01
5.290909090909090562e-01
5.309090909090908861e-01
5.309090909090908861e-01
5.327272727272727160e-01
5.327272727272727160e-01
5.345454545454545459e-01
5.345454545454545459e-01
5.363636363636363757e-01
5.363636363636363757e-01
5.490909090909090740e-01
5.490909090909090740e-01
5.563636363636363935e-01
5.563636363636363935e-01
5.618181818181817722e-01
5.618181818181817722e-01
5.654545454545454319e-01
5.654545454545454319e-01
5.672727272727272618e-01
5.672727272727272618e-01
5.727272727272727515e-01
5.727272727272727515e-01
5.781818181818181301e-01
5.781818181818181301e-01
5.799999999999999600e-01
5.799999999999999600e-01
5.836363636363636198e-01
5.836363636363636198e-01
5.872727272727272796e-01
5.872727272727272796e-01
5.890909090909091095e-01
5.890909090909091095e-01
5.945454545454545991e-01
5.945454545454545991e-01
5.981818181818181479e-01
5.981818181818181479e-01
5.999999999999999778e-01
5.999999999999999778e-01
6.018181818181818077e-01
6.018181818181818077e-01
6.036363636363636376e-01
6.072727272727272974e-01
6.163636363636363358e-01
6.163636363636363358e-01
6.218181818181818254e-01
6.218181818181818254e-01
6.236363636363636553e-01
6.236363636363636553e-01
6.309090909090908639e-01
6.309090909090908639e-01
6.327272727272726938e-01
6.327272727272726938e-01
6.509090909090908816e-01
6.509090909090908816e-01
6.563636363636363713e-01
6.563636363636363713e-01
6.581818181818182012e-01
6.581818181818182012e-01
6.618181818181818610e-01
6.618181818181818610e-01
6.636363636363636909e-01
6.636363636363636909e-01
6.709090909090908994e-01
6.709090909090908994e-01
6.781818181818182190e-01
6.781818181818182190e-01
6.800000000000000488e-01
6.800000000000000488e-01
6.872727272727272574e-01
6.872727272727272574e-01
6.945454545454545769e-01
6.945454545454545769e-01
7.018181818181817855e-01
7.018181818181817855e-01
7.054545454545454453e-01
7.054545454545454453e-01
7.145454545454545947e-01
7.145454545454545947e-01
7.163636363636363136e-01
7.163636363636363136e-01
7.199999999999999734e-01
7.199999999999999734e-01
7.290909090909091228e-01
7.290909090909091228e-01
7.327272727272727826e-01
7.327272727272727826e-01
7.636363636363636687e-01
7.636363636363636687e-01
7.745454545454545370e-01
7.745454545454545370e-01
8.036363636363635932e-01
8.036363636363635932e-01
8.090909090909090828e-01
8.090909090909090828e-01
8.472727272727272885e-01
8.472727272727272885e-01
8.509090909090909483e-01
8.509090909090909483e-01
8.909090909090908728e-01
8.909090909090908728e-01
9.054545454545454009e-01
9.054545454545454009e-01
9.563636363636364157e-01
9.563636363636364157e-01
9.690909090909091139e-01
9.690909090909091139e-01
9.781818181818181523e-01
9.781818181818181523e-01
9.836363636363636420e-01
9.836363636363636420e-01
9.854545454545454719e-01
9.854545454545454719e-01
9.872727272727273018e-01
9.872727272727273018e-01
9.890909090909091317e-01
9.890909090909091317e-01
9.909090909090909616e-01
9.909090909090909616e-01
9.963636363636363402e-01
9.963636363636363402e-01
9.981818181818181701e-01
9.981818181818181701e-01
1.000000000000000000e+00
