iter	Passed	Remaining
0	101	50462
1	102	25578
2	104	17326
3	107	13299
4	115	11424
5	120	9907
6	136	9648
7	140	8641
8	144	7907
9	149	7341
10	154	6850
11	157	6412
12	170	6369
13	174	6045
14	189	6137
15	191	5791
16	193	5489
17	197	5287
18	201	5107
19	206	4953
20	208	4763
21	210	4565
22	211	4383
23	218	4339
24	223	4237
25	227	4142
26	237	4154
27	238	4022
28	240	3899
29	250	3929
30	252	3825
31	255	3740
32	258	3665
33	262	3596
34	266	3546
35	270	3488
36	281	3525
37	283	3443
38	284	3365
39	295	3393
40	296	3319
41	297	3249
42	299	3186
43	310	3213
44	311	3147
45	312	3086
46	316	3050
47	320	3013
48	324	2990
49	328	2954
50	329	2903
51	331	2853
52	336	2836
53	343	2836
54	347	2813
55	349	2767
56	352	2740
57	355	2709
58	359	2685
59	363	2664
60	368	2653
61	372	2632
62	377	2615
63	395	2695
64	397	2659
65	400	2634
66	403	2609
67	406	2581
68	409	2557
69	413	2540
70	416	2519
71	420	2499
72	423	2478
73	440	2535
74	442	2505
75	443	2474
76	445	2445
77	460	2489
78	461	2460
79	463	2431
80	464	2403
81	466	2375
82	467	2350
83	470	2329
84	475	2321
85	479	2307
86	482	2288
87	483	2263
88	484	2238
89	487	2223
90	491	2208
91	493	2188
92	496	2170
93	500	2161
94	514	2195
95	516	2172
96	518	2152
97	519	2131
98	520	2110
99	541	2165
100	542	2144
101	544	2123
102	548	2112
103	551	2101
104	573	2158
105	582	2165
106	586	2152
107	589	2138
108	592	2125
109	595	2112
110	612	2146
111	614	2127
112	615	2108
113	616	2088
114	618	2069
115	623	2064
116	625	2046
117	627	2032
118	632	2024
119	637	2018
120	641	2009
121	645	1999
122	650	1994
123	654	1985
124	658	1974
125	668	1985
126	670	1968
127	671	1952
128	675	1942
129	678	1931
130	680	1915
131	681	1900
132	683	1885
133	692	1892
134	694	1877
135	695	1862
136	697	1847
137	710	1864
138	712	1849
139	713	1835
140	716	1825
141	719	1814
142	721	1800
143	722	1787
144	727	1781
145	731	1773
146	735	1765
147	739	1758
148	746	1759
149	753	1758
150	759	1755
151	768	1760
152	773	1753
153	796	1788
154	801	1783
155	802	1770
156	805	1758
157	815	1764
158	816	1751
159	818	1740
160	819	1726
161	823	1717
162	824	1705
163	826	1692
164	827	1679
165	828	1667
166	830	1655
167	831	1642
168	832	1630
169	834	1619
170	835	1607
171	839	1600
172	842	1592
173	846	1586
174	850	1580
175	853	1570
176	854	1559
177	855	1547
178	857	1537
179	862	1532
180	865	1525
181	866	1514
182	868	1504
183	869	1493
184	873	1487
185	879	1483
186	881	1476
187	887	1472
188	889	1463
189	893	1457
190	897	1451
191	903	1449
192	906	1441
193	909	1434
194	913	1428
195	918	1424
196	922	1419
197	924	1409
198	928	1404
199	935	1403
200	939	1397
201	943	1392
202	949	1388
203	953	1382
204	957	1378
205	961	1372
206	962	1362
207	967	1358
208	976	1359
209	979	1352
210	982	1346
211	987	1340
212	990	1334
213	1002	1339
214	1003	1330
215	1004	1321
216	1006	1312
217	1023	1323
218	1025	1315
219	1027	1307
220	1029	1300
221	1035	1296
222	1036	1287
223	1039	1281
224	1042	1274
225	1046	1269
226	1050	1263
227	1055	1259
228	1058	1252
229	1074	1261
230	1076	1253
231	1078	1245
232	1079	1237
233	1083	1231
234	1088	1227
235	1090	1220
236	1094	1214
237	1098	1209
238	1101	1202
239	1104	1196
240	1107	1189
241	1122	1197
242	1124	1189
243	1126	1181
244	1137	1183
245	1138	1175
246	1141	1169
247	1145	1163
248	1158	1168
249	1160	1160
250	1162	1152
251	1163	1145
252	1165	1137
253	1180	1143
254	1182	1136
255	1184	1128
256	1201	1136
257	1203	1128
258	1205	1121
259	1206	1113
260	1211	1109
261	1215	1104
262	1221	1100
263	1227	1097
264	1232	1093
265	1234	1086
266	1237	1080
267	1239	1073
268	1241	1066
269	1246	1061
270	1251	1057
271	1259	1055
272	1288	1071
273	1289	1063
274	1292	1057
275	1303	1057
276	1305	1050
277	1306	1043
278	1310	1037
279	1311	1030
280	1314	1024
281	1319	1019
282	1322	1013
283	1328	1010
284	1329	1003
285	1336	1000
286	1338	993
287	1342	987
288	1346	983
289	1348	976
290	1352	971
291	1356	966
292	1360	960
293	1362	954
294	1364	948
295	1367	942
296	1394	953
297	1398	948
298	1405	944
299	1406	937
300	1408	931
301	1409	924
302	1411	917
303	1414	911
304	1417	906
305	1421	901
306	1424	895
307	1427	890
308	1431	884
309	1436	880
310	1453	883
311	1455	877
312	1460	872
313	1477	874
314	1478	868
315	1480	862
316	1482	855
317	1494	855
318	1495	848
319	1497	842
320	1508	841
321	1515	837
322	1524	835
323	1526	829
324	1529	823
325	1535	819
326	1539	814
327	1543	809
328	1566	813
329	1570	808
330	1573	803
331	1574	796
332	1580	792
333	1596	793
334	1598	787
335	1600	781
336	1602	774
337	1606	769
338	1610	765
339	1615	760
340	1621	756
341	1624	750
342	1626	744
343	1632	740
344	1633	733
345	1635	727
346	1636	721
347	1639	716
348	1641	710
349	1649	706
350	1650	700
351	1653	695
352	1658	690
353	1662	685
354	1669	681
355	1675	677
356	1681	673
357	1685	668
358	1688	663
359	1692	658
360	1697	653
361	1701	648
362	1707	644
363	1710	639
364	1715	634
365	1719	629
366	1724	625
367	1729	620
368	1732	614
369	1739	611
370	1742	605
371	1747	601
372	1751	596
373	1758	592
374	1762	587
375	1771	584
376	1772	578
377	1784	575
378	1786	570
379	1787	564
380	1789	558
381	1790	553
382	1791	547
383	1797	542
384	1801	538
385	1806	533
386	1809	528
387	1813	523
388	1816	518
389	1823	514
390	1825	508
391	1828	503
392	1834	499
393	1835	493
394	1848	491
395	1849	485
396	1850	480
397	1852	474
398	1854	469
399	1856	464
400	1859	459
401	1860	453
402	1866	449
403	1872	444
404	1877	440
405	1884	436
406	1888	431
407	1908	430
408	1910	425
409	1911	419
410	1914	414
411	1917	409
412	1936	407
413	1942	403
414	1944	398
415	1945	392
416	1946	387
417	1947	382
418	1950	377
419	1954	372
420	1963	368
421	1964	363
422	1966	357
423	1977	354
424	1978	349
425	1980	344
426	1982	338
427	1985	333
428	1986	328
429	1987	323
430	1990	318
431	1994	313
432	1996	308
433	2000	304
434	2003	299
435	2007	294
436	2009	289
437	2010	284
438	2011	279
439	2015	274
440	2029	271
441	2032	266
442	2033	261
443	2035	256
444	2036	251
445	2039	246
446	2043	242
447	2045	237
448	2047	232
449	2063	229
450	2064	224
451	2066	219
452	2067	214
453	2069	209
454	2071	204
455	2077	200
456	2080	195
457	2084	191
458	2088	186
459	2091	181
460	2094	177
461	2098	172
462	2105	168
463	2111	163
464	2119	159
465	2121	154
466	2123	150
467	2125	145
468	2132	140
469	2135	136
470	2140	131
471	2145	127
472	2156	123
473	2158	118
474	2159	113
475	2163	109
476	2167	104
477	2171	99
478	2173	95
479	2174	90
480	2177	86
481	2179	81
482	2182	76
483	2184	72
484	2187	67
485	2191	63
486	2208	58
487	2210	54
488	2212	49
489	2215	45
490	2219	40
491	2225	36
492	2232	31
493	2235	27
494	2240	22
495	2249	18
496	2254	13
497	2258	9
498	2269	4
499	2270	0
