0.000000000000000000e+00
3.329273208233250042e-02
3.346116347288908416e-02
3.354502717539344092e-02
3.461472250374972998e-02
3.477603453121031613e-02
3.525501174325588322e-02
3.541305511879616619e-02
3.572678273509316549e-02
3.596005469959855094e-02
3.603743321158787982e-02
3.634508545160147763e-02
3.634508545160147763e-02
3.672554920169775194e-02
3.695169404600654600e-02
3.702672662352346489e-02
3.725079200836650672e-02
3.739931894417435065e-02
3.769436899667057139e-02
3.798679911168734158e-02
3.805950436415225097e-02
3.827666933749161726e-02
3.834874372513744079e-02
3.856403739907300621e-02
3.863549500489234234e-02
3.870680055283387544e-02
3.877795488171728588e-02
3.899051882407397057e-02
3.906107650812339765e-02
3.927186987437092380e-02
3.941167355119665205e-02
3.982767056110592119e-02
3.996521796670206295e-02
4.003378524495000701e-02
4.030669456514972271e-02
4.044234297960566660e-02
4.050996799119589015e-02
4.071205418052161601e-02
4.104627377328210619e-02
4.117906958341227552e-02
4.124527880629991899e-02
4.144315897730487669e-02
4.150887184811737768e-02
4.150887184811737768e-02
4.170527708103941023e-02
4.209483854611688336e-02
4.228802470839923555e-02
4.241623478245577783e-02
4.248016718803359487e-02
4.260768932660579517e-02
4.260768932660579517e-02
4.267128008366931347e-02
4.273475797536697290e-02
4.286137716762244976e-02
4.292451946106032312e-02
4.305047189639140542e-02
4.305047189639140542e-02
4.367371507746534154e-02
4.379708588930134039e-02
4.440774607544668851e-02
4.440774607544668851e-02
4.446825446265149917e-02
4.452866312182232611e-02
4.488904328843603547e-02
4.488904328843603547e-02
4.530508105203250729e-02
4.542309464668653485e-02
4.559941416363329225e-02
4.565800188003355659e-02
4.589143493287066444e-02
4.589143493287066444e-02
4.612341618792027698e-02
4.612341618792027698e-02
4.635396744201903535e-02
4.658310992744972567e-02
4.737430857163667242e-02
4.737430857163667242e-02
4.748599818215661073e-02
4.754171999649474400e-02
4.787434702014981003e-02
4.787434702014981003e-02
4.792950350806837734e-02
4.792950350806837734e-02
4.917665823285296417e-02
4.928321958013132109e-02
4.970655330464506666e-02
4.981166809912059013e-02
5.079635041103550130e-02
5.079635041103550130e-02
5.110221703929285209e-02
5.110221703929285209e-02
5.135529693636137205e-02
5.145607432862590869e-02
5.155659425559123987e-02
5.155659425559123987e-02
5.165685822027521468e-02
5.165685822027521468e-02
5.170689468222155333e-02
5.180677748788614645e-02
5.205538398013259682e-02
5.215439014531576128e-02
5.288915026506116335e-02
5.288915026506116335e-02
5.308281066923897784e-02
5.308281066923897784e-02
5.346732742988681564e-02
5.346732742988681564e-02
5.399005806158387738e-02
5.399005806158387738e-02
5.606026744659989985e-02
5.606026744659989985e-02
5.637295130534113879e-02
5.646184724597488186e-02
5.650622207966377042e-02
5.650622207966377042e-02
5.663905540904408398e-02
5.663905540904408398e-02
5.685948051386317120e-02
5.685948051386317120e-02
5.694731584572110261e-02
5.694731584572110261e-02
5.703496124123880184e-02
5.747036952244627406e-02
5.747036952244627406e-02
5.781536457566081866e-02
5.781536457566081866e-02
5.802950838799755123e-02
5.802950838799755123e-02
5.807220212221524819e-02
5.807220212221524819e-02
5.811485107872171874e-02
5.820001505225486094e-02
6.015175577534991047e-02
6.015175577534991047e-02
6.051506723019590972e-02
6.051506723019590972e-02
6.075549056044086960e-02
6.083531801859925342e-02
6.119262236284300077e-02
6.119262236284300077e-02
6.162512305863511453e-02
6.162512305863511453e-02
6.220760774797520765e-02
6.220760774797520765e-02
6.255314934048603059e-02
6.262954055650393759e-02
6.304715378873430864e-02
6.304715378873430864e-02
6.364705481492692607e-02
6.364705481492692607e-02
6.453065356099231542e-02
6.453065356099231542e-02
6.510922730136495251e-02
6.510922730136495251e-02
6.514511583972125430e-02
6.514511583972125430e-02
6.567966662948285239e-02
6.567966662948285239e-02
6.652053055630491318e-02
6.652053055630491318e-02
6.672803961177808940e-02
6.676252088396295026e-02
6.717401049215329656e-02
6.717401049215329656e-02
6.731024410486810550e-02
6.731024410486810550e-02
6.815138884062067748e-02
6.825114990949682214e-02
6.874625310038903758e-02
6.874625310038903758e-02
6.962221986738023616e-02
6.962221986738023616e-02
6.990996355197431900e-02
6.990996355197431900e-02
7.000541486322103824e-02
7.000541486322103824e-02
7.091638808506645075e-02
7.091638808506645075e-02
7.097844240857868747e-02
7.097844240857868747e-02
7.122568130896478333e-02
7.122568130896478333e-02
7.192789633973033225e-02
7.192789633973033225e-02
7.210901779010739365e-02
7.210901779010739365e-02
7.267704410289246852e-02
7.267704410289246852e-02
7.279557124452348815e-02
7.279557124452348815e-02
7.311965072735804316e-02
7.311965072735804316e-02
7.323682295296533862e-02
7.323682295296533862e-02
7.424702835424022707e-02
7.424702835424022707e-02
7.464370086217074485e-02
7.464370086217074485e-02
7.492450418371066068e-02
7.492450418371066068e-02
7.586377690881238034e-02
7.586377690881238034e-02
7.602709602575963288e-02
7.602709602575963288e-02
7.616264631601929458e-02
7.616264631601929458e-02
7.656633030439717602e-02
7.659308550497867518e-02
7.669991134815662415e-02
7.669991134815662415e-02
7.693913451858229446e-02
7.693913451858229446e-02
7.720310949585040827e-02
7.720310949585040827e-02
7.811213953837099766e-02
7.811213953837099766e-02
7.839314212724170228e-02
7.839314212724170228e-02
7.852014104584356669e-02
7.852014104584356669e-02
7.887333574965794958e-02
7.887333574965794958e-02
7.909853673652375572e-02
7.909853673652375572e-02
7.976557596114079718e-02
7.976557596114079718e-02
8.005797560132307811e-02
8.005797560132307811e-02
8.020325084614832178e-02
8.020325084614832178e-02
8.039599986695110390e-02
8.039599986695110390e-02
8.044401806078785300e-02
8.044401806078785300e-02
8.075449923411669173e-02
8.075449923411669173e-02
8.080201497453966264e-02
8.080201497453966264e-02
8.084946422438352154e-02
8.084946422438352154e-02
8.173851979567163528e-02
8.173851979567163528e-02
8.196859684634097420e-02
8.196859684634097420e-02
8.228803259936409709e-02
8.228803259936409709e-02
8.251431028328558293e-02
8.251431028328558293e-02
8.253685198936705492e-02
8.253685198936705492e-02
8.302884605149096764e-02
8.302884605149096764e-02
8.338199472957039116e-02
8.338199472957039116e-02
8.424802902717302977e-02
8.424802902717302977e-02
8.446084290601096889e-02
8.450323067418220868e-02
8.473532664317555418e-02
8.473532664317555418e-02
8.479832225411937374e-02
8.479832225411937374e-02
8.500737443647177205e-02
8.500737443647177205e-02
8.540064920147726057e-02
8.540064920147726057e-02
8.595078640384166968e-02
8.595078640384166968e-02
8.605155302939453132e-02
8.605155302939453132e-02
8.666867284205669042e-02
8.666867284205669042e-02
8.694311226646057877e-02
8.694311226646057877e-02
8.748416953905704951e-02
8.748416953905704951e-02
8.797738104027394423e-02
8.797738104027394423e-02
8.818341822964287369e-02
8.818341822964287369e-02
8.838790804500007425e-02
8.842492260475243171e-02
8.891967923285876152e-02
8.891967923285876152e-02
8.947652828963661986e-02
8.947652828963661986e-02
8.952978907222344795e-02
8.952978907222344795e-02
8.991702024558319295e-02
8.991702024558319295e-02
9.077549366267712028e-02
9.077549366267712028e-02
9.085971527727033925e-02
9.085971527727033925e-02
9.096039548178123935e-02
9.096039548178123935e-02
9.109398346701250149e-02
9.109398346701250149e-02
9.129297432638870669e-02
9.129297432638870669e-02
9.149030551898948427e-02
9.149030551898948427e-02
9.181553171513333333e-02
9.181553171513333333e-02
9.186392359315678768e-02
9.186392359315678768e-02
9.248381135478705994e-02
9.248381135478705994e-02
9.262445547625840214e-02
9.262445547625840214e-02
9.276420572329607817e-02
9.276420572329607817e-02
9.285687795182742676e-02
9.285687795182742676e-02
9.301045602188384720e-02
9.301045602188384720e-02
9.326904035982772068e-02
9.326904035982772068e-02
9.376210414314933850e-02
9.376210414314933850e-02
9.393851801479505270e-02
9.393851801479505270e-02
9.425799307451090958e-02
9.425799307451090958e-02
9.434424085563197782e-02
9.434424085563197782e-02
9.457239976783912705e-02
9.457239976783912705e-02
9.468548274266717912e-02
9.468548274266717912e-02
9.479790457113312918e-02
9.479790457113312918e-02
9.503461643834576478e-02
9.503461643834576478e-02
9.510367465585049807e-02
9.510367465585049807e-02
9.514498721434232198e-02
9.514498721434232198e-02
9.525470637691887954e-02
9.525470637691887954e-02
9.545868131715370963e-02
9.545868131715370963e-02
9.547219883468571755e-02
9.547219883468571755e-02
9.588626464376465153e-02
9.588626464376465153e-02
9.592582624960727111e-02
9.592582624960727111e-02
9.596529844207321580e-02
9.596529844207321580e-02
9.607012132727880960e-02
9.607012132727880960e-02
9.618729057960309636e-02
9.618729057960309636e-02
9.649584754814605203e-02
9.649584754814605203e-02
9.655942087548861907e-02
9.655942087548861907e-02
9.672357307679102512e-02
9.672357307679102512e-02
9.681128381995932064e-02
9.681128381995932064e-02
9.702232655237000292e-02
9.702232655237000292e-02
9.721841978798381745e-02
9.721841978798381745e-02
9.723059433977898625e-02
9.723059433977898625e-02
9.731554927679496314e-02
9.731554927679496314e-02
9.735181573570186875e-02
9.735181573570186875e-02
9.769799545512156125e-02
9.769799545512156125e-02
9.790888237788286652e-02
9.790888237788286652e-02
9.801318940432102167e-02
9.801318940432102167e-02
9.805930578854664403e-02
9.805930578854664403e-02
9.808230816534110885e-02
9.808230816534110885e-02
9.835544443089103139e-02
9.835544443089103139e-02
9.841167814873030828e-02
9.841167814873030828e-02
9.902587057014111682e-02
9.902587057014111682e-02
9.915378083908767126e-02
9.915378083908767126e-02
9.923833437901272148e-02
9.923833437901272148e-02
9.938492213554972476e-02
9.938492213554972476e-02
9.954003767431360283e-02
9.954003767431360283e-02
9.970328937711650519e-02
9.970328937711650519e-02
9.980417076151981703e-02
9.980417076151981703e-02
1.000032898523940256e-01
1.000032898523940256e-01
1.000819542482210556e-01
1.000819542482210556e-01
1.001794975925714148e-01
1.001794975925714148e-01
1.002085903956343310e-01
1.002085903956343310e-01
1.003910262450052604e-01
1.003910262450052604e-01
1.004195454491943612e-01
1.004195454491943612e-01
1.004479867144725258e-01
1.004479867144725258e-01
1.006076848854466216e-01
1.006076848854466216e-01
1.007096920967824605e-01
1.007096920967824605e-01
1.010005449251163562e-01
1.010005449251163562e-01
1.012129607666213266e-01
1.012129607666213266e-01
1.012217054921650816e-01
1.012217054921650816e-01
1.012478889438222646e-01
1.012478889438222646e-01
1.012913590776659267e-01
1.012913590776659267e-01
1.015140092435762309e-01
1.015140092435762309e-01
1.016064993379924702e-01
1.016064993379924702e-01
1.016648298212789736e-01
1.016648298212789736e-01
1.016731293489196303e-01
1.016731293489196303e-01
1.017638739300809891e-01
1.017638739300809891e-01
1.019982902725948826e-01
1.019982902725948826e-01
1.020221427561586874e-01
1.020221427561586874e-01
1.020300770651259292e-01
1.020300770651259292e-01
1.024238208794488181e-01
1.024238208794488181e-01
1.027177730496050129e-01
1.027177730496050129e-01
1.029227863290736178e-01
1.029227863290736178e-01
1.029781496066496382e-01
1.029781496066496382e-01
1.030873351641881375e-01
1.030873351641881375e-01
1.031411590754555963e-01
1.031411590754555963e-01
1.031478510827325001e-01
1.031478510827325001e-01
1.032077197517344419e-01
1.032077197517344419e-01
1.032930563214492226e-01
1.032930563214492226e-01
1.033449025271460930e-01
1.033449025271460930e-01
1.034911305655385194e-01
1.034911305655385194e-01
1.038587289104462991e-01
1.038587289104462991e-01
1.040454330433289720e-01
1.040454330433289720e-01
1.041274929774083924e-01
1.041274929774083924e-01
1.042446873799559026e-01
1.042446873799559026e-01
1.043326798378198111e-01
1.043326798378198111e-01
1.044873956807991222e-01
1.044873956807991222e-01
1.045738384743880034e-01
1.045738384743880034e-01
1.046393537457712131e-01
1.046393537457712131e-01
1.047392764301505741e-01
1.047392764301505741e-01
1.047834740812605692e-01
1.047834740812605692e-01
1.047922221127008530e-01
1.047922221127008530e-01
1.048397916282987063e-01
1.048397916282987063e-01
1.049239233917091674e-01
1.049239233917091674e-01
1.049850289703276596e-01
1.049850289703276596e-01
1.049930474814054771e-01
1.049930474814054771e-01
1.050010356853500471e-01
1.050010356853500471e-01
1.050050184243098983e-01
1.050050184243098983e-01
1.050208736468236370e-01
1.050208736468236370e-01
1.050983338578019566e-01
1.050983338578019566e-01
1.051021274959528240e-01
1.051021274959528240e-01
1.051800503482797633e-01
1.051800503482797633e-01
1.052476879089783435e-01
1.052476879089783435e-01
1.054404344521079062e-01
1.054404344521079062e-01
1.054434765299534782e-01
1.054434765299534782e-01
1.054495382459948866e-01
1.054495382459948866e-01
1.054645616681616771e-01
1.054645616681616771e-01
1.054734860089962534e-01
1.054734860089962534e-01
1.054969554536438203e-01
1.054969554536438203e-01
1.055056332442931843e-01
1.055056332442931843e-01
1.055507802261897998e-01
1.055507802261897998e-01
1.056149219108649256e-01
1.056149219108649256e-01
1.056602140075078439e-01
1.056602140075078439e-01
1.056650977235239347e-01
1.056650977235239347e-01
1.056747759620760563e-01
1.056747759620760563e-01
1.057030974216317809e-01
1.057030974216317809e-01
1.057586672945924205e-01
1.057586672945924205e-01
1.057650241746568853e-01
1.057650241746568853e-01
1.058342617845634825e-01
1.058342617845634825e-01
1.058594184978358388e-01
1.058594184978358388e-01
1.058765004451398539e-01
1.058765004451398539e-01
1.058928435216635600e-01
1.058928435216635600e-01
1.059022948525486923e-01
1.059022948525486923e-01
1.059053862263062973e-01
1.059053862263062973e-01
1.059276304159817439e-01
1.059276304159817439e-01
1.059508337264007671e-01
1.059508337264007671e-01
1.059776986289354683e-01
1.059776986289354683e-01
1.059887309808195538e-01
1.059887309808195538e-01
1.060067333131754219e-01
1.060067333131754219e-01
1.060139686834500328e-01
1.060139686834500328e-01
1.060231482164461225e-01
1.060231482164461225e-01
1.060458932701668633e-01
1.060458932701668633e-01
1.060564591653744143e-01
1.060564591653744143e-01
1.060578997206712976e-01
1.060578997206712976e-01
1.060595350212107379e-01
1.060595350212107379e-01
1.060617692787173827e-01
1.060617692787173827e-01
1.060631362683261414e-01
1.060631362683261414e-01
1.060659841067591314e-01
1.060659841067591314e-01
1.060653961721848837e-01
1.060653961721848837e-01
1.060648266074582236e-01
1.060648266074582236e-01
1.060645473358941271e-01
1.060645473358941271e-01
1.060643966759291790e-01
1.060643966759291790e-01
1.060615157222561111e-01
1.060615157222561111e-01
1.060458932701668633e-01
1.060458932701668633e-01
1.060442283565849048e-01
1.060442283565849048e-01
1.060342309747506484e-01
1.060342309747506484e-01
1.060328489095752197e-01
1.060328489095752197e-01
1.060314374201642429e-01
1.060314374201642429e-01
1.060113106246211301e-01
1.060113106246211301e-01
1.059949968453432756e-01
1.059949968453432756e-01
1.059833068846551679e-01
1.059833068846551679e-01
1.059707255902231637e-01
1.059707255902231637e-01
1.059585143116579115e-01
1.059585143116579115e-01
1.059559836056038207e-01
1.059559836056038207e-01
1.059233144149263617e-01
1.059233144149263617e-01
1.059144831741726245e-01
1.059144831741726245e-01
1.059099679178608644e-01
1.059099679178608644e-01
1.059069208390477912e-01
1.059069208390477912e-01
1.058896339993770780e-01
1.058896339993770780e-01
1.058814809336624391e-01
1.058814809336624391e-01
1.058781679962106509e-01
1.058781679962106509e-01
1.058748255053742482e-01
1.058748255053742482e-01
1.058506003364605014e-01
1.058506003364605014e-01
1.058192356024101194e-01
1.058192356024101194e-01
1.058037357751372004e-01
1.058037357751372004e-01
1.057877620945519292e-01
1.057877620945519292e-01
1.057629126273103848e-01
1.057629126273103848e-01
1.057586672945924205e-01
1.057586672945924205e-01
1.057543923081961379e-01
1.057543923081961379e-01
1.057479242200810299e-01
1.057479242200810299e-01
1.057435750836993593e-01
1.057435750836993593e-01
1.057325724442760989e-01
1.057325724442760989e-01
1.057213843320367885e-01
1.057213843320367885e-01
1.056984514525476371e-01
1.056984514525476371e-01
1.056626595823386972e-01
1.056626595823386972e-01
1.056453844229458400e-01
1.056453844229458400e-01
1.056277448358858839e-01
1.056277448358858839e-01
1.056149219108649256e-01
1.056149219108649256e-01
1.055780274840628086e-01
1.055780274840628086e-01
1.055535385002745463e-01
1.055535385002745463e-01
1.055256201098410673e-01
1.055256201098410673e-01
1.054793981999206653e-01
1.054793981999206653e-01
1.054495382459949004e-01
1.054495382459949004e-01
1.054064777229432037e-01
1.054064777229432037e-01
1.053159518681532486e-01
1.053159518681532486e-01
1.051836780015258932e-01
1.051836780015258932e-01
1.051691221667636622e-01
1.051691221667636622e-01
1.051654643630550723e-01
1.051654643630550723e-01
1.051507577445488784e-01
1.051507577445488784e-01
1.051433591820127578e-01
1.051433591820127578e-01
1.050599818685593323e-01
1.050599818685593323e-01
1.049850289703276596e-01
1.049850289703276596e-01
1.049444815638742035e-01
1.049444815638742035e-01
1.049403851076144700e-01
1.049403851076144700e-01
1.049156469867278951e-01
1.049156469867278951e-01
1.048822375519093408e-01
1.048822375519093408e-01
1.048695836253000502e-01
1.048695836253000502e-01
1.048483416637973065e-01
1.048483416637973065e-01
1.047834740812605414e-01
1.047834740812605414e-01
1.047790886325141169e-01
1.047790886325141169e-01
1.047702948641830445e-01
1.047702948641830445e-01
1.047258683551317154e-01
1.047258683551317154e-01
1.047168914654754701e-01
1.047168914654754701e-01
1.046897774796933522e-01
1.046897774796933522e-01
1.046761173221061741e-01
1.046761173221061741e-01
1.046393537457712131e-01
1.046393537457712131e-01
1.046300863331689063e-01
1.046300863331689063e-01
1.045500760676881247e-01
1.045500760676881247e-01
1.045357265500587163e-01
1.045357265500587163e-01
1.045261218234340150e-01
1.045261218234340150e-01
1.045164863817065887e-01
1.045164863817065887e-01
1.045019756097050334e-01
1.045019756097050334e-01
1.044234161329605920e-01
1.044234161329605920e-01
1.043884266579515330e-01
1.043884266579515330e-01
1.043833973335950988e-01
1.043833973335950988e-01
1.043479761116014037e-01
1.043479761116014037e-01
1.043173140699339974e-01
1.043173140699339974e-01
1.042967182243717816e-01
1.042967182243717816e-01
1.042078052600224347e-01
1.042078052600224347e-01
1.041705434211657455e-01
1.041705434211657455e-01
1.041651892801570278e-01
1.041651892801570278e-01
1.041329014557617477e-01
1.041329014557617477e-01
1.040121188036916000e-01
1.040121188036916000e-01
1.039672633522280287e-01
1.039672633522280287e-01
1.039446483884516881e-01
1.039446483884516881e-01
1.038818128007776981e-01
1.038818128007776981e-01
1.037414291079706008e-01
1.037414291079706008e-01
1.036876198444106612e-01
1.036876198444106612e-01
1.036270844042040395e-01
1.036270844042040395e-01
1.036148827960226837e-01
1.036148827960226837e-01
1.035657609252068345e-01
1.035657609252068345e-01
1.034911305655385194e-01
1.034911305655385194e-01
1.034153609507728611e-01
1.034153609507728611e-01
1.033770481413774783e-01
1.033770481413774783e-01
1.028105146271858783e-01
1.028105146271858783e-01
1.027892339032230595e-01
1.027892339032230595e-01
1.027392961895799567e-01
1.027392961895799567e-01
1.026527665039444065e-01
1.026527665039444065e-01
1.025944316770130982e-01
1.025944316770130982e-01
1.024985287043209681e-01
1.024985287043209681e-01
1.024238208794488458e-01
1.024238208794488458e-01
1.024012494664825190e-01
1.024012494664825190e-01
1.023937093310078317e-01
1.023937093310078317e-01
1.022257564775218008e-01
1.022257564775218008e-01
1.021870319791721160e-01
1.021870319791721160e-01
1.019982902725948826e-01
1.019982902725948826e-01
1.017392253753910680e-01
1.017392253753910680e-01
1.016897033757632601e-01
1.016897033757632601e-01
1.016315482348759403e-01
1.016315482348759403e-01
1.014801251442749574e-01
1.014801251442749574e-01
1.014033948302039689e-01
1.014033948302039689e-01
1.013346182566291498e-01
1.013346182566291498e-01
1.012739963538967780e-01
1.012739963538967780e-01
1.011691102277684773e-01
1.011691102277684773e-01
1.011515107459416557e-01
1.011515107459416557e-01
1.010184330654355367e-01
1.010184330654355367e-01
1.009196267226751265e-01
1.009196267226751265e-01
1.008925004986813978e-01
1.008925004986813978e-01
1.008834413497554927e-01
1.008834413497554927e-01
1.008652974267132824e-01
1.008652974267132824e-01
1.008289070152651457e-01
1.008289070152651457e-01
1.005890262647448907e-01
1.005890262647448907e-01
1.004290345275590801e-01
1.004290345275590801e-01
1.002376047665274883e-01
1.002376047665274883e-01
1.002182705639164534e-01
1.002182705639164534e-01
1.001697825503731210e-01
1.001697825503731210e-01
9.999341737200542757e-02
9.999341737200542757e-02
9.990417003787296912e-02
9.990417003787296912e-02
9.985428049701933206e-02
9.985428049701933206e-02
9.975384049954072463e-02
9.975384049954072463e-02
9.974374795461606047e-02
9.974374795461606047e-02
9.967285255091606899e-02
9.967285255091606899e-02
9.952975898189739268e-02
9.952975898189739268e-02
9.943685017871775611e-02
9.943685017871775611e-02
9.937450973865331882e-02
9.937450973865331882e-02
9.933277076327737265e-02
9.933277076327737265e-02
9.923833437901272148e-02
9.923833437901272148e-02
9.921724988813671042e-02
9.921724988813671042e-02
9.920669417634497833e-02
9.920669417634497833e-02
9.913255255391896503e-02
9.913255255391896503e-02
9.906865156825706009e-02
9.906865156825706009e-02
9.905796985450672498e-02
9.905796985450672498e-02
9.897219111006777537e-02
9.897219111006777537e-02
9.892908474271691621e-02
9.892908474271691621e-02
9.889665987682244586e-02
9.889665987682244586e-02
9.885329978263410200e-02
9.885329978263410200e-02
9.884243707141067425e-02
9.884243707141067425e-02
9.883156527913578016e-02
9.883156527913578016e-02
9.882068440281221999e-02
9.882068440281221999e-02
9.877706999695412549e-02
9.877706999695412549e-02
9.871137535478285985e-02
9.871137535478285985e-02
9.853458320717584096e-02
9.853458320717584096e-02
9.844530794433056786e-02
9.844530794433056786e-02
9.829898029757441758e-02
9.829898029757441758e-02
9.826499105298849845e-02
9.826499105298849845e-02
9.825364282488419088e-02
9.825364282488419088e-02
9.823091862960184328e-02
9.823091862960184328e-02
9.807081162549026454e-02
9.807081162549026454e-02
9.790888237788286652e-02
9.790888237788286652e-02
9.787394530919260593e-02
9.787394530919260593e-02
9.775687993980555768e-02
9.775687993980555768e-02
9.770979114631549167e-02
9.770979114631549167e-02
9.769799545512156125e-02
9.769799545512156125e-02
9.765071861689905708e-02
9.765071861689905708e-02
9.761516211539582322e-02
9.761516211539582322e-02
9.754379446619414196e-02
9.754379446619414196e-02
9.743610497636151502e-02
9.743610497636151502e-02
9.729132406722784676e-02
9.729132406722784676e-02
9.724275935137030591e-02
9.724275935137030591e-02
9.708386903629230569e-02
9.708386903629230569e-02
9.707157972113171496e-02
9.707157972113171496e-02
9.705928081880649261e-02
9.705928081880649261e-02
9.703465423807766665e-02
9.703465423807766665e-02
9.700998926488960117e-02
9.700998926488960117e-02
9.698528586995075473e-02
9.698528586995075473e-02
9.677375156471892947e-02
9.677375156471892947e-02
9.671100423668850532e-02
9.671100423668850532e-02
9.666063189042883863e-02
9.666063189042883863e-02
9.653402079306727668e-02
9.653402079306727668e-02
9.630366165357903685e-02
9.630366165357903685e-02
9.625203953100855414e-02
9.625203953100855414e-02
9.622616948066559095e-02
9.622616948066559095e-02
9.592582624960727111e-02
9.592582624960727111e-02
9.582012963672054129e-02
9.582012963672054129e-02
9.570045830802918763e-02
9.570045830802918763e-02
9.566038792222689158e-02
9.566038792222689158e-02
9.544515371823704408e-02
9.544515371823704408e-02
9.541806825909548984e-02
9.541806825909548984e-02
9.539094242289605785e-02
9.539094242289605785e-02
9.506227034499503681e-02
9.506227034499503681e-02
9.502077416183550562e-02
9.502077416183550562e-02
9.490966760264840651e-02
9.490966760264840651e-02
9.445865327213721907e-02
9.445865327213721907e-02
9.432989236048527903e-02
9.432989236048527903e-02
9.431553341769222110e-02
9.431553341769222110e-02
9.414240944416257806e-02
9.414240944416257806e-02
9.408436553912361000e-02
9.408436553912361000e-02
9.406982825091052269e-02
9.406982825091052269e-02
9.401157370377166700e-02
9.401157370377166700e-02
9.396777199215664012e-02
9.396777199215664012e-02
9.395315029039225108e-02
9.395315029039225108e-02
9.387988307514089081e-02
9.387988307514089081e-02
9.386519785611845135e-02
9.386519785611845135e-02
9.383579560233965000e-02
9.383579560233965000e-02
9.379161260750651374e-02
9.379161260750651374e-02
9.377686369211629680e-02
9.377686369211629680e-02
9.371776164452978730e-02
9.371776164452978730e-02
9.370295951096360709e-02
9.370295951096360709e-02
9.367332326250404906e-02
9.367332326250404906e-02
9.350955998029190919e-02
9.350955998029190919e-02
9.343469353295377755e-02
9.343469353295377755e-02
9.340467173438142534e-02
9.340467173438142534e-02
9.338964469589007555e-02
9.338964469589007555e-02
9.332942882591298284e-02
9.332942882591298284e-02
9.317813330865999666e-02
9.317813330865999666e-02
9.308683602106108956e-02
9.308683602106108956e-02
9.301045602188384720e-02
9.301045602188384720e-02
9.299514734769595559e-02
9.299514734769595559e-02
9.288768101414467127e-02
9.288768101414467127e-02
9.274872193416114352e-02
9.274872193416114352e-02
9.271772137696525362e-02
9.271772137696525362e-02
9.265558819231073384e-02
9.265558819231073384e-02
9.262445547625840214e-02
9.262445547625840214e-02
9.256205757430019387e-02
9.256205757430019387e-02
9.254643046836727449e-02
9.254643046836727449e-02
9.246812887582032958e-02
9.246812887582032958e-02
9.229488832148315114e-02
9.229488832148315114e-02
9.216804791220817306e-02
9.216804791220817306e-02
9.208840883763252938e-02
9.208840883763252938e-02
9.197644233930804547e-02
9.197644233930804547e-02
9.192828775972447519e-02
9.192828775972447519e-02
9.186392359315678768e-02
9.186392359315678768e-02
9.162094290964012400e-02
9.162094290964012400e-02
9.160465320693270130e-02
9.160465320693270130e-02
9.149030551898949815e-02
9.149030551898949815e-02
9.144112772545157086e-02
9.144112772545157086e-02
9.140828519288841936e-02
9.140828519288841936e-02
9.137539673313524458e-02
9.137539673313524458e-02
9.132597782146559262e-02
9.132597782146559262e-02
9.129297432638870669e-02
9.129297432638870669e-02
9.127645529393849100e-02
9.127645529393849100e-02
9.124338262792125454e-02
9.124338262792125454e-02
9.119368703195621095e-02
9.119368703195621095e-02
9.111062969343597384e-02
9.111062969343597384e-02
9.107732563953620242e-02
9.107732563953620242e-02
9.106065620464047494e-02
9.106065620464047494e-02
9.072482006297109824e-02
9.072482006297109824e-02
9.067404077399880691e-02
9.067404077399880691e-02
9.065709082715253664e-02
9.065709082715253664e-02
9.062315561809619613e-02
9.062315561809619613e-02
9.045277154044306656e-02
9.045277154044306656e-02
9.041855274485903482e-02
9.041855274485903482e-02
9.022949971453593510e-02
9.022949971453593510e-02
9.017768948716689548e-02
9.017768948716689548e-02
8.998679644654504484e-02
8.998679644654504484e-02
8.996937046563870111e-02
8.996937046563870111e-02
8.995193244318097636e-02
8.995193244318097636e-02
8.993448237216737640e-02
8.993448237216737640e-02
8.991702024558319295e-02
8.991702024558319295e-02
8.986456146210508589e-02
8.986456146210508589e-02
8.981199392497012102e-02
8.981199392497012102e-02
8.975931744310360061e-02
8.975931744310360061e-02
8.967128068560716037e-02
8.967128068560716037e-02
8.963598089846437633e-02
8.963598089846437633e-02
8.956523514952555165e-02
8.956523514952555165e-02
8.954751821714208859e-02
8.954751821714208859e-02
8.952978907222343408e-02
8.952978907222343408e-02
8.947652828963661986e-02
8.947652828963661986e-02
8.944095990524453255e-02
8.944095990524453255e-02
8.936967600297367198e-02
8.936967600297367198e-02
8.931608410324261282e-02
8.931608410324261282e-02
8.920856779520251745e-02
8.920856779520251745e-02
8.913664331005449748e-02
8.913664331005449748e-02
8.908256995928376387e-02
8.908256995928376387e-02
8.906452070955060696e-02
8.906452070955060696e-02
8.904645904751684604e-02
8.904645904751684604e-02
8.890151799950517242e-02
8.890151799950517242e-02
8.884695938460095144e-02
8.884695938460095144e-02
8.882874818245578563e-02
8.882874818245578563e-02
8.873750434650393148e-02
8.873750434650393148e-02
8.870091901606293183e-02
8.870091901606293183e-02
8.859086120152225019e-02
8.859086120152225019e-02
8.855407444720531096e-02
8.855407444720531096e-02
8.851723718014667397e-02
8.851723718014667397e-02
8.842492260475243171e-02
8.842492260475243171e-02
8.836938171980504575e-02
8.836938171980504575e-02
8.820207199162885536e-02
8.820207199162885536e-02
8.818341822964287369e-02
8.818341822964287369e-02
8.807122682303547556e-02
8.807122682303547556e-02
8.801495793014749158e-02
8.801495793014749158e-02
8.778872257571346260e-02
8.778872257571346260e-02
8.773187266985404964e-02
8.773187266985404964e-02
8.767490588483085878e-02
8.767490588483085878e-02
8.761782199266870963e-02
8.761782199266870963e-02
8.750330196970136643e-02
8.750330196970136643e-02
8.744586537760073996e-02
8.744586537760073996e-02
8.740750875850328283e-02
8.740750875850328283e-02
8.738831075575705098e-02
8.738831075575705098e-02
8.734987532058741122e-02
8.734987532058741122e-02
8.729212346338624529e-02
8.729212346338624529e-02
8.727284648830385683e-02
8.727284648830385683e-02
8.721493637267668797e-02
8.721493637267668797e-02
8.713753777998586858e-02
8.713753777998586858e-02
8.707934969808919790e-02
8.707934969808919790e-02
8.704049125476261140e-02
8.704049125476261140e-02
8.702104208980905586e-02
8.702104208980905586e-02
8.698210382872824387e-02
8.698210382872824387e-02
8.688452482633043927e-02
8.688452482633043927e-02
8.680622101381224587e-02
8.680622101381224587e-02
8.674735241828612775e-02
8.674735241828612775e-02
8.657002021864308727e-02
8.657002021864308727e-02
8.649085487818732043e-02
8.649085487818732043e-02
8.641147267920212816e-02
8.641147267920212816e-02
8.637170007097207114e-02
8.637170007097207114e-02
8.623206673774003184e-02
8.623206673774003184e-02
8.621206449047272291e-02
8.621206449047272291e-02
8.617201892974134247e-02
8.617201892974134247e-02
8.615197559718870690e-02
8.615197559718870690e-02
8.607166502897800608e-02
8.607166502897800608e-02
8.603142726753193470e-02
8.603142726753193470e-02
8.589016077720292019e-02
8.589016077720292019e-02
8.586992456800246476e-02
8.586992456800246476e-02
8.572788275933704294e-02
8.572788275933704294e-02
8.570753547642137593e-02
8.570753547642137593e-02
8.566679911466480724e-02
8.566679911466480724e-02
8.564641001594433534e-02
8.564641001594433534e-02
8.558515892879461906e-02
8.558515892879461906e-02
8.556471393609231535e-02
8.556471393609231535e-02
8.554425494486130044e-02
8.554425494486130044e-02
8.542120646462901534e-02
8.542120646462901534e-02
8.535949242690762939e-02
8.535949242690762939e-02
8.531827925337094609e-02
8.531827925337094609e-02
8.529765149144724612e-02
8.529765149144724612e-02
8.527700959909675915e-02
8.527700959909675915e-02
8.525635356605584803e-02
8.525635356605584803e-02
8.523568338204398631e-02
8.523568338204398631e-02
8.515286093007889967e-02
8.515286093007889967e-02
8.504901322749376658e-02
8.504901322749376658e-02
8.502820096457729127e-02
8.502820096457729127e-02
8.498653363268988958e-02
8.498653363268988958e-02
8.496567854272679687e-02
8.496567854272679687e-02
8.492392546215002391e-02
8.492392546215002391e-02
8.490302745043894206e-02
8.490302745043894206e-02
8.486118843129561440e-02
8.486118843129561440e-02
8.484024740266001008e-02
8.484024740266001008e-02
8.479832225411938762e-02
8.479832225411938762e-02
8.469325751896063237e-02
8.469325751896063237e-02
8.467220130957031632e-02
8.467220130957031632e-02
8.454556031150065043e-02
8.454556031150065043e-02
8.441839691942178148e-02
8.441839691942178148e-02
8.437589262655292854e-02
8.437589262655292854e-02
8.433332993924461118e-02
8.433332993924461118e-02
8.426937622512198356e-02
8.426937622512198356e-02
8.422666716404883513e-02
8.422666716404883513e-02
8.420529062458832759e-02
8.420529062458832759e-02
8.416249347191857855e-02
8.416249347191857855e-02
8.411963747949376125e-02
8.411963747949376125e-02
8.407672255733765476e-02
8.407672255733765476e-02
8.401223948327682378e-02
8.401223948327682378e-02
8.394762330809578399e-02
8.394762330809578399e-02
8.388287372420548393e-02
8.388287372420548393e-02
8.379633288641877287e-02
8.379633288641877287e-02
8.366607428891051357e-02
8.366607428891051357e-02
8.364431218396899126e-02
8.364431218396899126e-02
8.355711379682020934e-02
8.355711379682020934e-02
8.349155721167986210e-02
8.349155721167986210e-02
8.340393743209156829e-02
8.340393743209156829e-02
8.327205407415511074e-02
8.327205407415511074e-02
8.318382825758666166e-02
8.318382825758666166e-02
8.300664455139322717e-02
8.300664455139322717e-02
8.285080403457126264e-02
8.285080403457126264e-02
8.276141334963700580e-02
8.276141334963700580e-02
8.267177514853224496e-02
8.267177514853224496e-02
8.255937809910440794e-02
8.255937809910440794e-02
8.253685198936706879e-02
8.253685198936706879e-02
8.251431028328558293e-02
8.251431028328558293e-02
8.246918003092512661e-02
8.246918003092512661e-02
8.233341362716442569e-02
8.233341362716442569e-02
8.219708158026425848e-02
8.219708158026425848e-02
8.217430438185568953e-02
8.217430438185568953e-02
8.210587791185641748e-02
8.210587791185641748e-02
8.208303741965991551e-02
8.208303741965991551e-02
8.206018107100267189e-02
8.206018107100267189e-02
8.203730885263146866e-02
8.203730885263146866e-02
8.187675785371366366e-02
8.187675785371366366e-02
8.176159953736948649e-02
8.176159953736948649e-02
8.157651122078291017e-02
8.157651122078291017e-02
8.155330263389382051e-02
8.155330263389382051e-02
8.150683694390853384e-02
8.150683694390853384e-02
8.148357981314618970e-02
8.148357981314618970e-02
8.143701691072574578e-02
8.143701691072574578e-02
8.136705074601963128e-02
8.136705074601963128e-02
8.132032526580430798e-02
8.132032526580430798e-02
8.113276994268914244e-02
8.113276994268914244e-02
8.110925178586747553e-02
8.110925178586747553e-02
8.103859865138374197e-02
8.103859865138374197e-02
8.101501467074692653e-02
8.101501467074692653e-02
8.099141419823749355e-02
8.099141419823749355e-02
8.096779721943429819e-02
8.096779721943429819e-02
8.092051368512737097e-02
8.092051368512737097e-02
8.084946422438352154e-02
8.084946422438352154e-02
8.082574790346130911e-02
8.082574790346130911e-02
8.068310069663034434e-02
8.068310069663034434e-02
8.065926781134011292e-02
8.065926781134011292e-02
8.056376901123400713e-02
8.056376901123400713e-02
8.051591904747472384e-02
8.051591904747472384e-02
8.044401806078785300e-02
8.044401806078785300e-02
8.042001739418899731e-02
8.042001739418899731e-02
8.039599986695110390e-02
8.039599986695110390e-02
8.037196546395879160e-02
8.037196546395879160e-02
8.034791417006793834e-02
8.034791417006793834e-02
8.029976084887036070e-02
8.029976084887036070e-02
8.022740380507351055e-02
8.022740380507351055e-02
8.020325084614832178e-02
8.020325084614832178e-02
8.010646887936119509e-02
8.010646887936119509e-02
8.008223077778946208e-02
8.008223077778946208e-02
8.000941396157942864e-02
8.000941396157942864e-02
7.998510746716423758e-02
7.998510746716423758e-02
7.991208509828878759e-02
7.991208509828878759e-02
7.988770996120707346e-02
7.988770996120707346e-02
7.983890807149765512e-02
7.983890807149765512e-02
7.981448128731007119e-02
7.981448128731007119e-02
7.979003725580985362e-02
7.979003725580985362e-02
7.976557596114079718e-02
7.976557596114079718e-02
7.969208833909774414e-02
7.969208833909774414e-02
7.966755783257646606e-02
7.966755783257646606e-02
7.964300998314363667e-02
7.964300998314363667e-02
7.961844477475781001e-02
7.961844477475781001e-02
7.956926221680556133e-02
7.956926221680556133e-02
7.949535778489819071e-02
7.949535778489819071e-02
7.947068808417387387e-02
7.947068808417387387e-02
7.944600091132958397e-02
7.944600091132958397e-02
7.942129625007227078e-02
7.942129625007227078e-02
7.937183439698745901e-02
7.937183439698745901e-02
7.934707717241440417e-02
7.934707717241440417e-02
7.929751004510282586e-02
7.929751004510282586e-02
7.919816461600272250e-02
7.919816461600272250e-02
7.914838604915233611e-02
7.914838604915233611e-02
7.912347024441296339e-02
7.912347024441296339e-02
7.909853673652375572e-02
7.909853673652375572e-02
7.904861654427677853e-02
7.904861654427677853e-02
7.899862533804230535e-02
7.899862533804230535e-02
7.897360306254411211e-02
7.897360306254411211e-02
7.892350508222245598e-02
7.892350508222245598e-02
7.887333574965796346e-02
7.887333574965796346e-02
7.882309492860777034e-02
7.882309492860777034e-02
7.874759935675612610e-02
7.874759935675612610e-02
7.869717921486527046e-02
7.869717921486527046e-02
7.867194216396725115e-02
7.867194216396725115e-02
7.864668710335122326e-02
7.864668710335122326e-02
7.859612288350872888e-02
7.859612288350872888e-02
7.854548641607703163e-02
7.854548641607703163e-02
7.852014104584355281e-02
7.852014104584355281e-02
7.849477756123675320e-02
7.849477756123675320e-02
7.846939594469135026e-02
7.846939594469135026e-02
7.839314212724170228e-02
7.839314212724170228e-02
7.834221526562737403e-02
7.834221526562737403e-02
7.826568814302140020e-02
7.826568814302140020e-02
7.824014254273797819e-02
7.824014254273797819e-02
7.821457863290624812e-02
7.821457863290624812e-02
7.818899639556725623e-02
7.818899639556725623e-02
7.813777686634976183e-02
7.813777686634976183e-02
7.811213953837099766e-02
7.811213953837099766e-02
7.808648381068430955e-02
7.808648381068430955e-02
7.806080966514772346e-02
7.806080966514772346e-02
7.803511708358244758e-02
7.803511708358244758e-02
7.795792854037018882e-02
7.795792854037018882e-02
7.790637699646948966e-02
7.790637699646948966e-02
7.788057341489641738e-02
7.788057341489641738e-02
7.785475126900064102e-02
7.785475126900064102e-02
7.782891054030426081e-02
7.782891054030426081e-02
7.780305121029154614e-02
7.780305121029154614e-02
7.775127667206435667e-02
7.775127667206435667e-02
7.772536142662822556e-02
7.772536142662822556e-02
7.769942750543222532e-02
7.769942750543222532e-02
7.767347488976969472e-02
7.767347488976969472e-02
7.756947710697273402e-02
7.756947710697273402e-02
7.754343073702721356e-02
7.754343073702721356e-02
7.751736555956317831e-02
7.751736555956317831e-02
7.749128155560211506e-02
7.749128155560211506e-02
7.746517870612638912e-02
7.746517870612638912e-02
7.741291639436280458e-02
7.741291639436280458e-02
7.738675689384214018e-02
7.738675689384214018e-02
7.733438110764302709e-02
7.733438110764302709e-02
7.730816478349303300e-02
7.730816478349303300e-02
7.728192947959497405e-02
7.728192947959497405e-02
7.717679807919611279e-02
7.717679807919611279e-02
7.715046758570934249e-02
7.715046758570934249e-02
7.709774929004266364e-02
7.709774929004266364e-02
7.707136144866247318e-02
7.707136144866247318e-02
7.704495445204910531e-02
7.704495445204910531e-02
7.696561833357279392e-02
7.696561833357279392e-02
7.688610910620091721e-02
7.688610910620091721e-02
7.685956746894599678e-02
7.685956746894599678e-02
7.680642623233188693e-02
7.680642623233188693e-02
7.677982659285569056e-02
7.677982659285569056e-02
7.675320757911800740e-02
7.675320757911800740e-02
7.672656917095414808e-02
7.672656917095414808e-02
7.669991134815662415e-02
7.669991134815662415e-02
7.667323409047510641e-02
7.667323409047510641e-02
7.664653737761641106e-02
7.664653737761641106e-02
7.661982118924409724e-02
7.661982118924409724e-02
7.656633030439718990e-02
7.656633030439718990e-02
7.653955556703320728e-02
7.653955556703320728e-02
7.651276127237678637e-02
7.651276127237678637e-02
7.643226083889599620e-02
7.643226083889599620e-02
7.635158364721002233e-02
7.635158364721002233e-02
7.627072913640824126e-02
7.627072913640824126e-02
7.621672733995812909e-02
7.621672733995812909e-02
7.618969674196349184e-02
7.618969674196349184e-02
7.616264631601929458e-02
7.616264631601929458e-02
7.613557604099131793e-02
7.613557604099131793e-02
7.608137585891927568e-02
7.608137585891927568e-02
7.605424590937831519e-02
7.605424590937831519e-02
7.599992618669970668e-02
7.599992618669970668e-02
7.591829672254266081e-02
7.591829672254266081e-02
7.586377690881235258e-02
7.586377690881235258e-02
7.583648688587060760e-02
7.583648688587060760e-02
7.580917675663967348e-02
7.580917675663967348e-02
7.575449609231246773e-02
7.575449609231246773e-02
7.572712551359858657e-02
7.572712551359858657e-02
7.567232375366907127e-02
7.567232375366907127e-02
7.558996927787836606e-02
7.558996927787836606e-02
7.556247720813402680e-02
7.556247720813402680e-02
7.550743206898014037e-02
7.550743206898014037e-02
7.547987895508545542e-02
7.547987895508545542e-02
7.536946234943935063e-02
7.536946234943935063e-02
7.534180704831455744e-02
7.534180704831455744e-02
7.531413124225230793e-02
7.531413124225230793e-02
7.528643490863931587e-02
7.528643490863931587e-02
7.525871802481232109e-02
7.525871802481232109e-02
7.520322251561153970e-02
7.520322251561153970e-02
7.511982455572527306e-02
7.511982455572527306e-02
7.506412251772295874e-02
7.506412251772295874e-02
7.503624041024359315e-02
7.503624041024359315e-02
7.500833754630120698e-02
7.500833754630120698e-02
7.498041390272323914e-02
7.498041390272323914e-02
7.492450418371066068e-02
7.492450418371066068e-02
7.489651806167112180e-02
7.489651806167112180e-02
7.486851106678575618e-02
7.486851106678575618e-02
7.484048317562130848e-02
7.484048317562130848e-02
7.481243436469187102e-02
7.481243436469187102e-02
7.478436461045881445e-02
7.478436461045881445e-02
7.475627388933053785e-02
7.475627388933053785e-02
7.472816217766228841e-02
7.472816217766228841e-02
7.470002945175614750e-02
7.470002945175614750e-02
7.467187568786062823e-02
7.467187568786062823e-02
7.450250996985559315e-02
7.450250996985559315e-02
7.447420827047035452e-02
7.447420827047035452e-02
7.436078893080444452e-02
7.436078893080444452e-02
7.430395139498180423e-02
7.430395139498180423e-02
7.427550057500564851e-02
7.427550057500564851e-02
7.416148304062868124e-02
7.416148304062868124e-02
7.413292496984391633e-02
7.413292496984391633e-02
7.410434537455545811e-02
7.410434537455545811e-02
7.407574422984980478e-02
7.407574422984980478e-02
7.401847719224646793e-02
7.401847719224646793e-02
7.390368342145854641e-02
7.390368342145854641e-02
7.384615628457744108e-02
7.384615628457744108e-02
7.378854204268213424e-02
7.378854204268213424e-02
7.375970219358025937e-02
7.375970219358025937e-02
7.373084049157763165e-02
7.373084049157763165e-02
7.370195691100150936e-02
7.370195691100150936e-02
7.364412401113860918e-02
7.364412401113860918e-02
7.361517464020679580e-02
7.361517464020679580e-02
7.358620328741090344e-02
7.358620328741090344e-02
7.355720992677759751e-02
7.355720992677759751e-02
7.344101588427191796e-02
7.344101588427191796e-02
7.341191209271794027e-02
7.341191209271794027e-02
7.338278613620399793e-02
7.338278613620399793e-02
7.335363798832746085e-02
7.335363798832746085e-02
7.332446762262366524e-02
7.332446762262366524e-02
7.329527501256551114e-02
7.329527501256551114e-02
7.323682295296533862e-02
7.323682295296533862e-02
7.317828159605642424e-02
7.317828159605642424e-02
7.314897736412560858e-02
7.314897736412560858e-02
7.311965072735804316e-02
7.311965072735804316e-02
7.309030165878468988e-02
7.309030165878468988e-02
7.303153611802432055e-02
7.303153611802432055e-02
7.297268052480870848e-02
7.297268052480870848e-02
7.285469830769256139e-02
7.285469830769256139e-02
7.282514612863319470e-02
7.282514612863319470e-02
7.279557124452350203e-02
7.279557124452350203e-02
7.276597362767885102e-02
7.276597362767885102e-02
7.273635325034830124e-02
7.273635325034830124e-02
7.270671008471429886e-02
7.270671008471429886e-02
7.267704410289245465e-02
7.267704410289245465e-02
7.258790898044978346e-02
7.258790898044978346e-02
7.255815145368924024e-02
7.255815145368924024e-02
7.252837097030917501e-02
7.252837097030917501e-02
7.249856750201974509e-02
7.249856750201974509e-02
7.243889149721083331e-02
7.243889149721083331e-02
7.240901890376867656e-02
7.240901890376867656e-02
7.234920439198445907e-02
7.234920439198445907e-02
7.231926241630448615e-02
7.231926241630448615e-02
7.228929725575786169e-02
7.228929725575786169e-02
7.225930888150100539e-02
7.225930888150100539e-02
7.222929726462011535e-02
7.222929726462011535e-02
7.216920418697825301e-02
7.216920418697825301e-02
7.213912266803618190e-02
7.213912266803618190e-02
7.207888952392313420e-02
7.207888952392313420e-02
7.204873784014298455e-02
7.204873784014298455e-02
7.201856270935450000e-02
7.201856270935450000e-02
7.192789633973033225e-02
7.192789633973033225e-02
7.186733431578430642e-02
7.186733431578430642e-02
7.183701788122419385e-02
7.183701788122419385e-02
7.174592652789581193e-02
7.174592652789581193e-02
7.165462146781383102e-02
7.165462146781383102e-02
7.162413881619231204e-02
7.162413881619231204e-02
7.156310188299357111e-02
7.156310188299357111e-02
7.153254754029622631e-02
7.153254754029622631e-02
7.141009027889017036e-02
7.141009027889017036e-02
7.137941583655241229e-02
7.137941583655241229e-02
7.131799458234537592e-02
7.131799458234537592e-02
7.128724770812236433e-02
7.128724770812236433e-02
7.125647662745321353e-02
7.125647662745321353e-02
7.122568130896478333e-02
7.122568130896478333e-02
7.119486172120491341e-02
7.119486172120491341e-02
7.116401783264206249e-02
7.116401783264206249e-02
7.113314961166523898e-02
7.113314961166523898e-02
7.110225702658351521e-02
7.110225702658351521e-02
7.107134004562581930e-02
7.107134004562581930e-02
7.104039863694074086e-02
7.104039863694074086e-02
7.100943276859608688e-02
7.100943276859608688e-02
7.097844240857868747e-02
7.097844240857868747e-02
7.091638808506645075e-02
7.091638808506645075e-02
7.088532405713775242e-02
7.088532405713775242e-02
7.082312210723493151e-02
7.082312210723493151e-02
7.079198412033320398e-02
7.079198412033320398e-02
7.076082141537468062e-02
7.076082141537468062e-02
7.069842172051757356e-02
7.069842172051757356e-02
7.066718466502475149e-02
7.066718466502475149e-02
7.060463597329394436e-02
7.060463597329394436e-02
7.051062598744339827e-02
7.051062598744339827e-02
7.047923933965756504e-02
7.047923933965756504e-02
7.044782764330052849e-02
7.044782764330052849e-02
7.041639086485096399e-02
7.041639086485096399e-02
7.038492897070079690e-02
7.038492897070079690e-02
7.035344192715492495e-02
7.035344192715492495e-02
7.029039225665921486e-02
7.029039225665921486e-02
7.025882956188145290e-02
7.025882956188145290e-02
7.022724158205162492e-02
7.022724158205162492e-02
7.016398963060768712e-02
7.016398963060768712e-02
7.013232559045701198e-02
7.013232559045701198e-02
7.010063612818051570e-02
7.010063612818051570e-02
7.003718079919032946e-02
7.003718079919032946e-02
7.000541486322105211e-02
7.000541486322105211e-02
6.994180627451396237e-02
6.994180627451396237e-02
6.990996355197431900e-02
6.990996355197431900e-02
6.984620107532960032e-02
6.984620107532960032e-02
6.981428125087038583e-02
6.981428125087038583e-02
6.978233565526256732e-02
6.978233565526256732e-02
6.975036425309670551e-02
6.975036425309670551e-02
6.971836700886968607e-02
6.971836700886968607e-02
6.968634388698456694e-02
6.968634388698456694e-02
6.965429485175005098e-02
6.965429485175005098e-02
6.962221986738023616e-02
6.962221986738023616e-02
6.955799190761591255e-02
6.955799190761591255e-02
6.952583886017330017e-02
6.952583886017330017e-02
6.949365971949851561e-02
6.949365971949851561e-02
6.942922301329823576e-02
6.942922301329823576e-02
6.936468149773711289e-02
6.936468149773711289e-02
6.933237134499573018e-02
6.933237134499573018e-02
6.926767206583198111e-02
6.926767206583198111e-02
6.923528286560998168e-02
6.923528286560998168e-02
6.920286724226287767e-02
6.920286724226287767e-02
6.917042515864227359e-02
6.917042515864227359e-02
6.910546146148649482e-02
6.910546146148649482e-02
6.907293977315273614e-02
6.907293977315273614e-02
6.900781652921858522e-02
6.900781652921858522e-02
6.890993142883077016e-02
6.890993142883077016e-02
6.887724951443544019e-02
6.887724951443544019e-02
6.881180513540238741e-02
6.881180513540238741e-02
6.874625310038900983e-02
6.874625310038900983e-02
6.868059310113935889e-02
6.868059310113935889e-02
6.864772251813447412e-02
6.864772251813447412e-02
6.861482482770871194e-02
6.861482482770871194e-02
6.858189999085294308e-02
6.858189999085294308e-02
6.854894796845094340e-02
6.854894796845094340e-02
6.851596872127897753e-02
6.851596872127897753e-02
6.848296221000521600e-02
6.848296221000521600e-02
6.844992839518948546e-02
6.844992839518948546e-02
6.841686723728275521e-02
6.841686723728275521e-02
6.831751930788493299e-02
6.831751930788493299e-02
6.828434837993258011e-02
6.828434837993258011e-02
6.825114990949682214e-02
6.825114990949682214e-02
6.821792385636678280e-02
6.821792385636678280e-02
6.815138884062066360e-02
6.815138884062066360e-02
6.808474300876268814e-02
6.808474300876268814e-02
6.805137843506853246e-02
6.805137843506853246e-02
6.801798603505108953e-02
6.801798603505108953e-02
6.798456576770742221e-02
6.798456576770742221e-02
6.795111759191979628e-02
6.795111759191979628e-02
6.791764146645498657e-02
6.791764146645498657e-02
6.788413734996401327e-02
6.788413734996401327e-02
6.781704497792580277e-02
6.781704497792580277e-02
6.778345663909733643e-02
6.778345663909733643e-02
6.774984014267936006e-02
6.774984014267936006e-02
6.771619544673684876e-02
6.771619544673684876e-02
6.768252250921624746e-02
6.768252250921624746e-02
6.761509174063053129e-02
6.761509174063053129e-02
6.758133382486103402e-02
6.758133382486103402e-02
6.754754749810362724e-02
6.754754749810362724e-02
6.751373271770469420e-02
6.751373271770469420e-02
6.747988944088903485e-02
6.747988944088903485e-02
6.741211722629707193e-02
6.741211722629707193e-02
6.737818820235878803e-02
6.737818820235878803e-02
6.734423050967905389e-02
6.734423050967905389e-02
6.731024410486811937e-02
6.731024410486811937e-02
6.724218498467124383e-02
6.724218498467124383e-02
6.720811218188182945e-02
6.720811218188182945e-02
6.717401049215329656e-02
6.717401049215329656e-02
6.713987987146888270e-02
6.713987987146888270e-02
6.710572027568484366e-02
6.710572027568484366e-02
6.703731398160549249e-02
6.703731398160549249e-02
6.700306719438352265e-02
6.700306719438352265e-02
6.696879125420755752e-02
6.696879125420755752e-02
6.693448611629147782e-02
6.693448611629147782e-02
6.686578806744389314e-02
6.686578806744389314e-02
6.683139506628781035e-02
6.683139506628781035e-02
6.679697268694140266e-02
6.679697268694140266e-02
6.676252088396295026e-02
6.676252088396295026e-02
6.672803961177808940e-02
6.672803961177808940e-02
6.669352882467909083e-02
6.669352882467909083e-02
6.665898847682448503e-02
6.665898847682448503e-02
6.662441852223836836e-02
6.662441852223836836e-02
6.658981891480990345e-02
6.658981891480990345e-02
6.655518960829287511e-02
6.655518960829287511e-02
6.652053055630491318e-02
6.652053055630491318e-02
6.648584171232711781e-02
6.648584171232711781e-02
6.645112302970342111e-02
6.645112302970342111e-02
6.641637446163994873e-02
6.641637446163994873e-02
6.638159596120465911e-02
6.638159596120465911e-02
6.634678748132651072e-02
6.634678748132651072e-02
6.620725282107273180e-02
6.620725282107273180e-02
6.617229373301433681e-02
6.617229373301433681e-02
6.613730438013827595e-02
6.613730438013827595e-02
6.610228471438506226e-02
6.610228471438506226e-02
6.603215425129095595e-02
6.603215425129095595e-02
6.592673000029709851e-02
6.592673000029709851e-02
6.589152743994998451e-02
6.589152743994998451e-02
6.582103030998853743e-02
6.582103030998853743e-02
6.578573564177542243e-02
6.578573564177542243e-02
6.575041017209348748e-02
6.575041017209348748e-02
6.571505385127024423e-02
6.571505385127024423e-02
6.560879928296839414e-02
6.560879928296839414e-02
6.557331905783794768e-02
6.557331905783794768e-02
6.553780773093519085e-02
6.553780773093519085e-02
6.550226525167573977e-02
6.550226525167573977e-02
6.546669156932086175e-02
6.546669156932086175e-02
6.543108663297686478e-02
6.543108663297686478e-02
6.539545039159457007e-02
6.539545039159457007e-02
6.535978279396836843e-02
6.535978279396836843e-02
6.532408378873588717e-02
6.532408378873588717e-02
6.525259134921332360e-02
6.525259134921332360e-02
6.521679781140755916e-02
6.521679781140755916e-02
6.518097265896265202e-02
6.518097265896265202e-02
6.514511583972125430e-02
6.514511583972125430e-02
6.510922730136495251e-02
6.510922730136495251e-02
6.507330699141354591e-02
6.507330699141354591e-02
6.503735485722447751e-02
6.503735485722447751e-02
6.500137084599187653e-02
6.500137084599187653e-02
6.496535490474621144e-02
6.496535490474621144e-02
6.489322701951327765e-02
6.489322701951327765e-02
6.485711496876098159e-02
6.485711496876098159e-02
6.482097077446395683e-02
6.482097077446395683e-02
6.478479438282241931e-02
6.478479438282241931e-02
6.474858573986841392e-02
6.474858573986841392e-02
6.471234479146495411e-02
6.471234479146495411e-02
6.463976576091275128e-02
6.463976576091275128e-02
6.460342756963860511e-02
6.460342756963860511e-02
6.456705685466278266e-02
6.456705685466278266e-02
6.453065356099230154e-02
6.453065356099230154e-02
6.449421763346079028e-02
6.449421763346079028e-02
6.445774901672755852e-02
6.445774901672755852e-02
6.442124765527688923e-02
6.442124765527688923e-02
6.438471349341733097e-02
6.438471349341733097e-02
6.434814647528080966e-02
6.434814647528080966e-02
6.431154654482189315e-02
6.431154654482189315e-02
6.427491364581700006e-02
6.427491364581700006e-02
6.423824772186356724e-02
6.423824772186356724e-02
6.420154871637935579e-02
6.420154871637935579e-02
6.416481657260146576e-02
6.416481657260146576e-02
6.412805123358571169e-02
6.412805123358571169e-02
6.409125264220569274e-02
6.409125264220569274e-02
6.405442074115196005e-02
6.405442074115196005e-02
6.398065677986594646e-02
6.398065677986594646e-02
6.390675888756101874e-02
6.390675888756101874e-02
6.386975957203490373e-02
6.386975957203490373e-02
6.383272659908920121e-02
6.383272659908920121e-02
6.379565991011015846e-02
6.379565991011015846e-02
6.375855944629431338e-02
6.375855944629431338e-02
6.372142514864757856e-02
6.372142514864757856e-02
6.368425695798439479e-02
6.368425695798439479e-02
6.364705481492693995e-02
6.364705481492693995e-02
6.360981865990408823e-02
6.360981865990408823e-02
6.357254843315071624e-02
6.357254843315071624e-02
6.353524407470664825e-02
6.353524407470664825e-02
6.342312560668503241e-02
6.342312560668503241e-02
6.338568411794542889e-02
6.338568411794542889e-02
6.334820819475808773e-02
6.334820819475808773e-02
6.331069777597390924e-02
6.331069777597390924e-02
6.323557320601137788e-02
6.323557320601137788e-02
6.319795893152435617e-02
6.319795893152435617e-02
6.316030991482149415e-02
6.316030991482149415e-02
6.312262609373753275e-02
6.312262609373753275e-02
6.308490740590125267e-02
6.308490740590125267e-02
6.304715378873432252e-02
6.304715378873432252e-02
6.300936517945038284e-02
6.300936517945038284e-02
6.293368273234052623e-02
6.293368273234052623e-02
6.289578876789318762e-02
6.289578876789318762e-02
6.278189514680254657e-02
6.278189514680254657e-02
6.270578898519466038e-02
6.270578898519466038e-02
6.266768258666780000e-02
6.266768258666780000e-02
6.262954055650393759e-02
6.262954055650393759e-02
6.259136282956331843e-02
6.259136282956331843e-02
6.255314934048601672e-02
6.255314934048601672e-02
6.251490002369111676e-02
6.251490002369111676e-02
6.247661481337546396e-02
6.247661481337546396e-02
6.243829364351266564e-02
6.243829364351266564e-02
6.239993644785214039e-02
6.239993644785214039e-02
6.236154315991782049e-02
6.236154315991782049e-02
6.232311371300737479e-02
6.232311371300737479e-02
6.228464804019077927e-02
6.228464804019077927e-02
6.224614607430945662e-02
6.224614607430945662e-02
6.220760774797521458e-02
6.220760774797521458e-02
6.216903299356889290e-02
6.216903299356889290e-02
6.209177392890309621e-02
6.209177392890309621e-02
6.205308948224129428e-02
6.205308948224129428e-02
6.197561041749118094e-02
6.197561041749118094e-02
6.193681566158529272e-02
6.193681566158529272e-02
6.189798399771673232e-02
6.189798399771673232e-02
6.182020966782556665e-02
6.182020966782556665e-02
6.178126686206616980e-02
6.178126686206616980e-02
6.174228686886804041e-02
6.174228686886804041e-02
6.166421503799944526e-02
6.166421503799944526e-02
6.158599360844189963e-02
6.158599360844189963e-02
6.154682661595159421e-02
6.154682661595159421e-02
6.150762200944542152e-02
6.150762200944542152e-02
6.142909966624893192e-02
6.142909966624893192e-02
6.138978178485628157e-02
6.138978178485628157e-02
6.135042600004043944e-02
6.135042600004043944e-02
6.131103223881038261e-02
6.131103223881038261e-02
6.127160042791679473e-02
6.127160042791679473e-02
6.119262236284300771e-02
6.119262236284300771e-02
6.115307596086138470e-02
6.115307596086138470e-02
6.111349121361088488e-02
6.111349121361088488e-02
6.107386804653151813e-02
6.107386804653151813e-02
6.103420638479734733e-02
6.103420638479734733e-02
6.099450615331492020e-02
6.099450615331492020e-02
6.095476727672202721e-02
6.095476727672202721e-02
6.091498967938645259e-02
6.091498967938645259e-02
6.087517328540437145e-02
6.087517328540437145e-02
6.083531801859925342e-02
6.083531801859925342e-02
6.079542380252023898e-02
6.079542380252023898e-02
6.075549056044085572e-02
6.075549056044085572e-02
6.071551821535772775e-02
6.071551821535772775e-02
6.067550668998893115e-02
6.067550668998893115e-02
6.063545590677282132e-02
6.063545590677282132e-02
6.059536578786642314e-02
6.059536578786642314e-02
6.055523625514402930e-02
6.055523625514402930e-02
6.051506723019590972e-02
6.051506723019590972e-02
6.043461038855377915e-02
6.043461038855377915e-02
6.039432241360637166e-02
6.039432241360637166e-02
6.035399462992334374e-02
6.035399462992334374e-02
6.027321931664764848e-02
6.027321931664764848e-02
6.023277162646933219e-02
6.023277162646933219e-02
6.019228380638132897e-02
6.019228380638132897e-02
6.015175577534988272e-02
6.015175577534988272e-02
6.007057875482502141e-02
6.007057875482502141e-02
6.002992960176232323e-02
6.002992960176232323e-02
5.998923991061472227e-02
5.998923991061472227e-02
5.994850959883721297e-02
5.994850959883721297e-02
5.990773858357789639e-02
5.990773858357789639e-02
5.986692678167619686e-02
5.986692678167619686e-02
5.982607410966131467e-02
5.982607410966131467e-02
5.978518048375065785e-02
5.978518048375065785e-02
5.974424581984803806e-02
5.974424581984803806e-02
5.970327003354225504e-02
5.970327003354225504e-02
5.966225304010516761e-02
5.966225304010516761e-02
5.962119475449020878e-02
5.962119475449020878e-02
5.958009509133069259e-02
5.958009509133069259e-02
5.953895396493794068e-02
5.953895396493794068e-02
5.949777128929988057e-02
5.949777128929988057e-02
5.945654697807900568e-02
5.945654697807900568e-02
5.941528094461077936e-02
5.941528094461077936e-02
5.937397310190205280e-02
5.937397310190205280e-02
5.933262336262895564e-02
5.933262336262895564e-02
5.929123163913551514e-02
5.929123163913551514e-02
5.924979784343154671e-02
5.924979784343154671e-02
5.920832188719101635e-02
5.920832188719101635e-02
5.916680368175034066e-02
5.916680368175034066e-02
5.912524313810631899e-02
5.912524313810631899e-02
5.908364016691446119e-02
5.908364016691446119e-02
5.904199467848721128e-02
5.904199467848721128e-02
5.900030658279185880e-02
5.900030658279185880e-02
5.895857578944897065e-02
5.895857578944897065e-02
5.887498574655664063e-02
5.887498574655664063e-02
5.883312631449678920e-02
5.883312631449678920e-02
5.879122381976460698e-02
5.879122381976460698e-02
5.874927817021777243e-02
5.874927817021777243e-02
5.870728927335544522e-02
5.870728927335544522e-02
5.866525703631648991e-02
5.866525703631648991e-02
5.862318136587753303e-02
5.862318136587753303e-02
5.858106216845079817e-02
5.858106216845079817e-02
5.853889935008233653e-02
5.853889935008233653e-02
5.849669281644973018e-02
5.849669281644973018e-02
5.845444247286027406e-02
5.845444247286027406e-02
5.841214822424889430e-02
5.841214822424889430e-02
5.836980997517599024e-02
5.836980997517599024e-02
5.832742762982548457e-02
5.832742762982548457e-02
5.824253026513181997e-02
5.824253026513181997e-02
5.820001505225486094e-02
5.820001505225486094e-02
5.815745535602831473e-02
5.815745535602831473e-02
5.811485107872171874e-02
5.811485107872171874e-02
5.807220212221525513e-02
5.807220212221525513e-02
5.802950838799754429e-02
5.802950838799754429e-02
5.798676977716363257e-02
5.798676977716363257e-02
5.794398619041248727e-02
5.794398619041248727e-02
5.790115752804510241e-02
5.790115752804510241e-02
5.781536457566080478e-02
5.781536457566080478e-02
5.777240008423466244e-02
5.777240008423466244e-02
5.772939011436908907e-02
5.772939011436908907e-02
5.768633456434027473e-02
5.768633456434027473e-02
5.764323333201239880e-02
5.764323333201239880e-02
5.760008631483537478e-02
5.760008631483537478e-02
5.755689340984268543e-02
5.755689340984268543e-02
5.751365451364865572e-02
5.751365451364865572e-02
5.747036952244627406e-02
5.747036952244627406e-02
5.742703833200481223e-02
5.742703833200481223e-02
5.738366083766714698e-02
5.738366083766714698e-02
5.734023693434761593e-02
5.734023693434761593e-02
5.729676651652930441e-02
5.729676651652930441e-02
5.725324947826156141e-02
5.725324947826156141e-02
5.720968571315777906e-02
5.720968571315777906e-02
5.716607511439242284e-02
5.716607511439242284e-02
5.712241757469889436e-02
5.712241757469889436e-02
5.707871298636665869e-02
5.707871298636665869e-02
5.703496124123878797e-02
5.703496124123878797e-02
5.699116223070947035e-02
5.699116223070947035e-02
5.690342197676191011e-02
5.690342197676191011e-02
5.685948051386317814e-02
5.685948051386317814e-02
5.681549134659647643e-02
5.681549134659647643e-02
5.677145436407117496e-02
5.677145436407117496e-02
5.672736945493145333e-02
5.672736945493145333e-02
5.668323650735380970e-02
5.668323650735380970e-02
5.663905540904409786e-02
5.663905540904409786e-02
5.659482604723476556e-02
5.659482604723476556e-02
5.650622207966375654e-02
5.650622207966375654e-02
5.646184724597488186e-02
5.646184724597488186e-02
5.641742369292630788e-02
5.641742369292630788e-02
5.637295130534113186e-02
5.637295130534113186e-02
5.632842996755196147e-02
5.632842996755196147e-02
5.628385956339779228e-02
5.628385956339779228e-02
5.623923997622132243e-02
5.623923997622132243e-02
5.619457108886564967e-02
5.619457108886564967e-02
5.614985278367145421e-02
5.614985278367145421e-02
5.610508494247400807e-02
5.610508494247400807e-02
5.601540017686416906e-02
5.601540017686416906e-02
5.597048301356709332e-02
5.597048301356709332e-02
5.592551583649101044e-02
5.592551583649101044e-02
5.588049852489737623e-02
5.588049852489737623e-02
5.583543095752326740e-02
5.583543095752326740e-02
5.569992550015891858e-02
5.569992550015891858e-02
5.565465568643746669e-02
5.565465568643746669e-02
5.556396332430516699e-02
5.556396332430516699e-02
5.547306648333868995e-02
5.547306648333868995e-02
5.542754106900982247e-02
5.542754106900982247e-02
5.538196415672223816e-02
5.538196415672223816e-02
5.533633561922943200e-02
5.533633561922943200e-02
5.529065532872057265e-02
5.529065532872057265e-02
5.524492315681678312e-02
5.524492315681678312e-02
5.506147306759842652e-02
5.506147306759842652e-02
5.501547954290941789e-02
5.501547954290941789e-02
5.492333436968889482e-02
5.492333436968889482e-02
5.487718245564897346e-02
5.487718245564897346e-02
5.483097747865135763e-02
5.483097747865135763e-02
5.478471930443735982e-02
5.478471930443735982e-02
5.473840779813984869e-02
5.473840779813984869e-02
5.469204282427895386e-02
5.469204282427895386e-02
5.464562424675836749e-02
5.464562424675836749e-02
5.455262573324692887e-02
5.455262573324692887e-02
5.450604552194539959e-02
5.450604552194539959e-02
5.441272249723623500e-02
5.441272249723623500e-02
5.436597940471070423e-02
5.436597940471070423e-02
5.431918173825388968e-02
5.431918173825388968e-02
5.427232935669268343e-02
5.427232935669268343e-02
5.422542211820059743e-02
5.422542211820059743e-02
5.417845988029362791e-02
5.417845988029362791e-02
5.413144249982609901e-02
5.413144249982609901e-02
5.408436983298606227e-02
5.408436983298606227e-02
5.403724173529107777e-02
5.403724173529107777e-02
5.399005806158388432e-02
5.399005806158388432e-02
5.394281866602773645e-02
5.389552340210220643e-02
5.389552340210220643e-02
5.384817212259840336e-02
5.384817212259840336e-02
5.380076467961451836e-02
5.380076467961451836e-02
5.375330092455136988e-02
5.375330092455136988e-02
5.365820388027472271e-02
5.365820388027472271e-02
5.361057029033332311e-02
5.361057029033332311e-02
5.356287978684721313e-02
5.356287978684721313e-02
5.351513221765939743e-02
5.351513221765939743e-02
5.346732742988679482e-02
5.346732742988679482e-02
5.341946526991568633e-02
5.341946526991568633e-02
5.337154558339650412e-02
5.337154558339650412e-02
5.332356821523903667e-02
5.332356821523903667e-02
5.327553300960747446e-02
5.327553300960747446e-02
5.322743980991510859e-02
5.322743980991510859e-02
5.317928845881958466e-02
5.317928845881958466e-02
5.313107879821741403e-02
5.313107879821741403e-02
5.308281066923897090e-02
5.308281066923897090e-02
5.303448391224334368e-02
5.303448391224334368e-02
5.298609836681279772e-02
5.298609836681279772e-02
5.293765387174777237e-02
5.293765387174777237e-02
5.288915026506117723e-02
5.288915026506117723e-02
5.284058738397318100e-02
5.284058738397318100e-02
5.279196506490582697e-02
5.279196506490582697e-02
5.274328314347717650e-02
5.274328314347717650e-02
5.269454145449617433e-02
5.269454145449617433e-02
5.264573983195666718e-02
5.264573983195666718e-02
5.259687810903188043e-02
5.259687810903188043e-02
5.254795611806886008e-02
5.254795611806886008e-02
5.240082684790318968e-02
5.240082684790318968e-02
5.235166209152698757e-02
5.235166209152698757e-02
5.230243621624867945e-02
5.230243621624867945e-02
5.225314904933422294e-02
5.225314904933422294e-02
5.220380041718181152e-02
5.220380041718181152e-02
5.215439014531576822e-02
5.215439014531576822e-02
5.210491805838011331e-02
5.210491805838011331e-02
5.205538398013259682e-02
5.205538398013259682e-02
5.200578773343815520e-02
5.200578773343815520e-02
5.195612914026259688e-02
5.195612914026259688e-02
5.190640802166632262e-02
5.190640802166632262e-02
5.185662419779756005e-02
5.185662419779756005e-02
5.180677748788614645e-02
5.180677748788614645e-02
5.175686771023658983e-02
5.175686771023658983e-02
5.160675813988625793e-02
5.160675813988625793e-02
5.155659425559123987e-02
5.155659425559123987e-02
5.150636638096741521e-02
5.150636638096741521e-02
5.140571791020471376e-02
5.140571791020471376e-02
5.135529693636135123e-02
5.135529693636135123e-02
5.130481121676597200e-02
5.130481121676597200e-02
5.125426056009378672e-02
5.125426056009378672e-02
5.120364477401791181e-02
5.120364477401791181e-02
5.110221703929283127e-02
5.110221703929283127e-02
5.105140470091242000e-02
5.105140470091242000e-02
5.100052645365081572e-02
5.100052645365081572e-02
5.094958210005814947e-02
5.094958210005814947e-02
5.089857144163714014e-02
5.089857144163714014e-02
5.084749427883492046e-02
5.084749427883492046e-02
5.074513963655142429e-02
5.074513963655142429e-02
5.069386175261592076e-02
5.069386175261592076e-02
5.064251655537481411e-02
5.064251655537481411e-02
5.059110383987812376e-02
5.059110383987812376e-02
5.053962340007180087e-02
5.053962340007180087e-02
5.048807502878956133e-02
5.048807502878956133e-02
5.043645851774407329e-02
5.043645851774407329e-02
5.038477365751879711e-02
5.038477365751879711e-02
5.033302023755897164e-02
5.033302023755897164e-02
5.028119804616312111e-02
5.028119804616312111e-02
5.022930687047434672e-02
5.022930687047434672e-02
5.017734649647108414e-02
5.017734649647108414e-02
5.012531670895859631e-02
5.012531670895859631e-02
5.007321729155944645e-02
5.007321729155944645e-02
5.002104802670460232e-02
5.002104802670460232e-02
4.996880869562425609e-02
4.996880869562425609e-02
4.991649907833817235e-02
4.991649907833817235e-02
4.986411895364664670e-02
4.986411895364664670e-02
4.981166809912060400e-02
4.981166809912060400e-02
4.975914629109219611e-02
4.975914629109219611e-02
4.970655330464506666e-02
4.970655330464506666e-02
4.965388891360440760e-02
4.965388891360440760e-02
4.954834500669207803e-02
4.954834500669207803e-02
4.949546503208909765e-02
4.949546503208909765e-02
4.944251273540986591e-02
4.944251273540986591e-02
4.938948788403675627e-02
4.938948788403675627e-02
4.933639024403292661e-02
4.933639024403292661e-02
4.928321958013133497e-02
4.928321958013133497e-02
4.922997565572433121e-02
4.922997565572433121e-02
4.917665823285296417e-02
4.917665823285296417e-02
4.912326707219581007e-02
4.912326707219581007e-02
4.901626257336140491e-02
4.901626257336140491e-02
4.896264874963039693e-02
4.896264874963039693e-02
4.890896021698375867e-02
4.890896021698375867e-02
4.885519672912140565e-02
4.885519672912140565e-02
4.880135803831338326e-02
4.880135803831338326e-02
4.874744389538792494e-02
4.874744389538792494e-02
4.863938824921826276e-02
4.863938824921826276e-02
4.858524624031509975e-02
4.858524624031509975e-02
4.858524624031509975e-02
4.858524624031509975e-02
4.853102776795223394e-02
4.853102776795223394e-02
4.847673257556962823e-02
4.847673257556962823e-02
4.842236040509253353e-02
4.842236040509253353e-02
4.836791099691920004e-02
4.836791099691920004e-02
4.831338408990785982e-02
4.831338408990785982e-02
4.825877942136398008e-02
4.825877942136398008e-02
4.820409672702735682e-02
4.820409672702735682e-02
4.814933574105868808e-02
4.814933574105868808e-02
4.809449619602661208e-02
4.809449619602661208e-02
4.803957782289397516e-02
4.803957782289397516e-02
4.798458035100432867e-02
4.798458035100432867e-02
4.792950350806839122e-02
4.792950350806839122e-02
4.787434702014979615e-02
4.787434702014979615e-02
4.781911061165144972e-02
4.781911061165144972e-02
4.776379400530099406e-02
4.776379400530099406e-02
4.770839692213661720e-02
4.770839692213661720e-02
4.765291908149266176e-02
4.765291908149266176e-02
4.759736020098462306e-02
4.759736020098462306e-02
4.754171999649474400e-02
4.754171999649474400e-02
4.748599818215662460e-02
4.748599818215662460e-02
4.743019447034023395e-02
4.743019447034023395e-02
4.737430857163668629e-02
4.737430857163668629e-02
4.731834019484242038e-02
4.731834019484242038e-02
4.726228904694393385e-02
4.726228904694393385e-02
4.720615483310151850e-02
4.720615483310151850e-02
4.714993725663341184e-02
4.714993725663341184e-02
4.709363601899969887e-02
4.709363601899969887e-02
4.703725081978558931e-02
4.703725081978558931e-02
4.698078135668520838e-02
4.698078135668520838e-02
4.692422732548444386e-02
4.692422732548444386e-02
4.686758842004416781e-02
4.686758842004416781e-02
4.675405475216044826e-02
4.675405475216044826e-02
4.669715936765811426e-02
4.669715936765811426e-02
4.664017786476316180e-02
4.664017786476316180e-02
4.658310992744970486e-02
4.658310992744970486e-02
4.646871347529037827e-02
4.646871347529037827e-02
4.635396744201904229e-02
4.635396744201904229e-02
4.629646252048945365e-02
4.629646252048945365e-02
4.623886922508219088e-02
4.623886922508219088e-02
4.618118722515977825e-02
4.618118722515977825e-02
4.612341618792027004e-02
4.612341618792027004e-02
4.606555577837735671e-02
4.606555577837735671e-02
4.600760565933986052e-02
4.600760565933986052e-02
4.594956549139166818e-02
4.594956549139166818e-02
4.589143493287068526e-02
4.589143493287068526e-02
4.583321363984803332e-02
4.583321363984803332e-02
4.577490126610700427e-02
4.577490126610700427e-02
4.571649746312127227e-02
4.571649746312127227e-02
4.565800188003355659e-02
4.565800188003355659e-02
4.559941416363331307e-02
4.559941416363331307e-02
4.548196090615387599e-02
4.548196090615387599e-02
4.542309464668652097e-02
4.542309464668652097e-02
4.530508105203252117e-02
4.530508105203252117e-02
4.524593298372452110e-02
4.524593298372452110e-02
4.518669024183989691e-02
4.518669024183989691e-02
4.512735245351896796e-02
4.512735245351896796e-02
4.506791924333876376e-02
4.506791924333876376e-02
4.500839023328789823e-02
4.500839023328789823e-02
4.494876504274152723e-02
4.494876504274152723e-02
4.488904328843604241e-02
4.488904328843604241e-02
4.482922458444293934e-02
4.482922458444293934e-02
4.476930854214309502e-02
4.476930854214309502e-02
4.470929477019997683e-02
4.470929477019997683e-02
4.464918287453300411e-02
4.464918287453300411e-02
4.458897245829058359e-02
4.458897245829058359e-02
4.452866312182231223e-02
4.452866312182231223e-02
4.446825446265149223e-02
4.446825446265149223e-02
4.440774607544669544e-02
4.440774607544669544e-02
4.434713755199330698e-02
4.434713755199330698e-02
4.428642848116478431e-02
4.428642848116478431e-02
4.422561844889308369e-02
4.422561844889308369e-02
4.410369382886299150e-02
4.410369382886299150e-02
4.404257839799293611e-02
4.404257839799293611e-02
4.398136031939514634e-02
4.398136031939514634e-02
4.379708588930135427e-02
4.379708588930135427e-02
4.373545289610374087e-02
4.373545289610374087e-02
4.367371507746534154e-02
4.367371507746534154e-02
4.361187198820728333e-02
4.361187198820728333e-02
4.354992317986072781e-02
4.354992317986072781e-02
4.348786820063276631e-02
4.348786820063276631e-02
4.348786820063276631e-02
4.342570659537135780e-02
4.342570659537135780e-02
4.336343790553047473e-02
4.336343790553047473e-02
4.330106166913411103e-02
4.330106166913411103e-02
4.323857742074026927e-02
4.323857742074026927e-02
4.317598469140443429e-02
4.317598469140443429e-02
4.311328300864207541e-02
4.311328300864207541e-02
4.305047189639140542e-02
4.305047189639140542e-02
4.298755087497481420e-02
4.298755087497481420e-02
4.292451946106030924e-02
4.292451946106030924e-02
4.286137716762246364e-02
4.286137716762246364e-02
4.279812350390221204e-02
4.279812350390221204e-02
4.273475797536696597e-02
4.273475797536696597e-02
4.267128008366934122e-02
4.267128008366934122e-02
4.260768932660578129e-02
4.260768932660578129e-02
4.254398519807472967e-02
4.254398519807472967e-02
4.248016718803357405e-02
4.248016718803357405e-02
4.241623478245577783e-02
4.241623478245577783e-02
4.241623478245577783e-02
4.241623478245577783e-02
4.235218746328670014e-02
4.235218746328670014e-02
4.228802470839921473e-02
4.228802470839921473e-02
4.222374599154878061e-02
4.222374599154878061e-02
4.215935078232729838e-02
4.215935078232729838e-02
4.209483854611686948e-02
4.209483854611686948e-02
4.203020874404286844e-02
4.203020874404286844e-02
4.196546083292573837e-02
4.196546083292573837e-02
4.190059426523300157e-02
4.190059426523300157e-02
4.183560848902964646e-02
4.183560848902964646e-02
4.177050294792843121e-02
4.177050294792843121e-02
4.170527708103941716e-02
4.170527708103941716e-02
4.163993032291819080e-02
4.163993032291819080e-02
4.157446210351418286e-02
4.157446210351418286e-02
4.150887184811739850e-02
4.150887184811739850e-02
4.144315897730486975e-02
4.144315897730486975e-02
4.137732290688635184e-02
4.137732290688635184e-02
4.131136304784865237e-02
4.131136304784865237e-02
4.124527880629991899e-02
4.124527880629991899e-02
4.117906958341229634e-02
4.117906958341229634e-02
4.104627377328211313e-02
4.104627377328211313e-02
4.097968596317989876e-02
4.097968596317989876e-02
4.091297072589944461e-02
4.091297072589944461e-02
4.084612743704850446e-02
4.084612743704850446e-02
4.077915546693856169e-02
4.077915546693856169e-02
4.071205418052162295e-02
4.071205418052162295e-02
4.064482293732558232e-02
4.064482293732558232e-02
4.057746109138929413e-02
4.057746109138929413e-02
4.050996799119591096e-02
4.050996799119591096e-02
4.044234297960565272e-02
4.044234297960565272e-02
4.037458539378757649e-02
4.037458539378757649e-02
4.023866981926881720e-02
4.023866981926881720e-02
4.017051047581849527e-02
4.017051047581849527e-02
4.010221584849629761e-02
4.010221584849629761e-02
4.003378524495000701e-02
4.003378524495000701e-02
4.003378524495000701e-02
4.003378524495000701e-02
3.989651330907342808e-02
3.989651330907342808e-02
3.982767056110593507e-02
3.982767056110593507e-02
3.975868900548321788e-02
3.975868900548321788e-02
3.962030656973464238e-02
3.962030656973464238e-02
3.955090422245776532e-02
3.955090422245776532e-02
3.948136013305698910e-02
3.948136013305698910e-02
3.941167355119663124e-02
3.941167355119663124e-02
3.934184371968207916e-02
3.934184371968207916e-02
3.927186987437095156e-02
3.927186987437095156e-02
3.920175124408343398e-02
3.920175124408343398e-02
3.906107650812337684e-02
3.906107650812337684e-02
3.899051882407397751e-02
3.899051882407397751e-02
3.891981319810394746e-02
3.891981319810394746e-02
3.884895882244440712e-02
3.884895882244440712e-02
3.877795488171729976e-02
3.877795488171729976e-02
3.870680055283385462e-02
3.870680055283385462e-02
3.863549500489234234e-02
3.863549500489234234e-02
3.856403739907303396e-02
3.856403739907303396e-02
3.849242688853200811e-02
3.849242688853200811e-02
3.842066261829311935e-02
3.842066261829311935e-02
3.827666933749161726e-02
3.827666933749161726e-02
3.820443857531368587e-02
3.820443857531368587e-02
3.813205054997696741e-02
3.813205054997696741e-02
3.805950436415227178e-02
3.805950436415227178e-02
3.798679911168731382e-02
3.798679911168731382e-02
3.791393387748488719e-02
3.791393387748488719e-02
3.784090773737788099e-02
3.784090773737788099e-02
3.776771975800273518e-02
3.776771975800273518e-02
3.769436899667057833e-02
3.769436899667057833e-02
3.762085450123543034e-02
3.762085450123543034e-02
3.754717530996089236e-02
3.754717530996089236e-02
3.739931894417433678e-02
3.739931894417433678e-02
3.732513979699755152e-02
3.732513979699755152e-02
3.725079200836647203e-02
3.725079200836647203e-02
3.717627456649730266e-02
3.717627456649730266e-02
3.710158644915940301e-02
3.710158644915940301e-02
3.702672662352344407e-02
3.702672662352344407e-02
3.695169404600655294e-02
3.695169404600655294e-02
3.687648766211409218e-02
3.687648766211409218e-02
3.672554920169777276e-02
3.672554920169777276e-02
3.664981496016341683e-02
3.664981496016341683e-02
3.657390258189516241e-02
3.657390258189516241e-02
3.649781095536467485e-02
3.649781095536467485e-02
3.642153895711922051e-02
3.642153895711922051e-02
3.634508545160149151e-02
3.634508545160149151e-02
3.626844929096516984e-02
3.626844929096516984e-02
3.619162931488792423e-02
3.619162931488792423e-02
3.611462435037968849e-02
3.611462435037968849e-02
3.611462435037968849e-02
3.611462435037968849e-02
3.603743321158787288e-02
3.603743321158787288e-02
3.588248760223322620e-02
3.588248760223322620e-02
3.580473069384221968e-02
3.580473069384221968e-02
3.572678273509319324e-02
3.572678273509319324e-02
3.564864247275589121e-02
3.564864247275589121e-02
3.557030863948248967e-02
3.557030863948248967e-02
3.549177995358285959e-02
3.549177995358285959e-02
3.541305511879616619e-02
3.541305511879616619e-02
3.533413282405674372e-02
3.533413282405674372e-02
3.525501174325587628e-02
3.525501174325587628e-02
3.517569053499845777e-02
3.517569053499845777e-02
3.509616784235405212e-02
3.509616784235405212e-02
3.501644229260360286e-02
3.501644229260360286e-02
3.493651249697987682e-02
3.493651249697987682e-02
3.485637705040297435e-02
3.485637705040297435e-02
3.477603453121033000e-02
3.477603453121033000e-02
3.461472250374972304e-02
3.461472250374972304e-02
3.453375006672737557e-02
3.453375006672737557e-02
3.445256469899773272e-02
3.445256469899773272e-02
3.437116489172140077e-02
3.437116489172140077e-02
3.428954911772702507e-02
3.428954911772702507e-02
3.420771583119767978e-02
3.420771583119767978e-02
3.420771583119767978e-02
3.420771583119767978e-02
3.412566346734918765e-02
3.412566346734918765e-02
3.412566346734918765e-02
3.412566346734918765e-02
3.404339044210205611e-02
3.404339044210205611e-02
3.396089515174600254e-02
3.396089515174600254e-02
3.387817597259637492e-02
3.387817597259637492e-02
3.379523126064330751e-02
3.379523126064330751e-02
3.371205935119307023e-02
3.371205935119307023e-02
3.362865855850039054e-02
3.362865855850039054e-02
3.354502717539344786e-02
3.354502717539344786e-02
3.346116347288911885e-02
3.346116347288911885e-02
3.337706569980003479e-02
3.337706569980003479e-02
3.329273208233252124e-02
3.329273208233252124e-02
3.320816082367426120e-02
3.320816082367426120e-02
3.312335010357346510e-02
3.312335010357346510e-02
3.303829807790689688e-02
3.303829807790689688e-02
3.295300287823842156e-02
3.295300287823842156e-02
3.286746261136684610e-02
3.286746261136684610e-02
3.278167535886232498e-02
3.278167535886232498e-02
3.260935209423610620e-02
3.260935209423610620e-02
3.252281211478531137e-02
3.252281211478531137e-02
3.243601721403596705e-02
3.243601721403596705e-02
3.234896534006434510e-02
3.234896534006434510e-02
3.217408232293673259e-02
3.217408232293673259e-02
3.208624693244878368e-02
3.208624693244878368e-02
3.199814607293512136e-02
3.199814607293512136e-02
3.190977754556655055e-02
3.190977754556655055e-02
3.182113912037151660e-02
3.182113912037151660e-02
3.173222853561304818e-02
3.173222853561304818e-02
3.164304349715031661e-02
3.164304349715031661e-02
3.155358167778365280e-02
3.155358167778365280e-02
3.146384071658159254e-02
3.146384071658159254e-02
3.137381821819135858e-02
3.137381821819135858e-02
3.128351175212999019e-02
3.128351175212999019e-02
3.119291885205727893e-02
3.119291885205727893e-02
3.110203701502926854e-02
3.110203701502926854e-02
3.091939633068874899e-02
3.091939633068874899e-02
3.082763228746170092e-02
3.082763228746170092e-02
3.073556891380944261e-02
3.073556891380944261e-02
3.064320351183852376e-02
3.064320351183852376e-02
3.055053334212378541e-02
3.055053334212378541e-02
3.036426752866373119e-02
3.036426752866373119e-02
3.027066619015914700e-02
3.027066619015914700e-02
3.017674869245642877e-02
3.017674869245642877e-02
3.008251207441190248e-02
3.008251207441190248e-02
2.998795332753539239e-02
2.998795332753539239e-02
2.989306939492145793e-02
2.989306939492145793e-02
2.979785717014856242e-02
2.979785717014856242e-02
2.970231349614713134e-02
2.970231349614713134e-02
2.951021891190542742e-02
2.951021891190542742e-02
2.941366142361288155e-02
2.941366142361288155e-02
2.931675932747546814e-02
2.931675932747546814e-02
2.902395081443488734e-02
2.902395081443488734e-02
2.892563541276647887e-02
2.892563541276647887e-02
2.882695766454866637e-02
2.882695766454866637e-02
2.872791383590038786e-02
2.872791383590038786e-02
2.852871267205911096e-02
2.852871267205911096e-02
2.852871267205911096e-02
2.852871267205911096e-02
2.852871267205911096e-02
2.852871267205911096e-02
2.842854753443559146e-02
2.842854753443559146e-02
2.832800070810253396e-02
2.832800070810253396e-02
2.822706811425333001e-02
2.822706811425333001e-02
2.822706811425333001e-02
2.822706811425333001e-02
2.812574559976991490e-02
2.812574559976991490e-02
2.812574559976991490e-02
2.812574559976991490e-02
2.802402893531000250e-02
2.802402893531000250e-02
2.792191381333044078e-02
2.792191381333044078e-02
2.781939584604328081e-02
2.781939584604328081e-02
2.771647056330391393e-02
2.771647056330391393e-02
2.761313341042583025e-02
2.761313341042583025e-02
2.750937974592109619e-02
2.750937974592109619e-02
2.740520483916254746e-02
2.740520483916254746e-02
2.730060386796348895e-02
2.730060386796348895e-02
2.719557191607308716e-02
2.719557191607308716e-02
2.709010397058286834e-02
2.709010397058286834e-02
2.698419491923950697e-02
2.698419491923950697e-02
2.687783954766228070e-02
2.687783954766228070e-02
2.677103253645787828e-02
2.677103253645787828e-02
2.666376845823054467e-02
2.666376845823054467e-02
2.655604177448173814e-02
2.655604177448173814e-02
2.644784683239344639e-02
2.644784683239344639e-02
2.633917786149207740e-02
2.633917786149207740e-02
2.623002897018463647e-02
2.623002897018463647e-02
2.612039414216354993e-02
2.612039414216354993e-02
2.601026723267303026e-02
2.601026723267303026e-02
2.589964196462940516e-02
2.589964196462940516e-02
2.578851192459087269e-02
2.578851192459087269e-02
2.567687055856651343e-02
2.567687055856651343e-02
2.556471116765901899e-02
2.556471116765901899e-02
2.545202690353216141e-02
2.545202690353216141e-02
2.533881076369323693e-02
2.533881076369323693e-02
2.522505558658360431e-02
2.522505558658360431e-02
2.511075404646483100e-02
2.511075404646483100e-02
2.499589864809230802e-02
2.499589864809230802e-02
2.488048172116450948e-02
2.488048172116450948e-02
2.476449541453521613e-02
2.476449541453521613e-02
2.464793169017869684e-02
2.464793169017869684e-02
2.453078231689188177e-02
2.453078231689188177e-02
2.441303886372181431e-02
2.441303886372181431e-02
2.429469269310260970e-02
2.429469269310260970e-02
2.417573495368507963e-02
2.417573495368507963e-02
2.405615657284457601e-02
2.405615657284457601e-02
2.381510044264974549e-02
2.381510044264974549e-02
2.369360336933579864e-02
2.369360336933579864e-02
2.357144698912523248e-02
2.357144698912523248e-02
2.344862099797612870e-02
2.344862099797612870e-02
2.332511481772712655e-02
2.332511481772712655e-02
2.320091758576405677e-02
2.320091758576405677e-02
2.295040502839703483e-02
2.295040502839703483e-02
2.282406645521906433e-02
2.282406645521906433e-02
2.269699031027871267e-02
2.269699031027871267e-02
2.256916413484006886e-02
2.256916413484006886e-02
2.244057511191863835e-02
2.244057511191863835e-02
2.231121005167164065e-02
2.231121005167164065e-02
2.218105537601403054e-02
2.218105537601403054e-02
2.205009710240827397e-02
2.205009710240827397e-02
2.205009710240827397e-02
2.205009710240827397e-02
2.205009710240827397e-02
2.191832082677188515e-02
2.191832082677188515e-02
2.178571170544621460e-02
2.178571170544621460e-02
2.165225443615908726e-02
2.165225443615908726e-02
2.151793323791486440e-02
2.151793323791486440e-02
2.124663340817242729e-02
2.124663340817242729e-02
2.110962062349737434e-02
2.110962062349737434e-02
2.097167555448404067e-02
2.097167555448404067e-02
2.083277968166842922e-02
2.083277968166842922e-02
2.055205828361847398e-02
2.055205828361847398e-02
2.041019246404038312e-02
2.041019246404038312e-02
2.026729518591298754e-02
2.026729518591298754e-02
2.012334447587001834e-02
1.997831756289729366e-02
1.997831756289729366e-02
1.968493980601342119e-02
1.968493980601342119e-02
1.923618170294667806e-02
1.923618170294667806e-02
1.908416915417754031e-02
1.908416915417754031e-02
1.846318568312646513e-02
1.846318568312646513e-02
1.830454196108960430e-02
1.830454196108960430e-02
1.814446825478276820e-02
1.814446825478276820e-02
1.798292637754461340e-02
1.798292637754461340e-02
1.781987640135014248e-02
1.781987640135014248e-02
1.748908304346855416e-02
1.748908304346855416e-02
1.732125002948883830e-02
1.732125002948883830e-02
1.715172937270875719e-02
1.715172937270875719e-02
1.698047052861166584e-02
1.698047052861166584e-02
1.680742036361630026e-02
1.680742036361630026e-02
1.663252296536514574e-02
1.663252296536514574e-02
1.645571943475367810e-02
1.645571943475367810e-02
1.627694765750342665e-02
1.627694765750342665e-02
1.609614205276278104e-02
1.609614205276278104e-02
1.591323329585084961e-02
1.591323329585084961e-02
1.554080843594078665e-02
1.554080843594078665e-02
1.535113203681044008e-02
1.535113203681044008e-02
1.515903109662365689e-02
1.515903109662365689e-02
1.496441224282009201e-02
1.496441224282009201e-02
1.476717592383747571e-02
1.476717592383747571e-02
1.456721582066738963e-02
1.456721582066738963e-02
1.436441818432215509e-02
1.436441818432215509e-02
1.415866108747939819e-02
1.415866108747939819e-02
1.394981357631589272e-02
1.394981357631589272e-02
1.373773470575377111e-02
1.373773470575377111e-02
1.352227243791559799e-02
1.352227243791559799e-02
1.330326237930372010e-02
1.330326237930372010e-02
1.308052632686540658e-02
1.308052632686540658e-02
1.285387058635981475e-02
1.285387058635981475e-02
1.262308401785370605e-02
1.262308401785370605e-02
1.238793575219604079e-02
1.238793575219604079e-02
1.214817250812342403e-02
1.214817250812342403e-02
1.190351542114976777e-02
1.190351542114976777e-02
1.165365627105160659e-02
1.165365627105160659e-02
1.139825296235923852e-02
1.139825296235923852e-02
1.086924219242857426e-02
1.086924219242857426e-02
1.059472580916076198e-02
1.059472580916076198e-02
1.031282915172991761e-02
1.031282915172991761e-02
1.002292952494849426e-02
1.002292952494849426e-02
9.416144730420664480e-03
9.416144730420664480e-03
9.097459851907263931e-03
9.097459851907263931e-03
8.423721690930491973e-03
8.423721690930491973e-03
7.690784259541004128e-03
7.690784259541004128e-03
7.296599327004498967e-03
7.296599327004498967e-03
6.879753044893179188e-03
6.879753044893179188e-03
0.000000000000000000e+00
