2.000000000000000000e+00
1.000000000000000000e+00
9.999998807907104492e-01
9.999998211860656738e-01
9.999997615814208984e-01
9.999997019767761230e-01
9.999996423721313477e-01
9.999995827674865723e-01
9.999995231628417969e-01
9.999994039535522461e-01
9.999993443489074707e-01
9.999992847442626953e-01
9.999992251396179199e-01
9.999991655349731445e-01
9.999990463256835938e-01
9.999989867210388184e-01
9.999989271163940430e-01
9.999988079071044922e-01
9.999985098838806152e-01
9.999984502792358398e-01
9.999983310699462891e-01
9.999982118606567383e-01
9.999980926513671875e-01
9.999979734420776367e-01
9.999978542327880859e-01
9.999977946281433105e-01
9.999977350234985352e-01
9.999976158142089844e-01
9.999975562095642090e-01
9.999972581863403320e-01
9.999971389770507812e-01
9.999966621398925781e-01
9.999963045120239258e-01
9.999961853027343750e-01
9.999960660934448242e-01
9.999958276748657227e-01
9.999957084655761719e-01
9.999954104423522949e-01
9.999953508377075195e-01
9.999952316284179688e-01
9.999950528144836426e-01
9.999949932098388672e-01
9.999947547912597656e-01
9.999945163726806641e-01
9.999943971633911133e-01
9.999939799308776855e-01
9.999932050704956055e-01
9.999930858612060547e-01
9.999929666519165039e-01
9.999926090240478516e-01
9.999925494194030762e-01
9.999924898147583008e-01
9.999920725822448730e-01
9.999916553497314453e-01
9.999914169311523438e-01
9.999910593032836914e-01
9.999908208847045898e-01
9.999881386756896973e-01
9.999880790710449219e-01
9.999858140945434570e-01
9.999856948852539062e-01
9.999853372573852539e-01
9.999850392341613770e-01
9.999839067459106445e-01
9.999833703041076660e-01
9.999812841415405273e-01
9.999808669090270996e-01
9.999793767929077148e-01
9.999788999557495117e-01
9.999780654907226562e-01
9.999780058860778809e-01
9.999772310256958008e-01
9.999767541885375977e-01
9.999758601188659668e-01
9.999752044677734375e-01
9.999721050262451172e-01
9.999717473983764648e-01
9.999704360961914062e-01
9.999699592590332031e-01
9.999680519104003906e-01
9.999678134918212891e-01
9.999662637710571289e-01
9.999659657478332520e-01
9.999499320983886719e-01
9.999490976333618164e-01
9.999410510063171387e-01
9.999406337738037109e-01
9.999263882637023926e-01
9.999248981475830078e-01
9.999220371246337891e-01
9.999217987060546875e-01
9.999170303344726562e-01
9.999153614044189453e-01
9.999114871025085449e-01
9.999111890792846680e-01
9.999090433120727539e-01
9.999067783355712891e-01
9.999060034751892090e-01
9.999057054519653320e-01
9.999014139175415039e-01
9.999009966850280762e-01
9.998883008956909180e-01
9.998870491981506348e-01
9.998835325241088867e-01
9.998831748962402344e-01
9.998756647109985352e-01
9.998752474784851074e-01
9.998633861541748047e-01
9.998632669448852539e-01
9.998041391372680664e-01
9.998040795326232910e-01
9.997960329055786133e-01
9.997953176498413086e-01
9.997936487197875977e-01
9.997919201850891113e-01
9.997863769531250000e-01
9.997839927673339844e-01
9.997797012329101562e-01
9.997792243957519531e-01
9.997777938842773438e-01
9.997758865356445312e-01
9.997757077217102051e-01
9.997562170028686523e-01
9.997560381889343262e-01
9.997450709342956543e-01
9.997426271438598633e-01
9.997317790985107422e-01
9.997297525405883789e-01
9.997285604476928711e-01
9.997262954711914062e-01
9.997231960296630859e-01
9.997215867042541504e-01
9.996164441108703613e-01
9.996135234832763672e-01
9.995979070663452148e-01
9.995955228805541992e-01
9.995825290679931641e-01
9.995788335800170898e-01
9.995535612106323242e-01
9.995517730712890625e-01
9.995210766792297363e-01
9.995186328887939453e-01
9.994819164276123047e-01
9.994804859161376953e-01
9.994681477546691895e-01
9.994679689407348633e-01
9.994403719902038574e-01
9.994395971298217773e-01
9.994137287139892578e-01
9.994118213653564453e-01
9.993442296981811523e-01
9.993436336517333984e-01
9.992947578430175781e-01
9.992944002151489258e-01
9.992921352386474609e-01
9.992901086807250977e-01
9.992563724517822266e-01
9.992548227310180664e-01
9.991711378097534180e-01
9.991704225540161133e-01
9.991626143455505371e-01
9.991621971130371094e-01
9.991161823272705078e-01
9.991110563278198242e-01
9.990917444229125977e-01
9.990910291671752930e-01
9.989805221557617188e-01
9.989790916442871094e-01
9.988889694213867188e-01
9.988872408866882324e-01
9.987988471984863281e-01
9.987970590591430664e-01
9.987709522247314453e-01
9.987691044807434082e-01
9.987531900405883789e-01
9.987510442733764648e-01
9.986342191696166992e-01
9.986323118209838867e-01
9.986174106597900391e-01
9.986171722412109375e-01
9.985951185226440430e-01
9.985925555229187012e-01
9.984440803527832031e-01
9.984381198883056641e-01
9.984019398689270020e-01
9.984015822410583496e-01
9.983217716217041016e-01
9.983124732971191406e-01
9.982925653457641602e-01
9.982877969741821289e-01
9.982423782348632812e-01
9.982357025146484375e-01
9.982169866561889648e-01
9.982162714004516602e-01
9.980562329292297363e-01
9.980530738830566406e-01
9.979738593101501465e-01
9.979628324508666992e-01
9.978542923927307129e-01
9.978424906730651855e-01
9.975143671035766602e-01
9.975125789642333984e-01
9.974526166915893555e-01
9.974485635757446289e-01
9.974074363708496094e-01
9.974015951156616211e-01
9.972994327545166016e-01
9.972907304763793945e-01
9.972676038742065430e-01
9.972631931304931641e-01
9.971665740013122559e-01
9.971621632575988770e-01
9.970703721046447754e-01
9.970699548721313477e-01
9.967458248138427734e-01
9.967455863952636719e-01
9.966785907745361328e-01
9.966759681701660156e-01
9.966349601745605469e-01
9.966180324554443359e-01
9.965194463729858398e-01
9.965130090713500977e-01
9.964368939399719238e-01
9.964261054992675781e-01
9.961802959442138672e-01
9.961787462234497070e-01
9.961203336715698242e-01
9.961194992065429688e-01
9.960671663284301758e-01
9.960423707962036133e-01
9.959945082664489746e-01
9.959620237350463867e-01
9.959350824356079102e-01
9.959145784378051758e-01
9.958049058914184570e-01
9.957963228225708008e-01
9.957789778709411621e-01
9.957528710365295410e-01
9.957246780395507812e-01
9.956825971603393555e-01
9.953567981719970703e-01
9.953449964523315430e-01
9.952871799468994141e-01
9.952846169471740723e-01
9.951407909393310547e-01
9.951373338699340820e-01
9.950524568557739258e-01
9.950470328330993652e-01
9.950438141822814941e-01
9.950414896011352539e-01
9.948093295097351074e-01
9.947863817214965820e-01
9.946026802062988281e-01
9.946023821830749512e-01
9.940986037254333496e-01
9.940817356109619141e-01
9.940171837806701660e-01
9.940160512924194336e-01
9.939084649085998535e-01
9.939017295837402344e-01
9.938871860504150391e-01
9.938865303993225098e-01
9.937800168991088867e-01
9.937705993652343750e-01
9.934688806533813477e-01
9.934643507003784180e-01
9.931479692459106445e-01
9.931464195251464844e-01
9.930989742279052734e-01
9.930771589279174805e-01
9.926370382308959961e-01
9.926073551177978516e-01
9.923134446144104004e-01
9.922678470611572266e-01
9.919586181640625000e-01
9.919457435607910156e-01
9.915016889572143555e-01
9.914989471435546875e-01
9.913517236709594727e-01
9.913436770439147949e-01
9.911121129989624023e-01
9.910863637924194336e-01
9.907162189483642578e-01
9.907135963439941406e-01
9.903317689895629883e-01
9.903275966644287109e-01
9.902956485748291016e-01
9.902819395065307617e-01
9.899879693984985352e-01
9.899330735206604004e-01
9.889294505119323730e-01
9.887971878051757812e-01
9.887282252311706543e-01
9.887262582778930664e-01
9.886922240257263184e-01
9.886124134063720703e-01
9.884979724884033203e-01
9.884378314018249512e-01
9.882066249847412109e-01
9.881993532180786133e-01
9.879549741744995117e-01
9.879485964775085449e-01
9.874494075775146484e-01
9.874265193939208984e-01
9.873875379562377930e-01
9.873478412628173828e-01
9.863066673278808594e-01
9.862886667251586914e-01
9.861598014831542969e-01
9.861499071121215820e-01
9.859873056411743164e-01
9.859527349472045898e-01
9.858801364898681641e-01
9.858475923538208008e-01
9.857037067413330078e-01
9.856728315353393555e-01
9.852832555770874023e-01
9.852780699729919434e-01
9.846863746643066406e-01
9.846256971359252930e-01
9.843580722808837891e-01
9.843333959579467773e-01
9.837579727172851562e-01
9.837480783462524414e-01
9.836385250091552734e-01
9.836084842681884766e-01
9.832909107208251953e-01
9.832819700241088867e-01
9.831240177154541016e-01
9.830561876296997070e-01
9.828492999076843262e-01
9.827741980552673340e-01
9.822210073471069336e-01
9.821735620498657227e-01
9.820940494537353516e-01
9.820573329925537109e-01
9.819985628128051758e-01
9.819761514663696289e-01
9.818499088287353516e-01
9.818487167358398438e-01
9.815552234649658203e-01
9.815525412559509277e-01
9.815499186515808105e-01
9.815336465835571289e-01
9.807949662208557129e-01
9.807913303375244141e-01
9.807113409042358398e-01
9.807046055793762207e-01
9.806595444679260254e-01
9.806489348411560059e-01
9.804106950759887695e-01
9.803994894027709961e-01
9.801902174949645996e-01
9.801025986671447754e-01
9.793956875801086426e-01
9.793668985366821289e-01
9.792673587799072266e-01
9.792115688323974609e-01
9.788393974304199219e-01
9.788100719451904297e-01
9.785338044166564941e-01
9.785246253013610840e-01
9.778834581375122070e-01
9.777865409851074219e-01
9.773505926132202148e-01
9.773346185684204102e-01
9.773281812667846680e-01
9.773139953613281250e-01
9.771564006805419922e-01
9.771313667297363281e-01
9.770161509513854980e-01
9.770073890686035156e-01
9.762133359909057617e-01
9.761247634887695312e-01
9.757912158966064453e-01
9.757759571075439453e-01
9.755166769027709961e-01
9.753898382186889648e-01
9.753042459487915039e-01
9.752970337867736816e-01
9.752503633499145508e-01
9.752171039581298828e-01
9.746754765510559082e-01
9.745892286300659180e-01
9.745053052902221680e-01
9.744830131530761719e-01
9.729624390602111816e-01
9.729579687118530273e-01
9.724985361099243164e-01
9.724525809288024902e-01
9.722360372543334961e-01
9.722175002098083496e-01
9.718271493911743164e-01
9.718018770217895508e-01
9.712347984313964844e-01
9.710360765457153320e-01
9.704771041870117188e-01
9.704211950302124023e-01
9.698832035064697266e-01
9.698240756988525391e-01
9.692577123641967773e-01
9.692254662513732910e-01
9.689255952835083008e-01
9.689213037490844727e-01
9.685827493667602539e-01
9.685271978378295898e-01
9.684724807739257812e-01
9.684396982192993164e-01
9.679521322250366211e-01
9.679385423660278320e-01
9.678412079811096191e-01
9.678117632865905762e-01
9.677888154983520508e-01
9.677833318710327148e-01
9.670962095260620117e-01
9.669440984725952148e-01
9.666169881820678711e-01
9.665998816490173340e-01
9.657063484191894531e-01
9.657031297683715820e-01
9.649411439895629883e-01
9.649263620376586914e-01
9.649162292480468750e-01
9.648978710174560547e-01
9.647039771080017090e-01
9.647021293640136719e-01
9.645106196403503418e-01
9.644572734832763672e-01
9.634833335876464844e-01
9.634350538253784180e-01
9.630914926528930664e-01
9.630707502365112305e-01
9.628717899322509766e-01
9.628645181655883789e-01
9.628282189369201660e-01
9.628107547760009766e-01
9.624278545379638672e-01
9.623861312866210938e-01
9.613533616065979004e-01
9.611810445785522461e-01
9.610569477081298828e-01
9.609770774841308594e-01
9.609725475311279297e-01
9.609620571136474609e-01
9.588584899902343750e-01
9.588558077812194824e-01
9.573432207107543945e-01
9.573230743408203125e-01
9.562307000160217285e-01
9.562192559242248535e-01
9.559656381607055664e-01
9.559600353240966797e-01
9.553103446960449219e-01
9.553054571151733398e-01
9.549332857131958008e-01
9.548990130424499512e-01
9.548494815826416016e-01
9.548448324203491211e-01
9.545810222625732422e-01
9.544079303741455078e-01
9.539057612419128418e-01
9.538346529006958008e-01
9.533734917640686035e-01
9.532891511917114258e-01
9.522793292999267578e-01
9.522500038146972656e-01
9.494324922561645508e-01
9.493515491485595703e-01
9.480053782463073730e-01
9.478825330734252930e-01
9.473798274993896484e-01
9.473694562911987305e-01
9.463493824005126953e-01
9.463257193565368652e-01
9.456377625465393066e-01
9.455111026763916016e-01
9.437969923019409180e-01
9.437931180000305176e-01
9.424149990081787109e-01
9.424031376838684082e-01
9.414746761322021484e-01
9.414523839950561523e-01
9.401044845581054688e-01
9.400580525398254395e-01
9.394518136978149414e-01
9.392588734626770020e-01
9.391334056854248047e-01
9.391149878501892090e-01
9.386141300201416016e-01
9.385021924972534180e-01
9.375346302986145020e-01
9.375312328338623047e-01
9.362839460372924805e-01
9.362461566925048828e-01
9.359945654869079590e-01
9.359087944030761719e-01
9.358561038970947266e-01
9.358082413673400879e-01
9.356662034988403320e-01
9.356434941291809082e-01
9.354761838912963867e-01
9.354248642921447754e-01
9.344081878662109375e-01
9.343399405479431152e-01
9.342504739761352539e-01
9.342256784439086914e-01
9.331948757171630859e-01
9.331156611442565918e-01
9.322237968444824219e-01
9.320472478866577148e-01
9.292525053024291992e-01
9.290232658386230469e-01
9.288907051086425781e-01
9.288901090621948242e-01
9.288417100906372070e-01
9.287831783294677734e-01
9.284574985504150391e-01
9.283437728881835938e-01
9.283095598220825195e-01
9.282314777374267578e-01
9.278539419174194336e-01
9.278497695922851562e-01
9.277015924453735352e-01
9.276831150054931641e-01
9.264298677444458008e-01
9.263925552368164062e-01
9.248752593994140625e-01
9.248125553131103516e-01
9.236592650413513184e-01
9.236054420471191406e-01
9.235674142837524414e-01
9.235091209411621094e-01
9.231868982315063477e-01
9.231433868408203125e-01
9.224884510040283203e-01
9.224748611450195312e-01
9.207144975662231445e-01
9.206894636154174805e-01
9.200543165206909180e-01
9.200210571289062500e-01
9.177833795547485352e-01
9.177285432815551758e-01
9.165139794349670410e-01
9.164352416992187500e-01
9.158511161804199219e-01
9.158129692077636719e-01
9.151632785797119141e-01
9.151005148887634277e-01
9.147177934646606445e-01
9.147025346755981445e-01
9.145464897155761719e-01
9.145237207412719727e-01
9.136747121810913086e-01
9.135643839836120605e-01
9.127901196479797363e-01
9.127314686775207520e-01
9.111976623535156250e-01
9.111880064010620117e-01
9.108418226242065430e-01
9.108374714851379395e-01
9.094941616058349609e-01
9.094803333282470703e-01
9.088202118873596191e-01
9.087642431259155273e-01
9.082106351852416992e-01
9.081624746322631836e-01
9.056853652000427246e-01
9.055896997451782227e-01
9.039413928985595703e-01
9.039216041564941406e-01
9.037520885467529297e-01
9.037061929702758789e-01
9.036370515823364258e-01
9.036203026771545410e-01
9.032319188117980957e-01
9.031523466110229492e-01
9.029134511947631836e-01
9.029026031494140625e-01
9.008175730705261230e-01
9.007976055145263672e-01
9.001322388648986816e-01
9.001290798187255859e-01
8.997105360031127930e-01
8.996711373329162598e-01
8.993595242500305176e-01
8.993327617645263672e-01
8.992533087730407715e-01
8.991327881813049316e-01
8.983394503593444824e-01
8.982595205307006836e-01
8.960278034210205078e-01
8.959881067276000977e-01
8.957088589668273926e-01
8.956681489944458008e-01
8.941746950149536133e-01
8.941283822059631348e-01
8.941069841384887695e-01
8.940902352333068848e-01
8.939388990402221680e-01
8.938938379287719727e-01
8.923577666282653809e-01
8.923372626304626465e-01
8.908228874206542969e-01
8.906157016754150391e-01
8.895133733749389648e-01
8.894314765930175781e-01
8.883451223373413086e-01
8.877927064895629883e-01
8.871467113494873047e-01
8.871309757232666016e-01
8.869111537933349609e-01
8.868649005889892578e-01
8.852721452713012695e-01
8.851326107978820801e-01
8.847393989562988281e-01
8.845750689506530762e-01
8.843193054199218750e-01
8.842537403106689453e-01
8.839861154556274414e-01
8.839068412780761719e-01
8.833235502243041992e-01
8.832194805145263672e-01
8.826937675476074219e-01
8.825702667236328125e-01
8.822422027587890625e-01
8.821891546249389648e-01
8.821686506271362305e-01
8.821322917938232422e-01
8.808835744857788086e-01
8.807353377342224121e-01
8.792414069175720215e-01
8.792179822921752930e-01
8.786603212356567383e-01
8.785302639007568359e-01
8.777780532836914062e-01
8.777320384979248047e-01
8.765810728073120117e-01
8.765709996223449707e-01
8.763918280601501465e-01
8.763024210929870605e-01
8.761786222457885742e-01
8.761727809906005859e-01
8.756156563758850098e-01
8.754734992980957031e-01
8.751720190048217773e-01
8.751025199890136719e-01
8.744553923606872559e-01
8.744375705718994141e-01
8.738349676132202148e-01
8.737159967422485352e-01
8.731781840324401855e-01
8.730874061584472656e-01
8.720785379409790039e-01
8.718801736831665039e-01
8.713313341140747070e-01
8.712331652641296387e-01
8.706018924713134766e-01
8.705284595489501953e-01
8.699387311935424805e-01
8.698792457580566406e-01
8.691346049308776855e-01
8.689498305320739746e-01
8.679660558700561523e-01
8.677740097045898438e-01
8.669393062591552734e-01
8.668330907821655273e-01
8.653888702392578125e-01
8.652514219284057617e-01
8.642597198486328125e-01
8.639646768569946289e-01
8.627388477325439453e-01
8.626986742019653320e-01
8.602666258811950684e-01
8.601548671722412109e-01
8.573153018951416016e-01
8.572904467582702637e-01
8.569097518920898438e-01
8.568401336669921875e-01
8.568082451820373535e-01
8.566217422485351562e-01
8.559176921844482422e-01
8.558522462844848633e-01
8.557192087173461914e-01
8.556528091430664062e-01
8.534671068191528320e-01
8.534159660339355469e-01
8.514072895050048828e-01
8.511943817138671875e-01
8.502830266952514648e-01
8.501905202865600586e-01
8.500249385833740234e-01
8.499947786331176758e-01
8.489408493041992188e-01
8.486923575401306152e-01
8.484867811203002930e-01
8.484504222869873047e-01
8.483681678771972656e-01
8.483448028564453125e-01
8.478154540061950684e-01
8.475394845008850098e-01
8.463025093078613281e-01
8.462092876434326172e-01
8.461073637008666992e-01
8.460519313812255859e-01
8.459851741790771484e-01
8.459481000900268555e-01
8.454045057296752930e-01
8.454032540321350098e-01
8.452395200729370117e-01
8.452013134956359863e-01
8.447031974792480469e-01
8.447025418281555176e-01
8.444682359695434570e-01
8.444654345512390137e-01
8.436414599418640137e-01
8.434798717498779297e-01
8.433172702789306641e-01
8.433135747909545898e-01
8.409507870674133301e-01
8.404260873794555664e-01
8.401632905006408691e-01
8.401221036911010742e-01
8.397927284240722656e-01
8.394176363945007324e-01
8.391472101211547852e-01
8.391178846359252930e-01
8.389505743980407715e-01
8.389385342597961426e-01
8.380600214004516602e-01
8.378531932830810547e-01
8.374341726303100586e-01
8.374195098876953125e-01
8.374171257019042969e-01
8.374149799346923828e-01
8.364949226379394531e-01
8.364815711975097656e-01
8.360681533813476562e-01
8.360310792922973633e-01
8.358743190765380859e-01
8.356446623802185059e-01
8.338276147842407227e-01
8.337541818618774414e-01
8.332256078720092773e-01
8.331536054611206055e-01
8.330485224723815918e-01
8.330194950103759766e-01
8.324316740036010742e-01
8.324278593063354492e-01
8.295702338218688965e-01
8.294477462768554688e-01
8.284525871276855469e-01
8.284469842910766602e-01
8.280026912689208984e-01
8.279392719268798828e-01
8.268532752990722656e-01
8.268465995788574219e-01
8.245564699172973633e-01
8.245269656181335449e-01
8.234590291976928711e-01
8.233722448348999023e-01
8.226026296615600586e-01
8.225979804992675781e-01
8.225237727165222168e-01
8.225169181823730469e-01
8.214516639709472656e-01
8.213443756103515625e-01
8.201596736907958984e-01
8.200724124908447266e-01
8.183033466339111328e-01
8.182023763656616211e-01
8.173698186874389648e-01
8.173038959503173828e-01
8.086947202682495117e-01
8.083375692367553711e-01
8.076545000076293945e-01
8.076004981994628906e-01
8.071146011352539062e-01
8.069970607757568359e-01
8.052766919136047363e-01
8.052337765693664551e-01
8.045185804367065430e-01
8.041988611221313477e-01
8.029533028602600098e-01
8.026426434516906738e-01
8.019208908081054688e-01
8.018603324890136719e-01
8.015253543853759766e-01
8.014206886291503906e-01
8.013867139816284180e-01
8.012198805809020996e-01
7.982285022735595703e-01
7.981414794921875000e-01
7.976530790328979492e-01
7.976247072219848633e-01
7.952030897140502930e-01
7.947473526000976562e-01
7.915429472923278809e-01
7.914040088653564453e-01
7.903605103492736816e-01
7.903275489807128906e-01
7.896590232849121094e-01
7.896506786346435547e-01
7.869173288345336914e-01
7.867896556854248047e-01
7.860180735588073730e-01
7.859646081924438477e-01
7.852141857147216797e-01
7.851430177688598633e-01
7.842751741409301758e-01
7.841995954513549805e-01
7.828547954559326172e-01
7.827470302581787109e-01
7.822234630584716797e-01
7.821184396743774414e-01
7.799111604690551758e-01
7.795277237892150879e-01
7.783900499343872070e-01
7.782275676727294922e-01
7.781008481979370117e-01
7.779008150100708008e-01
7.778841257095336914e-01
7.776572704315185547e-01
7.774296998977661133e-01
7.772659659385681152e-01
7.767883539199829102e-01
7.766640186309814453e-01
7.750551700592041016e-01
7.748734951019287109e-01
7.722221016883850098e-01
7.720881700515747070e-01
7.693635225296020508e-01
7.692993879318237305e-01
7.691321372985839844e-01
7.691121697425842285e-01
7.686038017272949219e-01
7.683422565460205078e-01
7.662616968154907227e-01
7.662335038185119629e-01
7.650324106216430664e-01
7.650156021118164062e-01
7.645691633224487305e-01
7.643502950668334961e-01
7.625426054000854492e-01
7.625312805175781250e-01
7.624410390853881836e-01
7.621620893478393555e-01
7.610195875167846680e-01
7.609868645668029785e-01
7.592522501945495605e-01
7.589459419250488281e-01
7.577522993087768555e-01
7.574889659881591797e-01
7.570465803146362305e-01
7.570407390594482422e-01
7.567957639694213867e-01
7.567218542098999023e-01
7.547688484191894531e-01
7.546697854995727539e-01
7.544630765914916992e-01
7.544459104537963867e-01
7.544192075729370117e-01
7.542675733566284180e-01
7.532650232315063477e-01
7.532358169555664062e-01
7.525151968002319336e-01
7.525123357772827148e-01
7.523850202560424805e-01
7.523839473724365234e-01
7.519696950912475586e-01
7.516589164733886719e-01
7.507529854774475098e-01
7.506482601165771484e-01
7.505660057067871094e-01
7.505474090576171875e-01
7.501042485237121582e-01
7.500470876693725586e-01
7.499883174896240234e-01
7.492896914482116699e-01
7.491354346275329590e-01
7.491220235824584961e-01
7.488216161727905273e-01
7.487986087799072266e-01
7.484397292137145996e-01
7.483935356140136719e-01
7.474796772003173828e-01
7.474634647369384766e-01
7.450448870658874512e-01
7.450315356254577637e-01
7.437844276428222656e-01
7.437331676483154297e-01
7.417755126953125000e-01
7.416268587112426758e-01
7.409496307373046875e-01
7.409378290176391602e-01
7.408782243728637695e-01
7.408174276351928711e-01
7.405703067779541016e-01
7.402822375297546387e-01
7.380188703536987305e-01
7.379055619239807129e-01
7.367405295372009277e-01
7.367371916770935059e-01
7.364481091499328613e-01
7.364172935485839844e-01
7.348492145538330078e-01
7.348124980926513672e-01
7.340523004531860352e-01
7.339110374450683594e-01
7.338474392890930176e-01
7.334876060485839844e-01
7.331392765045166016e-01
7.330215573310852051e-01
7.326392531394958496e-01
7.326185703277587891e-01
7.319554686546325684e-01
7.318279147148132324e-01
7.308687567710876465e-01
7.306090593338012695e-01
7.284939289093017578e-01
7.284585833549499512e-01
7.274441719055175781e-01
7.274284362792968750e-01
7.256914377212524414e-01
7.256683111190795898e-01
7.256088256835937500e-01
7.256065011024475098e-01
7.252609729766845703e-01
7.250709533691406250e-01
7.248145341873168945e-01
7.246214747428894043e-01
7.245135903358459473e-01
7.239767313003540039e-01
7.235788702964782715e-01
7.235376238822937012e-01
7.219924330711364746e-01
7.217431068420410156e-01
7.206300497055053711e-01
7.204389572143554688e-01
7.191303372383117676e-01
7.189795374870300293e-01
7.171521782875061035e-01
7.165544629096984863e-01
7.140202522277832031e-01
7.133551836013793945e-01
7.126982808113098145e-01
7.126846313476562500e-01
7.118872404098510742e-01
7.118112444877624512e-01
7.089750766754150391e-01
7.089664936065673828e-01
7.072908878326416016e-01
7.072141170501708984e-01
7.061558365821838379e-01
7.059552669525146484e-01
7.058031558990478516e-01
7.058010101318359375e-01
7.035166621208190918e-01
7.033773660659790039e-01
7.032092213630676270e-01
7.031818628311157227e-01
7.023743391036987305e-01
7.016423940658569336e-01
6.976332664489746094e-01
6.973537802696228027e-01
6.970325708389282227e-01
6.970052123069763184e-01
6.948954463005065918e-01
6.948527097702026367e-01
6.896035075187683105e-01
6.887705922126770020e-01
6.873958110809326172e-01
6.872593164443969727e-01
6.870902776718139648e-01
6.869238615036010742e-01
6.856619119644165039e-01
6.856470704078674316e-01
6.849998235702514648e-01
6.844395399093627930e-01
6.843922734260559082e-01
6.837247610092163086e-01
6.834310889244079590e-01
6.829608678817749023e-01
6.827113032341003418e-01
6.824564933776855469e-01
6.822022199630737305e-01
6.821583509445190430e-01
6.813381910324096680e-01
6.811127066612243652e-01
6.808918714523315430e-01
6.802344918251037598e-01
6.797294616699218750e-01
6.797247529029846191e-01
6.794224977493286133e-01
6.793947219848632812e-01
6.792155504226684570e-01
6.791172623634338379e-01
6.783898472785949707e-01
6.783137321472167969e-01
6.782827377319335938e-01
6.780817508697509766e-01
6.777222752571105957e-01
6.774203181266784668e-01
6.759240031242370605e-01
6.757581233978271484e-01
6.747895479202270508e-01
6.746696233749389648e-01
6.740288138389587402e-01
6.737494468688964844e-01
6.734075546264648438e-01
6.733506917953491211e-01
6.728566288948059082e-01
6.726322174072265625e-01
6.714356541633605957e-01
6.710844039916992188e-01
6.703490614891052246e-01
6.699450016021728516e-01
6.695160865783691406e-01
6.690425872802734375e-01
6.690304279327392578e-01
6.682252883911132812e-01
6.674067974090576172e-01
6.673721671104431152e-01
6.663578748703002930e-01
6.659407019615173340e-01
6.654798388481140137e-01
6.653549075126647949e-01
6.649441123008728027e-01
6.648343205451965332e-01
6.646391749382019043e-01
6.646147966384887695e-01
6.633788943290710449e-01
6.631145477294921875e-01
6.630847454071044922e-01
6.629375219345092773e-01
6.622415781021118164e-01
6.620457768440246582e-01
6.594226360321044922e-01
6.590607166290283203e-01
6.578658819198608398e-01
6.578473448753356934e-01
6.576470136642456055e-01
6.575576663017272949e-01
6.561292409896850586e-01
6.559795141220092773e-01
6.557272672653198242e-01
6.555190086364746094e-01
6.543598175048828125e-01
6.543323993682861328e-01
6.514321565628051758e-01
6.511875987052917480e-01
6.509939432144165039e-01
6.508294343948364258e-01
6.498700380325317383e-01
6.493840217590332031e-01
6.490419507026672363e-01
6.490263938903808594e-01
6.485121250152587891e-01
6.484471559524536133e-01
6.483073830604553223e-01
6.481214761734008789e-01
6.473316550254821777e-01
6.472326517105102539e-01
6.470534205436706543e-01
6.467832326889038086e-01
6.466649174690246582e-01
6.464476585388183594e-01
6.462423205375671387e-01
6.461810469627380371e-01
6.457600593566894531e-01
6.456043124198913574e-01
6.448475122451782227e-01
6.445007324218750000e-01
6.441321372985839844e-01
6.440342664718627930e-01
6.438439488410949707e-01
6.437973976135253906e-01
6.410004496574401855e-01
6.409813165664672852e-01
6.403056383132934570e-01
6.399907469749450684e-01
6.397209167480468750e-01
6.394321322441101074e-01
6.391091346740722656e-01
6.385579109191894531e-01
6.378035545349121094e-01
6.377755403518676758e-01
6.371014714241027832e-01
6.370053291320800781e-01
6.356149911880493164e-01
6.350365877151489258e-01
6.346668601036071777e-01
6.346185207366943359e-01
6.329051256179809570e-01
6.326162815093994141e-01
6.326048374176025391e-01
6.326010227203369141e-01
6.324460506439208984e-01
6.323965787887573242e-01
6.322318315505981445e-01
6.321444511413574219e-01
6.320219039916992188e-01
6.320134401321411133e-01
6.318275332450866699e-01
6.316790580749511719e-01
6.315611600875854492e-01
6.314042806625366211e-01
6.310942173004150391e-01
6.308084726333618164e-01
6.298435926437377930e-01
6.296686530113220215e-01
6.287038922309875488e-01
6.283264160156250000e-01
6.272009015083312988e-01
6.271450519561767578e-01
6.270682215690612793e-01
6.269985437393188477e-01
6.266764998435974121e-01
6.266436576843261719e-01
6.262344121932983398e-01
6.261857151985168457e-01
6.254331469535827637e-01
6.250764727592468262e-01
6.243465542793273926e-01
6.242194175720214844e-01
6.232188344001770020e-01
6.230395436286926270e-01
6.222124695777893066e-01
6.218653917312622070e-01
6.205736398696899414e-01
6.203324794769287109e-01
6.196311712265014648e-01
6.193950176239013672e-01
6.193935275077819824e-01
6.192968487739562988e-01
6.192013025283813477e-01
6.189633011817932129e-01
6.166803240776062012e-01
6.166799664497375488e-01
6.160387396812438965e-01
6.159421205520629883e-01
6.158003807067871094e-01
6.157717108726501465e-01
6.154782772064208984e-01
6.153491735458374023e-01
6.150519847869873047e-01
6.142537593841552734e-01
6.138544678688049316e-01
6.134685873985290527e-01
6.129913330078125000e-01
6.129012107849121094e-01
6.126878261566162109e-01
6.126192808151245117e-01
6.122822761535644531e-01
6.119803786277770996e-01
6.117900013923645020e-01
6.117312908172607422e-01
6.099625825881958008e-01
6.094907522201538086e-01
6.091479659080505371e-01
6.088544726371765137e-01
6.073557138442993164e-01
6.071408987045288086e-01
6.065548658370971680e-01
6.064299345016479492e-01
6.048911213874816895e-01
6.046949028968811035e-01
6.037414073944091797e-01
6.035239696502685547e-01
6.029262542724609375e-01
6.028560996055603027e-01
6.023808717727661133e-01
6.023145914077758789e-01
6.016501188278198242e-01
6.015697717666625977e-01
6.010206937789916992e-01
6.008477210998535156e-01
6.004624962806701660e-01
6.003640890121459961e-01
6.001718044281005859e-01
6.001004576683044434e-01
5.995128750801086426e-01
5.992318987846374512e-01
5.982617735862731934e-01
5.980743169784545898e-01
5.979698300361633301e-01
5.979624986648559570e-01
5.970926284790039062e-01
5.970807075500488281e-01
5.962142944335937500e-01
5.956308245658874512e-01
5.953094363212585449e-01
5.947536230087280273e-01
5.943639874458312988e-01
5.942265391349792480e-01
5.941457748413085938e-01
5.940535664558410645e-01
5.934011936187744141e-01
5.926920771598815918e-01
5.920622348785400391e-01
5.920591950416564941e-01
5.918108224868774414e-01
5.915649533271789551e-01
5.907897949218750000e-01
5.907788872718811035e-01
5.899860262870788574e-01
5.896351933479309082e-01
5.885096788406372070e-01
5.882700085639953613e-01
5.873957276344299316e-01
5.873186588287353516e-01
5.864940285682678223e-01
5.864297747611999512e-01
5.853737592697143555e-01
5.853123664855957031e-01
5.852952003479003906e-01
5.851253271102905273e-01
5.850681662559509277e-01
5.847641825675964355e-01
5.843633413314819336e-01
5.840227603912353516e-01
5.830016136169433594e-01
5.828984975814819336e-01
5.826163291931152344e-01
5.824158787727355957e-01
5.813506841659545898e-01
5.811663269996643066e-01
5.810103416442871094e-01
5.808334350585937500e-01
5.787501931190490723e-01
5.786210298538208008e-01
5.785156488418579102e-01
5.782005190849304199e-01
5.772492289543151855e-01
5.772401094436645508e-01
5.772397518157958984e-01
5.770496129989624023e-01
5.766133069992065430e-01
5.765846371650695801e-01
5.765607953071594238e-01
5.765388607978820801e-01
5.765212774276733398e-01
5.762370228767395020e-01
5.757393836975097656e-01
5.756195187568664551e-01
5.749199390411376953e-01
5.743725299835205078e-01
5.741620659828186035e-01
5.740206837654113770e-01
5.739161372184753418e-01
5.739130377769470215e-01
5.738486051559448242e-01
5.736386179924011230e-01
5.733954906463623047e-01
5.732773542404174805e-01
5.731544494628906250e-01
5.730032324790954590e-01
5.726863741874694824e-01
5.721274614334106445e-01
5.709133148193359375e-01
5.700018405914306641e-01
5.699668526649475098e-01
5.693427324295043945e-01
5.687580704689025879e-01
5.677439570426940918e-01
5.676823854446411133e-01
5.665277242660522461e-01
5.663362741470336914e-01
5.660260915756225586e-01
5.659247636795043945e-01
5.657773017883300781e-01
5.651239156723022461e-01
5.650580525398254395e-01
5.645148754119873047e-01
5.639387965202331543e-01
5.634101629257202148e-01
5.627246499061584473e-01
5.618447661399841309e-01
5.605623126029968262e-01
5.604024529457092285e-01
5.603903532028198242e-01
5.589758157730102539e-01
5.588175058364868164e-01
5.580955743789672852e-01
5.580850243568420410e-01
5.579648017883300781e-01
5.577463507652282715e-01
5.573356747627258301e-01
5.571146607398986816e-01
5.559341907501220703e-01
5.559303164482116699e-01
5.550324320793151855e-01
5.543036460876464844e-01
5.541394352912902832e-01
5.539407730102539062e-01
5.532745718955993652e-01
5.531741976737976074e-01
5.526421666145324707e-01
5.523098111152648926e-01
5.522087812423706055e-01
5.517843961715698242e-01
5.510010719299316406e-01
5.502431392669677734e-01
5.491425991058349609e-01
5.488857030868530273e-01
5.482914447784423828e-01
5.477402806282043457e-01
5.466787815093994141e-01
5.464285612106323242e-01
5.453904867172241211e-01
5.451443791389465332e-01
5.447659492492675781e-01
5.446349382400512695e-01
5.443186163902282715e-01
5.442175269126892090e-01
5.438972711563110352e-01
5.426397323608398438e-01
5.423223972320556641e-01
5.422078371047973633e-01
5.406331419944763184e-01
5.405442714691162109e-01
5.394339561462402344e-01
5.390032529830932617e-01
5.383231639862060547e-01
5.375843048095703125e-01
5.357708930969238281e-01
5.350679159164428711e-01
5.343235731124877930e-01
5.342300534248352051e-01
5.330907106399536133e-01
5.327689647674560547e-01
5.316842198371887207e-01
5.312635898590087891e-01
5.311875939369201660e-01
5.308902263641357422e-01
5.306727886199951172e-01
5.294715166091918945e-01
5.292764306068420410e-01
5.292710661888122559e-01
5.285513997077941895e-01
5.269967317581176758e-01
5.256211757659912109e-01
5.250740647315979004e-01
5.246566534042358398e-01
5.241765975952148438e-01
5.237982869148254395e-01
5.235656499862670898e-01
5.235187411308288574e-01
5.234819054603576660e-01
5.229920148849487305e-01
5.227808952331542969e-01
5.224912762641906738e-01
5.224000215530395508e-01
5.208666920661926270e-01
5.204825401306152344e-01
5.191726088523864746e-01
5.190920829772949219e-01
5.175755023956298828e-01
5.173063874244689941e-01
5.167090892791748047e-01
5.162188410758972168e-01
5.159745216369628906e-01
5.155295133590698242e-01
5.153152942657470703e-01
5.150208473205566406e-01
5.146536231040954590e-01
5.144775509834289551e-01
5.137295126914978027e-01
5.135704278945922852e-01
5.134125947952270508e-01
5.134070515632629395e-01
5.111540555953979492e-01
5.110369920730590820e-01
5.105884075164794922e-01
5.104755163192749023e-01
5.095608234405517578e-01
5.095455050468444824e-01
5.093921422958374023e-01
5.092656016349792480e-01
5.091012716293334961e-01
5.090152025222778320e-01
5.086536407470703125e-01
5.086385011672973633e-01
5.079464912414550781e-01
5.078642964363098145e-01
5.067719221115112305e-01
5.062633156776428223e-01
5.062360763549804688e-01
5.056769251823425293e-01
5.044313073158264160e-01
5.038956403732299805e-01
5.037959218025207520e-01
5.037212967872619629e-01
5.029253363609313965e-01
5.021342039108276367e-01
5.020091533660888672e-01
5.015422105789184570e-01
5.005148053169250488e-01
5.004085898399353027e-01
5.002400875091552734e-01
4.999157190322875977e-01
4.998110532760620117e-01
4.992390275001525879e-01
4.990640282630920410e-01
4.987868964672088623e-01
4.987235069274902344e-01
4.984241425991058350e-01
4.983214139938354492e-01
4.981576502323150635e-01
4.977163076400756836e-01
4.974160790443420410e-01
4.970951974391937256e-01
4.967623949050903320e-01
4.962787032127380371e-01
4.959592819213867188e-01
4.958918988704681396e-01
4.955540299415588379e-01
4.951170384883880615e-01
4.940761923789978027e-01
4.939293861389160156e-01
4.938505887985229492e-01
4.935842752456665039e-01
4.922726452350616455e-01
4.916838705539703369e-01
4.915288388729095459e-01
4.911874830722808838e-01
4.907999336719512939e-01
4.906473755836486816e-01
4.900373220443725586e-01
4.894095957279205322e-01
4.893260300159454346e-01
4.892422258853912354e-01
4.887995719909667969e-01
4.884191751480102539e-01
4.882953763008117676e-01
4.879083037376403809e-01
4.877231121063232422e-01
4.877111017704010010e-01
4.876525700092315674e-01
4.872204661369323730e-01
4.866782128810882568e-01
4.864513278007507324e-01
4.863054156303405762e-01
4.858953654766082764e-01
4.850574433803558350e-01
4.847820997238159180e-01
4.847697019577026367e-01
4.836365878582000732e-01
4.824771285057067871e-01
4.819054901599884033e-01
4.819022119045257568e-01
4.814137518405914307e-01
4.809782803058624268e-01
4.802435934543609619e-01
4.799530506134033203e-01
4.796569943428039551e-01
4.789102077484130859e-01
4.773679077625274658e-01
4.767742753028869629e-01
4.765982925891876221e-01
4.745571911334991455e-01
4.745536446571350098e-01
4.744617044925689697e-01
4.744153022766113281e-01
4.736701548099517822e-01
4.734216332435607910e-01
4.729962348937988281e-01
4.728044271469116211e-01
4.721293747425079346e-01
4.721163809299468994e-01
4.716686010360717773e-01
4.712479114532470703e-01
4.711454808712005615e-01
4.705201685428619385e-01
4.704504013061523438e-01
4.685440957546234131e-01
4.683335721492767334e-01
4.676200151443481445e-01
4.675950706005096436e-01
4.670862555503845215e-01
4.668244719505310059e-01
4.658680558204650879e-01
4.650893509387969971e-01
4.649285078048706055e-01
4.641259610652923584e-01
4.636163115501403809e-01
4.617189168930053711e-01
4.613836705684661865e-01
4.610322415828704834e-01
4.605676531791687012e-01
4.601575434207916260e-01
4.600970447063446045e-01
4.599280655384063721e-01
4.598645269870758057e-01
4.598141610622406006e-01
4.585409760475158691e-01
4.583429992198944092e-01
4.579308629035949707e-01
4.574197232723236084e-01
4.562134146690368652e-01
4.561333358287811279e-01
4.557296633720397949e-01
4.549729526042938232e-01
4.548681378364562988e-01
4.545206129550933838e-01
4.544203877449035645e-01
4.528360068798065186e-01
4.521126747131347656e-01
4.510701596736907959e-01
4.510157108306884766e-01
4.505798220634460449e-01
4.505577385425567627e-01
4.493372440338134766e-01
4.493226110935211182e-01
4.492880702018737793e-01
4.489491581916809082e-01
4.487485885620117188e-01
4.472970664501190186e-01
4.469479024410247803e-01
4.462105333805084229e-01
4.459629654884338379e-01
4.458556771278381348e-01
4.453132450580596924e-01
4.451359510421752930e-01
4.448437690734863281e-01
4.447947740554809570e-01
4.443096518516540527e-01
4.443064630031585693e-01
4.424940049648284912e-01
4.424747824668884277e-01
4.424263238906860352e-01
4.423238039016723633e-01
4.412622749805450439e-01
4.411971569061279297e-01
4.411480724811553955e-01
4.409837126731872559e-01
4.406335055828094482e-01
4.397099912166595459e-01
4.394508004188537598e-01
4.392245113849639893e-01
4.385374486446380615e-01
4.383021593093872070e-01
4.382386803627014160e-01
4.382271170616149902e-01
4.368600249290466309e-01
4.368031322956085205e-01
4.367221593856811523e-01
4.363182485103607178e-01
4.359195232391357422e-01
4.356780648231506348e-01
4.355922341346740723e-01
4.354255497455596924e-01
4.354130327701568604e-01
4.348695576190948486e-01
4.346266686916351318e-01
4.343999326229095459e-01
4.339579343795776367e-01
4.331310391426086426e-01
4.330570101737976074e-01
4.327764511108398438e-01
4.323629140853881836e-01
4.319797754287719727e-01
4.317292869091033936e-01
4.316807687282562256e-01
4.316616952419281006e-01
4.315626025199890137e-01
4.312008917331695557e-01
4.302768707275390625e-01
4.289715886116027832e-01
4.283256232738494873e-01
4.275179803371429443e-01
4.273880422115325928e-01
4.272817671298980713e-01
4.264941513538360596e-01
4.261841177940368652e-01
4.260450899600982666e-01
4.260317385196685791e-01
4.251737594604492188e-01
4.245567917823791504e-01
4.244893193244934082e-01
4.244228303432464600e-01
4.242379665374755859e-01
4.237790107727050781e-01
4.230586886405944824e-01
4.226822257041931152e-01
4.223301410675048828e-01
4.223268628120422363e-01
4.221312999725341797e-01
4.219896495342254639e-01
4.217646718025207520e-01
4.208711385726928711e-01
4.201458096504211426e-01
4.198012053966522217e-01
4.197795689105987549e-01
4.191305935382843018e-01
4.177828431129455566e-01
4.174606502056121826e-01
4.161341488361358643e-01
4.148110151290893555e-01
4.144619107246398926e-01
4.144113361835479736e-01
4.142476022243499756e-01
4.139187633991241455e-01
4.138542115688323975e-01
4.138046503067016602e-01
4.127584099769592285e-01
4.106821119785308838e-01
4.102468490600585938e-01
4.102298617362976074e-01
4.099993705749511719e-01
4.096584320068359375e-01
4.091469049453735352e-01
4.080472886562347412e-01
4.078801274299621582e-01
4.059744775295257568e-01
4.051602184772491455e-01
4.028269052505493164e-01
4.024899005889892578e-01
4.017587304115295410e-01
4.016139507293701172e-01
4.004917740821838379e-01
4.002879261970520020e-01
4.002816081047058105e-01
3.993236720561981201e-01
3.986035287380218506e-01
3.982748389244079590e-01
3.960625529289245605e-01
3.957669734954833984e-01
3.955621421337127686e-01
3.950931727886199951e-01
3.929702937602996826e-01
3.928325176239013672e-01
3.925508260726928711e-01
3.923591971397399902e-01
3.919765651226043701e-01
3.917341828346252441e-01
3.892446160316467285e-01
3.883265554904937744e-01
3.882483243942260742e-01
3.880206346511840820e-01
3.879757523536682129e-01
3.878228962421417236e-01
3.855978250503540039e-01
3.854929804801940918e-01
3.849847316741943359e-01
3.841385245323181152e-01
3.841183781623840332e-01
3.839248418807983398e-01
3.836414217948913574e-01
3.830559551715850830e-01
3.830007016658782959e-01
3.829182088375091553e-01
3.823213279247283936e-01
3.819866776466369629e-01
3.818415999412536621e-01
3.817704916000366211e-01
3.804020881652832031e-01
3.801804482936859131e-01
3.796757161617279053e-01
3.792275488376617432e-01
3.788327276706695557e-01
3.787735104560852051e-01
3.781391978263854980e-01
3.777339458465576172e-01
3.777125775814056396e-01
3.776817321777343750e-01
3.766421377658843994e-01
3.766224086284637451e-01
3.764185607433319092e-01
3.762919306755065918e-01
3.757243156433105469e-01
3.755582571029663086e-01
3.755454421043395996e-01
3.754307627677917480e-01
3.746188282966613770e-01
3.745954632759094238e-01
3.745319545269012451e-01
3.744713068008422852e-01
3.737455606460571289e-01
3.721657991409301758e-01
3.711556792259216309e-01
3.707996010780334473e-01
3.702840209007263184e-01
3.696601986885070801e-01
3.693950772285461426e-01
3.692963719367980957e-01
3.680734038352966309e-01
3.677982091903686523e-01
3.668940961360931396e-01
3.663647770881652832e-01
3.662434220314025879e-01
3.657859563827514648e-01
3.654518127441406250e-01
3.649847805500030518e-01
3.647143542766571045e-01
3.644767999649047852e-01
3.644573688507080078e-01
3.641898632049560547e-01
3.638287782669067383e-01
3.628878593444824219e-01
3.626927733421325684e-01
3.623455762863159180e-01
3.622704148292541504e-01
3.619698286056518555e-01
3.619301915168762207e-01
3.618471622467041016e-01
3.600874543190002441e-01
3.600463867187500000e-01
3.599087595939636230e-01
3.598537445068359375e-01
3.577371835708618164e-01
3.570335507392883301e-01
3.558585047721862793e-01
3.557041883468627930e-01
3.554185032844543457e-01
3.551952540874481201e-01
3.539512455463409424e-01
3.539136052131652832e-01
3.525764346122741699e-01
3.513346314430236816e-01
3.509665727615356445e-01
3.504344820976257324e-01
3.497985005378723145e-01
3.497966527938842773e-01
3.494439721107482910e-01
3.487691581249237061e-01
3.485663533210754395e-01
3.482089042663574219e-01
3.479854464530944824e-01
3.478360474109649658e-01
3.472834825515747070e-01
3.472293615341186523e-01
3.467835783958435059e-01
3.465239703655242920e-01
3.460091352462768555e-01
3.458131253719329834e-01
3.437106907367706299e-01
3.436251282691955566e-01
3.433620333671569824e-01
3.430075049400329590e-01
3.429475426673889160e-01
3.424741029739379883e-01
3.420600891113281250e-01
3.419088721275329590e-01
3.416084647178649902e-01
3.405586183071136475e-01
3.405472934246063232e-01
3.402540087699890137e-01
3.401334285736083984e-01
3.399871587753295898e-01
3.399310410022735596e-01
3.399084210395812988e-01
3.389101624488830566e-01
3.388751745223999023e-01
3.365668058395385742e-01
3.362847566604614258e-01
3.349472880363464355e-01
3.347080349922180176e-01
3.344396948814392090e-01
3.339509665966033936e-01
3.339307308197021484e-01
3.338738083839416504e-01
3.332883119583129883e-01
3.331299424171447754e-01
3.331241905689239502e-01
3.329509198665618896e-01
3.323439359664916992e-01
3.319790363311767578e-01
3.317331075668334961e-01
3.310659229755401611e-01
3.307021260261535645e-01
3.302004933357238770e-01
3.295677304267883301e-01
3.294600546360015869e-01
3.291379809379577637e-01
3.289770483970642090e-01
3.289116024971008301e-01
3.287736177444458008e-01
3.258506655693054199e-01
3.253039717674255371e-01
3.248485922813415527e-01
3.246789276599884033e-01
3.242458403110504150e-01
3.241512179374694824e-01
3.238418996334075928e-01
3.235853314399719238e-01
3.230009675025939941e-01
3.229137361049652100e-01
3.228455781936645508e-01
3.228302597999572754e-01
3.213925957679748535e-01
3.206033706665039062e-01
3.205702006816864014e-01
3.202737271785736084e-01
3.193303346633911133e-01
3.193263411521911621e-01
3.183079957962036133e-01
3.181861042976379395e-01
3.171104192733764648e-01
3.155305683612823486e-01
3.152600526809692383e-01
3.151961565017700195e-01
3.140741884708404541e-01
3.135987520217895508e-01
3.126999735832214355e-01
3.124110996723175049e-01
3.109925389289855957e-01
3.107607960700988770e-01
3.096781373023986816e-01
3.095288872718811035e-01
3.083932399749755859e-01
3.077818155288696289e-01
3.064678311347961426e-01
3.062179386615753174e-01
3.059528470039367676e-01
3.059051632881164551e-01
3.049794435501098633e-01
3.049196600914001465e-01
3.040294647216796875e-01
3.039835691452026367e-01
3.030437529087066650e-01
3.029217123985290527e-01
3.028417825698852539e-01
3.027626872062683105e-01
3.018376827239990234e-01
3.017767071723937988e-01
3.013244271278381348e-01
3.012613058090209961e-01
3.007236421108245850e-01
3.006797432899475098e-01
3.003810644149780273e-01
3.003333806991577148e-01
3.000290989875793457e-01
2.999725341796875000e-01
2.992787957191467285e-01
2.988542914390563965e-01
2.982344627380371094e-01
2.980670332908630371e-01
2.956830263137817383e-01
2.953746914863586426e-01
2.953670918941497803e-01
2.953155338764190674e-01
2.949676513671875000e-01
2.949671149253845215e-01
2.945468425750732422e-01
2.942053675651550293e-01
2.933278679847717285e-01
2.931119799613952637e-01
2.930684089660644531e-01
2.927460968494415283e-01
2.924251556396484375e-01
2.910491824150085449e-01
2.898654341697692871e-01
2.895842492580413818e-01
2.895191013813018799e-01
2.893333137035369873e-01
2.888985872268676758e-01
2.887297570705413818e-01
2.873834073543548584e-01
2.873620986938476562e-01
2.868362069129943848e-01
2.867803573608398438e-01
2.865172028541564941e-01
2.864916026592254639e-01
2.856243848800659180e-01
2.855734527111053467e-01
2.841851115226745605e-01
2.841525077819824219e-01
2.814275622367858887e-01
2.813040614128112793e-01
2.808336317539215088e-01
2.806367576122283936e-01
2.789262533187866211e-01
2.787786722183227539e-01
2.785592377185821533e-01
2.783650159835815430e-01
2.779877483844757080e-01
2.777296304702758789e-01
2.776749730110168457e-01
2.768276333808898926e-01
2.756894528865814209e-01
2.756449878215789795e-01
2.754059433937072754e-01
2.742817997932434082e-01
2.738605141639709473e-01
2.738594412803649902e-01
2.724865674972534180e-01
2.722073495388031006e-01
2.717895507812500000e-01
2.717790603637695312e-01
2.712630927562713623e-01
2.712345719337463379e-01
2.711221575736999512e-01
2.709462642669677734e-01
2.694416940212249756e-01
2.694380283355712891e-01
2.688527703285217285e-01
2.688001990318298340e-01
2.681143283843994141e-01
2.678168416023254395e-01
2.671294808387756348e-01
2.667871415615081787e-01
2.665545940399169922e-01
2.665333747863769531e-01
2.663949131965637207e-01
2.663227915763854980e-01
2.653120756149291992e-01
2.650999426841735840e-01
2.644782662391662598e-01
2.640905380249023438e-01
2.636924684047698975e-01
2.634323835372924805e-01
2.618648409843444824e-01
2.618450820446014404e-01
2.618376016616821289e-01
2.617738842964172363e-01
2.617623209953308105e-01
2.615227699279785156e-01
2.610862255096435547e-01
2.608426213264465332e-01
2.606672644615173340e-01
2.606498003005981445e-01
2.606160640716552734e-01
2.604340910911560059e-01
2.599949836730957031e-01
2.594915032386779785e-01
2.585563957691192627e-01
2.583334445953369141e-01
2.577541470527648926e-01
2.576594948768615723e-01
2.572631239891052246e-01
2.570238113403320312e-01
2.565014362335205078e-01
2.561770081520080566e-01
2.554801106452941895e-01
2.554752230644226074e-01
2.548379302024841309e-01
2.548137009143829346e-01
2.546181082725524902e-01
2.544772624969482422e-01
2.533012926578521729e-01
2.528676986694335938e-01
2.526319026947021484e-01
2.525897026062011719e-01
2.510518431663513184e-01
2.509199976921081543e-01
2.508251965045928955e-01
2.508026361465454102e-01
2.500813603401184082e-01
2.497557699680328369e-01
2.496457695960998535e-01
2.495152354240417480e-01
2.491877675056457520e-01
2.490843236446380615e-01
2.490167617797851562e-01
2.489368319511413574e-01
2.483703792095184326e-01
2.483612298965454102e-01
2.482258975505828857e-01
2.481144666671752930e-01
2.480579316616058350e-01
2.476682066917419434e-01
2.467864751815795898e-01
2.461982369422912598e-01
2.458076179027557373e-01
2.457452118396759033e-01
2.453095614910125732e-01
2.453093528747558594e-01
2.452725470066070557e-01
2.452385127544403076e-01
2.445561289787292480e-01
2.445393204689025879e-01
2.421332597732543945e-01
2.419294714927673340e-01
2.415688633918762207e-01
2.414874136447906494e-01
2.399671971797943115e-01
2.399351000785827637e-01
2.393946349620819092e-01
2.390980720520019531e-01
2.389214932918548584e-01
2.388560175895690918e-01
2.384290993213653564e-01
2.384286522865295410e-01
2.383603453636169434e-01
2.379731237888336182e-01
2.377845346927642822e-01
2.377108037471771240e-01
2.349814474582672119e-01
2.349442243576049805e-01
2.347710430622100830e-01
2.346414327621459961e-01
2.325570285320281982e-01
2.319835126399993896e-01
2.317492067813873291e-01
2.317118644714355469e-01
2.305539846420288086e-01
2.304693460464477539e-01
2.302164435386657715e-01
2.301442027091979980e-01
2.294530272483825684e-01
2.287278771400451660e-01
2.276798486709594727e-01
2.273884415626525879e-01
2.258633673191070557e-01
2.256947159767150879e-01
2.255576848983764648e-01
2.255241870880126953e-01
2.252823114395141602e-01
2.252304852008819580e-01
2.250014841556549072e-01
2.249748110771179199e-01
2.249605357646942139e-01
2.249323427677154541e-01
2.244768142700195312e-01
2.242461144924163818e-01
2.241961658000946045e-01
2.241103947162628174e-01
2.240835428237915039e-01
2.239499986171722412e-01
2.237034440040588379e-01
2.236282229423522949e-01
2.231000661849975586e-01
2.230351269245147705e-01
2.216425240039825439e-01
2.214410603046417236e-01
2.211633324623107910e-01
2.210624217987060547e-01
2.210463285446166992e-01
2.209958136081695557e-01
2.203092277050018311e-01
2.202304899692535400e-01
2.198634445667266846e-01
2.198514640331268311e-01
2.196690738201141357e-01
2.196148335933685303e-01
2.184866666793823242e-01
2.184789180755615234e-01
2.176321446895599365e-01
2.175056636333465576e-01
2.171773612499237061e-01
2.171643376350402832e-01
2.168574333190917969e-01
2.167274653911590576e-01
2.152366936206817627e-01
2.151835858821868896e-01
2.130200862884521484e-01
2.129531502723693848e-01
2.127946019172668457e-01
2.126057744026184082e-01
2.125588059425354004e-01
2.124421596527099609e-01
2.114675939083099365e-01
2.111438512802124023e-01
2.110285758972167969e-01
2.110240161418914795e-01
2.107426822185516357e-01
2.105555534362792969e-01
2.101561427116394043e-01
2.101065516471862793e-01
2.092657983303070068e-01
2.088398933410644531e-01
2.080616652965545654e-01
2.079386115074157715e-01
2.071126699447631836e-01
2.070560455322265625e-01
2.050510048866271973e-01
2.048538029193878174e-01
2.041834294795989990e-01
2.041496932506561279e-01
2.031721174716949463e-01
2.031518220901489258e-01
2.031482160091400146e-01
2.030991911888122559e-01
1.980705261230468750e-01
1.978879570960998535e-01
1.976429522037506104e-01
1.969589591026306152e-01
1.959052979946136475e-01
1.957509815692901611e-01
1.956215500831604004e-01
1.956052482128143311e-01
1.947685182094573975e-01
1.946648657321929932e-01
1.939858496189117432e-01
1.939853131771087646e-01
1.939405202865600586e-01
1.939111649990081787e-01
1.937349736690521240e-01
1.936192214488983154e-01
1.931598186492919922e-01
1.931237578392028809e-01
1.924639940261840820e-01
1.922324895858764648e-01
1.920443475246429443e-01
1.919812262058258057e-01
1.919057965278625488e-01
1.919045746326446533e-01
1.917863190174102783e-01
1.916380524635314941e-01
1.909950971603393555e-01
1.909943222999572754e-01
1.907881200313568115e-01
1.906327009201049805e-01
1.896234154701232910e-01
1.895383298397064209e-01
1.890409886837005615e-01
1.887979209423065186e-01
1.879160404205322266e-01
1.878438591957092285e-01
1.871583461761474609e-01
1.868495643138885498e-01
1.867684721946716309e-01
1.867216229438781738e-01
1.866479218006134033e-01
1.862599849700927734e-01
1.857647299766540527e-01
1.855393946170806885e-01
1.852646768093109131e-01
1.852031052112579346e-01
1.850995719432830811e-01
1.850812733173370361e-01
1.849921345710754395e-01
1.844718158245086670e-01
1.831558942794799805e-01
1.831347048282623291e-01
1.823314130306243896e-01
1.823110282421112061e-01
1.805798709392547607e-01
1.805666983127593994e-01
1.788541972637176514e-01
1.788354516029357910e-01
1.782410144805908203e-01
1.780540347099304199e-01
1.773354709148406982e-01
1.773108541965484619e-01
1.765055060386657715e-01
1.764531135559082031e-01
1.756329238414764404e-01
1.754855513572692871e-01
1.749808788299560547e-01
1.745927333831787109e-01
1.744300127029418945e-01
1.743429303169250488e-01
1.738598942756652832e-01
1.738273799419403076e-01
1.732449233531951904e-01
1.732415258884429932e-01
1.731556057929992676e-01
1.729339957237243652e-01
1.723453700542449951e-01
1.722681224346160889e-01
1.720372438430786133e-01
1.719122529029846191e-01
1.715944409370422363e-01
1.715108752250671387e-01
1.679993867874145508e-01
1.678799092769622803e-01
1.676495671272277832e-01
1.673277914524078369e-01
1.669939756393432617e-01
1.669602096080780029e-01
1.663455963134765625e-01
1.663233339786529541e-01
1.656770408153533936e-01
1.656280457973480225e-01
1.653527617454528809e-01
1.652738153934478760e-01
1.650454103946685791e-01
1.649893820285797119e-01
1.648809015750885010e-01
1.648618280887603760e-01
1.647119224071502686e-01
1.646555364131927490e-01
1.634166240692138672e-01
1.634138226509094238e-01
1.633314788341522217e-01
1.632067561149597168e-01
1.624095141887664795e-01
1.623276770114898682e-01
1.616871654987335205e-01
1.614708304405212402e-01
1.606394052505493164e-01
1.606129407882690430e-01
1.604434549808502197e-01
1.602209806442260742e-01
1.602162718772888184e-01
1.600653827190399170e-01
1.598035693168640137e-01
1.595427691936492920e-01
1.584291160106658936e-01
1.581899225711822510e-01
1.568270325660705566e-01
1.568094491958618164e-01
1.563338637351989746e-01
1.562784612178802490e-01
1.559865176677703857e-01
1.559765338897705078e-01
1.558256447315216064e-01
1.557643413543701172e-01
1.557238698005676270e-01
1.556964218616485596e-01
1.556563079357147217e-01
1.554074287414550781e-01
1.542589366436004639e-01
1.541856527328491211e-01
1.529715061187744141e-01
1.526938676834106445e-01
1.526706814765930176e-01
1.526030600070953369e-01
1.525377333164215088e-01
1.525184214115142822e-01
1.524648070335388184e-01
1.524446606636047363e-01
1.522327363491058350e-01
1.522184610366821289e-01
1.519451737403869629e-01
1.518070101737976074e-01
1.515353620052337646e-01
1.515061557292938232e-01
1.513994932174682617e-01
1.513146162033081055e-01
1.505062878131866455e-01
1.504989862442016602e-01
1.499926447868347168e-01
1.499185562133789062e-01
1.497077941894531250e-01
1.497071683406829834e-01
1.495451927185058594e-01
1.495360136032104492e-01
1.491566002368927002e-01
1.491498649120330811e-01
1.490001976490020752e-01
1.489512324333190918e-01
1.480484902858734131e-01
1.477842628955841064e-01
1.475432515144348145e-01
1.474621891975402832e-01
1.472361981868743896e-01
1.469098329544067383e-01
1.468042731285095215e-01
1.467965543270111084e-01
1.466381251811981201e-01
1.464376151561737061e-01
1.463294923305511475e-01
1.462873816490173340e-01
1.460981965065002441e-01
1.460787951946258545e-01
1.458268761634826660e-01
1.455664336681365967e-01
1.446891427040100098e-01
1.446787118911743164e-01
1.446628868579864502e-01
1.446104049682617188e-01
1.444194018840789795e-01
1.441815495491027832e-01
1.440394520759582520e-01
1.437296569347381592e-01
1.429992318153381348e-01
1.429812014102935791e-01
1.424197554588317871e-01
1.423392891883850098e-01
1.422701179981231689e-01
1.420302093029022217e-01
1.413196027278900146e-01
1.412893533706665039e-01
1.406980156898498535e-01
1.404836475849151611e-01
1.399270594120025635e-01
1.399242877960205078e-01
1.398372352123260498e-01
1.398322582244873047e-01
1.390851438045501709e-01
1.387305855751037598e-01
1.385306119918823242e-01
1.383740603923797607e-01
1.375967860221862793e-01
1.375750005245208740e-01
1.370546817779541016e-01
1.370013058185577393e-01
1.368293762207031250e-01
1.367914378643035889e-01
1.363547444343566895e-01
1.362415552139282227e-01
1.360536515712738037e-01
1.360368728637695312e-01
1.350596845149993896e-01
1.350374221801757812e-01
1.347707211971282959e-01
1.346512734889984131e-01
1.332627832889556885e-01
1.332590579986572266e-01
1.329868137836456299e-01
1.328747868537902832e-01
1.324929594993591309e-01
1.324801146984100342e-01
1.324537992477416992e-01
1.323895156383514404e-01
1.304135024547576904e-01
1.303789019584655762e-01
1.288941204547882080e-01
1.288911700248718262e-01
1.286081075668334961e-01
1.285588741302490234e-01
1.275386810302734375e-01
1.272234022617340088e-01
1.269879639148712158e-01
1.269654333591461182e-01
1.262807548046112061e-01
1.261851191520690918e-01
1.259498298168182373e-01
1.259284913539886475e-01
1.257550120353698730e-01
1.255571842193603516e-01
1.255222260951995850e-01
1.254689991474151611e-01
1.251990199089050293e-01
1.251593530178070068e-01
1.241181492805480957e-01
1.241050660610198975e-01
1.235629320144653320e-01
1.234144270420074463e-01
1.231589317321777344e-01
1.230510175228118896e-01
1.224778592586517334e-01
1.224020123481750488e-01
1.220256388187408447e-01
1.220229268074035645e-01
1.213396191596984863e-01
1.213124394416809082e-01
1.208355128765106201e-01
1.208266913890838623e-01
1.193041205406188965e-01
1.192521154880523682e-01
1.189954280853271484e-01
1.189842820167541504e-01
1.185623109340667725e-01
1.185529828071594238e-01
1.182644963264465332e-01
1.181569397449493408e-01
1.176752150058746338e-01
1.175387501716613770e-01
1.168317496776580811e-01
1.167906820774078369e-01
1.166335940361022949e-01
1.165221035480499268e-01
1.162540912628173828e-01
1.162345707416534424e-01
1.148019134998321533e-01
1.148010790348052979e-01
1.130982339382171631e-01
1.129074692726135254e-01
1.120060086250305176e-01
1.119702160358428955e-01
1.116682589054107666e-01
1.115815639495849609e-01
1.112642288208007812e-01
1.111597120761871338e-01
1.109026074409484863e-01
1.108175218105316162e-01
1.099135279655456543e-01
1.099043488502502441e-01
1.084663569927215576e-01
1.084612607955932617e-01
1.084163486957550049e-01
1.081718206405639648e-01
1.075261831283569336e-01
1.074546575546264648e-01
1.073230206966400146e-01
1.071575880050659180e-01
1.062042117118835449e-01
1.062004566192626953e-01
1.050814688205718994e-01
1.050176024436950684e-01
1.047898530960083008e-01
1.045987308025360107e-01
1.045363247394561768e-01
1.045277118682861328e-01
1.041976511478424072e-01
1.040902435779571533e-01
1.040313839912414551e-01
1.039039790630340576e-01
1.035153269767761230e-01
1.035026013851165771e-01
1.032414734363555908e-01
1.032229065895080566e-01
1.031542718410491943e-01
1.031126081943511963e-01
1.028550267219543457e-01
1.028283834457397461e-01
1.020852625370025635e-01
1.020188927650451660e-01
1.018562316894531250e-01
1.017976105213165283e-01
1.008828878402709961e-01
1.008739471435546875e-01
1.006494164466857910e-01
1.006161570549011230e-01
1.005822122097015381e-01
1.005234420299530029e-01
1.000600159168243408e-01
1.000121533870697021e-01
9.987404942512512207e-02
9.982258081436157227e-02
9.969943761825561523e-02
9.967607259750366211e-02
9.950733184814453125e-02
9.944057464599609375e-02
9.906518459320068359e-02
9.904307126998901367e-02
9.886413812637329102e-02
9.880185127258300781e-02
9.860140085220336914e-02
9.847745299339294434e-02
9.782257676124572754e-02
9.772509336471557617e-02
9.718918800354003906e-02
9.717357158660888672e-02
9.693899750709533691e-02
9.686329960823059082e-02
9.685987234115600586e-02
9.682607650756835938e-02
9.584012627601623535e-02
9.582477807998657227e-02
9.579932689666748047e-02
9.564360976219177246e-02
9.521892666816711426e-02
9.517189860343933105e-02
9.512531757354736328e-02
9.508785605430603027e-02
9.489604830741882324e-02
9.481984376907348633e-02
9.407353401184082031e-02
9.405103325843811035e-02
9.358659386634826660e-02
9.357479214668273926e-02
9.348598122596740723e-02
9.335798025131225586e-02
9.264904260635375977e-02
9.255963563919067383e-02
9.144750237464904785e-02
9.143593907356262207e-02
9.100598096847534180e-02
9.100243449211120605e-02
9.077993035316467285e-02
9.069779515266418457e-02
9.022122621536254883e-02
9.020027518272399902e-02
8.988779783248901367e-02
8.983901143074035645e-02
8.886328339576721191e-02
8.884689211845397949e-02
8.881726861000061035e-02
8.881232142448425293e-02
8.874386548995971680e-02
8.866879343986511230e-02
8.866485953330993652e-02
8.866113424301147461e-02
8.766913414001464844e-02
8.765405416488647461e-02
8.762890100479125977e-02
8.760252594947814941e-02
8.662405610084533691e-02
8.662286400794982910e-02
8.661863207817077637e-02
8.655890822410583496e-02
8.648931980133056641e-02
8.647230267524719238e-02
8.608093857765197754e-02
8.604764938354492188e-02
8.600628376007080078e-02
8.597719669342041016e-02
8.584666252136230469e-02
8.578106760978698730e-02
8.527716994285583496e-02
8.525791764259338379e-02
8.516299724578857422e-02
8.507791161537170410e-02
8.472925424575805664e-02
8.467003703117370605e-02
8.433300256729125977e-02
8.420595526695251465e-02
8.340147137641906738e-02
8.339604735374450684e-02
8.333930373191833496e-02
8.330461382865905762e-02
8.324024081230163574e-02
8.323389291763305664e-02
8.311709761619567871e-02
8.308291435241699219e-02
8.244079351425170898e-02
8.239349722862243652e-02
8.238470554351806641e-02
8.238038420677185059e-02
8.237764239311218262e-02
8.229383826255798340e-02
8.209556341171264648e-02
8.206382393836975098e-02
8.195054531097412109e-02
8.187115192413330078e-02
8.159202337265014648e-02
8.158206939697265625e-02
8.141005039215087891e-02
8.137384057044982910e-02
8.091071248054504395e-02
8.079999685287475586e-02
8.028450608253479004e-02
8.015954494476318359e-02
8.000037074089050293e-02
7.994738221168518066e-02
7.976108789443969727e-02
7.970044016838073730e-02
7.929641008377075195e-02
7.925680279731750488e-02
7.909616827964782715e-02
7.905897498130798340e-02
7.893997430801391602e-02
7.889544963836669922e-02
7.886359095573425293e-02
7.881549000740051270e-02
7.871043682098388672e-02
7.869580388069152832e-02
7.648205757141113281e-02
7.647523283958435059e-02
7.608231902122497559e-02
7.605662941932678223e-02
7.551655173301696777e-02
7.549124956130981445e-02
7.548958063125610352e-02
7.529011368751525879e-02
7.485920190811157227e-02
7.485312223434448242e-02
7.414802908897399902e-02
7.410123944282531738e-02
7.370775938034057617e-02
7.370188832283020020e-02
7.353764772415161133e-02
7.350474596023559570e-02
7.328680157661437988e-02
7.325035333633422852e-02
7.297956943511962891e-02
7.293015718460083008e-02
7.281222939491271973e-02
7.279023528099060059e-02
7.259941101074218750e-02
7.254308462142944336e-02
7.244470715522766113e-02
7.241532206535339355e-02
7.221990823745727539e-02
7.210978865623474121e-02
7.209578156471252441e-02
7.205772399902343750e-02
7.192537188529968262e-02
7.191592454910278320e-02
7.163885235786437988e-02
7.161968946456909180e-02
7.129293680191040039e-02
7.125225663185119629e-02
7.102829217910766602e-02
7.097521424293518066e-02
7.068428397178649902e-02
7.067838311195373535e-02
6.973287463188171387e-02
6.972277164459228516e-02
6.948375701904296875e-02
6.941378116607666016e-02
6.907850503921508789e-02
6.905382871627807617e-02
6.898498535156250000e-02
6.887593865394592285e-02
6.808149814605712891e-02
6.805562973022460938e-02
6.804859638214111328e-02
6.794354319572448730e-02
6.794011592864990234e-02
6.789490580558776855e-02
6.788074970245361328e-02
6.693458557128906250e-02
6.680813431739807129e-02
6.653365492820739746e-02
6.642457842826843262e-02
6.633496284484863281e-02
6.624785065650939941e-02
6.549769639968872070e-02
6.549087166786193848e-02
6.521046161651611328e-02
6.516918540000915527e-02
6.510481238365173340e-02
6.506973505020141602e-02
6.487059593200683594e-02
6.486347317695617676e-02
6.468316912651062012e-02
6.467565894126892090e-02
6.461244821548461914e-02
6.456708908081054688e-02
6.453099846839904785e-02
6.446808576583862305e-02
6.445521116256713867e-02
6.444329023361206055e-02
6.425520777702331543e-02
6.424909830093383789e-02
6.419229507446289062e-02
6.410354375839233398e-02
6.386572122573852539e-02
6.383091211318969727e-02
6.371462345123291016e-02
6.366255879402160645e-02
6.356102228164672852e-02
6.355914473533630371e-02
6.354615092277526855e-02
6.352785229682922363e-02
6.324920058250427246e-02
6.317758560180664062e-02
6.213465332984924316e-02
6.208080053329467773e-02
6.141537427902221680e-02
6.139564514160156250e-02
6.133845448493957520e-02
6.131607294082641602e-02
6.040322780609130859e-02
6.030735373497009277e-02
6.012377142906188965e-02
6.011369824409484863e-02
6.008127331733703613e-02
6.004658341407775879e-02
5.972072482109069824e-02
5.970889329910278320e-02
5.963745713233947754e-02
5.952137708663940430e-02
5.906239151954650879e-02
5.905345082283020020e-02
5.863082408905029297e-02
5.849492549896240234e-02
5.828824639320373535e-02
5.827587842941284180e-02
5.811604857444763184e-02
5.809426307678222656e-02
5.690717697143554688e-02
5.688244104385375977e-02
5.661526322364807129e-02
5.658245086669921875e-02
5.625051259994506836e-02
5.622753500938415527e-02
5.600324273109436035e-02
5.595144629478454590e-02
5.582565069198608398e-02
5.581420660018920898e-02
5.443218350410461426e-02
5.439293384552001953e-02
5.434656143188476562e-02
5.432364344596862793e-02
5.383494496345520020e-02
5.382436513900756836e-02
5.334940552711486816e-02
5.334660410881042480e-02
5.304947495460510254e-02
5.292144417762756348e-02
5.270361900329589844e-02
5.269917845726013184e-02
5.259042978286743164e-02
5.257219076156616211e-02
5.244597792625427246e-02
5.242496728897094727e-02
5.192771553993225098e-02
5.189594626426696777e-02
5.150088667869567871e-02
5.148789286613464355e-02
5.136254429817199707e-02
5.135381221771240234e-02
5.135321617126464844e-02
5.135256052017211914e-02
5.118954181671142578e-02
5.118149518966674805e-02
5.076327919960021973e-02
5.074590444564819336e-02
4.996523261070251465e-02
4.995933175086975098e-02
4.982933402061462402e-02
4.973965883255004883e-02
4.964762926101684570e-02
4.961866140365600586e-02
4.882317781448364258e-02
4.879632592201232910e-02
4.860076308250427246e-02
4.858326911926269531e-02
4.854536056518554688e-02
4.847773909568786621e-02
4.840433597564697266e-02
4.831781983375549316e-02
4.831308126449584961e-02
4.831090569496154785e-02
4.817301034927368164e-02
4.812207818031311035e-02
4.793435335159301758e-02
4.792112112045288086e-02
4.787847399711608887e-02
4.787674546241760254e-02
4.758650064468383789e-02
4.757714271545410156e-02
4.730975627899169922e-02
4.730674624443054199e-02
4.684710502624511719e-02
4.684635996818542480e-02
4.659083485603332520e-02
4.655784368515014648e-02
4.614317417144775391e-02
4.608288407325744629e-02
4.582342505455017090e-02
4.581701755523681641e-02
4.566320776939392090e-02
4.565739631652832031e-02
4.535990953445434570e-02
4.529169201850891113e-02
4.521331191062927246e-02
4.519322514533996582e-02
4.464986920356750488e-02
4.461309313774108887e-02
4.432663321495056152e-02
4.431739449501037598e-02
4.404795169830322266e-02
4.404148459434509277e-02
4.360181093215942383e-02
4.356181621551513672e-02
4.307261109352111816e-02
4.306134581565856934e-02
4.292479157447814941e-02
4.288193583488464355e-02
4.273301362991333008e-02
4.268926382064819336e-02
4.267913103103637695e-02
4.265978932380676270e-02
4.251629114151000977e-02
4.251182079315185547e-02
4.186183214187622070e-02
4.185473918914794922e-02
4.174888134002685547e-02
4.173868894577026367e-02
4.146841168403625488e-02
4.141324758529663086e-02
4.124557971954345703e-02
4.123201966285705566e-02
4.114335775375366211e-02
4.109701514244079590e-02
4.101058840751647949e-02
4.098460078239440918e-02
4.071167111396789551e-02
4.062956571578979492e-02
4.060775041580200195e-02
4.060041904449462891e-02
4.047960042953491211e-02
4.046911001205444336e-02
4.028022289276123047e-02
4.027888178825378418e-02
4.026418924331665039e-02
4.021328687667846680e-02
3.976300358772277832e-02
3.974044322967529297e-02
3.960153460502624512e-02
3.958991169929504395e-02
3.945162892341613770e-02
3.943765163421630859e-02
3.931272029876708984e-02
3.931123018264770508e-02
3.924304246902465820e-02
3.922465443611145020e-02
3.873875737190246582e-02
3.871968388557434082e-02
3.870370984077453613e-02
3.869765996932983398e-02
3.829368948936462402e-02
3.825867176055908203e-02
3.820410370826721191e-02
3.818604350090026855e-02
3.785765171051025391e-02
3.785470128059387207e-02
3.785282373428344727e-02
3.782665729522705078e-02
3.750321269035339355e-02
3.749904036521911621e-02
3.731346130371093750e-02
3.723332285881042480e-02
3.701901435852050781e-02
3.700184822082519531e-02
3.669551014900207520e-02
3.667092323303222656e-02
3.664621710777282715e-02
3.658860921859741211e-02
3.644794225692749023e-02
3.644749522209167480e-02
3.626218438148498535e-02
3.625443577766418457e-02
3.584277629852294922e-02
3.581309318542480469e-02
3.573295474052429199e-02
3.572380542755126953e-02
3.549191355705261230e-02
3.548115491867065430e-02
3.543478250503540039e-02
3.542301058769226074e-02
3.516629338264465332e-02
3.515937924385070801e-02
3.502607345581054688e-02
3.502035140991210938e-02
3.486043214797973633e-02
3.482863306999206543e-02
3.457337617874145508e-02
3.457173705101013184e-02
3.442421555519104004e-02
3.441542387008666992e-02
3.428465127944946289e-02
3.425660729408264160e-02
3.425499796867370605e-02
3.423458337783813477e-02
3.406569361686706543e-02
3.405004739761352539e-02
3.387472033500671387e-02
3.385987877845764160e-02
3.306016325950622559e-02
3.305876255035400391e-02
3.293153643608093262e-02
3.292828798294067383e-02
3.249561786651611328e-02
3.248804807662963867e-02
3.226688504219055176e-02
3.226485848426818848e-02
3.221300244331359863e-02
3.215709328651428223e-02
3.119501471519470215e-02
3.118455410003662109e-02
3.079804778099060059e-02
3.074586391448974609e-02
3.068670630455017090e-02
3.066653013229370117e-02
3.066116571426391602e-02
3.062123060226440430e-02
3.061428666114807129e-02
3.060391545295715332e-02
3.020185232162475586e-02
3.019046783447265625e-02
3.017163276672363281e-02
3.013896942138671875e-02
2.938333153724670410e-02
2.936717867851257324e-02
2.904260158538818359e-02
2.902841567993164062e-02
2.894315123558044434e-02
2.894172072410583496e-02
2.862417697906494141e-02
2.861827611923217773e-02
2.819383144378662109e-02
2.818399667739868164e-02
2.817180752754211426e-02
2.816781401634216309e-02
2.810001373291015625e-02
2.809709310531616211e-02
2.798974514007568359e-02
2.798503637313842773e-02
2.787762880325317383e-02
2.787441015243530273e-02
2.781289815902709961e-02
2.780956029891967773e-02
2.757549285888671875e-02
2.755257487297058105e-02
2.751779556274414062e-02
2.748587727546691895e-02
2.735111117362976074e-02
2.733498811721801758e-02
2.719277143478393555e-02
2.718201279640197754e-02
2.684324979782104492e-02
2.683535218238830566e-02
2.679798007011413574e-02
2.676790952682495117e-02
2.666980028152465820e-02
2.665978670120239258e-02
2.649065852165222168e-02
2.645933628082275391e-02
2.634057402610778809e-02
2.633905410766601562e-02
2.633312344551086426e-02
2.632555365562438965e-02
2.627575397491455078e-02
2.625250816345214844e-02
2.598500251770019531e-02
2.596864104270935059e-02
2.550512552261352539e-02
2.550148963928222656e-02
2.549093961715698242e-02
2.547872066497802734e-02
2.543392777442932129e-02
2.542275190353393555e-02
2.502009272575378418e-02
2.501559257507324219e-02
2.492576837539672852e-02
2.492323517799377441e-02
2.485159039497375488e-02
2.483376860618591309e-02
2.475345134735107422e-02
2.474963665008544922e-02
2.450987696647644043e-02
2.449190616607666016e-02
2.444118261337280273e-02
2.443936467170715332e-02
2.403900027275085449e-02
2.403840422630310059e-02
2.387049794197082520e-02
2.384838461875915527e-02
2.381297945976257324e-02
2.379137277603149414e-02
2.375650405883789062e-02
2.375495433807373047e-02
2.359250187873840332e-02
2.355942130088806152e-02
2.333572506904602051e-02
2.332660555839538574e-02
2.322933077812194824e-02
2.318090200424194336e-02
2.304682135581970215e-02
2.304378151893615723e-02
2.285096049308776855e-02
2.280396223068237305e-02
2.256202697753906250e-02
2.255356311798095703e-02
2.249544858932495117e-02
2.246537804603576660e-02
2.245715260505676270e-02
2.239978313446044922e-02
2.239689230918884277e-02
2.231067419052124023e-02
2.231025695800781250e-02
2.209559082984924316e-02
2.208483219146728516e-02
2.203539013862609863e-02
2.202644944190979004e-02
2.196747064590454102e-02
2.196645736694335938e-02
2.190357446670532227e-02
2.186414599418640137e-02
2.147820591926574707e-02
2.146452665328979492e-02
2.140307426452636719e-02
2.139115333557128906e-02
2.123245596885681152e-02
2.122974395751953125e-02
2.116838097572326660e-02
2.113747596740722656e-02
2.102333307266235352e-02
2.099859714508056641e-02
2.093827724456787109e-02
2.092829346656799316e-02
2.091491222381591797e-02
2.090400457382202148e-02
2.067378163337707520e-02
2.062693238258361816e-02
2.059471607208251953e-02
2.058762311935424805e-02
2.034395933151245117e-02
2.032747864723205566e-02
2.028504014015197754e-02
2.026957273483276367e-02
2.020630240440368652e-02
2.020159363746643066e-02
2.010962367057800293e-02
2.009469270706176758e-02
2.002221345901489258e-02
2.001830935478210449e-02
1.994422078132629395e-02
1.993054151535034180e-02
1.988059282302856445e-02
1.986506581306457520e-02
1.945880055427551270e-02
1.943975687026977539e-02
1.916927099227905273e-02
1.916790008544921875e-02
1.913490891456604004e-02
1.912248134613037109e-02
1.827779412269592285e-02
1.827746629714965820e-02
1.817387342453002930e-02
1.816576719284057617e-02
1.805770397186279297e-02
1.805397868156433105e-02
1.768878102302551270e-02
1.768285036087036133e-02
1.752734184265136719e-02
1.752677559852600098e-02
1.747491955757141113e-02
1.747140288352966309e-02
1.696065068244934082e-02
1.695314049720764160e-02
1.689618825912475586e-02
1.689088344573974609e-02
1.683020591735839844e-02
1.682794094085693359e-02
1.679816842079162598e-02
1.677623391151428223e-02
1.655635237693786621e-02
1.655492186546325684e-02
1.652985811233520508e-02
1.652023196220397949e-02
1.649707555770874023e-02
1.648768782615661621e-02
1.630154252052307129e-02
1.626154780387878418e-02
1.618707180023193359e-02
1.613792777061462402e-02
1.569935679435729980e-02
1.567652821540832520e-02
1.563549041748046875e-02
1.561582088470458984e-02
1.554438471794128418e-02
1.547214388847351074e-02
1.542338728904724121e-02
1.539999246597290039e-02
1.531603932380676270e-02
1.531115174293518066e-02
1.505413651466369629e-02
1.505273580551147461e-02
1.469472050666809082e-02
1.469215750694274902e-02
1.458323001861572266e-02
1.454070210456848145e-02
1.435372233390808105e-02
1.434585452079772949e-02
1.428928971290588379e-02
1.428070664405822754e-02
1.406806707382202148e-02
1.403853297233581543e-02
1.400831341743469238e-02
1.398894190788269043e-02
1.391425728797912598e-02
1.386970281600952148e-02
1.351317763328552246e-02
1.351177692413330078e-02
1.348423957824707031e-02
1.348227262496948242e-02
1.344400644302368164e-02
1.344108581542968750e-02
1.332744956016540527e-02
1.329696178436279297e-02
1.262795925140380859e-02
1.260039210319519043e-02
1.259633898735046387e-02
1.258888840675354004e-02
1.250720024108886719e-02
1.248878240585327148e-02
1.242589950561523438e-02
1.240503787994384766e-02
1.233869791030883789e-02
1.230737566947937012e-02
1.228821277618408203e-02
1.227191090583801270e-02
1.217779517173767090e-02
1.217651367187500000e-02
1.212504506111145020e-02
1.212018728256225586e-02
1.164668798446655273e-02
1.164585351943969727e-02
1.161319017410278320e-02
1.160475611686706543e-02
1.151347160339355469e-02
1.151278614997863770e-02
1.137682795524597168e-02
1.137140393257141113e-02
1.132568717002868652e-02
1.130291819572448730e-02
1.121237874031066895e-02
1.120668649673461914e-02
1.119852066040039062e-02
1.117706298828125000e-02
1.112729310989379883e-02
1.108798384666442871e-02
1.098737120628356934e-02
1.098430156707763672e-02
1.090338826179504395e-02
1.088908314704895020e-02
1.077342033386230469e-02
1.074686646461486816e-02
1.069128513336181641e-02
1.068493723869323730e-02
1.057666540145874023e-02
1.057401299476623535e-02
1.052454113960266113e-02
1.051533222198486328e-02
1.029998064041137695e-02
1.029878854751586914e-02
1.012638211250305176e-02
1.011389493942260742e-02
1.010188460350036621e-02
1.009321212768554688e-02
9.934902191162109375e-03
9.933769702911376953e-03
9.794175624847412109e-03
9.758502244949340820e-03
9.691238403320312500e-03
9.685486555099487305e-03
9.570300579071044922e-03
9.560376405715942383e-03
9.441792964935302734e-03
9.433090686798095703e-03
9.428530931472778320e-03
9.413957595825195312e-03
9.374201297760009766e-03
9.364753961563110352e-03
9.304791688919067383e-03
9.299725294113159180e-03
9.299129247665405273e-03
9.296804666519165039e-03
9.181141853332519531e-03
9.171426296234130859e-03
9.168654680252075195e-03
9.124338626861572266e-03
8.880108594894409180e-03
8.877784013748168945e-03
8.718758821487426758e-03
8.712023496627807617e-03
8.703768253326416016e-03
8.683204650878906250e-03
8.500635623931884766e-03
8.485198020935058594e-03
8.221536874771118164e-03
8.207321166992187500e-03
8.100599050521850586e-03
8.095085620880126953e-03
8.061468601226806641e-03
8.060783147811889648e-03
7.957458496093750000e-03
7.955640554428100586e-03
7.906317710876464844e-03
7.901459932327270508e-03
7.362961769104003906e-03
7.351130247116088867e-03
7.265806198120117188e-03
7.253974676132202148e-03
7.126778364181518555e-03
7.118850946426391602e-03
7.087767124176025391e-03
7.073074579238891602e-03
6.980210542678833008e-03
6.962418556213378906e-03
6.933748722076416016e-03
6.929874420166015625e-03
6.927460432052612305e-03
6.914645433425903320e-03
6.845921277999877930e-03
6.841689348220825195e-03
6.768852472305297852e-03
6.752550601959228516e-03
6.715297698974609375e-03
6.697833538055419922e-03
6.578296422958374023e-03
6.574720144271850586e-03
6.548464298248291016e-03
6.547868251800537109e-03
6.540834903717041016e-03
6.523132324218750000e-03
6.485462188720703125e-03
6.484597921371459961e-03
5.920112133026123047e-03
5.919545888900756836e-03
5.913287401199340820e-03
5.909979343414306641e-03
5.764603614807128906e-03
5.757451057434082031e-03
5.658745765686035156e-03
5.656987428665161133e-03
5.606263875961303711e-03
5.604535341262817383e-03
5.573332309722900391e-03
5.550652742385864258e-03
5.390197038650512695e-03
5.389630794525146484e-03
5.248755216598510742e-03
5.247592926025390625e-03
5.238860845565795898e-03
5.228400230407714844e-03
5.190342664718627930e-03
5.188494920730590820e-03
5.187451839447021484e-03
5.185306072235107422e-03
5.084723234176635742e-03
5.083352327346801758e-03
5.024015903472900391e-03
5.022555589675903320e-03
5.019247531890869141e-03
5.011349916458129883e-03
4.880309104919433594e-03
4.873156547546386719e-03
4.851669073104858398e-03
4.847675561904907227e-03
4.790931940078735352e-03
4.788398742675781250e-03
4.602551460266113281e-03
4.600256681442260742e-03
4.411399364471435547e-03
4.404604434967041016e-03
4.368364810943603516e-03
4.353344440460205078e-03
4.331618547439575195e-03
4.325449466705322266e-03
4.240602254867553711e-03
4.224628210067749023e-03
4.224240779876708984e-03
4.221230745315551758e-03
4.132837057113647461e-03
4.120826721191406250e-03
3.928542137145996094e-03
3.924340009689331055e-03
3.874719142913818359e-03
3.864228725433349609e-03
3.830343484878540039e-03
3.819525241851806641e-03
3.785401582717895508e-03
3.782808780670166016e-03
3.723323345184326172e-03
3.720939159393310547e-03
3.675967454910278320e-03
3.671169281005859375e-03
3.528803586959838867e-03
3.526717424392700195e-03
3.423631191253662109e-03
3.422439098358154297e-03
3.384709358215332031e-03
3.379911184310913086e-03
3.341645002365112305e-03
3.337472677230834961e-03
3.248304128646850586e-03
3.243088722229003906e-03
3.168851137161254883e-03
3.165543079376220703e-03
3.152608871459960938e-03
3.146648406982421875e-03
3.124207258224487305e-03
3.114134073257446289e-03
3.069996833801269531e-03
3.064364194869995117e-03
3.047227859497070312e-03
3.045260906219482422e-03
2.985090017318725586e-03
2.975583076477050781e-03
2.952575683593750000e-03
2.947866916656494141e-03
2.861440181732177734e-03
2.857923507690429688e-03
2.843767404556274414e-03
2.828806638717651367e-03
2.787888050079345703e-03
2.782106399536132812e-03
2.777814865112304688e-03
2.774685621261596680e-03
2.753615379333496094e-03
2.745598554611206055e-03
2.708822488784790039e-03
2.708137035369873047e-03
2.701759338378906250e-03
2.697080373764038086e-03
2.626568078994750977e-03
2.622276544570922852e-03
2.608835697174072266e-03
2.602517604827880859e-03
2.598047256469726562e-03
2.596825361251831055e-03
2.579480409622192383e-03
2.572298049926757812e-03
2.556532621383666992e-03
2.553373575210571289e-03
2.545535564422607422e-03
2.543896436691284180e-03
2.522975206375122070e-03
2.520233392715454102e-03
2.503067255020141602e-03
2.491503953933715820e-03
2.450913190841674805e-03
2.449542284011840820e-03
2.396881580352783203e-03
2.396583557128906250e-03
2.356648445129394531e-03
2.350211143493652344e-03
2.297133207321166992e-03
2.293109893798828125e-03
2.237528562545776367e-03
2.233624458312988281e-03
2.172350883483886719e-03
2.163082361221313477e-03
2.089053392410278320e-03
2.080351114273071289e-03
2.039641141891479492e-03
2.038151025772094727e-03
2.002328634262084961e-03
1.998156309127807617e-03
1.897454261779785156e-03
1.889258623123168945e-03
1.879602670669555664e-03
1.868993043899536133e-03
1.868247985839843750e-03
1.867026090621948242e-03
1.859515905380249023e-03
1.857250928878784180e-03
1.831144094467163086e-03
1.828402280807495117e-03
1.802802085876464844e-03
1.800924539566040039e-03
1.772105693817138672e-03
1.769602298736572266e-03
1.737952232360839844e-03
1.729995012283325195e-03
1.716405153274536133e-03
1.714140176773071289e-03
1.683354377746582031e-03
1.681774854660034180e-03
1.625150442123413086e-03
1.624315977096557617e-03
1.581609249114990234e-03
1.576483249664306641e-03
1.554787158966064453e-03
1.542150974273681641e-03
1.497268676757812500e-03
1.496940851211547852e-03
1.435369253158569336e-03
1.432359218597412109e-03
1.422047615051269531e-03
1.420944929122924805e-03
1.410275697708129883e-03
1.407742500305175781e-03
1.376211643218994141e-03
1.372218132019042969e-03
1.356422901153564453e-03
1.356005668640136719e-03
1.349449157714843750e-03
1.348555088043212891e-03
1.329213380813598633e-03
1.323908567428588867e-03
1.323610544204711914e-03
1.311928033828735352e-03
1.276284456253051758e-03
1.269429922103881836e-03
1.248300075531005859e-03
1.248210668563842773e-03
1.236468553543090820e-03
1.230359077453613281e-03
1.205027103424072266e-03
1.202672719955444336e-03
1.138091087341308594e-03
1.129835844039916992e-03
1.127332448959350586e-03
1.127153635025024414e-03
1.062363386154174805e-03
1.059859991073608398e-03
1.021236181259155273e-03
1.020669937133789062e-03
1.006841659545898438e-03
1.006126403808593750e-03
8.980631828308105469e-04
8.951723575592041016e-04
8.855462074279785156e-04
8.819103240966796875e-04
8.435547351837158203e-04
8.408427238464355469e-04
7.716417312622070312e-04
7.707178592681884766e-04
7.652938365936279297e-04
7.634460926055908203e-04
7.568299770355224609e-04
7.556974887847900391e-04
7.501244544982910156e-04
7.500350475311279297e-04
7.139444351196289062e-04
7.122755050659179688e-04
6.968975067138671875e-04
6.907284259796142578e-04
6.269812583923339844e-04
6.188154220581054688e-04
5.965828895568847656e-04
5.925297737121582031e-04
5.869865417480468750e-04
5.861222743988037109e-04
5.694329738616943359e-04
5.666613578796386719e-04
5.508363246917724609e-04
5.494356155395507812e-04
5.455315113067626953e-04
5.448460578918457031e-04
5.124211311340332031e-04
5.088448524475097656e-04
4.854202270507812500e-04
4.845857620239257812e-04
4.651248455047607422e-04
4.603564739227294922e-04
4.579424858093261719e-04
4.540979862213134766e-04
4.445016384124755859e-04
4.423856735229492188e-04
4.044771194458007812e-04
4.027187824249267578e-04
3.946423530578613281e-04
3.941059112548828125e-04
3.833770751953125000e-04
3.800988197326660156e-04
3.754496574401855469e-04
3.753602504730224609e-04
3.711879253387451172e-04
3.709197044372558594e-04
3.406405448913574219e-04
3.381967544555664062e-04
3.091096878051757812e-04
3.089010715484619141e-04
2.974271774291992188e-04
2.941787242889404297e-04
2.934932708740234375e-04
2.585351467132568359e-04
2.584457397460937500e-04
2.465546131134033203e-04
2.459585666656494141e-04
2.447366714477539062e-04
2.429187297821044922e-04
2.419352531433105469e-04
2.405047416687011719e-04
2.283155918121337891e-04
2.272725105285644531e-04
2.047121524810791016e-04
2.029538154602050781e-04
1.953244209289550781e-04
1.944303512573242188e-04
1.747906208038330078e-04
1.741647720336914062e-04
1.661479473114013672e-04
1.654326915740966797e-04
1.452267169952392578e-04
1.440942287445068359e-04
1.381337642669677734e-04
1.359283924102783203e-04
1.357197761535644531e-04
1.350939273834228516e-04
1.329481601715087891e-04
1.198825120809487998e-04
1.172101328847929835e-04
9.919283183990046382e-05
9.801457781577482820e-05
9.745208080857992172e-05
9.140782640315592289e-05
8.911231998354196548e-05
8.669733506394550204e-05
8.666906796861439943e-05
8.597221312811598182e-05
7.635362999280914664e-05
7.593999180244281888e-05
7.041798380669206381e-05
6.978548481129109859e-05
6.724664854118600488e-05
6.469366053352132440e-05
4.136246207053773105e-05
3.955775900976732373e-05
3.548424501786939800e-05
3.459095751168206334e-05
3.294735506642609835e-05
3.243012179154902697e-05
3.224929969292134047e-05
3.202776133548468351e-05
3.180128987878561020e-05
3.174765515723265707e-05
2.901198422478046268e-05
2.860000131477136165e-05
2.306226451764814556e-05
2.285899790877010673e-05
1.957564018084667623e-05
1.954396611836273223e-05
1.773977783159352839e-05
1.757565951265860349e-05
1.697057268756907433e-05
1.604995668458286673e-05
1.543889084132388234e-05
1.518174212833400816e-05
1.387358406645944342e-05
1.342974519502604380e-05
8.744646038394421339e-06
8.633829565951600671e-06
8.116720891848672181e-06
7.913113222457468510e-06
6.986609150771982968e-06
6.971493803575867787e-06
6.115509222581749782e-06
5.956742825219407678e-06
5.826556844112928957e-06
5.665887329087127000e-06
4.341005933383712545e-06
4.183029886917211115e-06
3.526437012624228373e-06
3.454158786553307436e-06
2.960348410852020606e-06
2.942901801361585967e-06
2.214223286500782706e-06
2.160351868951693177e-06
1.156356347564724274e-06
1.113207304115348961e-06
5.341425435290148016e-07
5.116006036587350536e-07
2.249056620939882123e-07
2.181990339522599243e-07
1.697479632412068895e-07
1.650663108421213110e-07
7.747105001953968895e-08
6.744242853073956212e-08
6.262558116532090935e-08
6.097077687172713922e-08
4.907032291612267727e-08
4.845675150022543676e-08
1.924376213935374835e-08
1.878067124039262126e-08
1.088385648273515471e-08
6.425108001195667384e-09
4.288371879823671406e-09
2.868656201471253553e-09
7.404495350193940340e-10
7.047087913214511445e-10
5.832348493051142668e-12
3.985821221685892368e-12
3.231241663126382946e-12
6.329574451374719857e-13
7.985989257039416422e-14
1.003309509583182046e-14
2.789471560029200929e-15
6.962879759391102027e-16
6.791603344709178092e-16
1.017600484694878581e-17
5.220496385051629554e-21
5.106466639020684544e-24
3.094288809401161911e-31
5.491003305489018061e-35
1.246272815216562558e-38
0.000000000000000000e+00
