5.197495222091674805e-01
9.219186305999755859e-01
3.782688677310943604e-01
5.769917368888854980e-01
5.762660503387451172e-01
7.223280668258666992e-01
3.429199159145355225e-01
4.698667228221893311e-01
4.972284734249114990e-01
8.372255563735961914e-01
9.762827157974243164e-01
2.644556760787963867e-01
3.300939798355102539e-01
9.915695190429687500e-01
5.491204261779785156e-01
5.796139240264892578e-01
5.596843957901000977e-01
9.619693756103515625e-01
3.923680484294891357e-01
8.781181573867797852e-01
7.023144364356994629e-01
5.772482156753540039e-01
3.237097859382629395e-01
2.946881055831909180e-01
8.603951930999755859e-01
4.724929332733154297e-01
3.989363014698028564e-01
3.977998197078704834e-01
3.723425865173339844e-01
7.156003117561340332e-01
3.078157603740692139e-01
9.325180649757385254e-01
6.020728945732116699e-01
7.519223690032958984e-01
3.509606719017028809e-01
5.289678573608398438e-01
5.556340813636779785e-01
3.944966197013854980e-01
2.512613832950592041e-01
3.902794122695922852e-01
5.269542932510375977e-01
6.672647595405578613e-01
5.647693276405334473e-01
2.682823240756988525e-01
8.627025485038757324e-01
9.651321768760681152e-01
2.744807600975036621e-01
4.141862392425537109e-01
3.171259164810180664e-01
5.356553196907043457e-01
3.660548925399780273e-01
6.775110363960266113e-01
2.668204307556152344e-01
9.633478522300720215e-01
9.662010669708251953e-01
6.522067785263061523e-01
4.706977009773254395e-01
6.850014328956604004e-01
4.444133341312408447e-01
9.124751091003417969e-01
3.955031931400299072e-01
3.873538970947265625e-01
9.905944466590881348e-01
2.829326391220092773e-01
3.493339419364929199e-01
8.070375919342041016e-01
6.811000704765319824e-01
8.045106530189514160e-01
2.942842543125152588e-01
9.040328264236450195e-01
9.628651142120361328e-01
3.973791897296905518e-01
4.466089606285095215e-01
3.267025947570800781e-01
2.944100797176361084e-01
9.895395040512084961e-01
3.114261627197265625e-01
9.598866105079650879e-01
9.920995235443115234e-01
4.654771685600280762e-01
3.231031298637390137e-01
7.550362348556518555e-01
9.718838930130004883e-01
3.827436566352844238e-01
3.988295793533325195e-01
7.694872617721557617e-01
3.297678530216217041e-01
9.682838916778564453e-01
9.614033699035644531e-01
3.059734106063842773e-01
3.306074142456054688e-01
4.976230263710021973e-01
6.444900035858154297e-01
3.461939096450805664e-01
8.717032074928283691e-01
3.378663063049316406e-01
3.780022859573364258e-01
6.472247838973999023e-01
9.874693155288696289e-01
9.864376783370971680e-01
3.934943675994873047e-01
4.527469277381896973e-01
9.543814659118652344e-01
3.217667341232299805e-01
9.684844017028808594e-01
3.250713646411895752e-01
2.454541921615600586e-01
6.869761943817138672e-01
3.829065561294555664e-01
7.693932652473449707e-01
3.544197678565979004e-01
3.273012638092041016e-01
4.181312918663024902e-01
5.256631374359130859e-01
5.570423603057861328e-01
3.262094259262084961e-01
4.029787778854370117e-01
2.166674733161926270e-01
3.376186490058898926e-01
4.360382854938507080e-01
2.541532218456268311e-01
5.913419723510742188e-01
3.089951276779174805e-01
9.068531990051269531e-01
3.974584043025970459e-01
3.869866430759429932e-01
8.077387809753417969e-01
6.940057277679443359e-01
8.381587266921997070e-01
3.978204429149627686e-01
9.788225889205932617e-01
9.807647466659545898e-01
6.695236563682556152e-01
4.651171863079071045e-01
4.157896041870117188e-01
4.892518520355224609e-01
6.055881977081298828e-01
9.931586980819702148e-01
3.468118309974670410e-01
6.849074959754943848e-01
8.574160337448120117e-01
9.221469759941101074e-01
3.752279281616210938e-01
9.038192033767700195e-01
4.711667895317077637e-01
9.231200218200683594e-01
2.821620404720306396e-01
3.791164755821228027e-01
4.752213954925537109e-01
3.821893334388732910e-01
6.788122653961181641e-01
6.464334726333618164e-01
3.735380768775939941e-01
3.596985042095184326e-01
8.108863830566406250e-01
7.345199584960937500e-01
3.744118213653564453e-01
8.062646985054016113e-01
9.461145401000976562e-01
9.321805238723754883e-01
9.332548379898071289e-01
5.684454441070556641e-01
7.491092681884765625e-01
4.571675658226013184e-01
6.877236366271972656e-01
6.704701185226440430e-01
6.125141978263854980e-01
9.354556798934936523e-01
5.949236154556274414e-01
9.299815893173217773e-01
6.055275201797485352e-01
7.913492918014526367e-01
7.600732445716857910e-01
9.781268239021301270e-01
7.303609848022460938e-01
7.715501189231872559e-01
3.737571835517883301e-01
4.044845998287200928e-01
3.201617300510406494e-01
9.471466541290283203e-01
4.560863971710205078e-01
7.383108139038085938e-01
2.996016144752502441e-01
8.701598644256591797e-01
9.445194602012634277e-01
9.823203086853027344e-01
3.765282034873962402e-01
3.696217536926269531e-01
9.798145890235900879e-01
6.203224658966064453e-01
9.600862264633178711e-01
4.030597805976867676e-01
4.570436775684356689e-01
6.307561993598937988e-01
4.853053390979766846e-01
9.602932929992675781e-01
5.607733130455017090e-01
5.102057456970214844e-01
4.546275734901428223e-01
6.343533992767333984e-01
4.866050183773040771e-01
3.894825577735900879e-01
5.085580945014953613e-01
9.899343848228454590e-01
3.860766589641571045e-01
4.123578667640686035e-01
8.235708475112915039e-01
9.880310297012329102e-01
2.823710441589355469e-01
9.927045106887817383e-01
3.771072030067443848e-01
4.756058454513549805e-01
3.274850249290466309e-01
6.553132534027099609e-01
3.201040923595428467e-01
5.083060264587402344e-01
4.665831029415130615e-01
7.298408150672912598e-01
7.679830789566040039e-01
5.633814334869384766e-01
4.812203943729400635e-01
5.355091691017150879e-01
5.399136543273925781e-01
7.841305732727050781e-01
6.976745128631591797e-01
9.669591784477233887e-01
4.204285740852355957e-01
3.677497804164886475e-01
3.502077460289001465e-01
3.439788222312927246e-01
6.169202923774719238e-01
4.085550904273986816e-01
7.689658403396606445e-01
7.937225699424743652e-01
9.066756367683410645e-01
9.459260106086730957e-01
9.839351177215576172e-01
4.309470653533935547e-01
3.503324389457702637e-01
3.338380455970764160e-01
9.886668920516967773e-01
9.738767147064208984e-01
9.268970489501953125e-01
3.164831697940826416e-01
9.451909661293029785e-01
2.947947978973388672e-01
4.835371971130371094e-01
9.666501283645629883e-01
5.777944326400756836e-01
3.551446795463562012e-01
9.933313727378845215e-01
4.951182603836059570e-01
9.795231819152832031e-01
3.992605209350585938e-01
9.634727239608764648e-01
5.202887654304504395e-01
2.669486105442047119e-01
3.434119820594787598e-01
4.547114968299865723e-01
9.585327506065368652e-01
3.907520771026611328e-01
9.090248346328735352e-01
9.816849827766418457e-01
5.088277459144592285e-01
9.902977943420410156e-01
2.818977236747741699e-01
3.276630938053131104e-01
9.914381504058837891e-01
5.506983995437622070e-01
9.967493414878845215e-01
8.542302846908569336e-01
3.331674337387084961e-01
8.188000917434692383e-01
2.841453850269317627e-01
4.710881114006042480e-01
4.469662904739379883e-01
9.809808731079101562e-01
4.263323247432708740e-01
9.608719944953918457e-01
6.826381683349609375e-01
9.635462760925292969e-01
4.271151721477508545e-01
4.141892492771148682e-01
3.718919754028320312e-01
3.500443100929260254e-01
2.232908904552459717e-01
2.529290914535522461e-01
5.876834392547607422e-01
2.884005308151245117e-01
6.613523960113525391e-01
9.600433111190795898e-01
2.731378972530364990e-01
3.639804124832153320e-01
7.203441858291625977e-01
9.702972769737243652e-01
8.715257644653320312e-01
4.659412503242492676e-01
3.259428441524505615e-01
9.799565672874450684e-01
4.427649080753326416e-01
6.944122314453125000e-01
8.171355128288269043e-01
3.875984847545623779e-01
9.617067575454711914e-01
4.618135094642639160e-01
4.274302721023559570e-01
6.418542265892028809e-01
9.923733472824096680e-01
4.070653021335601807e-01
4.542923569679260254e-01
5.201718807220458984e-01
5.341968536376953125e-01
5.307176709175109863e-01
9.903996586799621582e-01
4.383043050765991211e-01
2.557811141014099121e-01
5.231643915176391602e-01
5.637234449386596680e-01
9.931219816207885742e-01
9.619275927543640137e-01
3.042222559452056885e-01
3.523168861865997314e-01
3.663337826728820801e-01
3.977008759975433350e-01
2.187694907188415527e-01
9.805721640586853027e-01
3.853310048580169678e-01
4.639442265033721924e-01
4.350998103618621826e-01
4.672565758228302002e-01
4.086103737354278564e-01
5.997527837753295898e-01
9.617424011230468750e-01
5.109234452247619629e-01
9.582136869430541992e-01
2.970685362815856934e-01
2.589159309864044189e-01
4.409889280796051025e-01
9.658037424087524414e-01
3.231675624847412109e-01
4.816184043884277344e-01
3.804231286048889160e-01
6.913890242576599121e-01
3.724918365478515625e-01
9.586461782455444336e-01
4.707255363464355469e-01
3.884145915508270264e-01
6.358798146247863770e-01
4.033059775829315186e-01
9.586333036422729492e-01
9.716269373893737793e-01
3.202582001686096191e-01
3.051865696907043457e-01
9.799246788024902344e-01
3.302385210990905762e-01
2.777672410011291504e-01
2.680556774139404297e-01
2.871650457382202148e-01
2.836585044860839844e-01
2.835527062416076660e-01
3.461771309375762939e-01
2.763813436031341553e-01
3.875387609004974365e-01
8.798344135284423828e-01
3.706114292144775391e-01
4.372213184833526611e-01
3.248849511146545410e-01
9.771688580513000488e-01
4.984501004219055176e-01
3.749116659164428711e-01
3.372463583946228027e-01
3.969212770462036133e-01
3.934633135795593262e-01
4.171535074710845947e-01
5.990238189697265625e-01
6.784745454788208008e-01
2.809056043624877930e-01
9.695015549659729004e-01
6.553615927696228027e-01
4.387036263942718506e-01
4.402473866939544678e-01
5.667794346809387207e-01
4.078152179718017578e-01
9.934229254722595215e-01
3.177701532840728760e-01
4.413935542106628418e-01
2.761445641517639160e-01
9.639055728912353516e-01
3.033342361450195312e-01
3.177275061607360840e-01
6.392442584037780762e-01
5.297310352325439453e-01
2.625323534011840820e-01
3.608619272708892822e-01
3.346913456916809082e-01
3.271535933017730713e-01
5.083845257759094238e-01
3.445617854595184326e-01
8.949629068374633789e-01
4.594333767890930176e-01
3.756675720214843750e-01
2.768515944480895996e-01
4.054018855094909668e-01
9.956454038619995117e-01
5.393514037132263184e-01
3.768995702266693115e-01
2.777674496173858643e-01
3.959106802940368652e-01
6.562071442604064941e-01
9.685791730880737305e-01
5.166081190109252930e-01
6.967680454254150391e-01
6.848484873771667480e-01
9.612268209457397461e-01
3.247472643852233887e-01
3.321551978588104248e-01
6.159026622772216797e-01
6.200835704803466797e-01
5.239050388336181641e-01
7.803137302398681641e-01
3.629634380340576172e-01
3.588955402374267578e-01
4.381127953529357910e-01
9.558252096176147461e-01
3.563445210456848145e-01
3.266079425811767578e-01
4.389629960060119629e-01
5.659770965576171875e-01
9.915142059326171875e-01
4.763037562370300293e-01
2.879374027252197266e-01
4.191614389419555664e-01
2.995342910289764404e-01
9.735355377197265625e-01
5.702415108680725098e-01
4.115447998046875000e-01
4.126363098621368408e-01
9.715175628662109375e-01
9.709353446960449219e-01
3.034189343452453613e-01
5.980367660522460938e-01
9.723162651062011719e-01
9.959811568260192871e-01
3.712798953056335449e-01
3.117283582687377930e-01
3.227392733097076416e-01
3.620333671569824219e-01
3.629122376441955566e-01
9.351233839988708496e-01
4.887332618236541748e-01
5.038350820541381836e-01
3.916953206062316895e-01
2.616844773292541504e-01
3.415491580963134766e-01
2.446075677871704102e-01
3.506221175193786621e-01
4.200335741043090820e-01
4.195981919765472412e-01
4.688750505447387695e-01
9.732442498207092285e-01
3.723212778568267822e-01
4.783906340599060059e-01
4.411225914955139160e-01
4.104695320129394531e-01
3.809190094470977783e-01
3.083249032497406006e-01
9.692949056625366211e-01
3.913974165916442871e-01
4.600090980529785156e-01
3.791097700595855713e-01
6.580798029899597168e-01
2.836045622825622559e-01
4.904122948646545410e-01
6.054987907409667969e-01
5.612978339195251465e-01
5.977047085762023926e-01
4.363290667533874512e-01
7.748996615409851074e-01
4.021443426609039307e-01
6.780763864517211914e-01
3.560339212417602539e-01
3.586575388908386230e-01
4.544641971588134766e-01
7.117462158203125000e-01
3.746293783187866211e-01
6.035592555999755859e-01
4.071489572525024414e-01
9.865914583206176758e-01
7.359446883201599121e-01
5.323755145072937012e-01
6.096125841140747070e-01
9.434369802474975586e-01
2.714248001575469971e-01
9.782153964042663574e-01
3.813854157924652100e-01
8.848047256469726562e-01
3.132843971252441406e-01
7.039932012557983398e-01
4.614711701869964600e-01
8.967109918594360352e-01
4.951747059822082520e-01
4.139305055141448975e-01
6.361176371574401855e-01
4.607588350772857666e-01
9.369791746139526367e-01
6.104487180709838867e-01
3.685545325279235840e-01
3.691287636756896973e-01
4.827233254909515381e-01
6.493156552314758301e-01
5.441462397575378418e-01
9.104745984077453613e-01
9.654972553253173828e-01
3.292700350284576416e-01
3.768606781959533691e-01
9.883419275283813477e-01
3.381125032901763916e-01
7.076811194419860840e-01
5.724865794181823730e-01
7.765133976936340332e-01
7.394760847091674805e-01
9.149488210678100586e-01
8.649035096168518066e-01
6.810824871063232422e-01
9.830561876296997070e-01
2.621998190879821777e-01
3.294668197631835938e-01
4.031761884689331055e-01
4.079216420650482178e-01
3.674143552780151367e-01
6.258498430252075195e-01
9.865048527717590332e-01
3.686558008193969727e-01
9.633104205131530762e-01
3.625905513763427734e-01
3.658589720726013184e-01
3.258686363697052002e-01
4.810411334037780762e-01
4.010222554206848145e-01
9.066064357757568359e-01
9.891861677169799805e-01
7.023426294326782227e-01
6.800522804260253906e-01
6.373966336250305176e-01
4.045849740505218506e-01
9.701226949691772461e-01
8.890180587768554688e-01
6.211500167846679688e-01
6.124420166015625000e-01
3.748510777950286865e-01
9.392562508583068848e-01
9.604920148849487305e-01
3.167942762374877930e-01
3.770995736122131348e-01
9.204622507095336914e-01
7.397660017013549805e-01
9.688636660575866699e-01
9.414658546447753906e-01
9.152097702026367188e-01
9.957236647605895996e-01
8.868126869201660156e-01
4.217624962329864502e-01
3.302760720252990723e-01
6.596799492835998535e-01
9.396820664405822754e-01
9.423384070396423340e-01
3.894340693950653076e-01
9.848301410675048828e-01
3.016010820865631104e-01
2.839170098304748535e-01
3.462705612182617188e-01
2.663855254650115967e-01
2.947107553482055664e-01
3.989102542400360107e-01
3.959688544273376465e-01
4.471901655197143555e-01
3.456550240516662598e-01
7.656351327896118164e-01
5.019928812980651855e-01
9.452800154685974121e-01
5.300953984260559082e-01
7.903985977172851562e-01
6.950412988662719727e-01
3.766486644744873047e-01
8.684555292129516602e-01
6.127803325653076172e-01
3.499702513217926025e-01
4.092384576797485352e-01
3.534336686134338379e-01
6.213220953941345215e-01
5.880203843116760254e-01
4.572662115097045898e-01
7.778497338294982910e-01
4.421100914478302002e-01
6.428338885307312012e-01
6.923130750656127930e-01
6.789131164550781250e-01
5.005198121070861816e-01
8.004360198974609375e-01
8.973286151885986328e-01
3.808001875877380371e-01
8.307795524597167969e-01
5.718007087707519531e-01
4.287838637828826904e-01
4.093858301639556885e-01
4.290240406990051270e-01
3.901963233947753906e-01
9.080491065979003906e-01
4.280833005905151367e-01
3.059169054031372070e-01
8.991866111755371094e-01
5.620131492614746094e-01
9.596462845802307129e-01
3.233657777309417725e-01
3.954060077667236328e-01
3.911926448345184326e-01
8.756101131439208984e-01
9.800164699554443359e-01
5.111135244369506836e-01
7.526401281356811523e-01
5.798770189285278320e-01
7.072620987892150879e-01
4.925674200057983398e-01
9.318501949310302734e-01
9.789195060729980469e-01
7.721918225288391113e-01
8.980064392089843750e-01
3.655828833580017090e-01
4.045753180980682373e-01
3.265497684478759766e-01
3.869840800762176514e-01
9.343023300170898438e-01
9.660612344741821289e-01
3.767449855804443359e-01
3.750548958778381348e-01
8.500556945800781250e-01
4.438724815845489502e-01
5.278307199478149414e-01
9.303878545761108398e-01
9.540902972221374512e-01
9.257324934005737305e-01
3.794516324996948242e-01
2.514245212078094482e-01
4.393583834171295166e-01
2.842369377613067627e-01
2.757414877414703369e-01
6.915289163589477539e-01
9.325460195541381836e-01
6.690489649772644043e-01
8.331133127212524414e-01
9.629562497138977051e-01
5.072305798530578613e-01
3.252201974391937256e-01
5.715149641036987305e-01
7.143277525901794434e-01
3.419908881187438965e-01
3.798170089721679688e-01
3.741352260112762451e-01
9.165588617324829102e-01
9.749239683151245117e-01
3.315909802913665771e-01
4.130214750766754150e-01
9.725874662399291992e-01
5.727756023406982422e-01
6.680374741554260254e-01
4.075043201446533203e-01
3.607083559036254883e-01
6.881196498870849609e-01
4.637891054153442383e-01
5.513272285461425781e-01
4.263592362403869629e-01
4.156842827796936035e-01
4.699929952621459961e-01
9.919353127479553223e-01
9.823204278945922852e-01
4.519032537937164307e-01
7.624736428260803223e-01
6.200192570686340332e-01
7.151935696601867676e-01
8.956615328788757324e-01
9.383356571197509766e-01
9.636411070823669434e-01
8.032529354095458984e-01
6.389161348342895508e-01
4.507769048213958740e-01
9.894732236862182617e-01
3.657506704330444336e-01
7.504396438598632812e-01
7.312074899673461914e-01
8.131686449050903320e-01
3.723984956741333008e-01
6.863326430320739746e-01
3.782763779163360596e-01
4.506425857543945312e-01
9.951335191726684570e-01
2.666775584220886230e-01
3.559906482696533203e-01
3.901394009590148926e-01
9.054259657859802246e-01
6.677610874176025391e-01
4.790174663066864014e-01
4.346183538436889648e-01
3.479269146919250488e-01
3.658869862556457520e-01
7.239844799041748047e-01
9.704015254974365234e-01
3.735661208629608154e-01
4.096118211746215820e-01
3.259209394454956055e-01
8.882555961608886719e-01
5.760524868965148926e-01
9.522339105606079102e-01
9.393286705017089844e-01
8.234869241714477539e-01
2.759525179862976074e-01
4.947729706764221191e-01
5.435971617698669434e-01
8.501265048980712891e-01
4.395822882652282715e-01
6.080172657966613770e-01
9.568794965744018555e-01
7.533818483352661133e-01
4.740222990512847900e-01
8.793541193008422852e-01
3.695353269577026367e-01
3.107489347457885742e-01
3.847444355487823486e-01
9.756796360015869141e-01
4.825590252876281738e-01
9.511950016021728516e-01
3.697403669357299805e-01
9.468931555747985840e-01
8.899919986724853516e-01
3.793722391128540039e-01
4.957719445228576660e-01
4.490504860877990723e-01
3.650661408901214600e-01
9.132361412048339844e-01
9.556185007095336914e-01
6.305654048919677734e-01
3.224770426750183105e-01
8.560507297515869141e-01
3.556897044181823730e-01
9.340722560882568359e-01
3.316881060600280762e-01
3.384155333042144775e-01
7.355453968048095703e-01
2.913599908351898193e-01
3.771869540214538574e-01
8.128852844238281250e-01
9.913650751113891602e-01
9.541612267494201660e-01
9.649537801742553711e-01
7.413922548294067383e-01
7.905641198158264160e-01
5.176027417182922363e-01
4.125717282295227051e-01
3.590302169322967529e-01
9.675723314285278320e-01
3.001457750797271729e-01
9.942234754562377930e-01
9.408329725265502930e-01
4.603182077407836914e-01
9.859155416488647461e-01
3.683162927627563477e-01
8.459553718566894531e-01
6.415021419525146484e-01
8.257022500038146973e-01
2.772501707077026367e-01
3.010399937629699707e-01
9.541890025138854980e-01
7.326309680938720703e-01
4.780310094356536865e-01
3.240288496017456055e-01
6.436507105827331543e-01
7.827858924865722656e-01
3.650757372379302979e-01
7.324076890945434570e-01
7.576490640640258789e-01
3.184084296226501465e-01
9.845132231712341309e-01
3.088561892509460449e-01
2.705686092376708984e-01
4.837527275085449219e-01
7.325754761695861816e-01
9.897292852401733398e-01
4.626736938953399658e-01
2.216536104679107666e-01
3.100065588951110840e-01
3.825948536396026611e-01
7.217537164688110352e-01
7.228507399559020996e-01
5.153567790985107422e-01
5.033501386642456055e-01
9.560534954071044922e-01
9.514554738998413086e-01
3.557465076446533203e-01
8.552592992782592773e-01
5.036020874977111816e-01
5.143889784812927246e-01
9.833067655563354492e-01
2.874891161918640137e-01
3.721718788146972656e-01
9.226618409156799316e-01
6.960809230804443359e-01
7.061482667922973633e-01
7.158372402191162109e-01
7.022112607955932617e-01
2.730454206466674805e-01
3.644197583198547363e-01
6.462751626968383789e-01
9.159953594207763672e-01
6.768409013748168945e-01
7.064709067344665527e-01
8.352817893028259277e-01
6.035646796226501465e-01
7.483404278755187988e-01
2.696102857589721680e-01
4.229643642902374268e-01
5.368273258209228516e-01
2.773061990737915039e-01
2.411544322967529297e-01
4.759792089462280273e-01
9.057828187942504883e-01
3.361684679985046387e-01
4.992393255233764648e-01
9.587576389312744141e-01
9.022617340087890625e-01
4.460212588310241699e-01
4.236904978752136230e-01
9.241145849227905273e-01
4.959293603897094727e-01
7.595352530479431152e-01
9.338480234146118164e-01
6.298605799674987793e-01
5.585448741912841797e-01
5.290543437004089355e-01
3.892669379711151123e-01
9.522516131401062012e-01
7.174438238143920898e-01
9.687033295631408691e-01
6.617598533630371094e-01
3.640785515308380127e-01
4.556518495082855225e-01
9.514266252517700195e-01
7.604038119316101074e-01
9.933321475982666016e-01
4.933930337429046631e-01
3.352116346359252930e-01
9.634359478950500488e-01
9.562822580337524414e-01
7.632472515106201172e-01
9.079661965370178223e-01
9.340370893478393555e-01
3.459248840808868408e-01
8.484666347503662109e-01
6.735341548919677734e-01
6.660432219505310059e-01
2.919425964355468750e-01
7.366244792938232422e-01
4.268657863140106201e-01
8.041934370994567871e-01
7.677696943283081055e-01
5.460317730903625488e-01
9.629356861114501953e-01
6.493740677833557129e-01
5.110287666320800781e-01
3.958136439323425293e-01
3.954594433307647705e-01
4.228640794754028320e-01
4.654463231563568115e-01
3.835297822952270508e-01
3.921273350715637207e-01
2.793325185775756836e-01
2.991980910301208496e-01
9.412256479263305664e-01
8.931536674499511719e-01
7.818714976310729980e-01
3.805458843708038330e-01
7.857490777969360352e-01
5.193515419960021973e-01
4.040840566158294678e-01
4.090680480003356934e-01
3.691709041595458984e-01
9.684351682662963867e-01
3.031244277954101562e-01
4.609793424606323242e-01
3.466562330722808838e-01
5.870897769927978516e-01
8.657205104827880859e-01
3.815737068653106689e-01
8.254936933517456055e-01
3.809919059276580811e-01
9.758039712905883789e-01
4.333016276359558105e-01
4.208875000476837158e-01
9.585160613059997559e-01
9.928627014160156250e-01
4.249654412269592285e-01
6.719542741775512695e-01
9.174396395683288574e-01
8.282330036163330078e-01
9.562443494796752930e-01
6.755096316337585449e-01
7.872548699378967285e-01
4.382500350475311279e-01
3.622210323810577393e-01
5.896331667900085449e-01
9.882571697235107422e-01
4.122056961059570312e-01
2.999487519264221191e-01
3.007655143737792969e-01
5.139557719230651855e-01
4.409382343292236328e-01
8.742313385009765625e-01
8.118264675140380859e-01
8.582384586334228516e-01
8.474075794219970703e-01
8.614373207092285156e-01
7.004190683364868164e-01
6.667612195014953613e-01
4.414717853069305420e-01
3.162245154380798340e-01
9.898700714111328125e-01
8.012264966964721680e-01
9.743291139602661133e-01
7.559419870376586914e-01
9.305955171585083008e-01
9.424969553947448730e-01
9.200134277343750000e-01
5.122351646423339844e-01
4.813131690025329590e-01
9.490538835525512695e-01
7.198561429977416992e-01
3.505513072013854980e-01
9.608594179153442383e-01
9.235031604766845703e-01
6.551245450973510742e-01
9.449266195297241211e-01
5.333083868026733398e-01
5.431079268455505371e-01
3.621766567230224609e-01
6.541360020637512207e-01
1.385910809040069580e-01
7.147372961044311523e-01
9.593436717987060547e-01
7.551529407501220703e-01
8.764775991439819336e-01
2.725800573825836182e-01
9.593456387519836426e-01
9.461352229118347168e-01
6.705040931701660156e-01
9.361294507980346680e-01
5.099723935127258301e-01
3.726534247398376465e-01
3.577047288417816162e-01
4.580125808715820312e-01
9.717967510223388672e-01
9.551647901535034180e-01
9.452884197235107422e-01
6.633506417274475098e-01
9.906643033027648926e-01
3.837206661701202393e-01
3.818782567977905273e-01
4.308182597160339355e-01
4.659776985645294189e-01
4.220880866050720215e-01
4.314995408058166504e-01
9.468282461166381836e-01
9.583762288093566895e-01
5.300422310829162598e-01
9.225813150405883789e-01
7.747284770011901855e-01
8.432459235191345215e-01
5.196672677993774414e-01
4.799628555774688721e-01
3.971178233623504639e-01
6.935251951217651367e-01
7.710102796554565430e-01
4.657512903213500977e-01
3.989113569259643555e-01
4.109777212142944336e-01
3.545796871185302734e-01
3.918899595737457275e-01
4.375844299793243408e-01
4.506077766418457031e-01
6.752439141273498535e-01
3.392834365367889404e-01
5.979831814765930176e-01
3.543527424335479736e-01
2.643719911575317383e-01
2.717487812042236328e-01
4.033046364784240723e-01
3.701406121253967285e-01
4.715388715267181396e-01
3.415302336215972900e-01
3.644352257251739502e-01
3.167399764060974121e-01
4.103501439094543457e-01
4.917806982994079590e-01
3.627341985702514648e-01
3.317915201187133789e-01
6.289839744567871094e-01
3.072447478771209717e-01
2.796255052089691162e-01
2.749139070510864258e-01
6.625823974609375000e-01
3.449456989765167236e-01
8.622354269027709961e-01
3.600414395332336426e-01
3.417759537696838379e-01
3.001962304115295410e-01
3.403867483139038086e-01
5.492927432060241699e-01
3.159470260143280029e-01
4.972539246082305908e-01
3.688599169254302979e-01
2.838308215141296387e-01
4.122900366783142090e-01
4.706544876098632812e-01
2.989597916603088379e-01
2.917217612266540527e-01
6.994208097457885742e-01
3.821599185466766357e-01
3.719098865985870361e-01
3.923310637474060059e-01
2.995606064796447754e-01
6.263367533683776855e-01
5.607420802116394043e-01
3.884814679622650146e-01
4.563951790332794189e-01
2.959045171737670898e-01
6.735444664955139160e-01
4.073421955108642578e-01
4.043958187103271484e-01
3.161834776401519775e-01
4.149165749549865723e-01
4.056793749332427979e-01
3.983052372932434082e-01
5.200690031051635742e-01
4.375183284282684326e-01
3.546259999275207520e-01
2.444831430912017822e-01
3.822727799415588379e-01
5.660757422447204590e-01
6.012358665466308594e-01
3.472585082054138184e-01
4.677009880542755127e-01
4.223845601081848145e-01
4.615758061408996582e-01
6.220623254776000977e-01
4.747225344181060791e-01
8.989148139953613281e-01
7.070437669754028320e-01
3.550928831100463867e-01
4.587517082691192627e-01
4.010694026947021484e-01
4.519830346107482910e-01
3.180055022239685059e-01
3.643329739570617676e-01
3.616282343864440918e-01
9.150371551513671875e-01
5.745423436164855957e-01
4.015232920646667480e-01
4.240612983703613281e-01
3.705328702926635742e-01
3.796550929546356201e-01
5.191763639450073242e-01
3.962202966213226318e-01
7.014734148979187012e-01
3.784804940223693848e-01
4.145838022232055664e-01
3.866422176361083984e-01
3.962597250938415527e-01
6.384731531143188477e-01
4.817142188549041748e-01
3.988628387451171875e-01
3.853272199630737305e-01
4.516245722770690918e-01
3.820972144603729248e-01
3.581723570823669434e-01
3.872219920158386230e-01
4.344101548194885254e-01
4.074238240718841553e-01
3.814626336097717285e-01
4.457978606224060059e-01
3.405388593673706055e-01
3.235900998115539551e-01
3.690148591995239258e-01
4.020368456840515137e-01
4.432588815689086914e-01
3.021061122417449951e-01
5.662562847137451172e-01
4.000127911567687988e-01
3.951620757579803467e-01
4.253240525722503662e-01
3.701422214508056641e-01
3.346844911575317383e-01
4.956041574478149414e-01
4.997839331626892090e-01
2.662662267684936523e-01
3.230759203433990479e-01
4.468342065811157227e-01
3.272490203380584717e-01
2.312960028648376465e-01
3.617981076240539551e-01
3.519467711448669434e-01
3.187595605850219727e-01
5.486185550689697266e-01
4.203016757965087891e-01
3.516466617584228516e-01
3.800045251846313477e-01
3.748166561126708984e-01
3.012459874153137207e-01
3.062622249126434326e-01
3.707842826843261719e-01
3.382097482681274414e-01
3.569651842117309570e-01
2.520226836204528809e-01
3.661313354969024658e-01
3.524659276008605957e-01
3.385314345359802246e-01
5.669950246810913086e-01
5.129233002662658691e-01
2.991187572479248047e-01
6.679964065551757812e-01
5.095938444137573242e-01
3.407986164093017578e-01
6.898266077041625977e-01
3.275059759616851807e-01
3.319612443447113037e-01
3.778139948844909668e-01
3.821364045143127441e-01
2.765928506851196289e-01
3.351592421531677246e-01
3.373724520206451416e-01
3.438141942024230957e-01
3.437001109123229980e-01
3.613687753677368164e-01
3.348653912544250488e-01
1.966953277587890625e-01
3.912330269813537598e-01
3.159459829330444336e-01
9.028723239898681641e-01
3.602833449840545654e-01
2.636079490184783936e-01
5.137876868247985840e-01
3.569334447383880615e-01
2.760347723960876465e-01
2.786924242973327637e-01
5.547310709953308105e-01
6.089625358581542969e-01
4.020587205886840820e-01
3.704990148544311523e-01
3.119456171989440918e-01
7.184489965438842773e-01
3.335551917552947998e-01
3.720151185989379883e-01
4.574443399906158447e-01
3.266286849975585938e-01
4.813077747821807861e-01
5.782699584960937500e-01
3.237910270690917969e-01
3.043288290500640869e-01
3.715173602104187012e-01
3.437534272670745850e-01
3.234747946262359619e-01
4.367340207099914551e-01
3.737661242485046387e-01
3.403797745704650879e-01
3.468138277530670166e-01
3.494775891304016113e-01
3.384579420089721680e-01
3.606301844120025635e-01
6.634839773178100586e-01
3.532036542892456055e-01
2.744354009628295898e-01
3.060808181762695312e-01
4.460764527320861816e-01
3.034754991531372070e-01
3.540927171707153320e-01
3.264189958572387695e-01
5.434910655021667480e-01
4.296747148036956787e-01
5.059959888458251953e-01
4.717511534690856934e-01
4.201343953609466553e-01
3.432046771049499512e-01
2.250148355960845947e-01
3.433602750301361084e-01
3.560588955879211426e-01
5.476948022842407227e-01
3.751826882362365723e-01
2.753084897994995117e-01
3.670383691787719727e-01
9.557539224624633789e-01
3.581614494323730469e-01
3.564366102218627930e-01
2.993910312652587891e-01
3.431316614151000977e-01
3.274665474891662598e-01
4.480172693729400635e-01
4.762456119060516357e-01
4.505167603492736816e-01
4.237632155418395996e-01
3.098087310791015625e-01
3.661879897117614746e-01
2.460667192935943604e-01
3.379706740379333496e-01
5.955552458763122559e-01
2.599427103996276855e-01
3.262812495231628418e-01
2.069739103317260742e-01
5.351507067680358887e-01
2.890828251838684082e-01
3.348160982131958008e-01
3.833596408367156982e-01
3.397089838981628418e-01
4.401430189609527588e-01
9.678394794464111328e-01
3.388888835906982422e-01
3.731147646903991699e-01
3.221193850040435791e-01
3.551823496818542480e-01
4.257246255874633789e-01
5.159706473350524902e-01
3.157792091369628906e-01
2.750714123249053955e-01
7.197991013526916504e-01
4.970089495182037354e-01
2.518123090267181396e-01
2.902292013168334961e-01
3.111428022384643555e-01
4.753187000751495361e-01
4.189191758632659912e-01
4.513393044471740723e-01
4.383108615875244141e-01
4.225565195083618164e-01
4.111672043800354004e-01
3.483492732048034668e-01
2.999239563941955566e-01
2.757861316204071045e-01
4.749603867530822754e-01
4.137339591979980469e-01
4.170481264591217041e-01
4.426658749580383301e-01
3.265496492385864258e-01
4.690484404563903809e-01
3.549520969390869141e-01
4.804142415523529053e-01
3.731684684753417969e-01
3.536343872547149658e-01
2.910900712013244629e-01
7.192299962043762207e-01
3.550016283988952637e-01
2.981558442115783691e-01
3.356658518314361572e-01
3.549722433090209961e-01
3.910984694957733154e-01
4.448902904987335205e-01
4.244694113731384277e-01
3.205606937408447266e-01
5.355358719825744629e-01
4.259920120239257812e-01
3.983308076858520508e-01
4.903139472007751465e-01
3.110163807868957520e-01
3.585678339004516602e-01
4.324639737606048584e-01
4.073792099952697754e-01
3.016653060913085938e-01
3.265256285667419434e-01
5.275529026985168457e-01
2.957278788089752197e-01
4.512036740779876709e-01
4.184675812721252441e-01
1.168299913406372070e-01
3.366778194904327393e-01
4.113925397396087646e-01
3.840580284595489502e-01
4.170990288257598877e-01
2.828717231750488281e-01
3.091664314270019531e-01
3.500767350196838379e-01
6.814596056938171387e-01
3.501308858394622803e-01
3.133267760276794434e-01
2.174279987812042236e-01
3.781490325927734375e-01
2.750790417194366455e-01
2.869506478309631348e-01
3.485109210014343262e-01
2.501398921012878418e-01
9.464681148529052734e-01
2.423387467861175537e-01
3.388362526893615723e-01
6.442279815673828125e-01
3.456479907035827637e-01
2.954664826393127441e-01
3.170218467712402344e-01
5.962013006210327148e-01
3.054102063179016113e-01
2.530924975872039795e-01
3.117306828498840332e-01
3.228189051151275635e-01
3.428405523300170898e-01
4.633015990257263184e-01
2.904828190803527832e-01
4.894652068614959717e-01
3.295189142227172852e-01
3.535385727882385254e-01
2.988894581794738770e-01
4.698968231678009033e-01
3.038107156753540039e-01
3.823469281196594238e-01
3.919117450714111328e-01
2.963713407516479492e-01
4.095732569694519043e-01
3.183399438858032227e-01
4.452889859676361084e-01
3.452698588371276855e-01
3.484135866165161133e-01
5.659803748130798340e-01
4.573689401149749756e-01
3.277050256729125977e-01
3.409922719001770020e-01
4.593973457813262939e-01
2.554960250854492188e-01
3.622675538063049316e-01
4.302282333374023438e-01
6.650990247726440430e-01
6.425843238830566406e-01
2.915473282337188721e-01
2.979000210762023926e-01
2.873589396476745605e-01
3.155490458011627197e-01
3.598989248275756836e-01
5.066778063774108887e-01
4.170329570770263672e-01
4.057399332523345947e-01
3.558862805366516113e-01
4.303132891654968262e-01
5.058121085166931152e-01
3.002974390983581543e-01
3.889275789260864258e-01
3.553108572959899902e-01
5.392866730690002441e-01
5.519245862960815430e-01
3.864248991012573242e-01
3.638588786125183105e-01
5.360673666000366211e-01
7.472740411758422852e-01
3.483106493949890137e-01
3.925627470016479492e-01
4.574239850044250488e-01
6.055825352668762207e-01
2.909874320030212402e-01
4.320345222949981689e-01
6.138502359390258789e-01
3.831274509429931641e-01
4.336309731006622314e-01
7.356106042861938477e-01
3.859697878360748291e-01
5.352625846862792969e-01
5.859049558639526367e-01
3.652438819408416748e-01
5.095276236534118652e-01
3.734411597251892090e-01
5.742379426956176758e-01
6.020544767379760742e-01
6.100564002990722656e-01
7.187591791152954102e-01
4.580814838409423828e-01
5.547274351119995117e-01
3.647771775722503662e-01
3.574509024620056152e-01
4.160693287849426270e-01
3.473125100135803223e-01
4.539580941200256348e-01
3.590210974216461182e-01
3.848716616630554199e-01
5.790876150131225586e-01
5.038747787475585938e-01
6.764417886734008789e-01
7.054242491722106934e-01
3.881863951683044434e-01
4.828819036483764648e-01
3.569669425487518311e-01
4.421865940093994141e-01
4.220180809497833252e-01
5.684692859649658203e-01
7.595338225364685059e-01
3.366105854511260986e-01
4.519233107566833496e-01
4.308598637580871582e-01
5.035721063613891602e-01
4.124795198440551758e-01
4.613508284091949463e-01
4.605815708637237549e-01
3.940502107143402100e-01
2.917844653129577637e-01
3.530943691730499268e-01
4.369070529937744141e-01
4.217627644538879395e-01
3.391847908496856689e-01
3.247948884963989258e-01
3.448871970176696777e-01
4.309318065643310547e-01
3.912536501884460449e-01
3.427037298679351807e-01
4.386554360389709473e-01
3.904248774051666260e-01
6.475605368614196777e-01
3.584489822387695312e-01
4.370262622833251953e-01
2.285358011722564697e-01
3.836930990219116211e-01
5.269913673400878906e-01
4.466547369956970215e-01
3.802465200424194336e-01
4.018704593181610107e-01
3.024823963642120361e-01
3.332221806049346924e-01
3.622574806213378906e-01
6.705490946769714355e-01
2.703334093093872070e-01
2.756929099559783936e-01
3.579073548316955566e-01
6.754041910171508789e-01
4.000916481018066406e-01
3.604199290275573730e-01
4.842182397842407227e-01
4.196192622184753418e-01
2.758219838142395020e-01
3.698231279850006104e-01
4.108384251594543457e-01
3.375357389450073242e-01
3.528312444686889648e-01
4.183605611324310303e-01
3.686926960945129395e-01
3.484140634536743164e-01
3.477398157119750977e-01
3.668555617332458496e-01
3.507362604141235352e-01
3.690090179443359375e-01
5.777860879898071289e-01
3.593609333038330078e-01
3.333600759506225586e-01
3.644592165946960449e-01
4.086376428604125977e-01
4.151987731456756592e-01
3.209776282310485840e-01
3.606418967247009277e-01
3.545318543910980225e-01
3.855675160884857178e-01
3.428467214107513428e-01
3.980024158954620361e-01
3.810411989688873291e-01
3.471232056617736816e-01
3.884681463241577148e-01
3.370945155620574951e-01
4.032680392265319824e-01
3.413600623607635498e-01
4.102829098701477051e-01
3.167687952518463135e-01
4.124894440174102783e-01
5.073052644729614258e-01
6.820063591003417969e-01
3.574362993240356445e-01
4.605391919612884521e-01
4.075908660888671875e-01
3.789932727813720703e-01
3.801297247409820557e-01
3.579103052616119385e-01
2.977761030197143555e-01
3.297032117843627930e-01
3.839616477489471436e-01
4.089255034923553467e-01
3.815295398235321045e-01
3.954254984855651855e-01
3.755390644073486328e-01
2.700252532958984375e-01
2.467096745967864990e-01
3.208279013633728027e-01
6.224443316459655762e-01
2.407442331314086914e-01
5.254019498825073242e-01
3.552902042865753174e-01
3.221368193626403809e-01
3.401405811309814453e-01
3.757465183734893799e-01
3.251165747642517090e-01
3.213152885437011719e-01
3.111154437065124512e-01
2.806518673896789551e-01
3.575091361999511719e-01
4.026330411434173584e-01
5.916444659233093262e-01
4.049775004386901855e-01
3.456900119781494141e-01
3.772632479667663574e-01
3.524622917175292969e-01
4.324490129947662354e-01
3.577747344970703125e-01
4.164530932903289795e-01
3.220660686492919922e-01
3.923435807228088379e-01
3.969334065914154053e-01
4.107325375080108643e-01
3.044614195823669434e-01
6.336991786956787109e-01
4.523476958274841309e-01
2.471814155578613281e-01
3.245993256568908691e-01
4.336954951286315918e-01
4.696015715599060059e-01
4.165304601192474365e-01
3.559176325798034668e-01
3.317363858222961426e-01
3.575533330440521240e-01
3.599627315998077393e-01
3.407508134841918945e-01
2.751738429069519043e-01
3.477630913257598877e-01
4.019910693168640137e-01
2.869464755058288574e-01
6.092574596405029297e-01
3.686909675598144531e-01
3.413144350051879883e-01
3.359554111957550049e-01
3.726217746734619141e-01
6.537223458290100098e-01
7.211369276046752930e-01
5.629255175590515137e-01
3.202565312385559082e-01
4.701155722141265869e-01
3.189551532268524170e-01
2.867495417594909668e-01
1.968193352222442627e-01
3.505319356918334961e-01
2.953408658504486084e-01
3.430957198143005371e-01
3.896719515323638916e-01
3.020159006118774414e-01
3.238427042961120605e-01
3.855536580085754395e-01
3.294208645820617676e-01
4.364655613899230957e-01
3.933997154235839844e-01
4.001901149749755859e-01
6.967756152153015137e-01
3.494979143142700195e-01
2.358093559741973877e-01
2.969065904617309570e-01
5.973715186119079590e-01
4.177051186561584473e-01
3.553332686424255371e-01
2.982814311981201172e-01
4.255631864070892334e-01
3.596076965332031250e-01
2.212499678134918213e-01
3.298859596252441406e-01
3.000420331954956055e-01
4.455969631671905518e-01
3.051312565803527832e-01
3.455573320388793945e-01
4.030221104621887207e-01
3.506560027599334717e-01
2.935419678688049316e-01
2.995501756668090820e-01
3.022552132606506348e-01
2.755164206027984619e-01
3.972883522510528564e-01
3.565355539321899414e-01
3.650069236755371094e-01
2.536702752113342285e-01
3.342191576957702637e-01
6.998083591461181641e-01
3.140107095241546631e-01
3.080028891563415527e-01
4.120962619781494141e-01
2.319250404834747314e-01
2.873131632804870605e-01
4.207860231399536133e-01
3.362475633621215820e-01
3.552700281143188477e-01
3.656376600265502930e-01
2.478077411651611328e-01
2.601120173931121826e-01
4.436624646186828613e-01
3.773513436317443848e-01
2.743206620216369629e-01
2.936555743217468262e-01
5.006445646286010742e-01
2.955132126808166504e-01
3.687530755996704102e-01
4.648872315883636475e-01
6.952213048934936523e-01
5.088795423507690430e-01
2.657749056816101074e-01
4.226239919662475586e-01
4.281040132045745850e-01
4.447845518589019775e-01
3.779013752937316895e-01
6.836830377578735352e-01
3.099703788757324219e-01
3.353436291217803955e-01
3.484919667243957520e-01
3.463260531425476074e-01
3.248314857482910156e-01
6.781662702560424805e-01
3.837303817272186279e-01
3.669396936893463135e-01
4.765797853469848633e-01
4.582746624946594238e-01
4.709646999835968018e-01
4.798657298088073730e-01
4.718619883060455322e-01
4.205679893493652344e-01
3.636993467807769775e-01
8.554465770721435547e-01
4.157928228378295898e-01
4.737929999828338623e-01
4.467312693595886230e-01
3.941977024078369141e-01
4.050460159778594971e-01
3.411785364151000977e-01
3.325306475162506104e-01
5.497444272041320801e-01
6.311799883842468262e-01
4.057849943637847900e-01
3.581584692001342773e-01
5.293356180191040039e-01
5.447033047676086426e-01
4.386668503284454346e-01
4.441195130348205566e-01
4.588389396667480469e-01
4.432257711887359619e-01
4.137136340141296387e-01
4.286709725856781006e-01
3.541118502616882324e-01
3.655357360839843750e-01
4.578567743301391602e-01
6.174025535583496094e-01
3.541411161422729492e-01
4.778668582439422607e-01
3.511514663696289062e-01
5.073280334472656250e-01
3.487977385520935059e-01
3.331178426742553711e-01
3.409511148929595947e-01
3.511216640472412109e-01
5.232702493667602539e-01
5.552939772605895996e-01
4.168634116649627686e-01
7.061545252799987793e-01
3.189892470836639404e-01
3.421197235584259033e-01
3.439355492591857910e-01
3.522179722785949707e-01
3.101242780685424805e-01
3.037719428539276123e-01
3.521541357040405273e-01
3.479293584823608398e-01
4.561938941478729248e-01
3.549267053604125977e-01
3.300760686397552490e-01
3.692269325256347656e-01
3.468205928802490234e-01
2.767522037029266357e-01
3.118436932563781738e-01
3.756438493728637695e-01
2.984245419502258301e-01
3.146185278892517090e-01
2.903735041618347168e-01
2.845661342144012451e-01
3.613461256027221680e-01
5.607842206954956055e-01
3.930210471153259277e-01
3.475886583328247070e-01
3.115688562393188477e-01
2.902303934097290039e-01
6.607728004455566406e-01
4.577319324016571045e-01
4.036025106906890869e-01
3.491795659065246582e-01
3.166601061820983887e-01
3.610657453536987305e-01
4.973059594631195068e-01
2.954323589801788330e-01
5.924269556999206543e-01
3.544538617134094238e-01
6.843740940093994141e-01
3.427965044975280762e-01
3.198226392269134521e-01
3.391138911247253418e-01
3.050335645675659180e-01
4.071204364299774170e-01
3.482963144779205322e-01
3.364906907081604004e-01
3.070716261863708496e-01
3.517979979515075684e-01
3.304531574249267578e-01
3.225595951080322266e-01
3.553071022033691406e-01
3.524569272994995117e-01
3.338257074356079102e-01
3.253671526908874512e-01
3.129422068595886230e-01
2.888737320899963379e-01
3.166771531105041504e-01
3.248824775218963623e-01
3.376117348670959473e-01
2.682241201400756836e-01
3.293860554695129395e-01
3.398447036743164062e-01
3.255253434181213379e-01
3.387210369110107422e-01
3.175782561302185059e-01
3.542445898056030273e-01
2.936481535434722900e-01
3.334628343582153320e-01
3.298349380493164062e-01
2.978102862834930420e-01
3.617808222770690918e-01
3.317477107048034668e-01
4.713122546672821045e-01
3.532317876815795898e-01
3.346223235130310059e-01
3.191191256046295166e-01
3.170377016067504883e-01
3.198631405830383301e-01
3.117383718490600586e-01
3.202795684337615967e-01
2.982315719127655029e-01
2.745107412338256836e-01
3.618030548095703125e-01
3.094363212585449219e-01
3.652710914611816406e-01
3.357512056827545166e-01
3.092703819274902344e-01
3.192571997642517090e-01
3.092322945594787598e-01
2.866299748420715332e-01
2.887369394302368164e-01
3.151586353778839111e-01
3.314344882965087891e-01
3.092272877693176270e-01
3.475375771522521973e-01
2.981651425361633301e-01
3.664885461330413818e-01
3.325151801109313965e-01
3.336265683174133301e-01
3.270038068294525146e-01
3.134222030639648438e-01
2.993409037590026855e-01
2.932920455932617188e-01
3.344146013259887695e-01
3.250647783279418945e-01
3.444392085075378418e-01
2.289265394210815430e-01
3.282514214515686035e-01
3.207169175148010254e-01
3.082820177078247070e-01
3.452473878860473633e-01
3.345347046852111816e-01
3.251774907112121582e-01
3.624559640884399414e-01
3.514180183410644531e-01
3.303862214088439941e-01
3.401005268096923828e-01
2.948206067085266113e-01
3.081282377243041992e-01
3.376842141151428223e-01
4.198946952819824219e-01
3.381223678588867188e-01
3.118703365325927734e-01
3.293580710887908936e-01
3.476390540599822998e-01
3.322271108627319336e-01
3.275350928306579590e-01
3.281178474426269531e-01
3.159725666046142578e-01
3.134050071239471436e-01
3.083602488040924072e-01
3.562928438186645508e-01
3.242819309234619141e-01
3.360955715179443359e-01
3.530199229717254639e-01
3.303382396697998047e-01
3.673165738582611084e-01
3.944103121757507324e-01
4.058779478073120117e-01
3.860218226909637451e-01
5.407792925834655762e-01
3.247405290603637695e-01
4.456813335418701172e-01
4.337506294250488281e-01
3.508487045764923096e-01
3.364037871360778809e-01
3.376877307891845703e-01
3.192576169967651367e-01
2.679688036441802979e-01
3.420010805130004883e-01
3.009805083274841309e-01
3.213584423065185547e-01
3.993191421031951904e-01
3.367605209350585938e-01
9.445124864578247070e-01
3.072386384010314941e-01
3.643466234207153320e-01
3.378913700580596924e-01
3.437943458557128906e-01
4.274500608444213867e-01
4.257699847221374512e-01
4.107729196548461914e-01
3.391635417938232422e-01
3.319095373153686523e-01
4.292674958705902100e-01
3.326753973960876465e-01
4.227638840675354004e-01
3.546909391880035400e-01
2.414053678512573242e-01
3.321085870265960693e-01
3.176062107086181641e-01
3.331305384635925293e-01
3.232737183570861816e-01
3.231032490730285645e-01
3.269475996494293213e-01
3.034446537494659424e-01
3.107954859733581543e-01
2.884831428527832031e-01
3.323146700859069824e-01
3.209156990051269531e-01
3.088291883468627930e-01
3.416791558265686035e-01
3.270795941352844238e-01
3.254738748073577881e-01
3.000729084014892578e-01
3.055799603462219238e-01
3.566163182258605957e-01
5.565541386604309082e-01
3.684295415878295898e-01
4.187100827693939209e-01
3.549484908580780029e-01
3.581565618515014648e-01
5.834606289863586426e-01
3.718450665473937988e-01
4.031539559364318848e-01
4.989658594131469727e-01
4.018806219100952148e-01
2.768673300743103027e-01
3.365559875965118408e-01
4.285861551761627197e-01
3.997689485549926758e-01
4.636880159378051758e-01
5.775985121726989746e-01
2.565616369247436523e-01
3.700797557830810547e-01
3.366810679435729980e-01
2.483391463756561279e-01
2.563975453376770020e-01
2.897607982158660889e-01
2.236576080322265625e-01
3.049787878990173340e-01
2.954369187355041504e-01
2.443020939826965332e-01
3.210625052452087402e-01
3.854817450046539307e-01
3.003512024879455566e-01
2.441365420818328857e-01
3.143246471881866455e-01
2.789478302001953125e-01
2.421248257160186768e-01
2.615517973899841309e-01
2.646295428276062012e-01
2.299568951129913330e-01
2.373224794864654541e-01
2.742515206336975098e-01
2.246088981628417969e-01
2.405859827995300293e-01
2.532686591148376465e-01
2.661401629447937012e-01
2.718758285045623779e-01
2.538574934005737305e-01
2.628184258937835693e-01
2.454490959644317627e-01
2.128332257270812988e-01
2.808085978031158447e-01
2.590492367744445801e-01
2.711126804351806641e-01
2.649891376495361328e-01
2.489468157291412354e-01
2.403522133827209473e-01
2.559958100318908691e-01
2.292611598968505859e-01
2.700883150100708008e-01
3.006540536880493164e-01
2.680424451828002930e-01
2.955165207386016846e-01
2.650378346443176270e-01
2.644479572772979736e-01
2.752377688884735107e-01
2.842627763748168945e-01
2.776588797569274902e-01
2.512499690055847168e-01
5.302720069885253906e-01
5.109755992889404297e-01
4.137529134750366211e-01
2.387306094169616699e-01
3.895453214645385742e-01
2.099168896675109863e-01
3.679397106170654297e-01
2.677901983261108398e-01
2.792291641235351562e-01
2.995562553405761719e-01
6.377526521682739258e-01
3.549394905567169189e-01
3.270835876464843750e-01
3.362715840339660645e-01
2.420519292354583740e-01
2.446081638336181641e-01
3.359061181545257568e-01
3.308249115943908691e-01
3.344935178756713867e-01
3.240461945533752441e-01
3.260403871536254883e-01
3.279799222946166992e-01
3.370793461799621582e-01
2.877839207649230957e-01
3.543025851249694824e-01
3.340188264846801758e-01
4.942803382873535156e-01
3.952033519744873047e-01
3.194327950477600098e-01
3.096890449523925781e-01
3.644554913043975830e-01
3.735092580318450928e-01
3.316461443901062012e-01
3.470622301101684570e-01
3.386932611465454102e-01
3.430270552635192871e-01
3.506699502468109131e-01
3.017254471778869629e-01
3.365253806114196777e-01
2.674628794193267822e-01
3.724786937236785889e-01
3.374337553977966309e-01
3.165349364280700684e-01
3.248443603515625000e-01
3.468816280364990234e-01
3.588702082633972168e-01
3.603367209434509277e-01
3.748330473899841309e-01
3.506518006324768066e-01
5.812510848045349121e-01
2.031189799308776855e-01
3.472339510917663574e-01
2.820675969123840332e-01
3.527914285659790039e-01
3.602004051208496094e-01
3.941955864429473877e-01
2.854569554328918457e-01
2.772837579250335693e-01
2.482494413852691650e-01
2.415287494659423828e-01
2.384922206401824951e-01
2.124403715133666992e-01
2.767270803451538086e-01
2.472867965698242188e-01
7.324392795562744141e-01
4.094563126564025879e-01
9.194502830505371094e-01
4.018507301807403564e-01
3.249450922012329102e-01
3.166608512401580811e-01
2.847319245338439941e-01
4.965832829475402832e-01
3.672090768814086914e-01
3.740975856781005859e-01
5.223786234855651855e-01
3.720563054084777832e-01
3.531534671783447266e-01
3.303483128547668457e-01
3.732803165912628174e-01
3.875645995140075684e-01
2.721475362777709961e-01
