2.939530014991760254e-01
4.693477749824523926e-01
1.797739267349243164e-01
4.466252624988555908e-01
9.610422849655151367e-01
8.416895866394042969e-01
8.954578638076782227e-01
7.310776710510253906e-01
8.808277249336242676e-01
4.616431295871734619e-01
5.212062001228332520e-01
9.967046976089477539e-01
5.884344577789306641e-01
9.686908721923828125e-01
7.154692411422729492e-01
3.209551572799682617e-01
2.740686535835266113e-01
3.953848481178283691e-01
7.656287550926208496e-01
2.634915113449096680e-01
4.263893365859985352e-01
7.635735273361206055e-01
9.554086923599243164e-01
8.985875844955444336e-01
9.739159345626831055e-01
9.908156394958496094e-01
6.686927676200866699e-01
9.187240600585937500e-01
9.597194194793701172e-01
7.268341183662414551e-01
6.427077651023864746e-01
6.516547799110412598e-01
2.425077259540557861e-01
9.645613431930541992e-01
1.976977586746215820e-01
9.705761671066284180e-01
7.634153962135314941e-01
2.672920823097229004e-01
7.799328565597534180e-01
2.661803662776947021e-01
9.321499466896057129e-01
4.115601480007171631e-01
1.379527747631072998e-01
7.766195535659790039e-01
9.687721729278564453e-01
9.338409304618835449e-01
9.669302701950073242e-01
1.618405878543853760e-01
8.845586776733398438e-01
9.333296418190002441e-01
9.609018564224243164e-01
9.652888774871826172e-01
9.712735414505004883e-01
8.172817826271057129e-01
1.455361545085906982e-01
8.588118553161621094e-01
9.760718941688537598e-01
9.686459898948669434e-01
9.775409698486328125e-01
6.128085851669311523e-01
9.651305675506591797e-01
8.832079172134399414e-01
7.663173675537109375e-01
9.377686381340026855e-01
8.885979056358337402e-01
6.811101436614990234e-01
7.937449216842651367e-01
7.693949341773986816e-01
2.913399934768676758e-01
8.898326754570007324e-01
8.972374796867370605e-01
2.310464084148406982e-01
9.694422483444213867e-01
9.693342447280883789e-01
8.359063267707824707e-01
9.549809694290161133e-01
5.290794372558593750e-01
1.849520206451416016e-01
9.755187630653381348e-01
9.620932340621948242e-01
8.329584598541259766e-01
3.578883111476898193e-01
7.042484879493713379e-01
9.046339988708496094e-01
8.688910603523254395e-01
7.655731439590454102e-01
9.296565055847167969e-01
7.343352437019348145e-01
9.664541482925415039e-01
9.880925416946411133e-01
9.686769247055053711e-01
8.869594335556030273e-01
9.559659957885742188e-01
6.495881676673889160e-01
9.582787752151489258e-01
9.688912630081176758e-01
8.950700163841247559e-01
8.784943819046020508e-01
2.233926653861999512e-01
1.739017665386199951e-01
8.594166040420532227e-01
9.259165525436401367e-01
2.155148684978485107e-01
9.718346595764160156e-01
7.990125417709350586e-01
8.404699563980102539e-01
2.361291944980621338e-01
4.599939286708831787e-01
3.132036328315734863e-01
5.457449555397033691e-01
5.482661724090576172e-01
9.144250750541687012e-01
9.555850028991699219e-01
2.555716633796691895e-01
9.496826529502868652e-01
9.645149707794189453e-01
1.393096446990966797e-01
6.963382959365844727e-01
7.569155693054199219e-01
9.654753208160400391e-01
9.526950120925903320e-01
4.312167763710021973e-01
7.065454125404357910e-01
9.269015789031982422e-01
2.365326881408691406e-01
4.859543442726135254e-01
3.444334864616394043e-01
9.755255579948425293e-01
9.693588018417358398e-01
7.398294210433959961e-01
1.605389714241027832e-01
5.249674320220947266e-01
1.569785475730895996e-01
9.812248945236206055e-01
4.014354646205902100e-01
9.438488483428955078e-01
9.096893072128295898e-01
9.486961364746093750e-01
9.855532646179199219e-01
9.180073738098144531e-01
9.660862684249877930e-01
9.735075235366821289e-01
7.675559520721435547e-01
9.206584095954895020e-01
8.233538866043090820e-01
2.488084733486175537e-01
3.683999776840209961e-01
9.319409728050231934e-01
2.568379938602447510e-01
3.574529886245727539e-01
8.517149090766906738e-01
5.103132724761962891e-01
9.442716836929321289e-01
4.568958580493927002e-01
9.320788383483886719e-01
4.028050899505615234e-01
7.639552354812622070e-01
5.991817116737365723e-01
5.971470475196838379e-01
4.168759882450103760e-01
7.892177700996398926e-01
9.623922705650329590e-01
9.731942415237426758e-01
5.144240856170654297e-01
4.970528483390808105e-01
2.643830180168151855e-01
9.077489972114562988e-01
9.517881870269775391e-01
8.283345699310302734e-01
5.358236432075500488e-01
3.352489471435546875e-01
1.905966699123382568e-01
9.004712104797363281e-01
6.006988286972045898e-01
2.445092797279357910e-01
1.993663907051086426e-01
7.266483306884765625e-01
8.192127346992492676e-01
8.067683577537536621e-01
4.747800529003143311e-01
9.687247276306152344e-01
7.672387957572937012e-01
9.651100635528564453e-01
9.723645448684692383e-01
8.814063072204589844e-01
9.969616532325744629e-01
8.246659040451049805e-01
9.383443593978881836e-01
2.276910245418548584e-01
2.326132953166961670e-01
8.659453392028808594e-01
9.659174084663391113e-01
2.104758322238922119e-01
1.372952759265899658e-01
8.076365590095520020e-01
5.859745740890502930e-01
2.980856001377105713e-01
9.265903234481811523e-01
7.192723155021667480e-01
9.565271139144897461e-01
4.090852439403533936e-01
9.070225954055786133e-01
1.653186082839965820e-01
6.801194548606872559e-01
6.191954612731933594e-01
5.769113898277282715e-01
9.598799943923950195e-01
9.766091108322143555e-01
1.349345445632934570e-01
9.176933169364929199e-01
6.976277828216552734e-01
4.028190672397613525e-01
5.959587097167968750e-01
3.947671055793762207e-01
8.440992236137390137e-01
9.288072586059570312e-01
9.006956815719604492e-01
7.665753960609436035e-01
9.165349006652832031e-01
7.184506654739379883e-01
8.744094371795654297e-01
5.618838667869567871e-01
9.683005809783935547e-01
1.956042349338531494e-01
9.462649226188659668e-01
5.988000035285949707e-01
9.962504506111145020e-01
4.288852512836456299e-01
9.721627235412597656e-01
6.767102479934692383e-01
9.647387862205505371e-01
9.568809270858764648e-01
9.803203344345092773e-01
7.698630094528198242e-01
2.580128610134124756e-01
9.297730922698974609e-01
8.740942478179931641e-01
9.518367052078247070e-01
9.646390676498413086e-01
6.949055790901184082e-01
3.895310759544372559e-01
5.709533095359802246e-01
1.507722735404968262e-01
3.331503868103027344e-01
9.728487730026245117e-01
7.880277633666992188e-01
4.146941304206848145e-01
6.815031766891479492e-01
4.282509684562683105e-01
9.491057991981506348e-01
6.955024003982543945e-01
8.365479707717895508e-01
6.975333690643310547e-01
9.732064008712768555e-01
8.357146978378295898e-01
9.434511661529541016e-01
4.505199491977691650e-01
1.441441774368286133e-01
9.378442168235778809e-01
1.917074620723724365e-01
8.600835800170898438e-01
9.462106227874755859e-01
9.275211095809936523e-01
9.419245123863220215e-01
7.355126738548278809e-01
9.629944562911987305e-01
8.582924604415893555e-01
7.406374812126159668e-01
9.061248302459716797e-01
2.039663493633270264e-01
9.428286552429199219e-01
2.254954576492309570e-01
3.793790936470031738e-01
8.743479251861572266e-01
6.143438220024108887e-01
9.559786915779113770e-01
9.365509748458862305e-01
8.185074329376220703e-01
2.362785041332244873e-01
3.176919221878051758e-01
8.290824294090270996e-01
9.393966197967529297e-01
1.828736364841461182e-01
9.370840191841125488e-01
8.665937185287475586e-01
1.370903849601745605e-01
9.704354405403137207e-01
4.822008609771728516e-01
7.949414253234863281e-01
8.259672522544860840e-01
9.771291017532348633e-01
9.669191837310791016e-01
4.213897883892059326e-01
8.331730365753173828e-01
9.531689882278442383e-01
9.744874835014343262e-01
9.396541118621826172e-01
3.640544116497039795e-01
5.409436821937561035e-01
9.574022293090820312e-01
9.939095973968505859e-01
9.530417919158935547e-01
8.383056521415710449e-01
9.420753121376037598e-01
3.187449574470520020e-01
9.560634493827819824e-01
9.586443901062011719e-01
9.269720315933227539e-01
9.284718632698059082e-01
3.869209587574005127e-01
6.370860934257507324e-01
4.910213351249694824e-01
9.619057178497314453e-01
4.543972015380859375e-01
6.227248311042785645e-01
9.662387371063232422e-01
7.791083455085754395e-01
9.503782987594604492e-01
9.166089296340942383e-01
9.705634117126464844e-01
2.566366195678710938e-01
7.952095866203308105e-01
3.975310325622558594e-01
6.855510473251342773e-01
1.493456661701202393e-01
8.980441689491271973e-01
3.793423175811767578e-01
7.070498466491699219e-01
9.595540165901184082e-01
3.098570108413696289e-01
9.737409353256225586e-01
4.932942986488342285e-01
9.643449187278747559e-01
9.692090749740600586e-01
8.440068364143371582e-01
7.477402091026306152e-01
9.694393277168273926e-01
3.640047907829284668e-01
9.406613111495971680e-01
5.284518599510192871e-01
4.130424857139587402e-01
3.744975924491882324e-01
1.965571641921997070e-01
9.552121162414550781e-01
9.755439758300781250e-01
7.975385189056396484e-01
6.519321799278259277e-01
9.649727344512939453e-01
2.421145439147949219e-01
8.589382171630859375e-01
8.763859272003173828e-01
6.285541653633117676e-01
2.918252050876617432e-01
7.967802882194519043e-01
9.752618670463562012e-01
7.147041559219360352e-01
9.710745811462402344e-01
7.736968398094177246e-01
6.540596485137939453e-01
7.446348667144775391e-01
4.603103697299957275e-01
3.246070742607116699e-01
9.933385252952575684e-02
1.372438669204711914e-01
5.640738606452941895e-01
9.674748778343200684e-01
9.595812559127807617e-01
6.111773252487182617e-01
4.174200296401977539e-01
9.485855102539062500e-01
7.992109060287475586e-01
9.706799983978271484e-01
9.517725706100463867e-01
8.881965875625610352e-01
9.467760920524597168e-01
9.711002707481384277e-01
9.739203453063964844e-01
3.617413640022277832e-01
7.527362108230590820e-01
8.412486910820007324e-01
9.772953987121582031e-01
8.027126789093017578e-01
9.247814416885375977e-01
9.398576021194458008e-01
1.897870600223541260e-01
3.845201432704925537e-01
6.165977716445922852e-01
9.668107628822326660e-01
4.107620120048522949e-01
5.048027038574218750e-01
9.505856037139892578e-01
7.516356110572814941e-01
9.589705467224121094e-01
5.453402996063232422e-01
4.368881881237030029e-01
8.682982921600341797e-01
5.559457540512084961e-01
8.111846446990966797e-01
3.914982974529266357e-01
2.214655876159667969e-01
2.028192877769470215e-01
9.802016019821166992e-01
1.733155250549316406e-01
9.588669538497924805e-01
5.257347822189331055e-01
8.982272744178771973e-01
8.674560785293579102e-01
8.374516963958740234e-01
9.544761180877685547e-01
6.888737678527832031e-01
5.355038046836853027e-01
1.763364672660827637e-01
3.260508179664611816e-01
9.716780185699462891e-01
2.458711564540863037e-01
4.895786046981811523e-01
1.562947332859039307e-01
1.436665058135986328e-01
9.484219551086425781e-01
6.725280880928039551e-01
9.378294944763183594e-01
9.610291719436645508e-01
5.793621540069580078e-01
8.495951890945434570e-01
5.652764439582824707e-01
9.619623422622680664e-01
9.370954036712646484e-01
8.377603292465209961e-01
9.534998536109924316e-01
4.388477504253387451e-01
3.210481405258178711e-01
9.295768737792968750e-01
5.513236522674560547e-01
9.687354564666748047e-01
8.378367424011230469e-01
7.853772640228271484e-01
2.273541390895843506e-01
3.953364789485931396e-01
2.470020055770874023e-01
6.646405458450317383e-01
1.891962885856628418e-01
9.616082906723022461e-01
9.765970706939697266e-01
3.100021481513977051e-01
4.014016389846801758e-01
1.859993338584899902e-01
3.989874422550201416e-01
9.667433500289916992e-01
9.148538708686828613e-01
9.418517947196960449e-01
3.463204503059387207e-01
1.331096589565277100e-01
5.745662450790405273e-01
9.695407152175903320e-01
8.958649635314941406e-01
7.941990494728088379e-01
9.419151544570922852e-01
5.088075995445251465e-01
9.478080272674560547e-01
9.049555063247680664e-01
7.206679582595825195e-01
9.687416553497314453e-01
8.234612345695495605e-01
2.515582442283630371e-01
9.686436653137207031e-01
8.066092729568481445e-01
9.554170370101928711e-01
6.723822355270385742e-01
9.524290561676025391e-01
8.871116638183593750e-01
8.806608915328979492e-01
9.676363468170166016e-01
1.425113976001739502e-01
9.753706455230712891e-01
9.923489093780517578e-01
9.393714666366577148e-01
7.063558697700500488e-01
3.044283986091613770e-01
3.140399754047393799e-01
4.685587286949157715e-01
9.435353279113769531e-01
9.555017948150634766e-01
9.533012509346008301e-01
8.421736955642700195e-01
3.064926862716674805e-01
2.947024106979370117e-01
9.478598833084106445e-01
2.495563626289367676e-01
1.722985208034515381e-01
2.401924431324005127e-01
4.000096917152404785e-01
7.769122719764709473e-01
5.900404453277587891e-01
9.000587463378906250e-01
9.658380746841430664e-01
8.218997716903686523e-01
8.881872296333312988e-01
9.032213687896728516e-01
4.125409722328186035e-01
8.030354976654052734e-01
2.537555396556854248e-01
2.218978703022003174e-01
1.359728872776031494e-01
1.645739674568176270e-01
1.468591690063476562e-01
1.421089172363281250e-01
4.164995551109313965e-01
6.646521687507629395e-01
7.122666239738464355e-01
2.312826812267303467e-01
2.560954689979553223e-01
2.534219324588775635e-01
4.117951393127441406e-01
2.002490460872650146e-01
2.470639944076538086e-01
2.030069530010223389e-01
2.102599740028381348e-01
1.771350204944610596e-01
1.495906114578247070e-01
1.774888038635253906e-01
3.167568147182464600e-01
3.909449577331542969e-01
1.452420055866241455e-01
4.954197406768798828e-01
9.530417919158935547e-01
1.372434198856353760e-01
3.225064873695373535e-01
8.234612345695495605e-01
3.881377577781677246e-01
1.546396613121032715e-01
2.630380988121032715e-01
3.035106062889099121e-01
1.407569646835327148e-01
3.200771808624267578e-01
5.195652842521667480e-01
2.543331980705261230e-01
3.300582170486450195e-01
1.572327017784118652e-01
1.537722945213317871e-01
3.493438065052032471e-01
6.442890763282775879e-01
1.590752899646759033e-01
1.886938810348510742e-01
3.431115150451660156e-01
2.541562318801879883e-01
1.898429691791534424e-01
1.619576513767242432e-01
2.880702018737792969e-01
5.557663440704345703e-01
1.714505255222320557e-01
2.113710641860961914e-01
2.549706697463989258e-01
9.683465957641601562e-01
5.231066942214965820e-01
1.612336337566375732e-01
5.016575455665588379e-01
4.922115802764892578e-01
1.813051700592041016e-01
1.552420854568481445e-01
2.944562435150146484e-01
1.983176469802856445e-01
3.046043813228607178e-01
5.173984766006469727e-01
5.205153822898864746e-01
4.321182370185852051e-01
3.161749243736267090e-01
3.101089596748352051e-01
1.913955509662628174e-01
5.996957421302795410e-01
1.895482242107391357e-01
6.167550683021545410e-01
1.512347757816314697e-01
1.227308511734008789e-01
1.374156475067138672e-01
1.514853835105895996e-01
2.332871854305267334e-01
3.456941246986389160e-01
1.703820824623107910e-01
4.445056915283203125e-01
1.239331662654876709e-01
7.007185220718383789e-01
2.106981575489044189e-01
8.910546302795410156e-01
1.587154567241668701e-01
3.618801236152648926e-01
1.237020790576934814e-01
2.683725953102111816e-01
4.217376410961151123e-01
3.279538750648498535e-01
2.134842872619628906e-01
2.580316066741943359e-01
3.386676907539367676e-01
1.430105268955230713e-01
1.354581713676452637e-01
1.235662400722503662e-01
4.933664202690124512e-01
8.233082890510559082e-01
3.150150775909423828e-01
9.646934270858764648e-01
2.033851146697998047e-01
1.988260746002197266e-01
2.630705833435058594e-01
1.528420746326446533e-01
1.665249466896057129e-01
5.796836018562316895e-01
1.792519688606262207e-01
3.229829967021942139e-01
8.088833093643188477e-01
1.734201014041900635e-01
2.813253700733184814e-01
8.583488464355468750e-01
3.331881165504455566e-01
4.195556640625000000e-01
2.162277996540069580e-01
3.432133793830871582e-01
9.390612840652465820e-01
1.820702552795410156e-01
6.527242064476013184e-01
3.809413909912109375e-01
1.285995543003082275e-01
2.757363319396972656e-01
1.663028001785278320e-01
2.228159904479980469e-01
4.344641566276550293e-01
1.793938279151916504e-01
1.667394340038299561e-01
2.371150255203247070e-01
1.608592271804809570e-01
1.367764472961425781e-01
1.640791296958923340e-01
3.815791010856628418e-01
5.032953619956970215e-01
6.877252459526062012e-01
8.403783440589904785e-01
2.734717130661010742e-01
1.455514132976531982e-01
1.443243622779846191e-01
1.501616835594177246e-01
2.978218793869018555e-01
5.747780203819274902e-01
2.383993268013000488e-01
1.918374300003051758e-01
1.764509081840515137e-01
2.388888299465179443e-01
1.406095027923583984e-01
1.774448752403259277e-01
2.426441609859466553e-01
7.168070673942565918e-01
1.774896383285522461e-01
1.632277965545654297e-01
1.395047605037689209e-01
3.292234539985656738e-01
1.562786996364593506e-01
1.620101928710937500e-01
1.498980820178985596e-01
1.349393725395202637e-01
1.415058970451354980e-01
4.483233988285064697e-01
1.613750457763671875e-01
4.003203511238098145e-01
1.366574466228485107e-01
1.457566618919372559e-01
1.499324738979339600e-01
9.423017501831054688e-01
2.693824172019958496e-01
2.027118206024169922e-01
1.454033255577087402e-01
4.150156378746032715e-01
2.032918334007263184e-01
9.607955217361450195e-01
1.120956242084503174e-01
3.664599359035491943e-01
1.258098185062408447e-01
9.187989234924316406e-01
3.514399528503417969e-01
3.845767974853515625e-01
4.693513214588165283e-01
6.686927676200866699e-01
2.134471535682678223e-01
1.664843857288360596e-01
7.164963483810424805e-01
4.828620254993438721e-01
2.809967696666717529e-01
1.539795398712158203e-01
1.599697768688201904e-01
3.017941713333129883e-01
3.775721788406372070e-01
2.912840545177459717e-01
2.772660255432128906e-01
3.770575821399688721e-01
1.934953331947326660e-01
2.237460613250732422e-01
8.471202254295349121e-01
4.452981650829315186e-01
1.828103959560394287e-01
1.672078371047973633e-01
9.696177244186401367e-01
1.987530887126922607e-01
2.397657930850982666e-01
3.718647956848144531e-01
1.467679440975189209e-01
5.912333130836486816e-01
1.213826239109039307e-01
1.528407931327819824e-01
2.029289007186889648e-01
4.146901965141296387e-01
1.822924911975860596e-01
2.069833278656005859e-01
1.710557937622070312e-01
1.624688804149627686e-01
1.837249398231506348e-01
2.034151256084442139e-01
3.444478511810302734e-01
2.707744836807250977e-01
1.092162430286407471e-01
5.037208199501037598e-01
3.093180060386657715e-01
5.735000967979431152e-01
3.992888331413269043e-01
3.687415719032287598e-01
1.194866001605987549e-01
2.487689256668090820e-01
1.390301287174224854e-01
1.634204685688018799e-01
2.370544970035552979e-01
1.717266738414764404e-01
2.740119099617004395e-01
1.441046297550201416e-01
3.366910219192504883e-01
2.015811800956726074e-01
2.193335294723510742e-01
1.713418662548065186e-01
5.243896245956420898e-01
2.242454588413238525e-01
2.371670901775360107e-01
2.001635432243347168e-01
1.449874341487884521e-01
1.566400527954101562e-01
2.079783380031585693e-01
4.015405476093292236e-01
2.241926193237304688e-01
2.290855646133422852e-01
1.595369875431060791e-01
2.062610387802124023e-01
2.194446325302124023e-01
1.420177817344665527e-01
1.687835454940795898e-01
2.264048755168914795e-01
1.351453065872192383e-01
2.558744847774505615e-01
1.751679778099060059e-01
3.032828569412231445e-01
1.741535067558288574e-01
3.175901770591735840e-01
1.153727471828460693e-01
1.889528036117553711e-01
4.773751497268676758e-01
2.858791351318359375e-01
1.691818833351135254e-01
2.933973670005798340e-01
3.010509312152862549e-01
1.855376362800598145e-01
1.942604482173919678e-01
2.102044522762298584e-01
2.003686726093292236e-01
2.429822087287902832e-01
1.501125693321228027e-01
1.702187657356262207e-01
1.205607056617736816e-01
1.501485407352447510e-01
1.368410289287567139e-01
1.461925208568572998e-01
1.819120645523071289e-01
1.494986712932586670e-01
4.281806945800781250e-01
4.558172821998596191e-01
5.969853401184082031e-01
7.019773721694946289e-01
2.430870234966278076e-01
5.128700137138366699e-01
2.363395094871520996e-01
2.704468369483947754e-01
3.695461750030517578e-01
2.235991358757019043e-01
5.702491402626037598e-01
1.592307984828948975e-01
2.254412770271301270e-01
2.066587805747985840e-01
1.609267890453338623e-01
1.879518032073974609e-01
1.495925188064575195e-01
3.323028087615966797e-01
2.637802362442016602e-01
1.890528798103332520e-01
1.539092957973480225e-01
2.978551983833312988e-01
1.944692730903625488e-01
4.374166131019592285e-01
3.007066845893859863e-01
1.738067269325256348e-01
1.347470581531524658e-01
1.472219526767730713e-01
1.300434768199920654e-01
1.816172301769256592e-01
1.534737348556518555e-01
7.720487117767333984e-01
5.343119502067565918e-01
7.328821420669555664e-01
1.663991212844848633e-01
6.638177633285522461e-01
3.237442970275878906e-01
3.251702189445495605e-01
3.778733015060424805e-01
1.497924029827117920e-01
1.677588820457458496e-01
1.925041377544403076e-01
2.377224564552307129e-01
3.504127264022827148e-01
1.667684018611907959e-01
5.490229129791259766e-01
2.614188790321350098e-01
1.443025469779968262e-01
8.914465904235839844e-01
3.549323678016662598e-01
7.343509793281555176e-01
1.646787226200103760e-01
2.094410955905914307e-01
2.138456106185913086e-01
3.253126740455627441e-01
2.261095046997070312e-01
1.938715279102325439e-01
3.728410601615905762e-01
4.276980161666870117e-01
1.745816469192504883e-01
1.516055464744567871e-01
1.855627298355102539e-01
1.456263065338134766e-01
1.663837730884552002e-01
1.698035001754760742e-01
1.596699357032775879e-01
1.474277079105377197e-01
4.125236272811889648e-01
4.402323961257934570e-01
2.118057012557983398e-01
6.160011887550354004e-01
3.369376659393310547e-01
8.929733633995056152e-01
9.006956815719604492e-01
2.300991415977478027e-01
2.037972211837768555e-01
2.922364473342895508e-01
1.652634143829345703e-01
5.589197278022766113e-01
4.450500011444091797e-01
1.306565701961517334e-01
1.608709394931793213e-01
6.465103626251220703e-01
1.583976149559020996e-01
1.599528491497039795e-01
1.961006224155426025e-01
4.667683541774749756e-01
5.614706277847290039e-01
7.785363197326660156e-01
2.179525196552276611e-01
7.840164303779602051e-01
2.028429508209228516e-01
5.391531586647033691e-01
2.860658764839172363e-01
5.390218496322631836e-01
2.546442151069641113e-01
2.738881707191467285e-01
4.291528463363647461e-01
9.568809270858764648e-01
1.982083916664123535e-01
2.212329804897308350e-01
1.703170835971832275e-01
1.899345815181732178e-01
1.735649704933166504e-01
4.930207133293151855e-01
3.355318009853363037e-01
2.646444141864776611e-01
1.837721168994903564e-01
1.515043973922729492e-01
2.216771245002746582e-01
2.749713063240051270e-01
1.210594177246093750e-01
1.481410861015319824e-01
2.026980221271514893e-01
1.735819876194000244e-01
7.344525456428527832e-01
6.186259984970092773e-01
2.331982851028442383e-01
1.431820392608642578e-01
2.054803073406219482e-01
3.082749247550964355e-01
1.541314125061035156e-01
3.706549406051635742e-01
2.104248702526092529e-01
1.271630823612213135e-01
1.291292011737823486e-01
1.799055933952331543e-01
1.733745634555816650e-01
1.811221539974212646e-01
3.042242527008056641e-01
1.393415927886962891e-01
9.650100469589233398e-01
2.993210554122924805e-01
1.779297888278961182e-01
1.462391018867492676e-01
2.078869044780731201e-01
1.616851985454559326e-01
2.679043114185333252e-01
2.864691615104675293e-01
2.156780660152435303e-01
1.402288675308227539e-01
2.038537263870239258e-01
1.766806244850158691e-01
1.608734130859375000e-01
2.481979429721832275e-01
1.696804761886596680e-01
1.596475243568420410e-01
3.976441621780395508e-01
1.266742348670959473e-01
1.500532329082489014e-01
4.706631302833557129e-01
1.719389855861663818e-01
1.506096422672271729e-01
1.656679511070251465e-01
5.961645841598510742e-01
1.854910254478454590e-01
1.613833308219909668e-01
2.719818055629730225e-01
1.783272325992584229e-01
2.891470193862915039e-01
1.951389312744140625e-01
3.736956715583801270e-01
1.890352368354797363e-01
6.050184965133666992e-01
2.821832895278930664e-01
1.832673549652099609e-01
4.006727933883666992e-01
1.380375027656555176e-01
4.833385050296783447e-01
1.603812575340270996e-01
1.738045215606689453e-01
2.314036488533020020e-01
2.102418243885040283e-01
2.879090905189514160e-01
1.761560440063476562e-01
2.031339108943939209e-01
2.714283168315887451e-01
4.236668646335601807e-01
1.746115684509277344e-01
3.187389373779296875e-01
1.748145222663879395e-01
2.951582074165344238e-01
1.736287772655487061e-01
2.872424721717834473e-01
3.414344489574432373e-01
3.524831533432006836e-01
2.616690099239349365e-01
4.988911747932434082e-01
4.092759490013122559e-01
1.444738805294036865e-01
2.569332122802734375e-01
3.927643001079559326e-01
1.417066752910614014e-01
6.041190028190612793e-01
1.638680398464202881e-01
1.839126348495483398e-01
1.369454264640808105e-01
4.109624624252319336e-01
1.730059981346130371e-01
2.310757637023925781e-01
1.598032116889953613e-01
2.831672132015228271e-01
3.189494609832763672e-01
1.574196517467498779e-01
1.478745341300964355e-01
2.822261452674865723e-01
4.191012978553771973e-01
1.212188899517059326e-01
1.421604156494140625e-01
2.279280424118041992e-01
1.751864552497863770e-01
3.430728912353515625e-01
1.823806762695312500e-01
5.989134311676025391e-01
1.410171389579772949e-01
1.821146011352539062e-01
2.349746823310852051e-01
3.677512407302856445e-01
2.972484230995178223e-01
2.636113166809082031e-01
1.509430706501007080e-01
1.703781485557556152e-01
5.315036773681640625e-01
6.684179902076721191e-01
1.710745990276336670e-01
4.159606993198394775e-01
