1.996961593627929688e+00
9.969616532325744629e-01
9.704354405403137207e-01
9.696177244186401367e-01
9.686436653137207031e-01
9.683465957641601562e-01
9.651100635528564453e-01
9.650100469589233398e-01
9.647387862205505371e-01
9.646934270858764648e-01
9.609018564224243164e-01
9.607955217361450195e-01
9.574022293090820312e-01
9.568809270858764648e-01
9.531689882278442383e-01
9.530417919158935547e-01
9.428286552429199219e-01
9.423017501831054688e-01
9.393714666366577148e-01
9.390612840652465820e-01
9.206584095954895020e-01
9.187989234924316406e-01
9.032213687896728516e-01
9.006956815719604492e-01
8.950700163841247559e-01
8.910546302795410156e-01
8.588118553161621094e-01
8.583488464355468750e-01
8.495951890945434570e-01
8.471202254295349121e-01
8.404699563980102539e-01
8.403783440589904785e-01
8.246659040451049805e-01
8.234612345695495605e-01
8.233538866043090820e-01
8.233082890510559082e-01
8.111846446990966797e-01
8.088833093643188477e-01
7.853772640228271484e-01
7.840164303779602051e-01
7.791083455085754395e-01
7.785363197326660156e-01
7.736968398094177246e-01
7.720487117767333984e-01
7.355126738548278809e-01
7.343509793281555176e-01
7.343352437019348145e-01
7.328821420669555664e-01
7.184506654739379883e-01
7.164963483810424805e-01
7.147041559219360352e-01
7.122666239738464355e-01
7.042484879493713379e-01
7.007185220718383789e-01
6.888737678527832031e-01
6.877252459526062012e-01
6.723822355270385742e-01
6.686927676200866699e-01
6.646521687507629395e-01
6.646405458450317383e-01
6.638177633285522461e-01
6.540596485137939453e-01
6.527242064476013184e-01
6.495881676673889160e-01
6.442890763282775879e-01
6.191954612731933594e-01
6.167550683021545410e-01
6.165977716445922852e-01
6.160011887550354004e-01
6.111773252487182617e-01
6.041190028190612793e-01
6.006988286972045898e-01
5.996957421302795410e-01
5.991817116737365723e-01
5.989134311676025391e-01
5.971470475196838379e-01
5.961645841598510742e-01
5.959587097167968750e-01
5.912333130836486816e-01
5.859745740890502930e-01
5.796836018562316895e-01
5.769113898277282715e-01
5.747780203819274902e-01
5.745662450790405273e-01
5.735000967979431152e-01
5.709533095359802246e-01
5.702491402626037598e-01
5.618838667869567871e-01
5.589197278022766113e-01
5.559457540512084961e-01
5.557663440704345703e-01
5.513236522674560547e-01
5.490229129791259766e-01
5.409436821937561035e-01
5.390218496322631836e-01
5.355038046836853027e-01
5.315036773681640625e-01
5.249674320220947266e-01
5.231066942214965820e-01
5.212062001228332520e-01
5.173984766006469727e-01
5.144240856170654297e-01
5.128700137138366699e-01
5.048027038574218750e-01
4.988911747932434082e-01
4.970528483390808105e-01
4.933664202690124512e-01
4.932942986488342285e-01
4.922115802764892578e-01
4.859543442726135254e-01
4.828620254993438721e-01
4.822008609771728516e-01
4.773751497268676758e-01
4.747800529003143311e-01
4.693513214588165283e-01
4.685587286949157715e-01
4.667683541774749756e-01
4.568958580493927002e-01
4.558172821998596191e-01
4.505199491977691650e-01
4.483233988285064697e-01
4.466252624988555908e-01
4.402323961257934570e-01
4.388477504253387451e-01
4.374166131019592285e-01
4.368881881237030029e-01
4.321182370185852051e-01
4.312167763710021973e-01
4.291528463363647461e-01
4.282509684562683105e-01
4.276980161666870117e-01
4.263893365859985352e-01
4.217376410961151123e-01
4.213897883892059326e-01
4.191012978553771973e-01
4.168759882450103760e-01
4.150156378746032715e-01
4.146941304206848145e-01
4.146901965141296387e-01
4.125409722328186035e-01
4.117951393127441406e-01
4.115601480007171631e-01
4.109624624252319336e-01
4.107620120048522949e-01
4.092759490013122559e-01
4.028050899505615234e-01
4.015405476093292236e-01
4.014016389846801758e-01
4.003203511238098145e-01
4.000096917152404785e-01
3.992888331413269043e-01
3.989874422550201416e-01
3.976441621780395508e-01
3.947671055793762207e-01
3.927643001079559326e-01
3.914982974529266357e-01
3.909449577331542969e-01
3.895310759544372559e-01
3.881377577781677246e-01
3.869209587574005127e-01
3.845767974853515625e-01
3.845201432704925537e-01
3.809413909912109375e-01
3.793423175811767578e-01
3.770575821399688721e-01
3.744975924491882324e-01
3.687415719032287598e-01
3.683999776840209961e-01
3.664599359035491943e-01
3.640047907829284668e-01
3.618801236152648926e-01
3.574529886245727539e-01
3.493438065052032471e-01
3.463204503059387207e-01
3.444478511810302734e-01
3.444334864616394043e-01
3.355318009853363037e-01
3.352489471435546875e-01
3.331881165504455566e-01
3.331503868103027344e-01
3.279538750648498535e-01
3.260508179664611816e-01
3.251702189445495605e-01
3.246070742607116699e-01
3.225064873695373535e-01
3.209551572799682617e-01
3.189494609832763672e-01
3.187449574470520020e-01
3.187389373779296875e-01
3.176919221878051758e-01
3.150150775909423828e-01
3.132036328315734863e-01
3.101089596748352051e-01
3.098570108413696289e-01
3.082749247550964355e-01
3.064926862716674805e-01
3.046043813228607178e-01
3.044283986091613770e-01
2.993210554122924805e-01
2.980856001377105713e-01
2.951582074165344238e-01
2.947024106979370117e-01
2.944562435150146484e-01
2.939530014991760254e-01
2.922364473342895508e-01
2.913399934768676758e-01
2.749713063240051270e-01
2.740686535835266113e-01
2.679043114185333252e-01
2.661803662776947021e-01
2.646444141864776611e-01
2.643830180168151855e-01
2.636113166809082031e-01
2.634915113449096680e-01
2.580316066741943359e-01
2.580128610134124756e-01
2.569332122802734375e-01
2.566366195678710938e-01
2.558744847774505615e-01
2.555716633796691895e-01
2.534219324588775635e-01
2.488084733486175537e-01
2.470639944076538086e-01
2.445092797279357910e-01
2.426441609859466553e-01
2.401924431324005127e-01
2.370544970035552979e-01
2.365326881408691406e-01
2.363395094871520996e-01
2.361291944980621338e-01
2.331982851028442383e-01
2.326132953166961670e-01
2.310757637023925781e-01
2.310464084148406982e-01
2.279280424118041992e-01
2.273541390895843506e-01
2.261095046997070312e-01
2.254954576492309570e-01
2.235991358757019043e-01
2.233926653861999512e-01
2.216771245002746582e-01
2.214655876159667969e-01
2.156780660152435303e-01
2.155148684978485107e-01
2.106981575489044189e-01
2.104758322238922119e-01
2.054803073406219482e-01
2.039663493633270264e-01
2.028429508209228516e-01
2.028192877769470215e-01
2.001635432243347168e-01
1.993663907051086426e-01
1.982083916664123535e-01
1.965571641921997070e-01
1.961006224155426025e-01
1.956042349338531494e-01
1.918374300003051758e-01
1.917074620723724365e-01
1.913955509662628174e-01
1.905966699123382568e-01
1.898429691791534424e-01
1.897870600223541260e-01
1.895482242107391357e-01
1.891962885856628418e-01
1.879518032073974609e-01
1.859993338584899902e-01
1.854910254478454590e-01
1.849520206451416016e-01
1.832673549652099609e-01
1.828736364841461182e-01
1.799055933952331543e-01
1.797739267349243164e-01
1.764509081840515137e-01
1.763364672660827637e-01
1.741535067558288574e-01
1.739017665386199951e-01
1.733745634555816650e-01
1.733155250549316406e-01
1.730059981346130371e-01
1.722985208034515381e-01
1.656679511070251465e-01
1.653186082839965820e-01
1.619576513767242432e-01
1.618405878543853760e-01
1.608592271804809570e-01
1.605389714241027832e-01
1.572327017784118652e-01
1.569785475730895996e-01
1.566400527954101562e-01
1.562947332859039307e-01
1.509430706501007080e-01
1.507722735404968262e-01
1.494986712932586670e-01
1.493456661701202393e-01
1.455514132976531982e-01
1.455361545085906982e-01
1.443025469779968262e-01
1.441441774368286133e-01
1.441046297550201416e-01
1.436665058135986328e-01
1.430105268955230713e-01
1.425113976001739502e-01
1.393415927886962891e-01
1.393096446990966797e-01
1.380375027656555176e-01
1.379527747631072998e-01
1.374156475067138672e-01
1.372438669204711914e-01
1.372434198856353760e-01
1.370903849601745605e-01
1.349393725395202637e-01
1.349345445632934570e-01
1.347470581531524658e-01
1.331096589565277100e-01
1.092162430286407471e-01
9.933385252952575684e-02
