5.066380500793457031e-01
6.147522926330566406e-01
4.101071953773498535e-01
6.723104715347290039e-01
4.329744577407836914e-01
4.659467041492462158e-01
4.723145365715026855e-01
8.284900188446044922e-01
4.147505760192871094e-01
5.700981020927429199e-01
4.984025061130523682e-01
2.268149852752685547e-01
5.102729797363281250e-01
5.508231520652770996e-01
6.178070306777954102e-01
3.911120295524597168e-01
5.748838186264038086e-01
7.513273358345031738e-01
9.454531669616699219e-01
5.217084884643554688e-01
4.995740950107574463e-01
5.061665773391723633e-01
2.899862527847290039e-01
7.504529953002929688e-01
4.734798371791839600e-01
5.834755301475524902e-01
3.911120295524597168e-01
6.534326672554016113e-01
4.771406352519989014e-01
6.164798140525817871e-01
5.645678043365478516e-01
4.094070196151733398e-01
3.652412891387939453e-01
5.703739523887634277e-01
6.116248369216918945e-01
4.708276093006134033e-01
4.521801769733428955e-01
5.132527351379394531e-01
4.057440459728240967e-01
5.192719101905822754e-01
5.241303443908691406e-01
5.645013451576232910e-01
4.067272245883941650e-01
5.050874352455139160e-01
5.046699047088623047e-01
4.986776709556579590e-01
7.126650214195251465e-01
3.982724249362945557e-01
5.890821218490600586e-01
4.339966773986816406e-01
6.423966288566589355e-01
5.533511042594909668e-01
6.066330075263977051e-01
7.525664567947387695e-01
3.911120295524597168e-01
6.656461954116821289e-01
6.632609367370605469e-01
5.826031565666198730e-01
5.642776489257812500e-01
6.600731611251831055e-01
4.752944707870483398e-01
5.766996741294860840e-01
4.482214152812957764e-01
2.580115199089050293e-01
4.972430765628814697e-01
4.617193341255187988e-01
6.113544702529907227e-01
4.526033699512481689e-01
3.778466880321502686e-01
3.911120295524597168e-01
7.524461746215820312e-01
4.815105497837066650e-01
5.182142853736877441e-01
8.367439508438110352e-01
6.227445006370544434e-01
5.921816229820251465e-01
6.254651546478271484e-01
5.501970648765563965e-01
8.035588264465332031e-01
4.990231096744537354e-01
7.786244750022888184e-01
6.394320130348205566e-01
6.898444294929504395e-01
7.458627223968505859e-01
7.845348119735717773e-01
7.797805666923522949e-01
4.256211519241333008e-01
7.984865903854370117e-01
4.468810856342315674e-01
6.592862606048583984e-01
5.161551237106323242e-01
1.686157286167144775e-01
2.989860773086547852e-01
4.730817079544067383e-01
5.115446448326110840e-01
4.472531676292419434e-01
5.579556822776794434e-01
4.868438243865966797e-01
6.858727931976318359e-01
4.215164184570312500e-01
5.193570852279663086e-01
3.822688162326812744e-01
5.504790544509887695e-01
6.323204040527343750e-01
5.766620635986328125e-01
5.777782201766967773e-01
6.168379783630371094e-01
3.928884267807006836e-01
4.724878668785095215e-01
3.928333222866058350e-01
4.327049255371093750e-01
3.911120295524597168e-01
7.000707387924194336e-01
9.117866754531860352e-01
5.266343355178833008e-01
6.783840656280517578e-01
4.371204972267150879e-01
5.605258941650390625e-01
5.777214765548706055e-01
4.699382781982421875e-01
8.605366945266723633e-01
6.803985834121704102e-01
7.292624115943908691e-01
3.050057888031005859e-01
5.654711127281188965e-01
5.479258894920349121e-01
3.911120295524597168e-01
3.725089132785797119e-01
5.560122132301330566e-01
6.017773151397705078e-01
2.369596362113952637e-01
4.005427360534667969e-01
4.985950291156768799e-01
3.911120295524597168e-01
6.222087144851684570e-01
7.889083623886108398e-01
6.687875986099243164e-01
5.655002593994140625e-01
7.143641710281372070e-01
4.003348946571350098e-01
6.157701015472412109e-01
7.785447835922241211e-01
6.351530551910400391e-01
7.423634529113769531e-01
6.717832088470458984e-01
3.368274867534637451e-01
5.829309225082397461e-01
4.388357698917388916e-01
4.030383527278900146e-01
3.956450223922729492e-01
4.495944380760192871e-01
6.370312571525573730e-01
4.067476987838745117e-01
4.683136641979217529e-01
4.249436259269714355e-01
6.151998043060302734e-01
5.230503082275390625e-01
5.069348812103271484e-01
3.911120295524597168e-01
3.046359121799468994e-01
7.658357024192810059e-01
4.778161346912384033e-01
7.660254240036010742e-01
4.930872917175292969e-01
3.172500133514404297e-01
5.516130924224853516e-01
5.375800728797912598e-01
4.311979711055755615e-01
5.795148015022277832e-01
6.233044862747192383e-01
5.484162569046020508e-01
3.885570764541625977e-01
3.926315903663635254e-01
6.088674664497375488e-01
6.001220941543579102e-01
5.875361561775207520e-01
5.259896516799926758e-01
9.991206526756286621e-01
5.526381731033325195e-01
4.493975341320037842e-01
5.002552270889282227e-01
4.333250820636749268e-01
5.728374719619750977e-01
6.056492328643798828e-01
4.972070455551147461e-01
9.875664710998535156e-01
4.370252192020416260e-01
8.249430060386657715e-01
6.270500421524047852e-01
4.206102490425109863e-01
5.645698904991149902e-01
4.676327705383300781e-01
5.688685178756713867e-01
2.492573857307434082e-01
7.176297903060913086e-01
1.446297168731689453e-01
4.921049475669860840e-01
4.728692173957824707e-01
5.351893901824951172e-01
4.057332277297973633e-01
4.630734920501708984e-01
6.659834980964660645e-01
4.606469869613647461e-01
7.438946962356567383e-01
6.462912559509277344e-01
7.347643375396728516e-01
7.966282963752746582e-01
4.798330962657928467e-01
2.380383908748626709e-01
3.958219289779663086e-01
6.043896675109863281e-01
5.530989170074462891e-01
2.905653417110443115e-01
3.911120295524597168e-01
5.679030418395996094e-01
7.501207590103149414e-01
4.904259741306304932e-01
4.524181485176086426e-01
4.695779681205749512e-01
7.170577049255371094e-01
5.753329992294311523e-01
5.764555931091308594e-01
5.747857689857482910e-01
3.911120295524597168e-01
4.572617113590240479e-01
5.841165781021118164e-01
9.958581924438476562e-01
4.100685119628906250e-01
5.113815069198608398e-01
5.524251461029052734e-01
6.810730695724487305e-01
7.512657642364501953e-01
4.950125813484191895e-01
6.747961640357971191e-01
3.407809138298034668e-01
4.709356129169464111e-01
6.763792037963867188e-01
6.941187977790832520e-01
8.999999761581420898e-01
4.861601293087005615e-01
5.200150609016418457e-01
5.559125542640686035e-01
4.592540860176086426e-01
3.911120295524597168e-01
5.746197104454040527e-01
6.321645379066467285e-01
6.758863925933837891e-01
4.822100996971130371e-01
6.219391226768493652e-01
6.007000803947448730e-01
5.134444832801818848e-01
5.761801600456237793e-01
4.991349577903747559e-01
4.654904007911682129e-01
6.392379403114318848e-01
4.058919250965118408e-01
5.822375416755676270e-01
2.727381587028503418e-01
7.755110263824462891e-01
6.059752702713012695e-01
7.067883610725402832e-01
4.051173925399780273e-01
4.538075625896453857e-01
6.412480473518371582e-01
7.339454889297485352e-01
6.949549913406372070e-01
8.890990018844604492e-01
4.050247967243194580e-01
5.614048838615417480e-01
6.045729517936706543e-01
5.643073916435241699e-01
4.480032920837402344e-01
5.205936431884765625e-01
5.068674087524414062e-01
3.911120295524597168e-01
5.222635269165039062e-01
6.117505431175231934e-01
6.795487999916076660e-01
3.842593431472778320e-01
4.940960407257080078e-01
7.775072455406188965e-01
3.911120295524597168e-01
5.515151023864746094e-01
6.105560064315795898e-01
6.290072798728942871e-01
2.711314260959625244e-01
5.137322545051574707e-01
4.090964794158935547e-01
7.074265480041503906e-01
6.508468389511108398e-01
7.337059378623962402e-01
4.752356410026550293e-01
6.567202806472778320e-01
5.527808070182800293e-01
5.426818132400512695e-01
4.492889940738677979e-01
7.378026247024536133e-01
3.911120295524597168e-01
5.800995230674743652e-01
5.897887945175170898e-01
4.168408215045928955e-01
6.749019622802734375e-01
5.652810931205749512e-01
3.924482464790344238e-01
5.492414236068725586e-01
5.141329765319824219e-01
6.123655438423156738e-01
6.544883847236633301e-01
6.361506581306457520e-01
3.911120295524597168e-01
8.678760528564453125e-01
5.285640358924865723e-01
8.499226570129394531e-01
6.015947461128234863e-01
6.445972323417663574e-01
9.970764517784118652e-01
5.891635417938232422e-01
4.808044433593750000e-01
6.012817025184631348e-01
7.765965461730957031e-01
5.871800780296325684e-01
5.502737164497375488e-01
4.984525144100189209e-01
6.060020923614501953e-01
4.645344018936157227e-01
4.694185853004455566e-01
4.986254274845123291e-01
5.747127532958984375e-01
6.347231864929199219e-01
5.612683892250061035e-01
6.689931154251098633e-01
7.384464740753173828e-01
7.470597028732299805e-01
5.899761319160461426e-01
6.398847699165344238e-01
6.239740848541259766e-01
8.187862634658813477e-01
5.479725599288940430e-01
4.518366456031799316e-01
6.449481248855590820e-01
6.285105943679809570e-01
6.888208389282226562e-01
5.016453862190246582e-01
3.963800072669982910e-01
4.678284823894500732e-01
8.190164566040039062e-01
5.043551325798034668e-01
2.967082858085632324e-01
3.580913543701171875e-01
4.939160048961639404e-01
4.335262179374694824e-01
5.337547659873962402e-01
5.139471292495727539e-01
5.713206529617309570e-01
4.564749896526336670e-01
4.744030237197875977e-01
7.017772197723388672e-01
9.996957778930664062e-01
8.479498624801635742e-01
7.561296820640563965e-01
4.397514164447784424e-01
8.493147492408752441e-01
3.911120295524597168e-01
2.730172872543334961e-01
5.756571888923645020e-01
5.593274235725402832e-01
5.397424697875976562e-01
5.607179999351501465e-01
5.708142518997192383e-01
4.049197733402252197e-01
4.697056114673614502e-01
6.927552223205566406e-01
6.445009112358093262e-01
5.085418224334716797e-01
5.461958646774291992e-01
6.578589081764221191e-01
6.089757084846496582e-01
5.777211785316467285e-01
3.911120295524597168e-01
6.325977444648742676e-01
4.782950282096862793e-01
9.572024345397949219e-01
4.431521892547607422e-01
2.933482229709625244e-01
4.932250380516052246e-01
6.101086735725402832e-01
3.911120295524597168e-01
4.977595210075378418e-01
5.076735615730285645e-01
5.698281526565551758e-01
5.354019403457641602e-01
4.968711733818054199e-01
6.034895777702331543e-01
6.038400530815124512e-01
5.940995812416076660e-01
6.209937930107116699e-01
4.206036925315856934e-01
6.713533401489257812e-01
6.390538215637207031e-01
5.168648362159729004e-01
3.911120295524597168e-01
7.884190082550048828e-01
4.560917615890502930e-01
2.519245743751525879e-01
4.057098627090454102e-01
5.972587466239929199e-01
7.026040554046630859e-01
8.611953258514404297e-01
7.955768704414367676e-01
6.832417249679565430e-01
8.319478034973144531e-01
5.500621795654296875e-01
4.652626812458038330e-01
6.280299425125122070e-01
4.866069257259368896e-01
5.005161762237548828e-01
2.197837233543395996e-01
4.599379301071166992e-01
4.825442135334014893e-01
5.709705352783203125e-01
4.969400465488433838e-01
6.858801841735839844e-01
4.110120832920074463e-01
4.216372072696685791e-01
5.920811295509338379e-01
5.719956755638122559e-01
5.406768321990966797e-01
5.999460220336914062e-01
6.775847673416137695e-01
5.887505412101745605e-01
5.600015521049499512e-01
6.742078065872192383e-01
4.392938017845153809e-01
7.633332014083862305e-01
4.428163170814514160e-01
8.616639375686645508e-01
2.750784158706665039e-01
4.496473073959350586e-01
5.174761414527893066e-01
3.911120295524597168e-01
5.886744260787963867e-01
7.022086381912231445e-01
6.153462529182434082e-01
5.954954028129577637e-01
8.482282161712646484e-01
5.894265770912170410e-01
9.093465805053710938e-01
8.889520168304443359e-01
5.449043512344360352e-01
3.877099156379699707e-01
6.707892417907714844e-01
4.766984283924102783e-01
7.496730685234069824e-01
5.513969659805297852e-01
5.949412584304809570e-01
5.774295926094055176e-01
2.969234287738800049e-01
4.977568387985229492e-01
4.664338529109954834e-01
4.975059926509857178e-01
5.759716033935546875e-01
5.412497520446777344e-01
5.925877690315246582e-01
4.570635557174682617e-01
5.756680965423583984e-01
7.655940651893615723e-01
5.067577958106994629e-01
5.543171763420104980e-01
5.310261845588684082e-01
5.997036099433898926e-01
4.569314420223236084e-01
4.721031785011291504e-01
2.533662021160125732e-01
5.999028682708740234e-01
9.802469015121459961e-01
4.928544759750366211e-01
6.307007074356079102e-01
5.007776021957397461e-01
9.759671688079833984e-01
9.406516551971435547e-01
4.709911346435546875e-01
5.143451690673828125e-01
6.362410187721252441e-01
7.775981426239013672e-01
5.371604561805725098e-01
6.520957946777343750e-01
4.238354563713073730e-01
4.794728457927703857e-01
5.506215095520019531e-01
5.667222738265991211e-01
4.299418628215789795e-01
7.405401468276977539e-01
4.761271178722381592e-01
5.852226614952087402e-01
6.095895171165466309e-01
5.550090074539184570e-01
4.283795356750488281e-01
4.531762301921844482e-01
9.899586439132690430e-01
6.457291841506958008e-01
6.133319139480590820e-01
4.292888641357421875e-01
1.621159017086029053e-01
4.655878543853759766e-01
5.919395685195922852e-01
4.024324417114257812e-01
6.339428424835205078e-01
4.791631400585174561e-01
5.110778808593750000e-01
5.842759609222412109e-01
4.503480792045593262e-01
6.061717271804809570e-01
2.543610036373138428e-01
4.703978002071380615e-01
5.168375968933105469e-01
6.224225759506225586e-01
5.265210866928100586e-01
4.601646661758422852e-01
4.293110966682434082e-01
2.851736843585968018e-01
5.148760080337524414e-01
6.838725805282592773e-01
4.478304386138916016e-01
4.084158241748809814e-01
6.749019622802734375e-01
2.583250701427459717e-01
5.309324860572814941e-01
5.925877690315246582e-01
6.238831281661987305e-01
3.911120295524597168e-01
5.332992672920227051e-01
5.437460541725158691e-01
3.911120295524597168e-01
4.814882874488830566e-01
4.368519783020019531e-01
4.972801804542541504e-01
4.855363965034484863e-01
4.494433701038360596e-01
4.645858705043792725e-01
5.630968213081359863e-01
3.847387433052062988e-01
2.764006853103637695e-01
5.491850376129150391e-01
6.118573546409606934e-01
6.172023415565490723e-01
5.179138183593750000e-01
4.075268805027008057e-01
5.617873668670654297e-01
4.898532330989837646e-01
2.363817989826202393e-01
6.137961745262145996e-01
5.883952379226684570e-01
6.136932373046875000e-01
4.031498432159423828e-01
4.640125334262847900e-01
6.695688366889953613e-01
8.034979104995727539e-01
5.002670884132385254e-01
2.948471903800964355e-01
4.647451341152191162e-01
4.357278645038604736e-01
6.402432918548583984e-01
6.980591416358947754e-01
6.035537719726562500e-01
5.604099035263061523e-01
4.726431965827941895e-01
7.065925002098083496e-01
3.918624222278594971e-01
6.741514205932617188e-01
5.538649559020996094e-01
8.505567312240600586e-01
3.911120295524597168e-01
2.819501459598541260e-01
4.769560694694519043e-01
3.836681842803955078e-01
5.282061696052551270e-01
4.804705381393432617e-01
2.729691267013549805e-01
5.901180505752563477e-01
2.713889181613922119e-01
9.228363633155822754e-01
4.741694629192352295e-01
6.537999510765075684e-01
4.327679574489593506e-01
5.110375881195068359e-01
3.924841582775115967e-01
5.668929219245910645e-01
8.173576593399047852e-01
6.035916209220886230e-01
4.212225079536437988e-01
6.610315442085266113e-01
3.218337297439575195e-01
4.743239283561706543e-01
4.337658882141113281e-01
2.679537534713745117e-01
2.605492770671844482e-01
4.601703286170959473e-01
8.849382400512695312e-01
6.019913554191589355e-01
5.936604142189025879e-01
2.512180209159851074e-01
5.899030566215515137e-01
4.667524695396423340e-01
3.112071752548217773e-01
6.320124268531799316e-01
2.286625206470489502e-01
4.674828648567199707e-01
6.284487247467041016e-01
4.457297325134277344e-01
2.092163562774658203e-01
7.026052474975585938e-01
6.082632541656494141e-01
5.943928360939025879e-01
5.304005742073059082e-01
6.165230870246887207e-01
5.493831038475036621e-01
4.331942200660705566e-01
4.021227955818176270e-01
5.876302719116210938e-03
3.016014099121093750e-01
5.176485776901245117e-01
2.276502549648284912e-01
4.338264465332031250e-01
5.720838308334350586e-01
2.748527526855468750e-01
4.609022736549377441e-01
6.128360033035278320e-01
4.947170019149780273e-01
3.972815871238708496e-01
5.259919762611389160e-01
7.036232352256774902e-01
2.428800463676452637e-01
2.726793289184570312e-01
4.691113531589508057e-01
6.211154460906982422e-01
2.420290112495422363e-01
2.623354196548461914e-01
5.371523499488830566e-01
5.592138171195983887e-01
5.719866752624511719e-01
5.733286738395690918e-01
3.855119347572326660e-01
4.938286244869232178e-01
5.412719249725341797e-01
2.741453051567077637e-01
5.907033681869506836e-01
5.881289243698120117e-01
4.321311116218566895e-01
2.356922924518585205e-01
3.911120295524597168e-01
4.552764594554901123e-01
5.723109841346740723e-01
7.249266505241394043e-01
4.483545720577239990e-01
4.251783490180969238e-01
3.911120295524597168e-01
3.096997737884521484e-03
4.892441034317016602e-01
4.104329049587249756e-01
7.215248942375183105e-01
2.732524275779724121e-01
3.911120295524597168e-01
5.300369262695312500e-01
4.780297279357910156e-01
5.552077293395996094e-01
6.222307085990905762e-01
2.659195661544799805e-01
4.228383600711822510e-01
2.817425429821014404e-01
6.171882152557373047e-01
3.960737884044647217e-01
5.640916824340820312e-01
2.554677724838256836e-01
7.186196446418762207e-01
4.658428430557250977e-01
2.179982960224151611e-01
9.810966253280639648e-01
3.911120295524597168e-01
5.605172514915466309e-01
5.135431289672851562e-01
5.132008790969848633e-01
7.334690093994140625e-01
6.525700092315673828e-01
4.455245137214660645e-01
3.980732262134552002e-01
4.834891557693481445e-01
5.099954009056091309e-01
4.314835667610168457e-01
6.941226720809936523e-01
7.542309761047363281e-01
3.981595933437347412e-01
5.632081031799316406e-01
7.459676265716552734e-01
5.284116268157958984e-01
3.259316980838775635e-01
3.911120295524597168e-01
7.535111308097839355e-01
4.048734009265899658e-01
5.165597200393676758e-01
5.724413394927978516e-01
2.400873601436614990e-01
4.278818964958190918e-01
3.911120295524597168e-01
4.961838424205780029e-01
2.461949884891510010e-01
6.463214755058288574e-01
5.523457527160644531e-01
6.060045361518859863e-01
4.256502389907836914e-01
2.343376874923706055e-01
5.947705507278442383e-01
4.465695321559906006e-01
5.960234999656677246e-01
3.938234746456146240e-01
3.997400999069213867e-01
4.032442271709442139e-01
5.426980853080749512e-01
6.605393886566162109e-01
4.899082779884338379e-01
4.703442454338073730e-01
2.838997542858123779e-01
3.911120295524597168e-01
6.639885306358337402e-01
4.758101403713226318e-01
4.553383290767669678e-01
5.295017361640930176e-01
5.586103796958923340e-01
2.441341280937194824e-01
4.475625157356262207e-01
3.911120295524597168e-01
4.715040326118469238e-01
4.317747950553894043e-01
4.718017578125000000e-01
5.819776654243469238e-01
5.576760768890380859e-01
6.720665097236633301e-01
4.587357044219970703e-01
3.830174803733825684e-01
4.188352525234222412e-01
6.068918108940124512e-01
3.981546163558959961e-01
5.702062845230102539e-01
3.911120295524597168e-01
4.784072637557983398e-01
5.514684319496154785e-01
2.425553500652313232e-01
4.262581467628479004e-01
5.615182518959045410e-01
2.691812813282012939e-01
6.544610261917114258e-01
3.441727757453918457e-01
4.829707741737365723e-01
3.911120295524597168e-01
4.904003441333770752e-01
4.002732634544372559e-01
2.747264802455902100e-01
6.900444626808166504e-01
7.026683092117309570e-01
2.478039860725402832e-01
7.679113149642944336e-01
4.302423000335693359e-01
4.379927814006805420e-01
5.270181894302368164e-01
3.596705198287963867e-01
4.481098055839538574e-01
5.500175952911376953e-01
4.192836880683898926e-01
4.180189073085784912e-01
2.618772387504577637e-01
2.347929179668426514e-01
2.861559987068176270e-01
4.476185441017150879e-01
4.588670432567596436e-01
4.688618779182434082e-01
5.958068966865539551e-01
6.033407449722290039e-01
6.335220336914062500e-01
4.403029084205627441e-01
5.622442960739135742e-01
6.062713265419006348e-01
5.794483423233032227e-01
5.644705295562744141e-01
5.809751152992248535e-01
5.597030520439147949e-01
7.057988047599792480e-01
2.476478517055511475e-01
4.992536604404449463e-01
5.026034116744995117e-01
4.062057733535766602e-01
7.178875803947448730e-01
2.466410696506500244e-01
6.548699140548706055e-01
4.281739294528961182e-01
4.018737077713012695e-01
2.476868927478790283e-01
7.401812076568603516e-01
4.148600399494171143e-01
3.911120295524597168e-01
6.273938417434692383e-01
5.067039728164672852e-01
2.593258023262023926e-01
2.576742172241210938e-01
2.777256369590759277e-01
2.957326173782348633e-01
2.818599939346313477e-01
8.318435549736022949e-01
6.943658590316772461e-01
6.467199325561523438e-01
3.965156078338623047e-01
8.568253517150878906e-01
3.974534273147583008e-01
6.583416461944580078e-01
6.281559467315673828e-01
4.339693486690521240e-01
4.486322999000549316e-01
4.120504558086395264e-01
3.911120295524597168e-01
8.052090406417846680e-01
4.315630793571472168e-01
5.236030220985412598e-01
5.911011099815368652e-01
4.219241142272949219e-01
7.664400339126586914e-01
6.649994254112243652e-01
3.868012428283691406e-01
3.124366402626037598e-01
5.413277149200439453e-01
4.797725081443786621e-01
4.003519415855407715e-01
6.522322893142700195e-01
6.952576637268066406e-01
4.650330543518066406e-01
6.665997505187988281e-01
6.777299046516418457e-01
3.911120295524597168e-01
4.350017607212066650e-01
4.169369935989379883e-01
4.471857249736785889e-01
3.940097987651824951e-01
4.549469053745269775e-01
4.557449221611022949e-01
6.315892934799194336e-01
4.530894458293914795e-01
4.417558312416076660e-01
3.850230574607849121e-01
8.180423974990844727e-01
5.197468996047973633e-01
4.904259741306304932e-01
5.931379795074462891e-01
4.672424197196960449e-01
5.856848955154418945e-01
4.219940006732940674e-01
6.711528897285461426e-01
8.146737813949584961e-01
2.814148664474487305e-01
3.911120295524597168e-01
3.048774003982543945e-01
2.522729039192199707e-01
3.927978873252868652e-01
5.305062532424926758e-01
7.164288163185119629e-01
4.845788776874542236e-01
7.361244559288024902e-01
2.890886664390563965e-01
5.091067552566528320e-01
4.598265588283538818e-01
5.602536797523498535e-01
6.560253500938415527e-01
6.534051299095153809e-01
6.159287095069885254e-01
4.377394020557403564e-01
7.931236028671264648e-01
7.512657642364501953e-01
4.035374224185943604e-01
4.210523664951324463e-01
4.127536118030548096e-01
4.068476557731628418e-01
4.484367966651916504e-01
5.167677998542785645e-01
5.774242877960205078e-01
4.634515941143035889e-01
5.607602000236511230e-01
4.238444268703460693e-01
5.555704236030578613e-01
5.280570983886718750e-01
2.662874758243560791e-01
4.179490506649017334e-01
4.451808333396911621e-01
5.103970766067504883e-01
4.069432616233825684e-01
5.463297367095947266e-01
5.901521444320678711e-01
3.221833109855651855e-01
6.657861471176147461e-01
5.422260761260986328e-01
4.314914345741271973e-01
7.510477304458618164e-01
5.520488619804382324e-01
4.034971892833709717e-01
4.214419126510620117e-01
6.006976962089538574e-01
2.484887838363647461e-01
4.061769545078277588e-01
7.614625096321105957e-01
1.826439201831817627e-01
6.751020550727844238e-01
7.573567628860473633e-01
5.404788255691528320e-01
2.438186407089233398e-01
5.892195701599121094e-01
3.911120295524597168e-01
4.719828367233276367e-01
6.161991953849792480e-01
4.501813948154449463e-01
4.255319237709045410e-01
4.910814464092254639e-01
2.563911080360412598e-01
5.998082160949707031e-01
4.111653566360473633e-01
4.409017860889434814e-01
6.937952041625976562e-01
4.523012936115264893e-01
2.825771570205688477e-01
4.348759949207305908e-01
6.477679014205932617e-01
5.554393529891967773e-01
2.392737567424774170e-01
2.382964193820953369e-01
3.196387290954589844e-01
4.633115530014038086e-01
4.837127923965454102e-01
5.900311470031738281e-01
2.863447666168212891e-01
5.638828873634338379e-01
2.843183577060699463e-01
4.927816689014434814e-01
3.319012522697448730e-01
3.324953019618988037e-01
3.907552361488342285e-01
2.685077488422393799e-01
6.205053925514221191e-01
4.023114442825317383e-01
4.723142087459564209e-01
3.330066204071044922e-01
3.221294879913330078e-01
4.736091196537017822e-01
5.483933091163635254e-01
4.473723769187927246e-01
4.430421888828277588e-01
4.949449002742767334e-01
4.780218601226806641e-01
5.232723355293273926e-01
4.199405014514923096e-01
6.589092016220092773e-01
4.012363553047180176e-01
5.854520201683044434e-01
4.226360917091369629e-01
6.543045639991760254e-01
8.623982667922973633e-01
7.196211814880371094e-01
6.407570838928222656e-01
6.523989439010620117e-01
7.069692611694335938e-01
3.911120295524597168e-01
6.227564215660095215e-01
4.293324947357177734e-01
3.967766761779785156e-01
6.120823621749877930e-01
3.881889581680297852e-01
4.331265985965728760e-01
4.127314090728759766e-01
5.926696062088012695e-01
4.513248801231384277e-01
4.055239856243133545e-01
4.621322751045227051e-01
5.508418083190917969e-01
3.895672857761383057e-01
5.372734665870666504e-01
2.557205259799957275e-01
6.693994402885437012e-01
6.073205471038818359e-01
3.995377421379089355e-01
3.819957971572875977e-01
4.716254472732543945e-01
2.797869443893432617e-01
5.971850156784057617e-01
4.786987602710723877e-01
5.851480960845947266e-01
2.740578651428222656e-01
4.158252477645874023e-01
6.254585385322570801e-01
3.813945651054382324e-01
4.806026220321655273e-01
3.911120295524597168e-01
4.398725628852844238e-01
4.647204279899597168e-01
6.520123481750488281e-01
6.010581254959106445e-01
6.182016730308532715e-01
7.546671032905578613e-01
