0.000000000000000000e+00
0.000000000000000000e+00
0.000000000000000000e+00
4.811543063234812075e-03
4.811543063234812075e-03
6.799077360627842417e-03
6.799077360627842417e-03
8.320427808671686937e-03
8.320427808671686937e-03
9.599851276968210043e-03
9.599851276968210043e-03
1.072428691417640079e-02
1.072428691417640079e-02
1.173835911668740309e-02
1.173835911668740309e-02
1.266859816018083874e-02
1.266859816018083874e-02
1.353230370605952582e-02
1.353230370605952582e-02
1.434150157755468419e-02
1.434150157755468419e-02
1.510495452035690543e-02
1.510495452035690543e-02
1.582928281010145821e-02
1.582928281010145821e-02
1.651963368720301556e-02
1.651963368720301556e-02
1.718010359961917588e-02
1.718010359961917588e-02
1.781401644450231192e-02
1.781401644450231192e-02
1.901268800666883196e-02
1.901268800666883196e-02
1.958168037737078454e-02
1.958168037737078454e-02
2.118667665849699108e-02
2.118667665849699108e-02
2.169187423028689013e-02
2.169187423028689013e-02
2.218389296472879010e-02
2.218389296472879010e-02
2.313173545019243937e-02
2.313173545019243937e-02
2.358901361559818943e-02
2.358901361559818943e-02
2.403604587766340270e-02
2.403604587766340270e-02
2.490156735141171862e-02
2.490156735141171862e-02
2.532103223812934290e-02
2.532103223812934290e-02
2.573221425196348111e-02
2.573221425196348111e-02
2.691982054853096773e-02
2.691982054853096773e-02
2.730148629100585811e-02
2.730148629100585811e-02
2.911574531449395709e-02
2.911574531449395709e-02
3.046754135571561745e-02
3.046754135571561745e-02
3.111425171407115192e-02
3.111425171407115192e-02
3.143084139733397231e-02
3.143084139733397231e-02
3.174310132641771504e-02
3.174310132641771504e-02
3.324366602902962403e-02
3.324366602902962403e-02
3.409923982250676749e-02
3.409923982250676749e-02
3.465252042358527018e-02
3.465252042358527018e-02
3.492427549441347312e-02
3.492427549441347312e-02
3.519287464202747878e-02
3.519287464202747878e-02
3.623710321175390575e-02
3.623710321175390575e-02
3.649094208463871114e-02
3.649094208463871114e-02
3.795777703309244355e-02
3.795777703309244355e-02
3.865733933160995367e-02
3.865733933160995367e-02
3.977724838207834235e-02
3.977724838207834235e-02
3.999467575504076639e-02
3.999467575504076639e-02
4.021000184418315609e-02
4.021000184418315609e-02
4.042326022879223074e-02
4.042326022879223074e-02
4.063448346413640888e-02
4.063448346413640888e-02
4.145964252689611496e-02
4.145964252689611496e-02
4.166114539491096863e-02
4.166114539491096863e-02
4.205860041540776528e-02
4.205860041540776528e-02
4.283202366643331510e-02
4.283202366643331510e-02
4.302104422395317679e-02
4.302104422395317679e-02
4.376045956933976439e-02
4.376045956933976439e-02
4.394125185702646430e-02
4.394125185702646430e-02
4.516347901192332981e-02
4.516347901192332981e-02
4.566505585598166356e-02
4.566505585598166356e-02
4.615392565224647747e-02
4.615392565224647747e-02
4.647297783931993859e-02
4.647297783931993859e-02
4.663048806103094190e-02
4.663048806103094190e-02
4.694154440251440547e-02
4.694154440251440547e-02
4.754816142549268126e-02
4.754816142549268126e-02
4.798995029568812326e-02
4.798995029568812326e-02
4.827837587671386654e-02
4.827837587671386654e-02
4.856202285564534954e-02
4.856202285564534954e-02
4.897871467350612545e-02
4.897871467350612545e-02
4.938510863832244746e-02
4.938510863832244746e-02
4.951832888856870507e-02
4.951832888856870507e-02
4.991138222842116112e-02
4.991138222842116112e-02
5.042035453264304828e-02
5.042035453264304828e-02
5.079104334458106607e-02
5.079104334458106607e-02
5.091254443608663610e-02
5.091254443608663610e-02
5.103302692902857152e-02
5.103302692902857152e-02
5.150491297380817290e-02
5.150491297380817290e-02
5.162040793433729513e-02
5.162040793433729513e-02
5.173492562894344005e-02
5.173492562894344005e-02
5.184847253308721982e-02
5.184847253308721982e-02
5.207267931794475058e-02
5.207267931794475058e-02
5.218335160281227514e-02
5.218335160281227514e-02
5.229307791011182649e-02
5.229307791011182649e-02
5.240186418230173560e-02
5.240186418230173560e-02
5.250971626189619712e-02
5.250971626189619712e-02
5.282772431423336801e-02
5.282772431423336801e-02
5.293189612108557818e-02
5.293189612108557818e-02
5.323899414126928575e-02
5.323899414126928575e-02
5.353807434236405871e-02
5.353807434236405871e-02
5.392460584594097051e-02
5.392460584594097051e-02
5.401908405943846303e-02
5.401908405943846303e-02
5.420548658164671407e-02
5.420548658164671407e-02
5.447877084130805375e-02
5.447877084130805375e-02
5.491767013963479160e-02
5.491767013963479160e-02
5.517123908489126455e-02
5.517123908489126455e-02
5.557789155438744993e-02
5.557789155438744993e-02
5.573504741379871341e-02
5.573504741379871341e-02
5.596496608171194764e-02
5.596496608171194764e-02
5.611440550950413941e-02
5.611440550950413941e-02
5.626080182037287991e-02
5.626080182037287991e-02
5.681641902565776059e-02
5.681641902565776059e-02
5.694794096213531831e-02
5.694794096213531831e-02
5.701260890168353274e-02
5.701260890168353274e-02
5.707655146715572697e-02
5.707655146715572697e-02
5.720227017843966533e-02
5.720227017843966533e-02
5.726405108045524300e-02
5.726405108045524300e-02
5.732511612181734328e-02
5.732511612181734328e-02
5.744510772747130067e-02
5.744510772747130067e-02
5.756226284546175215e-02
5.756226284546175215e-02
5.795021303093088327e-02
5.795021303093088327e-02
5.810607708029173063e-02
5.810607708029173063e-02
5.820655742697614099e-02
5.820655742697614099e-02
5.825577425375975948e-02
5.825577425375975948e-02
5.830431116107318013e-02
5.830431116107318013e-02
5.839935197468305861e-02
5.839935197468305861e-02
5.844585918691220378e-02
5.844585918691220378e-02
5.849169309215539181e-02
5.849169309215539181e-02
5.862517064197712846e-02
5.862517064197712846e-02
5.875264369991074070e-02
5.875264369991074070e-02
5.883430925884874929e-02
5.883430925884874929e-02
5.887415126836281765e-02
5.887415126836281765e-02
5.891333455875125830e-02
5.891333455875125830e-02
5.913467298630878388e-02
5.913467298630878388e-02
5.916928061129777400e-02
5.916928061129777400e-02
5.920323932502675329e-02
5.920323932502675329e-02
5.926921445897030682e-02
5.926921445897030682e-02
5.936333745690190733e-02
5.936333745690190733e-02
5.939342531360154720e-02
5.939342531360154720e-02
5.942287157820457660e-02
5.942287157820457660e-02
5.945167720404780087e-02
5.945167720404780087e-02
5.950737024011842902e-02
5.950737024011842902e-02
5.963545407887788086e-02
5.963545407887788086e-02
5.965916623809842945e-02
5.965916623809842945e-02
5.968224534074813292e-02
5.968224534074813292e-02
5.974769154469711241e-02
5.974769154469711241e-02
5.986158390550122554e-02
5.986158390550122554e-02
5.989452868042568351e-02
5.989452868042568351e-02
5.995291450868081573e-02
5.995291450868081573e-02
5.996595038258456523e-02
5.996595038258456523e-02
5.997836286649606274e-02
5.997836286649606274e-02
6.000131919244160866e-02
6.000131919244160866e-02
6.005526300556555258e-02
6.005526300556555258e-02
6.006827666804712140e-02
6.006827666804712140e-02
6.009429553852729117e-02
6.009429553852729117e-02
6.009553425137104110e-02
6.009553425137104110e-02
6.009615359821819658e-02
6.009615359821819658e-02
6.008686272519787874e-02
6.008686272519787874e-02
6.007385308897182641e-02
6.007385308897182641e-02
6.004782536072861276e-02
6.004782536072861276e-02
6.003108729061647220e-02
6.003108729061647220e-02
5.996595038258456523e-02
5.996595038258456523e-02
5.995291450868081573e-02
5.995291450868081573e-02
5.992497094411987357e-02
5.992497094411987357e-02
5.989452868042568351e-02
5.989452868042568351e-02
5.987836935767631985e-02
5.987836935767631985e-02
5.986158390550122554e-02
5.986158390550122554e-02
5.978816996037202014e-02
5.978816996037202014e-02
5.974769154469711241e-02
5.974769154469711241e-02
5.972650729166117251e-02
5.972650729166117251e-02
5.970469212095909362e-02
5.970469212095909362e-02
5.965916623809842945e-02
5.965916623809842945e-02
5.942287157820457660e-02
5.942287157820457660e-02
5.939342531360154720e-02
5.939342531360154720e-02
5.933260703204214226e-02
5.933260703204214226e-02
5.926921445897030682e-02
5.926921445897030682e-02
5.895186044349846888e-02
5.895186044349846888e-02
5.883430925884874929e-02
5.883430925884874929e-02
5.875264369991073377e-02
5.875264369991073377e-02
5.805481001800697621e-02
5.805481001800697621e-02
5.795021303093089715e-02
5.795021303093089715e-02
5.773271476746924535e-02
5.773271476746924535e-02
5.767659876056817347e-02
5.767659876056817347e-02
5.750403875404637433e-02
5.750403875404637433e-02
5.744510772747130067e-02
5.744510772747130067e-02
5.738546758781160051e-02
5.738546758781160051e-02
5.720227017843966533e-02
5.720227017843966533e-02
5.713977109375311531e-02
5.713977109375311531e-02
5.681641902565776059e-02
5.681641902565776059e-02
5.618798255632277694e-02
5.618798255632277694e-02
5.611440550950414635e-02
5.611440550950414635e-02
5.588909759008310607e-02
5.588909759008310607e-02
5.573504741379871341e-02
5.573504741379871341e-02
5.565685932655814461e-02
5.565685932655814461e-02
5.557789155438744993e-02
5.557789155438744993e-02
5.549814076906807447e-02
5.549814076906807447e-02
5.483152897753615362e-02
5.483152897753615362e-02
5.447877084130805375e-02
5.447877084130805375e-02
5.438851300701084968e-02
5.438851300701084968e-02
5.429741965788888181e-02
5.429741965788888181e-02
5.363600929078135571e-02
5.363600929078135571e-02
5.261663989353908277e-02
5.261663989353908277e-02
5.240186418230173560e-02
5.240186418230173560e-02
5.229307791011182649e-02
5.229307791011182649e-02
5.150491297380817290e-02
5.150491297380817290e-02
5.115249802090305470e-02
5.115249802090305470e-02
5.054495592194708370e-02
5.054495592194708370e-02
5.029470442203969049e-02
5.029470442203969049e-02
5.016799771029670230e-02
5.016799771029670230e-02
4.951832888856871201e-02
4.951832888856871201e-02
4.870208051600376231e-02
4.870208051600376231e-02
4.856202285564535648e-02
4.856202285564535648e-02
4.813476574690483956e-02
4.813476574690483956e-02
4.798995029568812326e-02
4.798995029568812326e-02
4.769665942285968713e-02
4.769665942285968713e-02
4.709511670460631017e-02
4.709511670460631017e-02
4.631412831258913121e-02
4.631412831258913121e-02
4.599235571840494530e-02
4.599235571840494530e-02
4.516347901192332981e-02
4.516347901192332981e-02
4.394125185702647124e-02
4.394125185702647124e-02
4.339404238608596254e-02
4.339404238608596254e-02
4.205860041540777222e-02
4.205860041540777222e-02
3.911200643137777155e-02
3.911200643137777155e-02
3.865733933160995367e-02
3.865733933160995367e-02
3.795777703309244355e-02
3.795777703309244355e-02
3.747918450254515699e-02
3.747918450254515699e-02
3.723608233021253461e-02
3.723608233021253461e-02
3.649094208463871808e-02
3.649094208463871808e-02
3.598043918285643433e-02
3.598043918285643433e-02
3.545838958534788116e-02
3.545838958534788116e-02
3.324366602902963097e-02
3.324366602902963097e-02
3.235513162606773463e-02
3.235513162606773463e-02
3.046754135571562438e-02
3.046754135571562438e-02
2.840788196326946360e-02
2.840788196326946360e-02
2.691982054853097120e-02
2.691982054853097120e-02
2.403604587766341311e-02
2.403604587766341311e-02
2.218389296472877970e-02
2.218389296472877970e-02
2.169187423028687972e-02
2.169187423028687972e-02
1.651963368720300168e-02
1.651963368720300168e-02
1.353230370605953449e-02
1.353230370605953449e-02
6.799077360627818131e-03
6.799077360627818131e-03
0.000000000000000000e+00
