0.000000000000000000e+00
1.252032520325203346e-01
1.268292682926829285e-01
1.317073170731707377e-01
1.382113821138211407e-01
1.495934959349593529e-01
1.528455284552845406e-01
1.560975609756097560e-01
1.577235772357723498e-01
1.609756097560975652e-01
1.642276422764227528e-01
1.658536585365853744e-01
1.691056910569105620e-01
1.723577235772357774e-01
1.788617886178861804e-01
1.788617886178861804e-01
1.804878048780487743e-01
1.902439024390243927e-01
1.934959349593495803e-01
1.951219512195122019e-01
1.951219512195122019e-01
2.048780487804877926e-01
2.081300813008130079e-01
2.130081300813008172e-01
2.130081300813008172e-01
2.471544715447154539e-01
2.471544715447154539e-01
2.650406504065040414e-01
2.650406504065040414e-01
2.991869918699187059e-01
2.991869918699187059e-01
3.089430894308943243e-01
3.089430894308943243e-01
3.186991869918699427e-01
3.186991869918699427e-01
3.333333333333333148e-01
3.333333333333333148e-01
3.365853658536585580e-01
3.365853658536585580e-01
3.382113821138211240e-01
3.382113821138211240e-01
3.463414634146341209e-01
3.463414634146341209e-01
3.479674796747967425e-01
3.479674796747967425e-01
3.544715447154471732e-01
3.544715447154471732e-01
3.609756097560975485e-01
3.609756097560975485e-01
3.723577235772357885e-01
3.723577235772357885e-01
3.821138211382114069e-01
3.821138211382114069e-01
3.886178861788617822e-01
3.886178861788617822e-01
3.918699186991869698e-01
3.918699186991869698e-01
4.000000000000000222e-01
4.000000000000000222e-01
4.048780487804878314e-01
4.048780487804878314e-01
4.113821138211382067e-01
4.113821138211382067e-01
4.130081300813008283e-01
4.130081300813008283e-01
4.146341463414633943e-01
4.146341463414633943e-01
4.276422764227642004e-01
4.276422764227642004e-01
4.308943089430894435e-01
4.308943089430894435e-01
4.390243902439024404e-01
4.390243902439024404e-01
4.422764227642276280e-01
4.422764227642276280e-01
4.455284552845528712e-01
4.455284552845528712e-01
4.471544715447154372e-01
4.471544715447154372e-01
4.487804878048780588e-01
4.487804878048780588e-01
4.536585365853658680e-01
4.536585365853658680e-01
4.666666666666666741e-01
4.666666666666666741e-01
4.699186991869918617e-01
4.699186991869918617e-01
4.731707317073170493e-01
4.731707317073170493e-01
4.747967479674796709e-01
4.747967479674796709e-01
4.894308943089430985e-01
4.894308943089430985e-01
4.959349593495934738e-01
4.959349593495934738e-01
4.991869918699187170e-01
4.991869918699187170e-01
5.040650406504064707e-01
5.040650406504064707e-01
5.089430894308942799e-01
5.089430894308942799e-01
5.154471544715447662e-01
5.154471544715447662e-01
5.219512195121951414e-01
5.219512195121951414e-01
5.235772357723577075e-01
5.235772357723577075e-01
5.284552845528455167e-01
5.284552845528455167e-01
5.300813008130080828e-01
5.300813008130080828e-01
5.317073170731707599e-01
5.317073170731707599e-01
5.365853658536585691e-01
5.365853658536585691e-01
5.414634146341463783e-01
5.414634146341463783e-01
5.463414634146341875e-01
5.463414634146341875e-01
5.495934959349593196e-01
5.495934959349593196e-01
5.512195121951219967e-01
5.512195121951219967e-01
5.528455284552845628e-01
5.528455284552845628e-01
5.577235772357723720e-01
5.577235772357723720e-01
5.593495934959349380e-01
5.593495934959349380e-01
5.609756097560976151e-01
5.609756097560976151e-01
5.626016260162601812e-01
5.626016260162601812e-01
5.642276422764227473e-01
5.642276422764227473e-01
5.658536585365853133e-01
5.658536585365853133e-01
5.691056910569105565e-01
5.691056910569105565e-01
5.723577235772357996e-01
5.723577235772357996e-01
5.772357723577236088e-01
5.772357723577236088e-01
5.804878048780487410e-01
5.804878048780487410e-01
5.821138211382114180e-01
5.821138211382114180e-01
5.853658536585365502e-01
5.853658536585365502e-01
5.902439024390243594e-01
5.902439024390243594e-01
5.951219512195121686e-01
5.951219512195121686e-01
5.967479674796748457e-01
5.967479674796748457e-01
5.983739837398374117e-01
5.983739837398374117e-01
5.999999999999999778e-01
5.999999999999999778e-01
6.016260162601626549e-01
6.016260162601626549e-01
6.032520325203252209e-01
6.032520325203252209e-01
6.048780487804877870e-01
6.048780487804877870e-01
6.065040650406503531e-01
6.065040650406503531e-01
6.081300813008130302e-01
6.081300813008130302e-01
6.097560975609755962e-01
6.097560975609755962e-01
6.130081300813008394e-01
6.130081300813008394e-01
6.146341463414634054e-01
6.146341463414634054e-01
6.162601626016259715e-01
6.162601626016259715e-01
6.178861788617886486e-01
6.178861788617886486e-01
6.195121951219512146e-01
6.195121951219512146e-01
6.243902439024390238e-01
6.243902439024390238e-01
6.276422764227642670e-01
6.276422764227642670e-01
6.292682926829268331e-01
6.292682926829268331e-01
6.308943089430893991e-01
6.308943089430893991e-01
6.325203252032520762e-01
6.325203252032520762e-01
6.373983739837398854e-01
6.373983739837398854e-01
6.390243902439024515e-01
6.390243902439024515e-01
6.422764227642276946e-01
6.422764227642276946e-01
6.439024390243902607e-01
6.439024390243902607e-01
6.455284552845528268e-01
6.455284552845528268e-01
6.471544715447153928e-01
6.471544715447153928e-01
6.504065040650406360e-01
6.504065040650406360e-01
6.520325203252032020e-01
6.520325203252032020e-01
6.536585365853658791e-01
6.536585365853658791e-01
6.552845528455284452e-01
6.552845528455284452e-01
6.585365853658536883e-01
6.585365853658536883e-01
6.617886178861788204e-01
6.617886178861788204e-01
6.666666666666666297e-01
6.666666666666666297e-01
6.682926829268293067e-01
6.682926829268293067e-01
6.699186991869918728e-01
6.699186991869918728e-01
6.731707317073171160e-01
6.731707317073171160e-01
6.780487804878049252e-01
6.780487804878049252e-01
6.796747967479674912e-01
6.796747967479674912e-01
6.829268292682927344e-01
6.829268292682927344e-01
6.845528455284553004e-01
6.845528455284553004e-01
6.861788617886178665e-01
6.861788617886178665e-01
6.878048780487804326e-01
6.878048780487804326e-01
6.894308943089431096e-01
6.894308943089431096e-01
6.910569105691056757e-01
6.910569105691056757e-01
6.959349593495934849e-01
6.959349593495934849e-01
6.975609756097560510e-01
6.975609756097560510e-01
7.008130081300812941e-01
7.008130081300812941e-01
7.040650406504065373e-01
7.040650406504065373e-01
7.073170731707316694e-01
7.073170731707316694e-01
7.089430894308943465e-01
7.089430894308943465e-01
7.105691056910569126e-01
7.105691056910569126e-01
7.121951219512194786e-01
7.121951219512194786e-01
7.154471544715447218e-01
7.154471544715447218e-01
7.170731707317072878e-01
7.170731707317072878e-01
7.203252032520325310e-01
7.203252032520325310e-01
7.219512195121950970e-01
7.219512195121950970e-01
7.268292682926829062e-01
7.268292682926829062e-01
7.284552845528455833e-01
7.284552845528455833e-01
7.300813008130081494e-01
7.300813008130081494e-01
7.317073170731707155e-01
7.317073170731707155e-01
7.333333333333332815e-01
7.333333333333332815e-01
7.365853658536585247e-01
7.365853658536585247e-01
7.382113821138210907e-01
7.382113821138210907e-01
7.398373983739837678e-01
7.398373983739837678e-01
7.414634146341463339e-01
7.414634146341463339e-01
7.430894308943088999e-01
7.430894308943088999e-01
7.447154471544715770e-01
7.447154471544715770e-01
7.463414634146341431e-01
7.463414634146341431e-01
7.479674796747967092e-01
7.479674796747967092e-01
7.495934959349593862e-01
7.495934959349593862e-01
7.512195121951219523e-01
7.512195121951219523e-01
7.528455284552845184e-01
7.528455284552845184e-01
7.560975609756097615e-01
7.560975609756097615e-01
7.577235772357723276e-01
7.577235772357723276e-01
7.609756097560975707e-01
7.609756097560975707e-01
7.626016260162601368e-01
7.626016260162601368e-01
7.642276422764228139e-01
7.642276422764228139e-01
7.674796747967479460e-01
7.674796747967479460e-01
7.739837398373983213e-01
7.739837398373983213e-01
7.804878048780488076e-01
7.804878048780488076e-01
7.821138211382113736e-01
7.821138211382113736e-01
7.837398373983739397e-01
7.837398373983739397e-01
7.853658536585366168e-01
7.853658536585366168e-01
7.869918699186991828e-01
7.869918699186991828e-01
7.886178861788617489e-01
7.886178861788617489e-01
7.902439024390244260e-01
7.902439024390244260e-01
7.918699186991869921e-01
7.918699186991869921e-01
7.951219512195122352e-01
7.951219512195122352e-01
7.967479674796748013e-01
7.967479674796748013e-01
8.016260162601626105e-01
8.016260162601626105e-01
8.032520325203251765e-01
8.032520325203251765e-01
8.081300813008129857e-01
8.081300813008129857e-01
8.097560975609756628e-01
8.097560975609756628e-01
8.130081300813007950e-01
8.130081300813007950e-01
8.146341463414633610e-01
8.146341463414633610e-01
8.162601626016260381e-01
8.162601626016260381e-01
8.195121951219511702e-01
8.195121951219511702e-01
8.243902439024389794e-01
8.243902439024389794e-01
8.276422764227642226e-01
8.276422764227642226e-01
8.292682926829267887e-01
8.292682926829267887e-01
8.357723577235772749e-01
8.357723577235772749e-01
8.390243902439024071e-01
8.390243902439024071e-01
8.406504065040650842e-01
8.406504065040650842e-01
8.439024390243902163e-01
8.439024390243902163e-01
8.455284552845528934e-01
8.455284552845528934e-01
8.487804878048780255e-01
8.487804878048780255e-01
8.536585365853658347e-01
8.536585365853658347e-01
8.552845528455284008e-01
8.552845528455284008e-01
8.585365853658536439e-01
8.585365853658536439e-01
8.601626016260162100e-01
8.601626016260162100e-01
8.617886178861788871e-01
8.617886178861788871e-01
8.699186991869918284e-01
8.699186991869918284e-01
8.715447154471545055e-01
8.715447154471545055e-01
8.731707317073170715e-01
8.731707317073170715e-01
8.747967479674796376e-01
8.747967479674796376e-01
8.764227642276423147e-01
8.764227642276423147e-01
8.780487804878048808e-01
8.780487804878048808e-01
8.796747967479674468e-01
8.796747967479674468e-01
8.829268292682926900e-01
8.829268292682926900e-01
8.845528455284552560e-01
8.845528455284552560e-01
8.861788617886179331e-01
8.861788617886179331e-01
8.878048780487804992e-01
8.878048780487804992e-01
8.894308943089430652e-01
8.894308943089430652e-01
8.910569105691057423e-01
8.910569105691057423e-01
8.943089430894308745e-01
8.943089430894308745e-01
8.975609756097561176e-01
8.975609756097561176e-01
8.991869918699186837e-01
8.991869918699186837e-01
9.024390243902439268e-01
9.024390243902439268e-01
9.040650406504064929e-01
9.040650406504064929e-01
9.073170731707317360e-01
9.073170731707317360e-01
9.089430894308943021e-01
9.089430894308943021e-01
9.138211382113821113e-01
9.138211382113821113e-01
9.154471544715446774e-01
9.154471544715446774e-01
9.170731707317073544e-01
9.170731707317073544e-01
9.219512195121951637e-01
9.219512195121951637e-01
9.252032520325202958e-01
9.252032520325202958e-01
9.317073170731707821e-01
9.317073170731707821e-01
9.333333333333333481e-01
9.333333333333333481e-01
9.349593495934959142e-01
9.349593495934959142e-01
9.365853658536585913e-01
9.365853658536585913e-01
9.382113821138211573e-01
9.382113821138211573e-01
9.414634146341462895e-01
9.414634146341462895e-01
9.430894308943089666e-01
9.430894308943089666e-01
9.447154471544715326e-01
9.447154471544715326e-01
9.479674796747967758e-01
9.479674796747967758e-01
9.495934959349593418e-01
9.495934959349593418e-01
9.560975609756097171e-01
9.560975609756097171e-01
9.577235772357723942e-01
9.577235772357723942e-01
9.642276422764227695e-01
9.642276422764227695e-01
9.674796747967480126e-01
9.674796747967480126e-01
9.707317073170731447e-01
9.707317073170731447e-01
9.723577235772358218e-01
9.723577235772358218e-01
9.739837398373983879e-01
9.739837398373983879e-01
9.756097560975609539e-01
9.756097560975609539e-01
9.772357723577236310e-01
9.772357723577236310e-01
9.821138211382113292e-01
9.821138211382113292e-01
9.853658536585365724e-01
9.853658536585365724e-01
9.902439024390243816e-01
9.902439024390243816e-01
9.918699186991869476e-01
9.918699186991869476e-01
1.000000000000000000e+00
