0.000000000000000000e+00
1.353230370605952582e-02
1.353230370605952582e-02
1.353230370605952582e-02
1.353230370605952582e-02
1.353230370605952582e-02
1.353230370605952582e-02
1.353230370605952582e-02
1.434150157755468419e-02
1.434150157755468419e-02
1.434150157755468419e-02
1.510495452035690543e-02
1.510495452035690543e-02
1.510495452035690543e-02
1.510495452035690543e-02
1.651963368720301556e-02
1.718010359961917588e-02
1.718010359961917588e-02
1.718010359961917588e-02
1.718010359961917588e-02
1.781401644450231192e-02
1.781401644450231192e-02
1.781401644450231192e-02
1.781401644450231192e-02
1.842411364851579206e-02
1.842411364851579206e-02
1.901268800666883196e-02
1.901268800666883196e-02
1.958168037737078454e-02
1.958168037737078454e-02
2.013275110910486485e-02
2.013275110910486485e-02
2.118667665849699108e-02
2.118667665849699108e-02
2.169187423028689013e-02
2.169187423028689013e-02
2.266359120209281153e-02
2.266359120209281153e-02
2.313173545019243937e-02
2.313173545019243937e-02
2.403604587766340270e-02
2.403604587766340270e-02
2.447339369941322826e-02
2.447339369941322826e-02
2.532103223812934290e-02
2.532103223812934290e-02
2.573221425196348111e-02
2.573221425196348111e-02
2.613550433166721143e-02
2.613550433166721143e-02
2.691982054853096773e-02
2.691982054853096773e-02
2.730148629100585811e-02
2.730148629100585811e-02
2.767654473896494216e-02
2.767654473896494216e-02
2.804526097819293878e-02
2.804526097819293878e-02
2.840788196326946360e-02
2.840788196326946360e-02
2.876463821431143181e-02
2.876463821431143181e-02
2.911574531449395709e-02
2.911574531449395709e-02
2.946140523623752561e-02
2.946140523623752561e-02
2.980180751944765810e-02
2.980180751944765810e-02
3.013713032151014298e-02
3.013713032151014298e-02
3.046754135571561745e-02
3.046754135571561745e-02
3.079319873228295382e-02
3.079319873228295382e-02
3.143084139733397231e-02
3.143084139733397231e-02
3.174310132641771504e-02
3.174310132641771504e-02
3.205115805007920093e-02
3.205115805007920093e-02
3.381755444057663040e-02
3.381755444057663040e-02
3.437753458672355988e-02
3.437753458672355988e-02
3.465252042358527018e-02
3.465252042358527018e-02
3.519287464202747878e-02
3.519287464202747878e-02
3.545838958534788810e-02
3.545838958534788810e-02
3.572088909952034208e-02
3.572088909952034208e-02
3.623710321175390575e-02
3.623710321175390575e-02
3.674201435586627734e-02
3.674201435586627734e-02
3.699037636042633304e-02
3.699037636042633304e-02
3.723608233021253461e-02
3.723608233021253461e-02
3.747918450254516393e-02
3.747918450254516393e-02
3.795777703309244355e-02
3.795777703309244355e-02
3.819336277337520569e-02
3.819336277337520569e-02
3.842653565233798696e-02
3.842653565233798696e-02
3.933595007138126348e-02
3.933595007138126348e-02
3.955768507642148241e-02
3.955768507642148241e-02
3.999467575504076639e-02
3.999467575504076639e-02
4.125625335579067438e-02
4.125625335579067438e-02
4.145964252689611496e-02
4.145964252689611496e-02
4.166114539491096863e-02
4.166114539491096863e-02
4.283202366643331510e-02
4.283202366643331510e-02
4.320837650888820908e-02
4.320837650888820908e-02
4.357806315491872390e-02
4.357806315491872390e-02
4.429810244039220773e-02
4.429810244039220773e-02
4.447419872053370166e-02
4.447419872053370166e-02
4.464876687552117585e-02
4.464876687552117585e-02
4.533210900410280381e-02
4.533210900410280381e-02
4.599235571840494530e-02
4.599235571840494530e-02
4.631412831258913815e-02
4.631412831258913815e-02
4.647297783931993859e-02
4.647297783931993859e-02
4.663048806103094190e-02
4.663048806103094190e-02
4.694154440251440547e-02
4.694154440251440547e-02
4.709511670460631017e-02
4.709511670460631017e-02
4.754816142549268126e-02
4.754816142549268126e-02
4.769665942285968713e-02
4.769665942285968713e-02
4.784391857815269156e-02
4.784391857815269156e-02
4.842079140962285422e-02
4.842079140962285422e-02
4.884097448863485708e-02
4.884097448863485708e-02
4.897871467350612545e-02
4.897871467350612545e-02
5.042035453264304828e-02
5.042035453264304828e-02
5.054495592194709064e-02
5.054495592194709064e-02
5.091254443608663610e-02
5.091254443608663610e-02
5.138843415817211102e-02
5.138843415817211102e-02
5.150491297380817290e-02
5.150491297380817290e-02
5.162040793433729513e-02
5.162040793433729513e-02
5.184847253308721982e-02
5.184847253308721982e-02
5.196105501097304791e-02
5.196105501097304791e-02
5.207267931794475058e-02
5.207267931794475058e-02
5.250971626189619712e-02
5.250971626189619712e-02
5.272264072601986346e-02
5.272264072601986346e-02
5.303516151934697942e-02
5.303516151934697942e-02
5.313752579345529248e-02
5.313752579345529248e-02
5.323899414126928575e-02
5.323899414126928575e-02
5.343926342674731877e-02
5.343926342674731877e-02
5.401908405943846303e-02
5.401908405943846303e-02
5.411270949840103761e-02
5.411270949840103761e-02
5.420548658164671407e-02
5.420548658164671407e-02
5.483152897753615362e-02
5.483152897753615362e-02
5.541760359012663090e-02
5.541760359012663090e-02
5.549814076906807447e-02
5.549814076906807447e-02
5.581245909290840496e-02
5.581245909290840496e-02
5.588909759008310607e-02
5.588909759008310607e-02
5.604006769515523789e-02
5.604006769515523789e-02
5.611440550950413941e-02
5.611440550950413941e-02
5.626080182037287991e-02
5.626080182037287991e-02
5.654455914523156407e-02
5.654455914523156407e-02
5.681641902565776059e-02
5.681641902565776059e-02
5.694794096213531831e-02
5.694794096213531831e-02
5.701260890168353274e-02
5.701260890168353274e-02
5.707655146715572697e-02
5.707655146715572697e-02
5.713977109375311531e-02
5.713977109375311531e-02
5.738546758781160051e-02
5.738546758781160051e-02
5.750403875404637433e-02
5.750403875404637433e-02
5.773271476746924535e-02
5.773271476746924535e-02
5.795021303093088327e-02
5.795021303093088327e-02
5.810607708029173063e-02
5.810607708029173063e-02
5.815665895451524459e-02
5.815665895451524459e-02
5.825577425375975948e-02
5.825577425375975948e-02
5.858134727999332603e-02
5.858134727999332603e-02
5.875264369991074070e-02
5.875264369991074070e-02
5.879380719105303799e-02
5.879380719105303799e-02
5.895186044349846888e-02
5.895186044349846888e-02
5.898973021064903011e-02
5.898973021064903011e-02
5.902694512303406638e-02
5.902694512303406638e-02
5.906350641849218014e-02
5.906350641849218014e-02
5.913467298630878388e-02
5.913467298630878388e-02
5.920323932502675329e-02
5.920323932502675329e-02
5.930123304006870710e-02
5.930123304006870710e-02
5.936333745690190733e-02
5.936333745690190733e-02
5.947984312190035538e-02
5.947984312190035538e-02
5.958612754746658163e-02
5.958612754746658163e-02
5.961110810763305123e-02
5.961110810763305123e-02
5.963545407887788086e-02
5.963545407887788086e-02
5.972650729166117251e-02
5.972650729166117251e-02
5.987836935767631985e-02
5.987836935767631985e-02
5.989452868042568351e-02
5.989452868042568351e-02
5.991006238040012116e-02
5.991006238040012116e-02
5.992497094411987357e-02
5.992497094411987357e-02
5.997836286649606274e-02
5.997836286649606274e-02
6.001186374928686729e-02
6.001186374928686729e-02
6.003108729061647220e-02
6.003108729061647220e-02
6.003976687242006116e-02
6.003976687242006116e-02
6.006827666804712140e-02
6.006827666804712140e-02
6.008314597371904042e-02
6.008314597371904042e-02
6.009429553852729117e-02
6.009429553852729117e-02
6.008995984248444167e-02
6.008995984248444167e-02
6.008686272519787874e-02
6.008686272519787874e-02
6.006827666804712140e-02
6.006827666804712140e-02
6.006208003757289998e-02
6.006208003757289998e-02
6.005526300556554564e-02
6.005526300556554564e-02
6.003976687242006116e-02
6.003976687242006116e-02
6.002178634587405914e-02
6.002178634587405914e-02
5.989452868042568351e-02
5.989452868042568351e-02
5.984417179703876988e-02
5.984417179703876988e-02
5.974769154469711241e-02
5.974769154469711241e-02
5.968224534074813292e-02
5.968224534074813292e-02
5.956051159991049282e-02
5.956051159991049282e-02
5.953425944479585896e-02
5.953425944479585896e-02
5.950737024011842902e-02
5.950737024011842902e-02
5.939342531360154720e-02
5.939342531360154720e-02
5.936333745690190733e-02
5.936333745690190733e-02
5.923655024350562431e-02
5.923655024350562431e-02
5.906350641849218014e-02
5.906350641849218014e-02
5.879380719105303799e-02
5.879380719105303799e-02
5.866832685631804406e-02
5.866832685631804406e-02
5.862517064197712846e-02
5.862517064197712846e-02
5.849169309215539181e-02
5.849169309215539181e-02
5.839935197468305861e-02
5.839935197468305861e-02
5.820655742697614099e-02
5.820655742697614099e-02
5.805481001800697621e-02
5.805481001800697621e-02
5.800285595080676565e-02
5.800285595080676565e-02
5.789687937935499018e-02
5.789687937935499018e-02
5.778813220647839588e-02
5.778813220647839588e-02
5.756226284546175215e-02
5.756226284546175215e-02
5.744510772747130067e-02
5.744510772747130067e-02
5.713977109375311531e-02
5.713977109375311531e-02
5.707655146715572697e-02
5.707655146715572697e-02
5.688254517454761211e-02
5.688254517454761211e-02
5.640417870943410794e-02
5.640417870943410794e-02
5.626080182037287991e-02
5.626080182037287991e-02
5.581245909290840496e-02
5.581245909290840496e-02
5.573504741379871341e-02
5.573504741379871341e-02
5.549814076906807447e-02
5.549814076906807447e-02
5.533627658397889670e-02
5.533627658397889670e-02
5.525415626305305028e-02
5.525415626305305028e-02
5.500299970705378738e-02
5.500299970705378738e-02
5.483152897753615362e-02
5.483152897753615362e-02
5.474457238959964944e-02
5.474457238959964944e-02
5.447877084130805375e-02
5.447877084130805375e-02
5.429741965788888181e-02
5.429741965788888181e-02
5.303516151934697942e-02
5.303516151934697942e-02
5.272264072601985652e-02
5.272264072601985652e-02
5.196105501097304791e-02
5.196105501097304791e-02
5.029470442203969049e-02
5.029470442203969049e-02
4.951832888856871201e-02
4.951832888856871201e-02
4.925077232062903543e-02
4.925077232062903543e-02
4.911531077775078968e-02
4.911531077775078968e-02
4.870208051600376231e-02
4.870208051600376231e-02
4.798995029568812326e-02
4.798995029568812326e-02
4.754816142549268126e-02
4.754816142549268126e-02
4.663048806103094190e-02
4.663048806103094190e-02
4.647297783931993859e-02
4.647297783931993859e-02
4.566505585598167050e-02
4.566505585598167050e-02
4.549929600242573480e-02
4.549929600242573480e-02
4.464876687552117585e-02
4.464876687552117585e-02
4.447419872053370166e-02
4.447419872053370166e-02
4.339404238608596254e-02
4.339404238608596254e-02
4.225460477903048712e-02
4.225460477903048712e-02
4.205860041540777222e-02
4.205860041540777222e-02
4.186078919980948387e-02
4.186078919980948387e-02
4.145964252689610802e-02
4.145964252689610802e-02
4.084370312455483376e-02
4.084370312455483376e-02
3.977724838207833541e-02
3.977724838207833541e-02
3.933595007138126348e-02
3.933595007138126348e-02
3.888581599780502329e-02
3.888581599780502329e-02
3.865733933160995367e-02
3.865733933160995367e-02
3.819336277337521263e-02
3.819336277337521263e-02
3.649094208463871808e-02
3.649094208463871808e-02
3.437753458672355988e-02
3.437753458672355988e-02
3.353239299344699942e-02
3.353239299344699942e-02
3.079319873228295729e-02
3.079319873228295729e-02
3.046754135571562438e-02
3.046754135571562438e-02
3.013713032151015686e-02
3.013713032151015686e-02
2.980180751944765116e-02
2.980180751944765116e-02
2.911574531449395015e-02
2.911574531449395015e-02
2.767654473896494910e-02
2.767654473896494910e-02
2.573221425196347417e-02
2.573221425196347417e-02
2.118667665849698761e-02
2.118667665849698761e-02
2.013275110910486831e-02
2.013275110910486831e-02
1.781401644450233274e-02
1.781401644450233274e-02
1.434150157755468419e-02
1.434150157755468419e-02
1.353230370605953449e-02
1.353230370605953449e-02
1.266859816018085436e-02
1.266859816018085436e-02
1.072428691417643548e-02
1.072428691417643548e-02
0.000000000000000000e+00
0.000000000000000000e+00
